<?xml version="1.0" ?>
<sdf version="1.6">
<!--     This should be copy pasted one to one from cdp1_world.sdf with the additional inclusion of the leg and sled model. -->
    <world name="default">
        <include>
          <uri>model://cdp1_world</uri>
        </include>
        <include>
          <uri>model://cdp1_mouse_w_sled</uri>
        </include>
    </world>
</sdf>
