<?xml version="1.0" encoding="utf-8"?>
<COLLADA xmlns="http://www.collada.org/2005/11/COLLADASchema" version="1.4.1">
  <asset>
    <contributor>
      <author>Blender User</author>
      <authoring_tool>Blender 2.76.0 commit date:2015-11-03, commit time:10:56, hash:f337fea</authoring_tool>
    </contributor>
    <created>2017-01-25T08:36:07</created>
    <modified>2017-01-25T08:36:07</modified>
    <unit name="meter" meter="1"/>
    <up_axis>Z_UP</up_axis>
  </asset>
  <library_images/>
  <library_geometries>
    <geometry id="Cube_024-mesh" name="Cube.024">
      <mesh>
        <source id="Cube_024-mesh-positions">
          <float_array id="Cube_024-mesh-positions-array" count="294">-5.358228 -3.182046 4.007007 -5.098795 -3.182046 4.385813 -4.626856 -0.5373857 3.644319 -4.598976 -6.150585 -2.604113 -4.047547 -10.85128 -0.1009202 -3.639087 -11.47938 4.009232 -4.626856 -0.5373856 4.023125 -3.538067 -2.267763 -4.06269 -3.558717 -9.684008 -2.732143 -2.143981 0.5513536 4.007008 -2.143981 0.5513535 4.385813 4.301943 -0.04254257 3.644319 0.03486478 -0.885171 -2.759381 -4.237708 -0.04171264 3.644319 -2.533129 0.5513535 4.385813 2.597494 0.5508867 4.385813 3.232214 -1.77269 -4.06269 -3.148919 -1.77209 -4.06269 5.422003 -3.182988 4.007007 5.16257 -3.182988 4.385813 4.106622 -10.85198 -0.1009212 4.556181 -4.026975 -2.651143 4.691091 -0.5382156 3.644319 4.691091 -0.5382155 4.023125 4.637531 -9.650389 4.385812 4.544051 -8.678578 -2.194033 3.621362 -2.268363 -4.06269 0.0310111 -12.33335 1.825477 0.03099054 -12.51935 4.219581 -3.504489 -11.81825 1.849797 0.03065174 -11.85475 -0.4968653 3.566324 -11.81895 1.817667 3.566324 -11.81895 2.196473 -1.82085 -12.45065 4.302662 -3.658399 -11.34695 -0.4797261 3.717474 -11.34765 -0.479727 0.03470748 -4.157405 -5.476884 -3.537765 -4.201424 -4.868565 0.0367664 -2.050683 -4.783035 3.69386 -6.123764 -4.774085 0.02642238 -9.868127 -3.29513 -3.169569 -9.684008 -3.110949 -3.148919 -2.267763 -4.441495 3.232214 -2.268363 -4.441495 3.212634 -9.684607 -3.110949 0.03218048 -0.4402263 5.017157 4.903139 -3.182988 5.017156 0.03218048 0.05544662 4.764619 -4.839364 -3.182046 5.017156 0.03099054 -12.02368 4.598387 1.882845 -11.95538 4.553028 4.301943 -0.5382156 4.401931 -4.237708 -0.5373857 4.401931 -1.82085 -11.95498 4.681468 -3.788115 -11.0165 -0.3534575 -3.634205 -11.4878 1.849797 -3.379655 -11.6446 3.882964 -3.639087 -11.47938 4.388038 -5.098795 -3.182046 4.764619 -4.626856 -0.5373857 4.401931 -4.367424 -0.3721615 3.896857 -4.367424 -0.3721615 3.644319 -4.367424 -0.3721614 3.391782 -3.538067 -2.267763 -4.441495 -3.797197 -4.201424 -4.616028 -3.558717 -9.684008 -3.110949 -2.403414 0.2209048 4.512083 -2.143981 0.2209048 4.512083 2.467778 0.220438 4.512083 4.431659 -0.3729914 3.896857 4.431659 -0.3729914 3.644319 4.431659 -0.3729913 3.391782 1.809508 -1.965189 -4.39776 1.550076 -1.965189 -4.39776 -1.731013 -1.964869 -4.39776 4.691091 -0.5382156 4.401931 5.16257 -3.182988 4.764619 4.637531 -9.650389 4.764617 3.441751 -11.6452 3.733114 3.441751 -11.6452 3.480576 3.84719 -11.0172 -0.3534584 3.601782 -9.684607 -3.110949 3.873512 -4.202084 -4.616028 3.621362 -2.268363 -4.441495 1.753129 -12.1206 4.30049 1.493697 -12.1206 4.30049 -1.691134 -12.1202 4.428931 -3.039853 -9.849233 -2.858412 0.02829647 -10.8775 -1.950875 3.082918 -9.849832 -2.858412 -3.299285 -9.849233 -2.858412 -3.379656 -11.6446 4.135501 -3.278635 -2.102539 -4.188958 -4.367424 -0.3721614 4.149394 3.34235 -9.849832 -2.858412 3.441751 -11.6452 3.985651 3.361931 -2.103139 -4.188958 4.431659 -0.3729913 4.149394</float_array>
          <technique_common>
            <accessor source="#Cube_024-mesh-positions-array" count="98" stride="3">
              <param name="X" type="float"/>
              <param name="Y" type="float"/>
              <param name="Z" type="float"/>
            </accessor>
          </technique_common>
        </source>
        <source id="Cube_024-mesh-normals">
          <float_array id="Cube_024-mesh-normals-array" count="573">-0.9770608 -0.2024214 0.06616514 -0.9848755 -0.1732643 0 -0.5364601 -0.8439233 0.002080321 -0.5371816 -0.8434667 2.18173e-6 -0.8049789 0.2192542 0.5513045 -0.5371787 0.8434686 0 -0.9844483 0.175675 0 -0.5371797 0.8434678 2.55787e-7 -0.9529567 0.2377536 -0.1880071 -0.9911399 0.1328226 0 -0.5371788 0.8434685 0 -0.6053362 0.7527356 -0.2587609 -0.9217017 -0.2609549 -0.2869997 -0.7324492 -0.5614182 -0.3851335 -0.8440201 -0.1758062 -0.5066777 -0.5371809 -0.8434671 0 -0.227336 0.9453974 -0.233543 0 0.3569436 0.934126 -0.9308494 0.3654033 0 -0.449692 0.8931838 -2.29856e-7 9.84553e-5 1 2.65485e-7 0.4825379 0.6435084 0.5941837 3.60346e-5 0.3569434 0.934126 0.2503587 0.2582629 0.9330707 0.1684513 0.9565187 -0.23811 0 0.8670919 -0.4981482 0.9308504 0.3654004 0 0.8760076 0.4284749 -0.221405 -0.1687577 0.9563522 -0.238561 -0.832838 0.50318 -0.2306315 8.14831e-5 0.8349513 -0.550324 -0.1575635 0.4058489 -0.9002559 0.9638693 0.2663757 0 0.9844791 0.1755017 0 0.5371789 0.8434684 0 0.5371794 0.8434682 -5.75523e-7 0.82321 -0.06683015 0.5637899 0.8577033 -0.5141452 0 0.996721 -0.08091634 0 0.9744309 0.01945561 0.2238436 0.7845987 -0.1999942 -0.5868624 0.5839042 -0.8087363 -0.07072108 0.7435165 -0.5361235 -0.3996934 0.9226952 0.3284896 -0.2018122 0.6810262 0.6885849 -0.2491068 0.9916055 0.1293012 0 0.5371785 0.8434687 0 0.1439875 -0.9895796 0 0.2229197 -0.9734197 0.05254703 0.812703 0.5826784 0 0.8126941 0.5826905 0 -0.04042917 -0.9961805 -0.07739454 -0.4787558 -0.8717843 0.1038515 0.03798758 -0.3306835 0.9429769 -0.2368971 -0.2642477 0.934908 -0.134792 -0.97289 -0.1879262 -0.1143456 -0.8270018 -0.5504483 -0.9323533 -0.3613439 -0.01216542 -0.9221993 -0.2489169 -0.2959542 0.1346321 -0.9723876 -0.190622 0.9324208 -0.36115 -0.0127424 0.1143892 -0.8266142 -0.5510212 0 -0.8462125 -0.5328459 -0.07418566 -0.3558092 -0.9316096 0 -0.2647261 -0.9643236 -0.09006881 -0.7964718 -0.5979301 0 -0.8368157 -0.5474848 -0.1657002 0.2443374 -0.955428 -0.1237158 0.6830698 -0.7197987 -0.6889562 0.1562103 -0.7077695 0 0.8368125 -0.5474898 0.1219093 0.3103798 -0.9427632 0 0.08989197 -0.9959516 0 0.1427795 -0.9897546 0.1501328 0.7902333 -0.5941311 0.07677972 -0.4304299 -0.8993526 0.0789799 -0.8522999 -0.5170563 0.9891268 -0.08245438 -0.1217764 0 -0.8368104 -0.5474928 0.02672493 -0.06198823 0.9977191 -0.04562932 -0.03710639 0.9982692 0 -0.8368088 0.5474954 0.3167128 -0.8600477 0.4000139 0.1436312 0.2550784 0.9561931 0.09669232 0.08984541 0.9912509 0.6808542 0.2172922 0.6994439 0 0.8368118 0.5474907 -0.1373968 0.4496557 0.8825712 0 0.2265786 0.9739928 0 -0.1437542 0.9896135 -0.3288287 0.7039926 0.6294968 0.04395133 -0.02309435 0.9987667 -0.006646871 -0.8383517 0.5450894 -0.6892654 -0.1533962 0.708084 -0.2864822 -0.9096304 0.300833 -0.8132771 -0.1683552 0.5569892 -0.9848755 -0.1732641 0 -0.8390004 -0.5441309 2.25209e-4 -0.5371811 -0.8434671 0 -0.9638233 0.2665421 0 -0.5371791 0.8434683 0 -0.9844483 0.1756748 0 -0.5371794 0.8434681 -3.83682e-7 -0.9622183 0.1894426 -0.1955696 -0.9613739 0.1867069 -0.2022393 -0.6817184 0.6873459 -0.2506307 -0.5371796 0.843468 0 -0.9885686 -0.1423796 -0.04960012 -0.6157758 -0.7781909 -0.1234467 -0.9592908 -0.2824202 0 -0.6243758 -0.6542655 -0.4267221 0 1 4.04342e-7 0 0.3569433 0.9341261 -0.4824079 0.6435247 0.5942715 -0.2503041 0.258288 0.9330784 0.04477727 0.8276512 -0.5594538 0.9308511 0.3653988 0 3.51083e-5 0.3569313 0.9341306 0.4498589 0.8930997 -2.29851e-7 0.08003461 0.9799836 -0.1822814 0.01196575 0.8399065 -0.5425993 0.8341195 0.5020383 -0.2284781 0.1571552 0.4057356 -0.9003782 -0.2189291 0.9377596 -0.2695866 -0.9308495 0.3654029 0 -0.01325905 0.8414251 -0.5402112 -0.8751869 0.4289999 -0.2236226 0.8050051 0.219112 0.5513227 0.9844792 0.1755017 0 0.5371791 0.8434681 0 0.5371797 0.8434678 3.8368e-7 0.9886553 -0.1248145 -0.08355963 0.848721 -0.5272665 0.04077875 0.9967209 -0.08091622 0 0.8577035 -0.5141449 0 0.9875167 -0.1079192 -0.1147362 0.944999 -0.03442674 -0.3252568 0.7381422 -0.5391376 -0.4055573 0.6396554 -0.7505007 0.1661013 0.9574323 0.2432936 -0.1553438 0.5371791 0.8434683 0 0.9161707 0.2160596 -0.3375644 0.6050838 0.753426 -0.2573382 0.1514282 -0.9854988 -0.07656258 0 -0.1988508 0.9800298 0.812694 0.5826909 0 0.2886459 -0.9508116 0.1124315 -0.1434961 -0.9776636 -0.1535674 -0.9272367 -0.3639849 0.0880177 0.02813088 -0.3664199 0.9300244 -0.45932 -0.8882709 0 -0.1426116 -0.9694114 -0.1997587 -0.1160581 -0.8244397 -0.5539224 -0.930778 -0.365374 -0.012425 0 -0.8462284 -0.5328204 0.1406502 -0.9696772 -0.1998593 0.9897763 -0.1137589 0.08603304 0.1159502 -0.8242753 -0.5541892 0.9212591 -0.2467499 -0.3006598 -0.155812 -0.3110231 -0.9375433 -0.6722841 -0.2665548 -0.6906393 -0.0788992 -0.8522889 -0.5170866 0 -0.8368092 -0.5474947 -0.1222268 0.3105828 -0.9426553 9.52311e-5 0.9761739 -0.21699 0 0.2156631 -0.9764679 -0.1504554 0.7901087 -0.594215 0.2453635 0.1124442 -0.962888 -0.01876902 0.08370071 -0.9963142 0.1201131 0.7587879 -0.6401671 0 0.836812 -0.5474904 -0.01235538 -0.3568439 -0.9340824 0.09022194 -0.7963398 -0.5980827 0 -0.4231804 -0.9060454 0 -0.8368129 -0.5474891 -0.02033823 -0.03611922 0.9991406 0.6964053 -0.05653607 0.7154183 0.04414188 -0.8658001 0.4984393 0.3813582 -0.5255697 0.7604884 0.1374866 0.4496499 0.8825603 8.47095e-5 0.836791 0.5475225 0 0.22657 0.973995 0.3289609 0.7039158 0.6295135 -0.143578 0.2551025 0.9561946 -0.6808349 0.2174144 0.6994246 -0.1033994 0.142503 0.9843788 0 0.8368124 0.5474899 0.02033126 -0.03612339 0.9991405 0.01501834 -0.9267903 0.3752791 -0.1841447 -0.1007704 0.9777199 -0.3123206 -0.8604711 0.4025485</float_array>
          <technique_common>
            <accessor source="#Cube_024-mesh-normals-array" count="191" stride="3">
              <param name="X" type="float"/>
              <param name="Y" type="float"/>
              <param name="Z" type="float"/>
            </accessor>
          </technique_common>
        </source>
        <vertices id="Cube_024-mesh-vertices">
          <input semantic="POSITION" source="#Cube_024-mesh-positions"/>
        </vertices>
        <polylist count="192">
          <input semantic="VERTEX" source="#Cube_024-mesh-vertices" offset="0"/>
          <input semantic="NORMAL" source="#Cube_024-mesh-normals" offset="1"/>
          <vcount>3 3 3 3 3 3 3 3 3 3 3 3 3 3 3 3 3 3 3 3 3 3 3 3 3 3 3 3 3 3 3 3 3 3 3 3 3 3 3 3 3 3 3 3 3 3 3 3 3 3 3 3 3 3 3 3 3 3 3 3 3 3 3 3 3 3 3 3 3 3 3 3 3 3 3 3 3 3 3 3 3 3 3 3 3 3 3 3 3 3 3 3 3 3 3 3 3 3 3 3 3 3 3 3 3 3 3 3 3 3 3 3 3 3 3 3 3 3 3 3 3 3 3 3 3 3 3 3 3 3 3 3 3 3 3 3 3 3 3 3 3 3 3 3 3 3 3 3 3 3 3 3 3 3 3 3 3 3 3 3 3 3 3 3 3 3 3 3 3 3 3 3 3 3 3 3 3 3 3 3 3 3 3 3 3 3 3 3 3 3 3 3 </vcount>
          <p>0 0 4 0 5 0 1 1 5 1 57 1 55 2 56 2 5 2 5 3 56 3 91 3 0 4 1 4 6 4 2 5 6 5 60 5 1 6 58 6 59 6 6 7 59 7 93 7 0 8 2 8 7 8 7 9 63 9 64 9 2 10 61 10 62 10 7 11 62 11 92 11 3 12 8 12 4 12 4 13 8 13 54 13 3 14 64 14 65 14 8 15 65 15 90 15 9 16 13 16 14 16 10 17 14 17 66 17 13 18 61 18 60 18 14 19 60 19 93 19 9 20 10 20 15 20 11 21 15 21 69 21 10 22 67 22 68 22 15 23 68 23 97 23 11 24 16 24 12 24 16 25 72 25 73 25 11 26 70 26 71 26 16 27 71 27 96 27 12 28 17 28 13 28 13 29 17 29 62 29 12 30 73 30 74 30 17 31 74 31 92 31 18 32 22 32 23 32 19 33 23 33 75 33 22 34 70 34 69 34 23 35 69 35 97 35 18 36 19 36 24 36 24 37 78 37 79 37 76 38 77 38 24 38 24 37 77 37 95 37 20 39 25 39 21 39 25 40 81 40 82 40 20 41 79 41 80 41 25 42 80 42 94 42 21 43 26 43 22 43 22 44 26 44 71 44 82 45 83 45 26 45 26 46 83 46 96 46 27 47 31 47 32 47 28 48 32 48 84 48 79 49 78 49 32 49 32 50 78 50 95 50 27 51 28 51 33 51 29 52 33 52 56 52 28 53 85 53 86 53 33 54 86 54 91 54 29 55 34 55 30 55 34 56 87 56 88 56 55 57 54 57 34 57 34 58 54 58 90 58 30 59 35 59 31 59 31 60 35 60 80 60 88 61 89 61 35 61 35 62 89 62 94 62 36 63 40 63 41 63 41 64 65 64 64 64 40 65 88 65 87 65 41 66 87 66 90 66 36 67 37 67 42 67 38 68 42 68 74 68 37 69 64 69 63 69 42 70 63 70 92 70 36 71 38 71 43 71 43 72 83 72 82 72 73 73 72 73 43 73 43 74 72 74 96 74 39 75 44 75 40 75 40 76 44 76 89 76 39 77 82 77 81 77 44 78 81 78 94 78 49 79 50 79 46 79 46 80 50 80 77 80 85 81 84 81 50 81 50 82 84 82 95 82 45 83 46 83 51 83 47 84 51 84 68 84 46 85 76 85 75 85 51 86 75 86 97 86 45 87 47 87 52 87 48 88 52 88 59 88 67 89 66 89 52 89 52 90 66 90 93 90 48 91 53 91 49 91 49 92 53 92 86 92 48 93 58 93 57 93 53 94 57 94 91 94 1 95 0 95 5 95 58 96 1 96 57 96 4 97 55 97 5 97 57 98 5 98 91 98 2 99 0 99 6 99 61 100 2 100 60 100 6 101 1 101 59 101 60 102 6 102 93 102 3 103 0 103 7 103 3 104 7 104 64 104 7 105 2 105 62 105 63 106 7 106 92 106 0 107 3 107 4 107 55 108 4 108 54 108 8 109 3 109 65 109 54 110 8 110 90 110 10 111 9 111 14 111 67 112 10 112 66 112 14 113 13 113 60 113 66 114 14 114 93 114 11 115 9 115 15 115 70 116 11 116 69 116 15 117 10 117 68 117 69 118 15 118 97 118 9 119 11 119 12 119 12 120 16 120 73 120 16 121 11 121 71 121 72 122 16 122 96 122 9 123 12 123 13 123 61 124 13 124 62 124 17 125 12 125 74 125 62 126 17 126 92 126 19 127 18 127 23 127 76 128 19 128 75 128 23 129 22 129 69 129 75 130 23 130 97 130 20 131 18 131 24 131 20 132 24 132 79 132 19 133 76 133 24 133 78 134 24 134 95 134 18 135 20 135 21 135 21 136 25 136 82 136 25 137 20 137 80 137 81 138 25 138 94 138 18 139 21 139 22 139 70 140 22 140 71 140 21 141 82 141 26 141 71 142 26 142 96 142 28 143 27 143 32 143 85 144 28 144 84 144 31 145 79 145 32 145 84 146 32 146 95 146 29 147 27 147 33 147 55 148 29 148 56 148 33 149 28 149 86 149 56 150 33 150 91 150 27 151 29 151 30 151 30 152 34 152 88 152 29 153 55 153 34 153 87 154 34 154 90 154 27 155 30 155 31 155 79 156 31 156 80 156 30 157 88 157 35 157 80 158 35 158 94 158 37 159 36 159 41 159 37 160 41 160 64 160 41 161 40 161 87 161 65 162 41 162 90 162 38 163 36 163 42 163 73 164 38 164 74 164 42 165 37 165 63 165 74 166 42 166 92 166 39 167 36 167 43 167 39 168 43 168 82 168 38 169 73 169 43 169 83 170 43 170 96 170 36 171 39 171 40 171 88 172 40 172 89 172 44 173 39 173 81 173 89 174 44 174 94 174 45 175 49 175 46 175 76 176 46 176 77 176 49 177 85 177 50 177 77 178 50 178 95 178 47 179 45 179 51 179 67 180 47 180 68 180 51 181 46 181 75 181 68 182 51 182 97 182 48 183 45 183 52 183 58 184 48 184 59 184 47 185 67 185 52 185 59 186 52 186 93 186 45 187 48 187 49 187 85 188 49 188 86 188 53 189 48 189 57 189 86 190 53 190 91 190</p>
        </polylist>
      </mesh>
    </geometry>
  </library_geometries>
  <library_controllers/>
  <library_visual_scenes>
    <visual_scene id="Scene" name="Scene">
      <node id="COL_VIZ_LeftFingerJoint53y_link_0" name="COL_VIZ_LeftFingerJoint53y_link_0" type="NODE">
        <instance_geometry url="#Cube_024-mesh" name="COL_VIZ_LeftFingerJoint53y_link_0"/>
      </node>
    </visual_scene>
  </library_visual_scenes>
  <scene>
    <instance_visual_scene url="#Scene"/>
  </scene>
</COLLADA>