<?xml version="1.0" encoding="utf-8"?>
<COLLADA xmlns="http://www.collada.org/2005/11/COLLADASchema" version="1.4.1">
  <asset>
    <contributor>
      <author>Blender User</author>
      <authoring_tool>Blender 2.76.0 commit date:2015-11-03, commit time:10:56, hash:f337fea</authoring_tool>
    </contributor>
    <created>2017-01-25T08:36:06</created>
    <modified>2017-01-25T08:36:06</modified>
    <unit name="meter" meter="1"/>
    <up_axis>Z_UP</up_axis>
  </asset>
  <library_images/>
  <library_geometries>
    <geometry id="Cube_025-mesh" name="Cube.025">
      <mesh>
        <source id="Cube_025-mesh-positions">
          <float_array id="Cube_025-mesh-positions-array" count="294">-19.33407 -114.505 0.06855303 -17.25618 -76.70881 4.826588 -6.278536 18.5654 -1.690567 -17.2782 -76.6723 -4.576043 -12.52156 -172.432 -0.04177337 -12.52156 -172.432 -0.04177337 -5.733818 18.5349 3.197313 -5.749198 18.5268 -3.216557 -13.15528 -170.258 -8.146612 -0.01280516 20.1818 -0.02548581 -0.01280516 20.1818 -0.02548581 -0.01280516 20.1818 -0.02548581 -0.01280516 20.1818 -0.02548581 -0.01280516 20.1818 -0.02548581 -0.01280516 20.1818 -0.02548581 -0.01280516 20.1818 -0.02548581 -0.01280516 20.1818 -0.02548581 -0.01280516 20.1818 -0.02548581 19.16997 -113.306 -0.01992404 17.59056 -75.85139 4.746188 13.01539 -171.839 -0.1007829 17.56857 -75.81501 -4.656503 6.376697 18.6127 -0.03885614 6.376697 18.6127 -0.03885614 13.93659 -170.878 7.396012 8.366418 -170.979 -13.00063 9.429116 14.3691 -5.330617 -11.02258 -172.624 -0.04560488 -8.577675 -172.342 9.523242 -8.577675 -172.342 9.523242 -8.622507 -172.267 -9.624812 -8.622507 -172.267 -9.624812 7.030316 -172.076 10.33777 7.030316 -172.076 10.33777 -10.79458 -172.349 -6.848358 -10.79458 -172.349 -6.848358 -0.1274307 -113.83 -19.36732 -10.90391 -114.14 -18.98046 1.602072 18.5649 -6.126337 10.66167 -113.541 -19.02466 -10.56578 -170.161 -11.45653 -10.56578 -170.161 -11.45653 -3.218982 18.5998 -5.379377 -3.218982 18.5998 -5.379377 8.366418 -170.979 -13.00063 -0.03657031 -113.981 19.41588 10.73987 -113.671 19.02902 3.195301 18.6175 5.332353 -10.82565 -114.27 19.07332 -10.51228 -170.249 11.37097 8.972826 -169.624 13.87937 3.195301 18.6175 5.332353 3.195301 18.6175 5.332353 -10.51228 -170.249 11.37097 -14.13366 -167.885 -8.643361 -12.52156 -172.432 -0.04177337 -11.99478 -171.724 7.455502 -11.99478 -171.724 7.455502 -13.3533 -96.8692 13.41368 -7.712093 14.3762 7.501662 -7.712093 14.3762 7.501662 -0.01280516 20.1818 -0.02548581 -0.01280516 20.1818 -0.02548581 -6.746797 16.0825 -6.520027 -13.4158 -96.76551 -13.24682 -13.15528 -170.258 -8.146612 -0.01280516 20.1818 -0.02548581 -0.01280516 20.1818 -0.02548581 -0.01280516 20.1818 -0.02548581 -0.01280516 20.1818 -0.02548581 -0.01280516 20.1818 -0.02548581 -0.01280516 20.1818 -0.02548581 -0.01280516 20.1818 -0.02548581 -0.01280516 20.1818 -0.02548581 -0.01280516 20.1818 -0.02548581 3.195301 18.6175 5.332353 13.34047 -96.10078 13.35218 11.54271 -170.968 10.45597 7.030316 -172.076 10.33777 7.030316 -172.076 10.33777 4.070769 -172.085 -11.73813 8.366418 -170.979 -13.00063 13.27809 -95.9972 -13.30832 9.429116 14.3691 -5.330617 4.125432 -172.176 11.57747 4.125432 -172.176 11.57747 4.125432 -172.176 11.57747 -8.622507 -172.267 -9.624812 -8.622507 -172.267 -9.624812 -8.622507 -172.267 -9.624812 -8.622507 -172.267 -9.624812 -11.99478 -171.724 7.455502 -0.01280516 20.1818 -0.02548581 -0.01280516 20.1818 -0.02548581 4.070769 -172.085 -11.73813 7.030316 -172.076 10.33777 -0.01280516 20.1818 -0.02548581 -0.01280516 20.1818 -0.02548581</float_array>
          <technique_common>
            <accessor source="#Cube_025-mesh-positions-array" count="98" stride="3">
              <param name="X" type="float"/>
              <param name="Y" type="float"/>
              <param name="Z" type="float"/>
            </accessor>
          </technique_common>
        </source>
        <source id="Cube_025-mesh-normals">
          <float_array id="Cube_025-mesh-normals-array" count="279">0 0 1 -0.9970969 -0.02385169 0.0723111 -0.9864339 0.12123 0.1106871 0.22399 0.647428 0.7284679 -0.834271 0.07136017 0.5467173 -0.9372224 0.1181868 -0.3280946 -0.9712832 0.1146492 0.2084817 -0.8530155 -0.01767963 -0.5215861 0.9216907 0.3866332 0.03164064 0.4271818 0.3505911 0.8334276 0.8534915 0.1269198 0.5054143 0.8871329 -0.02125638 0.4610245 0.7875047 -0.04269444 0.6148282 0.9341688 -0.0977512 -0.3431814 0.03265297 -0.999459 -0.003969907 0.8907717 0.08373433 0.4466705 0.1996045 0.8174117 -0.5403667 0.8194144 0.06970244 -0.5689479 0.01724672 -0.9998435 -0.003958523 -0.03361248 0.9409766 0.3367987 -0.2349389 0.9715031 0.03139436 -0.7454708 -0.6367899 -0.1969058 -0.5955868 -0.6404621 -0.4848555 -0.0108295 0.9997197 0.02105331 -0.7833489 -0.08738094 -0.6154097 -0.03867053 0.1040696 -0.993818 0.2810872 0.04054337 -0.9588255 -0.6032494 0.787104 0.1286765 0.1519408 -0.08571916 0.9846656 0.02827715 0.07304793 -0.9969276 0.03439259 -0.1056042 -0.9938133 -0.08809131 -0.6987475 -0.7099239 0.9673335 -0.06437116 -0.2451987 -0.1230658 -0.1179702 0.9853619 0.781423 -0.08161473 0.6186416 0.2284482 -0.8545862 0.4663625 0.1787053 0.04317599 0.9829549 -0.9532716 -0.0411241 0.2993026 -0.5820166 -0.06999111 0.8101592 -0.9553833 -0.06194281 0.2888006 -0.9513087 0.08943337 -0.2949808 -0.2583088 0.965435 0.03481054 -0.9387859 0.1079759 -0.327143 -0.9243718 0.09557241 0.3693274 -0.8257681 0.08206307 -0.5580077 -0.2230244 0.9694737 -0.1018867 0.1156193 0.7814689 -0.6131382 -0.9920824 -0.1167621 0.04625201 -0.935456 -0.02776837 -0.3523507 0.9149705 0.08867597 -0.3936568 0.7608406 0.1119714 0.6392058 0.2364416 0.9616249 0.1391865 0.9886962 -0.1038092 -0.1081829 0.2107711 -0.9725329 0.09876984 0.9178313 -0.02424359 0.3962299 0.2318647 -0.9606177 0.1531416 0.8343179 -0.03242295 -0.5503296 0.9449228 -0.06321477 -0.3211306 0.208226 -0.9680694 -0.1395836 0.9119634 0.08849823 0.4006131 0.1307452 -0.9914072 -0.004187822 0.01892125 -0.9991639 -0.03624165 -0.2398146 -0.9647971 0.1079606 -0.01892125 0.9991639 0.03624165 -0.004615366 -0.9958262 -0.09115326 -0.01452887 -0.9990588 -0.04087346 0.03241574 -0.9994667 -0.003962874 0.01409077 -0.9998997 -0.001479327 0.0108295 -0.9997197 -0.02105331 -0.03172802 -0.1332314 -0.9905771 -0.9426135 -0.02643948 -0.3328377 -0.4769348 -0.7846137 -0.3961246 -0.1516286 0.1003251 -0.9833329 -0.03399378 0.9638047 -0.2644337 -0.742475 0.1106801 -0.6606671 0.02893596 0.09909886 -0.9946568 0.65178 0.1453301 -0.7443535 0.03399378 -0.9638047 0.2644337 0.2884547 0.8574538 -0.4261066 -0.08594781 -0.1229189 -0.988688 -0.1394387 -0.4596363 -0.8770925 0.03838694 -0.09278231 0.9949463 0.9453899 -0.03523629 0.3240312 -0.08673161 -0.5713696 0.8160972 0.1968815 -0.8533124 0.4827997 0.03266799 0.1047739 0.9939594 0.7262832 0.1116461 0.6782683 -0.03440141 0.1063843 0.9937298 -0.6555176 0.1457827 0.7409752 -0.2585182 0.8746124 0.4101481 -0.0277881 -0.1364091 0.9902628 -0.9265043 -0.05637633 0.3720369 -0.1255487 -0.9117791 0.3910199</float_array>
          <technique_common>
            <accessor source="#Cube_025-mesh-normals-array" count="93" stride="3">
              <param name="X" type="float"/>
              <param name="Y" type="float"/>
              <param name="Z" type="float"/>
            </accessor>
          </technique_common>
        </source>
        <vertices id="Cube_025-mesh-vertices">
          <input semantic="POSITION" source="#Cube_025-mesh-positions"/>
        </vertices>
        <polylist count="192">
          <input semantic="VERTEX" source="#Cube_025-mesh-vertices" offset="0"/>
          <input semantic="NORMAL" source="#Cube_025-mesh-normals" offset="1"/>
          <vcount>3 3 3 3 3 3 3 3 3 3 3 3 3 3 3 3 3 3 3 3 3 3 3 3 3 3 3 3 3 3 3 3 3 3 3 3 3 3 3 3 3 3 3 3 3 3 3 3 3 3 3 3 3 3 3 3 3 3 3 3 3 3 3 3 3 3 3 3 3 3 3 3 3 3 3 3 3 3 3 3 3 3 3 3 3 3 3 3 3 3 3 3 3 3 3 3 3 3 3 3 3 3 3 3 3 3 3 3 3 3 3 3 3 3 3 3 3 3 3 3 3 3 3 3 3 3 3 3 3 3 3 3 3 3 3 3 3 3 3 3 3 3 3 3 3 3 3 3 3 3 3 3 3 3 3 3 3 3 3 3 3 3 3 3 3 3 3 3 3 3 3 3 3 3 3 3 3 3 3 3 3 3 3 3 3 3 3 3 3 3 3 3 </vcount>
          <p>0 0 4 0 5 0 5 1 57 1 58 1 55 0 56 0 5 0 56 0 91 0 57 0 1 2 6 2 2 2 6 3 60 3 61 3 1 4 58 4 59 4 59 0 93 0 60 0 2 5 7 5 3 5 3 6 7 6 63 6 2 0 61 0 62 0 7 0 62 0 92 0 0 7 3 7 8 7 8 8 54 8 55 8 64 0 65 0 8 0 65 9 90 9 54 9 13 0 14 0 10 0 14 0 66 0 67 0 61 0 60 0 14 0 14 0 60 0 93 0 10 0 15 0 11 0 15 0 69 0 70 0 67 0 68 0 15 0 68 0 97 0 69 0 11 0 16 0 12 0 16 0 72 0 73 0 70 0 71 0 16 0 71 0 96 0 72 0 12 0 17 0 13 0 17 0 62 0 61 0 73 0 74 0 17 0 74 0 92 0 62 0 22 0 23 0 19 0 19 10 23 10 75 10 70 0 69 0 23 0 69 0 97 0 75 0 18 11 19 11 24 11 24 0 78 0 79 0 76 12 77 12 24 12 77 0 95 0 78 0 18 13 20 13 25 13 25 0 81 0 82 0 20 14 79 14 80 14 80 0 94 0 81 0 21 15 26 15 22 15 22 16 26 16 71 16 21 17 82 17 83 17 83 0 96 0 71 0 31 18 32 18 28 18 32 0 84 0 85 0 79 0 78 0 32 0 32 0 78 0 95 0 28 0 33 0 29 0 29 19 33 19 56 19 85 0 86 0 33 0 86 0 91 0 56 0 27 20 29 20 34 20 30 0 34 0 87 0 55 21 54 21 34 21 34 22 54 22 90 22 30 0 35 0 31 0 31 23 35 23 80 23 30 0 88 0 89 0 89 0 94 0 80 0 40 0 41 0 37 0 37 24 41 24 65 24 88 0 87 0 41 0 41 0 87 0 90 0 36 25 37 25 42 25 42 0 74 0 73 0 64 26 63 26 42 26 42 27 63 27 92 27 38 28 43 28 39 28 43 29 83 29 82 29 73 0 72 0 43 0 43 0 72 0 96 0 36 30 39 30 44 30 40 31 44 31 89 31 39 32 82 32 81 32 44 0 81 0 94 0 45 33 49 33 50 33 46 34 50 34 77 34 85 0 84 0 50 0 50 35 84 35 95 35 46 0 51 0 47 0 51 0 68 0 67 0 76 0 75 0 51 0 75 0 97 0 68 0 45 0 47 0 52 0 52 36 59 36 58 36 67 0 66 0 52 0 52 0 66 0 93 0 48 0 53 0 49 0 53 0 86 0 85 0 48 37 58 37 57 37 53 0 57 0 91 0 1 38 0 38 5 38 1 39 5 39 58 39 4 0 55 0 5 0 5 0 56 0 57 0 0 40 1 40 2 40 2 41 6 41 61 41 6 42 1 42 59 42 6 0 59 0 60 0 0 43 2 43 3 43 64 44 3 44 63 44 7 45 2 45 62 45 63 46 7 46 92 46 4 47 0 47 8 47 4 0 8 0 55 0 3 48 64 48 8 48 8 0 65 0 54 0 9 0 13 0 10 0 10 0 14 0 67 0 13 0 61 0 14 0 66 0 14 0 93 0 9 0 10 0 11 0 11 0 15 0 70 0 10 0 67 0 15 0 15 0 68 0 69 0 9 0 11 0 12 0 12 0 16 0 73 0 11 0 70 0 16 0 16 0 71 0 72 0 9 0 12 0 13 0 13 0 17 0 61 0 12 0 73 0 17 0 17 0 74 0 62 0 18 49 22 49 19 49 76 50 19 50 75 50 22 0 70 0 23 0 23 51 69 51 75 51 20 52 18 52 24 52 20 53 24 53 79 53 19 54 76 54 24 54 24 55 77 55 78 55 21 56 18 56 25 56 21 57 25 57 82 57 25 58 20 58 80 58 25 0 80 0 81 0 18 59 21 59 22 59 70 0 22 0 71 0 26 0 21 0 83 0 26 0 83 0 71 0 27 60 31 60 28 60 28 61 32 61 85 61 31 0 79 0 32 0 84 0 32 0 95 0 27 0 28 0 29 0 55 62 29 62 56 62 28 63 85 63 33 63 33 64 86 64 56 64 30 65 27 65 34 65 88 0 30 0 87 0 29 66 55 66 34 66 87 0 34 0 90 0 27 0 30 0 31 0 79 67 31 67 80 67 35 0 30 0 89 0 35 68 89 68 80 68 36 69 40 69 37 69 64 70 37 70 65 70 40 0 88 0 41 0 65 71 41 71 90 71 38 72 36 72 42 72 38 73 42 73 73 73 37 74 64 74 42 74 74 0 42 0 92 0 36 75 38 75 39 75 39 76 43 76 82 76 38 77 73 77 43 77 83 78 43 78 96 78 40 79 36 79 44 79 88 0 40 0 89 0 44 0 39 0 81 0 89 80 44 80 94 80 46 81 45 81 50 81 76 82 46 82 77 82 49 83 85 83 50 83 77 84 50 84 95 84 45 85 46 85 47 85 47 0 51 0 67 0 46 86 76 86 51 86 51 0 75 0 68 0 48 87 45 87 52 87 48 88 52 88 58 88 47 0 67 0 52 0 59 89 52 89 93 89 45 90 48 90 49 90 49 0 53 0 85 0 53 91 48 91 57 91 86 92 53 92 91 92</p>
        </polylist>
      </mesh>
    </geometry>
  </library_geometries>
  <library_controllers/>
  <library_visual_scenes>
    <visual_scene id="Scene" name="Scene">
      <node id="COL_VIZ_LEsegment_link_0" name="COL_VIZ_LEsegment_link_0" type="NODE">
        <instance_geometry url="#Cube_025-mesh" name="COL_VIZ_LEsegment_link_0"/>
      </node>
    </visual_scene>
  </library_visual_scenes>
  <scene>
    <instance_visual_scene url="#Scene"/>
  </scene>
</COLLADA>