<?xml version="1.0" encoding="utf-8"?>
<COLLADA xmlns="http://www.collada.org/2005/11/COLLADASchema" version="1.4.1">
  <asset>
    <contributor>
      <author>Blender User</author>
      <authoring_tool>Blender 2.76.0 commit date:2015-11-03, commit time:10:56, hash:f337fea</authoring_tool>
    </contributor>
    <created>2017-01-25T08:36:10</created>
    <modified>2017-01-25T08:36:10</modified>
    <unit name="meter" meter="1"/>
    <up_axis>Z_UP</up_axis>
  </asset>
  <library_images/>
  <library_geometries>
    <geometry id="Cube_058-mesh" name="Cube.058">
      <mesh>
        <source id="Cube_058-mesh-positions">
          <float_array id="Cube_058-mesh-positions-array" count="294">-17.1417 24.61953 37.46142 -9.258274 22.39383 75.16912 -18.3425 33.49333 47.64582 -13.15648 22.73572 6.369188 -9.545341 -8.470222 19.62733 -9.258274 22.39383 75.16912 -14.2252 32.64493 67.41233 -13.7553 24.18842 12.91983 -4.216268 -9.222565 14.13933 -17.3332 36.73656 55.37403 -14.71959 34.80427 67.11074 36.03096 34.51101 46.90753 -3.586859 22.72275 0.9608691 -18.13159 36.73657 55.37403 -15.02359 34.08117 68.54135 35.11128 33.28892 58.49965 24.84219 24.57173 7.861355 -13.7553 24.18842 12.91983 36.83355 32.71327 44.73474 32.78828 21.35859 68.67346 27.3143 -3.368393 35.98753 25.64048 17.40268 9.39941 36.82935 33.79289 46.90753 34.53556 32.46987 55.65023 31.1915 21.35859 67.54444 21.6703 -3.09395 16.00143 31.4871 27.38098 24.83485 4.45928 -13.89873 16.28693 2.522881 7.499109 74.97935 -4.879481 -13.35492 18.31642 3.69509 -10.23389 10.36493 20.8576 -11.1151 28.62823 20.6994 8.879117 71.23403 -4.369131 11.30808 76.23865 -2.151843 -11.23055 10.8763 18.3789 -12.0574 17.79843 3.422659 15.0332 1.685284 3.422659 15.0332 1.685284 3.426879 20.7665 0.1489773 15.1472 21.03059 1.134667 3.422659 15.0332 1.685284 3.422659 15.0332 1.685284 3.426879 20.7665 0.1489773 15.1472 21.03059 1.134667 10.7774 15.0678 1.814475 -1.996058 11.94442 75.21553 28.835 18.83909 70.09423 -10.1488 24.10532 74.67263 -10.1488 24.10532 74.67263 -1.996058 11.94442 75.21553 28.835 18.83909 70.09423 28.835 18.83909 70.09423 -10.1488 24.10532 74.67263 -1.996058 11.94442 75.21553 -4.216268 -9.222565 14.13933 -4.081088 -11.91868 18.31643 -7.908436 10.98832 68.55612 -9.258274 22.39383 75.16912 -9.258274 22.39383 75.16912 -9.258274 22.39383 75.16912 -16.0999 35.03223 61.26052 -16.0999 35.03223 61.26052 -13.7553 24.18842 12.91983 -7.692868 21.81582 4.065053 -7.692868 21.81582 4.065053 -7.699236 16.08272 5.602152 -10.1488 24.10532 74.67263 -10.1488 24.10532 74.67263 31.8575 25.70908 66.16214 34.53556 32.46987 55.65023 35.23257 33.07477 46.90753 31.4871 27.38098 24.83485 15.1472 21.03059 1.134667 15.1472 21.03059 1.134667 -7.692868 21.81582 4.065053 31.8575 25.70908 66.16214 28.835 18.83909 70.09423 28.835 18.83909 70.09423 30.0802 7.913405 57.08073 27.3143 -3.368393 35.98753 19.185 -12.7392 22.58203 19.4622 15.95099 5.110517 19.4622 15.95099 5.110517 19.4622 15.95099 5.110517 24.0358 11.24399 71.32054 -0.205892 10.63252 74.64622 -0.205892 10.63252 74.64622 -1.35345 -9.794303 12.00533 -1.35345 -9.794303 12.00533 17.6201 -7.895276 13.59363 -1.35345 -9.794303 12.00533 -3.570738 12.74432 75.10964 -13.7553 24.18842 12.91983 -14.0172 32.29053 67.86953 17.6201 -7.895276 13.59363 25.377 12.92819 71.17833 24.0438 23.13549 8.990381 31.8575 25.70908 66.16214</float_array>
          <technique_common>
            <accessor source="#Cube_058-mesh-positions-array" count="98" stride="3">
              <param name="X" type="float"/>
              <param name="Y" type="float"/>
              <param name="Z" type="float"/>
            </accessor>
          </technique_common>
        </source>
        <source id="Cube_058-mesh-normals">
          <float_array id="Cube_058-mesh-normals-array" count="345">-0.9341605 -0.3098565 0.1770125 0 0 1 -0.4405588 -0.82902 0.3444327 -0.702254 -0.4174732 0.5766763 -0.931807 -0.3148443 0.1805791 -0.9317106 -0.3161192 0.1788409 -0.9902895 0.02329188 -0.1370553 0.07589316 0.97491 -0.2092628 0.4556696 0.8730296 -0.1737377 -0.6960746 -0.3474807 -0.6282813 -0.4110567 -0.2356478 -0.8806263 -0.6058246 -0.3279321 -0.7248704 -0.5372203 0.7931963 0.2867649 -0.8601752 -0.5063355 0.06101727 0.05594754 0.9870937 0.1500536 0.8129801 -0.5822832 0.003110885 0.1349644 0.6097009 0.7810566 -0.00338751 0.9693217 -0.2457722 0.873804 -0.4857354 -0.02297466 0.7775018 -0.5941699 -0.2060413 -0.2106186 0.9325091 -0.293371 -0.07992064 -0.9233734 -0.3754922 0.9120921 -0.3664531 0.1838482 0.7626883 0.4379184 0.4759561 0.2659105 -0.8876114 -0.376082 0.9885619 0.03284639 -0.1471955 0.8344193 -0.4234612 0.3527395 0.9269863 -0.2650478 -0.2654169 0.5883571 -0.3489207 -0.7294452 0.7907149 -0.4707534 -0.3913584 0.9444875 -0.2747679 -0.1801275 0.8691667 -0.3902397 -0.3037472 0.1544721 -0.8941866 0.420201 0.1379649 -0.2298836 0.9633894 0.5355802 -0.7718646 0.342606 0.5913043 -0.6770638 0.4381141 -0.3993138 -0.8422576 0.3621475 -0.6150729 -0.7234779 0.3134727 0.3825613 0.4301225 0.817705 -0.1230421 -0.9414432 -0.3139193 -0.8270347 0.4597383 0.3235036 -0.3385051 0.6905935 -0.6391361 0.1676174 -0.8284845 -0.5343387 -0.9484769 0.2494341 0.1953824 -0.05605095 0.9077461 -0.415759 1.85505e-6 0.965927 -0.2588148 0.664452 -0.02029061 -0.7470555 0.01801615 -0.1262801 -0.991831 0.01779121 -0.4521411 -0.891769 0.1379647 -0.2298131 0.9634064 -0.391856 0.382679 0.8366634 0.162786 0.4352008 0.8854948 -0.8751134 -0.4777258 -0.07716715 -0.09974771 -0.06490767 0.9928935 -0.979168 -0.1752984 0.1024725 -0.9288828 -0.3264607 0.174929 -0.9463426 -0.264434 0.18577 0.9227911 0.3580785 -0.1422548 -0.9657531 0.2202649 -0.1371296 -0.9798851 -0.1625678 -0.115746 -0.5524461 -0.7083675 -0.4393392 -0.5204353 -0.3364112 -0.7848404 4.82027e-6 0.9867166 0.1624513 0.6664725 0.5987178 0.4442427 -0.6272082 -0.7787997 -0.009014487 -0.8801494 -0.4701921 -0.06524187 0.05871897 0.9922764 0.109269 0.8734636 -0.4855539 0.03604137 0.145945 0.6716359 0.7263645 0.8963375 -0.4399941 -0.05463016 8.51696e-4 0.9684507 -0.249204 0.08007723 0.8298198 -0.5522562 0.6049172 0.7128738 -0.3548046 0.5691605 -0.6798833 -0.4624015 5.18056e-6 0.9589879 -0.2834472 -0.7900586 -0.6052367 0.09744799 -0.5523534 0.6292425 -0.546772 0.9742161 0.08952838 0.2070932 -0.006482064 0.4988831 0.8666452 -0.4099692 0.9115932 0.03038686 0.9559887 -0.2762074 0.09897071 0.3409729 -0.8069563 -0.4822437 0.8230996 -0.3895947 0.4131865 0.9557034 -0.1997271 -0.2161948 0.8804606 -0.4002559 -0.2541349 0.7151334 -0.2826638 -0.6392852 0.6041317 0.714109 -0.3536571 -0.4046455 0.8997509 -0.1634339 0.2253941 0.7770491 -0.5877009 -0.09558081 -0.9362189 0.3381693 0.1765529 0.2548311 0.9507315 0.4821717 -0.7923988 0.3736504 0.1880578 -0.2303645 -0.95476 0.01986223 -0.9391132 0.3430334 -0.8398688 0.4668741 -0.2768558 0.3828459 0.4208431 0.8223868 -0.7125153 0.633391 0.3018906 0.09671193 -0.840721 -0.5327617 -0.1770087 0.667182 -0.723558 -0.8802595 -0.2599634 -0.3969412 0.1247702 -0.9905107 0.05762702 0.7925363 -0.607236 -0.05613201 0.2731816 -0.658569 -0.7011839 0.9863246 0.01390463 -0.1642271 -0.3425421 -0.2429419 -0.9075485 -0.3418536 -0.303878 -0.8892661 -0.3425396 -0.2429369 -0.9075507 0.08673894 -0.2579147 -0.9622663 0.1161523 -0.4002031 -0.9090359 0.3626325 -0.3635818 -0.8580828 0.3638308 -0.3370171 -0.8683586 0.1493732 0.06491917 0.9866474 0.1333363 0.1332317 0.9820748 0.7330998 0.5114836 0.4482737 -0.4272946 -0.7808446 0.4557422</float_array>
          <technique_common>
            <accessor source="#Cube_058-mesh-normals-array" count="115" stride="3">
              <param name="X" type="float"/>
              <param name="Y" type="float"/>
              <param name="Z" type="float"/>
            </accessor>
          </technique_common>
        </source>
        <vertices id="Cube_058-mesh-vertices">
          <input semantic="POSITION" source="#Cube_058-mesh-positions"/>
        </vertices>
        <polylist count="192">
          <input semantic="VERTEX" source="#Cube_058-mesh-vertices" offset="0"/>
          <input semantic="NORMAL" source="#Cube_058-mesh-normals" offset="1"/>
          <vcount>3 3 3 3 3 3 3 3 3 3 3 3 3 3 3 3 3 3 3 3 3 3 3 3 3 3 3 3 3 3 3 3 3 3 3 3 3 3 3 3 3 3 3 3 3 3 3 3 3 3 3 3 3 3 3 3 3 3 3 3 3 3 3 3 3 3 3 3 3 3 3 3 3 3 3 3 3 3 3 3 3 3 3 3 3 3 3 3 3 3 3 3 3 3 3 3 3 3 3 3 3 3 3 3 3 3 3 3 3 3 3 3 3 3 3 3 3 3 3 3 3 3 3 3 3 3 3 3 3 3 3 3 3 3 3 3 3 3 3 3 3 3 3 3 3 3 3 3 3 3 3 3 3 3 3 3 3 3 3 3 3 3 3 3 3 3 3 3 3 3 3 3 3 3 3 3 3 3 3 3 3 3 3 3 3 3 3 3 3 3 3 3 </vcount>
          <p>0 0 4 0 5 0 5 1 57 1 58 1 4 2 55 2 56 2 5 3 56 3 91 3 1 4 6 4 2 4 6 1 60 1 61 1 1 1 58 1 59 1 6 5 59 5 93 5 0 6 2 6 7 6 3 7 7 7 63 7 2 8 61 8 62 8 7 1 62 1 92 1 3 9 8 9 4 9 8 1 54 1 55 1 3 10 64 10 65 10 8 11 65 11 90 11 13 12 14 12 10 12 14 1 66 1 67 1 13 1 61 1 60 1 14 13 60 13 93 13 9 14 10 14 15 14 11 15 15 15 69 15 10 16 67 16 68 16 15 1 68 1 97 1 11 17 16 17 12 17 16 1 72 1 73 1 11 18 70 18 71 18 16 19 71 19 96 19 9 20 12 20 17 20 13 1 17 1 62 1 12 21 73 21 74 21 17 1 74 1 92 1 18 22 22 22 23 22 19 23 23 23 75 23 70 1 69 1 23 1 69 1 97 1 75 1 18 24 19 24 24 24 20 25 24 25 78 25 76 1 77 1 24 1 24 26 77 26 95 26 20 27 25 27 21 27 21 28 25 28 81 28 20 1 79 1 80 1 25 29 80 29 94 29 18 30 21 30 26 30 26 1 71 1 70 1 21 1 82 1 83 1 26 31 83 31 96 31 31 32 32 32 28 32 32 33 84 33 85 33 31 34 79 34 78 34 32 35 78 35 95 35 28 36 33 36 29 36 29 37 33 37 56 37 28 1 85 1 86 1 33 38 86 38 91 38 27 39 29 39 34 39 34 1 87 1 88 1 29 40 55 40 54 40 34 41 54 41 90 41 27 42 30 42 35 42 31 43 35 43 80 43 30 44 88 44 89 44 35 1 89 1 94 1 40 1 41 1 37 1 37 1 41 1 65 1 88 1 87 1 41 1 41 1 87 1 90 1 37 1 42 1 38 1 42 45 74 45 73 45 64 1 63 1 42 1 63 1 92 1 74 1 38 1 43 1 39 1 43 1 83 1 82 1 73 1 72 1 43 1 72 46 96 46 83 46 36 47 39 47 44 47 40 48 44 48 89 48 39 1 82 1 81 1 81 1 94 1 89 1 49 1 50 1 46 1 50 1 77 1 76 1 49 49 85 49 84 49 50 50 84 50 95 50 45 1 46 1 51 1 51 51 68 51 67 51 76 1 75 1 51 1 75 1 97 1 68 1 47 1 52 1 48 1 52 1 59 1 58 1 67 1 66 1 52 1 66 52 93 52 59 52 45 1 48 1 53 1 53 1 86 1 85 1 48 1 58 1 57 1 53 53 57 53 91 53 1 1 0 1 5 1 1 1 5 1 58 1 5 54 4 54 56 54 57 1 5 1 91 1 0 55 1 55 2 55 2 56 6 56 61 56 6 1 1 1 59 1 60 57 6 57 93 57 3 58 0 58 7 58 64 1 3 1 63 1 7 1 2 1 62 1 63 1 7 1 92 1 0 59 3 59 4 59 4 60 8 60 55 60 8 61 3 61 65 61 54 1 8 1 90 1 9 62 13 62 10 62 10 63 14 63 67 63 14 64 13 64 60 64 66 65 14 65 93 65 11 66 9 66 15 66 70 67 11 67 69 67 15 68 10 68 68 68 69 69 15 69 97 69 9 70 11 70 12 70 12 71 16 71 73 71 16 72 11 72 71 72 72 73 16 73 96 73 13 74 9 74 17 74 61 75 13 75 62 75 17 76 12 76 74 76 62 1 17 1 92 1 19 77 18 77 23 77 76 78 19 78 75 78 22 79 70 79 23 79 23 1 69 1 75 1 20 80 18 80 24 80 79 1 20 1 78 1 19 81 76 81 24 81 78 82 24 82 95 82 18 83 20 83 21 83 82 1 21 1 81 1 25 84 20 84 80 84 81 85 25 85 94 85 22 86 18 86 26 86 22 87 26 87 70 87 26 88 21 88 83 88 71 1 26 1 96 1 27 89 31 89 28 89 28 90 32 90 85 90 32 91 31 91 78 91 84 92 32 92 95 92 27 93 28 93 29 93 55 94 29 94 56 94 33 95 28 95 86 95 56 96 33 96 91 96 30 97 27 97 34 97 30 98 34 98 88 98 34 99 29 99 54 99 87 1 34 1 90 1 31 100 27 100 35 100 79 101 31 101 80 101 35 102 30 102 89 102 80 103 35 103 94 103 36 1 40 1 37 1 64 104 37 104 65 104 40 1 88 1 41 1 65 105 41 105 90 105 36 1 37 1 38 1 38 1 42 1 73 1 37 106 64 106 42 106 42 1 63 1 74 1 36 107 38 107 39 107 39 1 43 1 82 1 38 1 73 1 43 1 43 1 72 1 83 1 40 1 36 1 44 1 88 108 40 108 89 108 44 109 39 109 81 109 44 110 81 110 89 110 45 1 49 1 46 1 46 1 50 1 76 1 50 111 49 111 84 111 77 1 50 1 95 1 47 112 45 112 51 112 47 1 51 1 67 1 46 1 76 1 51 1 51 1 75 1 68 1 45 1 47 1 48 1 48 1 52 1 58 1 47 1 67 1 52 1 52 1 66 1 59 1 49 1 45 1 53 1 49 1 53 1 85 1 53 113 48 113 57 113 86 114 53 114 91 114</p>
        </polylist>
      </mesh>
    </geometry>
  </library_geometries>
  <library_controllers/>
  <library_visual_scenes>
    <visual_scene id="Scene" name="Scene">
      <node id="COL_VIZ_RMrot_link_0" name="COL_VIZ_RMrot_link_0" type="NODE">
        <instance_geometry url="#Cube_058-mesh" name="COL_VIZ_RMrot_link_0"/>
      </node>
    </visual_scene>
  </library_visual_scenes>
  <scene>
    <instance_visual_scene url="#Scene"/>
  </scene>
</COLLADA>