<?xml version="1.0" encoding="utf-8"?>
<COLLADA xmlns="http://www.collada.org/2005/11/COLLADASchema" version="1.4.1">
  <asset>
    <contributor>
      <author>Blender User</author>
      <authoring_tool>Blender 2.76.0 commit date:2015-11-03, commit time:10:56, hash:f337fea</authoring_tool>
    </contributor>
    <created>2017-01-25T08:36:08</created>
    <modified>2017-01-25T08:36:08</modified>
    <unit name="meter" meter="1"/>
    <up_axis>Z_UP</up_axis>
  </asset>
  <library_images/>
  <library_geometries>
    <geometry id="Cube_045-mesh" name="Cube.045">
      <mesh>
        <source id="Cube_045-mesh-positions">
          <float_array id="Cube_045-mesh-positions-array" count="294">-6.408154 -3.088257 4.006805 -6.408154 -3.088257 4.385612 -5.819654 -0.3369576 3.644106 -5.783594 -6.176232 -2.604376 -4.901726 -11.55635 1.817504 -5.752954 -9.816127 4.38561 -5.819654 -0.3369577 4.022913 -4.922805 -1.727254 -2.616755 -4.896506 -10.43189 -1.806309 -0.004632771 0.7963398 4.006805 -0.004632771 0.7963398 4.385613 5.324805 0.1797191 3.644096 -0.00801438 -0.6977947 -2.759604 -5.333945 0.1786821 3.644106 -5.172042 -0.1650778 3.896645 5.162902 -0.1640408 3.896635 4.250423 -1.554534 -2.490477 -4.275192 -1.555374 -2.490487 6.399494 -3.087086 4.006805 6.399494 -3.087086 4.385612 4.895105 -11.55555 1.849624 5.775554 -6.175212 -2.604386 5.810514 -0.3359206 3.644096 5.810514 -0.3359207 4.022903 5.745625 -9.815097 4.38561 4.905207 -10.43104 -1.806319 4.898036 -1.726414 -2.616745 -0.003398418 -12.80059 3.840561 -0.003398418 -12.80059 4.219368 -4.416016 -12.07199 1.817504 -0.002962052 -12.10919 -0.4970857 4.409395 -12.07119 1.849624 3.929794 -11.89043 3.88278 -3.936714 -11.89124 3.73292 -4.442722 -11.23803 -0.3536725 4.439633 -11.23713 -0.3536746 -1.990417 -4.135491 -5.299319 -4.413157 -6.147451 -4.521801 -0.01040273 -1.910283 -4.783249 4.405097 -6.146601 -4.521801 -1.91588e-4 -8.519994 -4.289512 -3.974537 -9.851724 -3.111175 -3.998787 -2.136743 -4.44173 3.965787 -2.135993 -4.44173 3.991407 -9.850972 -3.111175 -0.004632771 -0.2349398 5.016958 5.913784 -3.087086 4.764419 -0.004632771 0.2807 4.76442 -5.922445 -3.088257 4.764419 1.822248 -12.21345 4.681295 4.091697 -11.71855 4.387856 5.324805 -0.3359206 4.40171 -5.333945 -0.3369576 4.401721 -4.098617 -11.71935 4.237996 -4.5727 -10.60377 -1.68004 -4.577919 -11.72823 1.817504 -5.429149 -9.988009 4.259341 -5.429149 -9.644248 4.511879 -6.084349 -3.088257 4.511882 -5.495849 -0.5088377 4.149183 -5.495849 -0.1650778 3.896645 -5.495849 -0.1650778 3.644106 -4.598999 -1.555374 -2.490487 -4.16069 -2.308623 -4.189192 -4.47546 -4.148383 -4.363733 -4.460539 -8.333481 -3.556806 -3.044634 0.452295 4.511882 -2.720828 0.452295 4.511882 3.035374 0.4528698 4.511882 5.486709 -0.1640408 3.896635 5.486709 -0.1640408 3.644096 4.574229 -1.554534 -2.490477 4.250423 -1.554534 -2.743015 -0.01040273 -1.738403 -4.530712 -3.836884 -1.964863 -4.189192 5.486709 -0.5078007 4.149173 6.075688 -3.087086 4.511882 5.421819 -9.643218 4.511879 5.421819 -9.986979 4.259341 4.571299 -11.72743 1.849624 4.5814 -10.60292 -1.68005 4.46868 -8.332672 -3.556806 4.45114 -4.147573 -4.363733 4.45114 -3.803813 -4.363733 2.146054 -12.38533 4.428757 -0.003398418 -12.45683 4.345637 -2.152864 -12.38573 4.300297 -4.248893 -10.60377 -1.932578 -2.048638 -10.97103 -1.916678 4.257594 -10.60292 -1.932588 -4.5727 -10.60377 -1.932578 -5.429149 -9.988008 4.511879 -4.16069 -1.964863 -4.189192 -5.495849 -0.1650778 4.149183 4.5814 -10.60292 -1.932588 5.421819 -9.986978 4.511879 4.12769 -1.964113 -4.189192 5.486709 -0.1640408 4.149173</float_array>
          <technique_common>
            <accessor source="#Cube_045-mesh-positions-array" count="98" stride="3">
              <param name="X" type="float"/>
              <param name="Y" type="float"/>
              <param name="Z" type="float"/>
            </accessor>
          </technique_common>
        </source>
        <source id="Cube_045-mesh-normals">
          <float_array id="Cube_045-mesh-normals-array" count="564">-0.9631941 -0.1076694 -0.246302 -0.3474608 -0.03383791 0.9370838 -0.424973 -0.8005999 0.4224189 -0.4688557 -0.8832749 0 -0.9778798 0.2091675 2.23702e-7 -0.4688532 0.8832761 0 -0.3552731 0.2091631 0.9110609 -0.3633092 0 0.9316686 -0.9666272 0.1831453 -0.1791359 -0.8534055 0.1919863 -0.4846032 -0.4527878 0.8530153 -0.2595152 -0.3514139 0.8854486 -0.3041201 -0.974027 -0.2158591 -0.06838345 -0.3642487 -0.8893162 -0.2764773 -0.7143376 -0.134943 -0.6866675 -0.5273687 -0.4769755 -0.7031193 -0.1200236 0.5504331 0.8262069 0 0.7058806 -0.7083309 0 1 0 0.1827202 0.983165 -2.39494e-7 -3.4444e-5 0.3447818 0.938683 0.2000288 0.9456251 -0.2564794 0.09094125 0.9540158 -0.2856287 0.1972342 0.9803564 0 0 0.9752609 -0.2210572 0.2207697 0.9333439 -0.2830724 -0.2053675 0.9556848 -0.2109283 0 0.9752677 -0.2210269 -0.09579181 0.858285 -0.5041535 0 0.9721531 -0.2343469 0.9778429 0.20934 0 0.2714972 0.1827028 0.9449387 0.4688515 0.8832771 0 0.4688525 0.8832766 0 0.9953107 -0.09673023 0 0.2528868 -0.835187 0.4883761 0.3630714 -0.03621089 0.9310575 0.3633074 0 0.9316694 0.9754662 -0.2111639 -0.06225538 0.8132478 -0.2636002 -0.5187899 0.4514855 -0.8505485 -0.2696818 0.4688576 -0.8832738 0 0.9652042 0.1898857 -0.1797891 0.3749017 0.8919491 -0.2527361 0.9688038 0 -0.247829 0.8686021 0.1958965 -0.4551429 0.2218778 -0.9652377 0.1381535 0.2046046 -0.958178 -0.2000801 0.7546681 -0.6286816 0.1877118 0.78703 -0.6169149 6.24572e-6 -0.2252525 -0.9743005 0 -0.7448759 -0.6380539 0.1950572 -0.03119039 -0.3446254 0.938222 -0.3886799 -0.5933016 0.7049264 -0.1912457 -0.9170602 -0.3498941 -0.1492933 -0.9110544 -0.3843063 -0.8317739 -0.5281112 -0.1710285 0 -1 0 0.1914972 -0.9187921 -0.3451809 0.8256482 -0.5382427 -0.1691153 0.04205638 -0.7490611 -0.6611647 -0.1491311 -0.367273 -0.9180799 -0.3692204 -0.3685964 -0.8531196 -0.1330571 -0.821171 -0.5549541 0 -0.8430026 -0.5379096 -0.3458182 0.0544297 -0.9367216 -0.09268611 0.8497701 -0.5189414 -0.8803323 0.1917807 -0.4338609 -0.8418489 0 -0.5397133 0.08719742 0.02943164 -0.9957563 0.1586606 0 -0.9873332 0.1011362 0.9359439 -0.3373138 -0.5720119 0.8006515 -0.1782121 0.1489641 -0.3663864 -0.9184611 -0.1319757 -0.8489042 -0.5118048 0.9949118 -0.0150386 -0.09962177 0.695658 -0.3948251 -0.6001445 0.1436076 -0.07337093 0.9869111 -0.03748601 -0.03565508 0.9986609 0.005447804 -0.8234102 0.5674205 -0.06130045 0.1180759 -0.9911107 0.1161928 0.1542317 0.9811788 0.07760787 0.08652836 0.993222 0.8131247 0.2589845 0.5213018 0.8418475 0 0.5397154 -0.1113994 0.4371017 0.8924867 -0.8832744 0.2418792 0.4016475 0 -0.1382373 0.9903993 -0.2742543 0.7040759 0.655028 -0.08088225 -0.07769769 0.9936907 -0.08715403 -0.1625926 0.9828367 -0.8388831 -0.08383768 0.5378166 0.2016173 0 0.9794645 -0.9952915 -0.09692716 0 -0.3630699 -0.03628522 0.9310551 -0.2563991 -0.8375088 0.4825335 -0.3633074 0 0.9316694 -0.9778798 0.2091674 0 -0.4688526 0.8832765 0 -0.271529 0.1826496 0.9449398 -0.4688541 0.8832756 0 -0.9661435 0.1864334 -0.1783518 -0.8738491 0.167803 -0.4563222 -0.3752952 0.892035 -0.2518472 -0.899877 0 -0.4361439 -0.9850259 -0.171935 -0.01274758 -0.4509407 -0.8495228 -0.2737947 -0.8104186 -0.266747 -0.5216012 -0.468854 -0.8832757 0 -0.182915 0.9831289 -1.19745e-7 -0.1335716 0.9134373 -0.3844358 -0.5907053 0.2782099 0.7574079 -0.2001712 0.9455456 -0.2566616 0.1199191 0.5504736 0.826195 0.5907053 0.2782099 0.7574079 0.1183758 0.8754903 -0.4685125 0.2055947 0.955595 -0.2111138 0.1727767 0.8491252 -0.4991339 0.8714263 0.4104217 -0.2686451 0 1 1.4578e-6 -0.09114927 0.9540602 -0.2854139 -0.8719482 0.4106662 -0.2665705 -0.2060903 0.9378408 -0.2792519 0 0.9721531 -0.2343469 0.9778431 0.2093396 0 0.3552688 0.20924 0.9110449 0.4688535 0.8832759 0 0.36331 0 0.9316684 0.9625151 -0.1075618 -0.2489885 0.4239223 -0.7986223 0.4271913 0.3474912 -0.03377163 0.9370749 0.4688555 -0.8832749 0 0.985059 -0.1717458 -0.01274275 0.7147222 -0.1295244 -0.6873105 0.3659805 -0.8897804 -0.2726708 0.5273541 -0.4768978 -0.7031829 0.9662355 0.1829331 -0.1814511 0.4526501 0.8527522 -0.2606179 0.8716388 0.1706527 -0.4594818 0.3507016 0.8852136 -0.3056231 0.2254471 -0.9742555 0 -0.02482193 -0.3446897 0.9383885 0.8774034 -0.4132421 0.2437097 0.3799713 -0.5448845 0.7474776 -0.2266181 -0.9627407 0.1475624 -0.8741517 -0.4117076 0.2575963 -0.1928019 -0.9548504 -0.2260271 -0.7869119 -0.6170654 6.24553e-6 -0.0905146 -0.9834784 -0.1567716 -0.1867935 -0.8801188 -0.4364622 -0.8943394 -0.421212 -0.1507903 -0.3018584 -0.8712504 -0.3870455 0.09182786 -0.9833627 -0.1567338 0.8948199 -0.4214415 -0.1472563 0.1897369 -0.9033229 -0.3847177 0.3003694 -0.8726103 -0.3851359 -0.09046739 -0.2623329 -0.9607275 -0.9946231 -0.02301436 -0.1009718 0.02738922 -0.7070128 -0.7066702 -0.6900373 -0.3982717 -0.6043413 -0.09849208 0.3071622 -0.9465467 -0.09865963 0.822659 -0.5599094 -0.4016498 0.0597409 -0.9138427 0 0.8266919 -0.562655 0.1495696 0.09515756 -0.9841616 0.4064174 0.06271636 -0.9115325 0.09482568 0.8229669 -0.5601192 0.7612915 0.1925897 -0.6191481 0.05608391 -0.1998392 -0.9782223 0.03979045 -0.711968 -0.7010836 0.3680579 -0.3665051 -0.8545217 0 -0.8430327 -0.5378625 0.03145557 -0.02320331 0.9992358 0.8388949 -0.0836668 0.5378247 0.2339485 -0.637631 0.7339583 -0.09284085 0 0.995681 0.1113147 0.4371057 0.8924952 -8.25752e-5 0.8267126 0.5626247 0.8832786 0.2420345 0.4015448 0.2741261 0.7041535 0.6549984 -0.1162234 0.154207 0.9811791 -0.8131599 0.2588291 0.5213238 -0.08309274 0.137342 0.9870324 -0.8418468 0 0.5397165 -0.02714174 -0.03213673 0.999115 -0.03818154 -0.6987648 0.7143319 0.1628879 -0.02573674 0.9863089 0.1128186 0.2392572 -0.9643796</float_array>
          <technique_common>
            <accessor source="#Cube_045-mesh-normals-array" count="188" stride="3">
              <param name="X" type="float"/>
              <param name="Y" type="float"/>
              <param name="Z" type="float"/>
            </accessor>
          </technique_common>
        </source>
        <vertices id="Cube_045-mesh-vertices">
          <input semantic="POSITION" source="#Cube_045-mesh-positions"/>
        </vertices>
        <polylist count="192">
          <input semantic="VERTEX" source="#Cube_045-mesh-vertices" offset="0"/>
          <input semantic="NORMAL" source="#Cube_045-mesh-normals" offset="1"/>
          <vcount>3 3 3 3 3 3 3 3 3 3 3 3 3 3 3 3 3 3 3 3 3 3 3 3 3 3 3 3 3 3 3 3 3 3 3 3 3 3 3 3 3 3 3 3 3 3 3 3 3 3 3 3 3 3 3 3 3 3 3 3 3 3 3 3 3 3 3 3 3 3 3 3 3 3 3 3 3 3 3 3 3 3 3 3 3 3 3 3 3 3 3 3 3 3 3 3 3 3 3 3 3 3 3 3 3 3 3 3 3 3 3 3 3 3 3 3 3 3 3 3 3 3 3 3 3 3 3 3 3 3 3 3 3 3 3 3 3 3 3 3 3 3 3 3 3 3 3 3 3 3 3 3 3 3 3 3 3 3 3 3 3 3 3 3 3 3 3 3 3 3 3 3 3 3 3 3 3 3 3 3 3 3 3 3 3 3 3 3 3 3 3 3 </vcount>
          <p>0 0 4 0 5 0 1 1 5 1 57 1 4 2 55 2 56 2 5 3 56 3 91 3 0 4 1 4 6 4 2 5 6 5 60 5 1 6 58 6 59 6 6 7 59 7 93 7 0 8 2 8 7 8 7 9 63 9 64 9 2 10 61 10 62 10 7 11 62 11 92 11 3 12 8 12 4 12 4 13 8 13 54 13 3 14 64 14 65 14 8 15 65 15 90 15 9 16 13 16 14 16 14 17 66 17 67 17 61 18 60 18 14 18 14 18 60 18 93 18 9 19 10 19 15 19 15 18 69 18 70 18 10 20 67 20 68 20 15 21 68 21 97 21 9 22 11 22 16 22 12 23 16 23 72 23 70 24 71 24 16 24 71 25 96 25 72 25 9 26 12 26 17 26 17 27 62 27 61 27 12 28 73 28 74 28 17 29 74 29 92 29 18 30 22 30 23 30 19 31 23 31 75 31 22 32 70 32 69 32 23 33 69 33 97 33 18 34 19 34 24 34 20 35 24 35 78 35 19 36 76 36 77 36 24 37 77 37 95 37 20 38 25 38 21 38 21 39 25 39 81 39 20 40 79 40 80 40 25 41 80 41 94 41 18 42 21 42 26 42 22 43 26 43 71 43 82 44 83 44 26 44 26 45 83 45 96 45 27 46 31 46 32 46 28 47 32 47 84 47 79 48 78 48 32 48 32 49 78 49 95 49 27 50 28 50 33 50 33 51 56 51 55 51 28 52 85 52 86 52 33 53 86 53 91 53 29 54 34 54 30 54 34 55 87 55 88 55 55 56 54 56 34 56 54 57 90 57 87 57 30 58 35 58 31 58 35 59 80 59 79 59 30 60 88 60 89 60 89 57 94 57 80 57 40 61 41 61 37 61 37 62 41 62 65 62 88 63 87 63 41 63 41 64 87 64 90 64 36 65 37 65 42 65 38 66 42 66 74 66 64 67 63 67 42 67 42 68 63 68 92 68 38 69 43 69 39 69 43 70 83 70 82 70 73 71 72 71 43 71 43 72 72 72 96 72 39 73 44 73 40 73 40 74 44 74 89 74 39 75 82 75 81 75 44 76 81 76 94 76 49 77 50 77 46 77 46 78 50 78 77 78 49 79 85 79 84 79 50 80 84 80 95 80 45 81 46 81 51 81 47 82 51 82 68 82 46 83 76 83 75 83 51 84 75 84 97 84 45 85 47 85 52 85 48 86 52 86 59 86 67 87 66 87 52 87 52 88 66 88 93 88 48 89 53 89 49 89 49 90 53 90 86 90 48 91 58 91 57 91 53 92 57 92 91 92 1 93 0 93 5 93 58 94 1 94 57 94 5 95 4 95 56 95 57 96 5 96 91 96 2 97 0 97 6 97 61 98 2 98 60 98 6 99 1 99 59 99 60 100 6 100 93 100 3 101 0 101 7 101 3 102 7 102 64 102 7 103 2 103 62 103 63 104 7 104 92 104 0 105 3 105 4 105 55 106 4 106 54 106 8 107 3 107 65 107 54 108 8 108 90 108 10 109 9 109 14 109 10 110 14 110 67 110 13 111 61 111 14 111 66 112 14 112 93 112 11 113 9 113 15 113 11 114 15 114 70 114 15 115 10 115 68 115 69 18 15 18 97 18 12 116 9 116 16 116 73 117 12 117 72 117 11 118 70 118 16 118 16 119 71 119 72 119 13 120 9 120 17 120 13 121 17 121 61 121 17 122 12 122 74 122 62 123 17 123 92 123 19 124 18 124 23 124 76 125 19 125 75 125 23 126 22 126 69 126 75 127 23 127 97 127 20 128 18 128 24 128 79 129 20 129 78 129 24 130 19 130 77 130 78 131 24 131 95 131 18 132 20 132 21 132 82 133 21 133 81 133 25 134 20 134 80 134 81 135 25 135 94 135 22 136 18 136 26 136 70 137 22 137 71 137 21 138 82 138 26 138 71 139 26 139 96 139 28 140 27 140 32 140 85 141 28 141 84 141 31 142 79 142 32 142 84 143 32 143 95 143 29 144 27 144 33 144 29 145 33 145 55 145 33 146 28 146 86 146 56 147 33 147 91 147 27 148 29 148 30 148 30 149 34 149 88 149 29 150 55 150 34 150 34 151 54 151 87 151 27 152 30 152 31 152 31 153 35 153 79 153 35 154 30 154 89 154 35 155 89 155 80 155 36 156 40 156 37 156 64 157 37 157 65 157 40 158 88 158 41 158 65 159 41 159 90 159 38 160 36 160 42 160 73 161 38 161 74 161 37 162 64 162 42 162 74 163 42 163 92 163 36 164 38 164 39 164 39 165 43 165 82 165 38 166 73 166 43 166 83 167 43 167 96 167 36 168 39 168 40 168 88 169 40 169 89 169 44 170 39 170 81 170 89 171 44 171 94 171 45 172 49 172 46 172 76 173 46 173 77 173 50 174 49 174 84 174 77 175 50 175 95 175 47 176 45 176 51 176 67 177 47 177 68 177 51 178 46 178 75 178 68 179 51 179 97 179 48 180 45 180 52 180 58 181 48 181 59 181 47 182 67 182 52 182 59 183 52 183 93 183 45 184 48 184 49 184 85 185 49 185 86 185 53 186 48 186 57 186 86 187 53 187 91 187</p>
        </polylist>
      </mesh>
    </geometry>
  </library_geometries>
  <library_controllers/>
  <library_visual_scenes>
    <visual_scene id="Scene" name="Scene">
      <node id="COL_VIZ_RightFingerJoint23y_link_0" name="COL_VIZ_RightFingerJoint23y_link_0" type="NODE">
        <instance_geometry url="#Cube_045-mesh" name="COL_VIZ_RightFingerJoint23y_link_0"/>
      </node>
    </visual_scene>
  </library_visual_scenes>
  <scene>
    <instance_visual_scene url="#Scene"/>
  </scene>
</COLLADA>