<?xml version="1.0" encoding="utf-8"?>
<COLLADA xmlns="http://www.collada.org/2005/11/COLLADASchema" version="1.4.1">
  <asset>
    <contributor>
      <author>Blender User</author>
      <authoring_tool>Blender 2.76.0 commit date:2015-11-03, commit time:10:56, hash:f337fea</authoring_tool>
    </contributor>
    <created>2017-01-25T08:36:07</created>
    <modified>2017-01-25T08:36:07</modified>
    <unit name="meter" meter="1"/>
    <up_axis>Z_UP</up_axis>
  </asset>
  <library_images/>
  <library_geometries>
    <geometry id="Cube_023-mesh" name="Cube.023">
      <mesh>
        <source id="Cube_023-mesh-positions">
          <float_array id="Cube_023-mesh-positions-array" count="294">-5.361834 -3.332535 4.335941 -5.102391 -3.332535 4.723594 -4.71233 -0.3537908 2.159714 -4.163791 -4.375832 -4.107152 -3.554831 -16.10662 1.19509e-4 -3.582442 -15.58521 1.907745 -4.718441 -0.05809134 4.360896 -3.970062 -1.84089 -3.908612 -3.582432 -15.58521 -1.907506 -2.147503 0.8054627 4.335932 -2.147503 0.8054627 4.594367 2.464267 0.8049957 4.335932 2.204824 0.8049957 4.077497 -2.406946 0.8054627 4.335932 -2.406946 0.8054627 4.594367 2.464267 0.8049957 4.594367 2.175917 -0.7452287 -2.291306 -2.110096 -0.7448288 -2.291306 5.292864 -3.610674 2.159713 5.159042 -3.333464 4.723594 3.610253 -16.10722 1.19738e-4 4.053403 -2.576014 -3.908612 4.769472 -0.3546407 2.159714 4.775702 -0.05894225 4.360896 3.637973 -15.58582 1.907745 3.637973 -15.58582 -1.907506 4.053403 -1.841581 -3.908612 0.02757906 -17.58203 1.19622e-4 0.02759879 -17.39583 1.435807 -1.404977 -17.39563 -0.1396596 -0.1121892 -17.39573 -1.431451 1.460177 -17.39593 -0.1396586 1.460177 -17.39593 0.1187765 -2.214596 -16.35143 2.241417 -1.329997 -16.79743 -2.304419 2.270017 -16.35193 -2.241179 0.02933621 -4.259612 -5.339339 -3.897697 -6.491603 -4.621286 0.03065252 -1.53111 -4.778766 3.953678 -6.492363 -4.621225 0.02771198 -16.10692 -3.579399 -0.3614522 -16.10692 -3.579399 -3.580897 -1.84089 -4.296265 3.664238 -1.841581 -4.296265 2.683818 -15.58571 -3.042068 0.02866506 -0.1740152 5.369672 4.769878 -3.333464 5.111246 -2.147503 0.5606514 5.111237 -4.713227 -3.332535 5.111246 0.02771037 -16.10692 3.579636 2.683809 -15.58571 3.042307 2.593988 0.5601844 5.111237 -2.536667 0.5606514 5.111237 -1.881377 -15.58532 3.607297 -2.474039 -16.35143 -2.241179 -2.799529 -16.79733 -0.2749125 -2.474039 -16.35143 2.241417 -4.460228 -12.6802 4.490112 -5.102391 -3.332535 5.111246 -4.458999 -0.3029026 4.490114 -4.458999 0.1867197 4.231678 -4.458999 0.1867197 3.973243 -4.308047 -0.6261796 -0.2362792 -3.710618 -2.085701 -4.03783 -4.286861 -6.491603 -4.621286 -2.757999 -15.3405 -2.783633 -2.406946 0.8054627 4.852803 -2.147503 0.8054627 4.852803 2.464267 0.8049957 4.852803 2.72371 0.8049956 4.594367 2.72371 0.8049956 4.335932 4.367279 -0.6269497 -0.2362827 3.534517 -1.59677 -4.03783 3.275074 -1.59677 -4.03783 -3.451176 -1.596079 -4.03783 4.51626 -0.3037536 4.490114 5.159042 -3.333464 5.111246 4.51503 -12.6811 4.490112 2.81353 -15.83053 2.525438 2.8629 -16.79783 1.19717e-4 2.8629 -16.79783 -0.2583154 3.02615 -14.7695 -2.996183 4.342843 -6.492363 -4.621225 3.79396 -2.086392 -4.03783 1.807187 -15.83053 3.348862 -0.247376 -16.79753 2.825292 -1.751656 -15.83013 3.348862 -1.751656 -15.83013 -3.348623 0.02766406 -16.79763 -2.833103 1.807187 -15.83053 -3.348623 -1.820709 -16.35153 -2.993794 -2.757999 -15.83013 2.783873 -3.710618 -1.596079 -4.03783 -4.458999 0.1867198 4.490114 2.81354 -15.83053 -2.783633 2.81353 -15.83053 2.783873 3.79396 -1.59677 -4.03783 4.51626 0.1858689 4.490114</float_array>
          <technique_common>
            <accessor source="#Cube_023-mesh-positions-array" count="98" stride="3">
              <param name="X" type="float"/>
              <param name="Y" type="float"/>
              <param name="Z" type="float"/>
            </accessor>
          </technique_common>
        </source>
        <source id="Cube_023-mesh-normals">
          <float_array id="Cube_023-mesh-normals-array" count="555">-0.9885188 -0.1487808 0.02635812 -0.9636521 -0.05969631 -0.2604057 -0.6156262 -0.7584177 0.2140257 -0.6011719 -0.7096952 0.3673215 -0.820736 0.1570792 0.5492893 -0.6863017 0.727317 0 -0.9781857 0.2077327 0 -0.4458251 0 0.8951202 -0.9861102 0.08646899 -0.1418094 -0.3660218 0.1004333 -0.9251709 -0.5045876 0.8441514 -0.1811077 -0.7287241 0.6273496 -0.2745791 -0.9986609 -0.05173361 3.08846e-4 -0.6012006 -0.7520762 -0.2700729 -0.6658349 -0.26025 -0.6992381 -0.6578272 -0.4911639 -0.5709829 0 1 0 -0.2886864 0.9574238 0 1.01263e-4 1 0 2.29741e-7 1 0 0.3254685 0.8873067 0.3267372 0.230239 0.9452862 -0.2311366 0 0.8988541 -0.4382481 3.83604e-7 0.9542941 -0.2988694 0.2030534 0.9410094 -0.2706856 -0.01269483 0.9735084 -0.2282987 -0.164839 0.9587301 -0.2316566 9.23461e-5 0.8988851 -0.4381844 0 0.8989129 -0.4381274 0.9932837 0.11427 -0.01816219 0.330647 0.1420512 0.9330028 0.3880329 0.9216457 0 0.1558345 0.5851833 -0.7957864 0.9882028 -0.1379626 0.06649583 0.482673 -0.8146619 0.3214853 0.9976351 -0.0687325 0 0.6589812 -0.6010226 0.452234 0.9913118 -0.129833 -0.02108174 0.7585359 -0.2396339 -0.6059695 0.6786761 -0.7344378 0 0.5555078 -0.7728116 -0.3068766 0.9797716 0 -0.2001193 0.917263 0.3480994 -0.1935343 0.6878693 0.1788371 -0.703458 0.4458242 0 -0.8951206 0.1288214 -0.9916679 0 0.3477907 -0.8578333 0.3783701 0.393355 -0.8559626 0.335559 0 -1 0 -0.3172244 -0.9034543 0.2883387 0 -0.98466 0.1744841 -0.3316077 -0.7925845 0.511709 -0.282182 -0.8171595 0.5026169 -0.2652067 -0.9269636 -0.2653377 -0.2365462 -0.7585492 -0.6071648 -0.3630282 -0.8939446 -0.2628189 -0.359984 -0.8791087 -0.3123772 0.2784716 -0.8985927 -0.3390944 0.3517332 -0.8852778 -0.3042483 0.2945727 -0.8112593 -0.5050597 0.282202 -0.8171292 -0.502655 0 -0.1077266 -0.9941806 -0.3730592 -0.2344721 -0.8976914 -0.2506636 -0.7721349 -0.583931 -0.5888906 -0.3999547 -0.7023134 -0.2247853 0.08316129 -0.9708531 -0.1500909 0.7542741 -0.6391739 0 0.1312797 -0.9913454 -0.8937284 0 -0.4486083 0.1456926 0.1990327 -0.9691026 0.9201976 0.08398318 -0.3823392 0 0.7259826 -0.6877132 0 0.7259836 -0.6877121 0.2314989 -0.1977444 -0.9525259 -0.07148277 0.8690161 -0.489593 0 -0.192651 -0.9812674 0.731877 -0.2718324 -0.6248707 0.2318622 -0.2002199 0.9519201 -0.5818434 -0.03812003 0.812407 0.1983164 -0.7578755 0.6215267 0.4083773 -0.5514708 0.7273982 0.08642399 0.04829853 0.9950871 7.14763e-5 0.7260004 0.6876944 0 0.2008364 0.9796249 0.307467 0 0.9515588 0 0.3318392 0.943336 -0.3867947 0.2162473 0.8964524 0 0.7259832 0.6877126 -0.3284334 0.7624906 0.5574402 -0.02016252 -0.1263939 0.9917752 -0.1984879 -0.7593414 0.6196799 0 -0.06630182 0.9977997 -0.4514818 -0.6011524 0.6593785 -0.8097443 -0.2249934 0.5419338 -0.9976487 -0.06853586 0 -0.5974422 -0.7756957 0.2033694 -0.6590271 -0.6010494 0.4521317 -0.9807938 0.1929336 -0.02864098 -0.751294 0.6538137 -0.08991694 -0.3305951 0.1421106 0.9330121 -0.6862989 0.7273197 0 -0.9829525 0.1031199 -0.1522194 -0.8223416 0.1790734 -0.5400808 -0.9251101 0.3268402 -0.1932532 -0.4458233 0 -0.895121 -0.9870812 -0.0961219 -0.1281853 -0.6986645 -0.6926419 -0.1792075 -0.9700231 -0.00262469 0.2429987 -0.5511105 -0.5094261 -0.66088 -0.2886868 0.9574236 0 -0.288686 0.9574239 0 1.01263e-4 1 0 1.01263e-4 1 0 1.01263e-4 1 -1.02096e-4 -0.3503821 -0.9096693 0.223012 0.1653028 0.9587005 -0.2314487 0 0.8988537 -0.4382487 0 0.9999985 -0.001799225 -0.2520108 0.9484477 -0.1921914 0.06234717 0.9592296 -0.2756657 -0.2034885 0.9405524 -0.2719446 0.9867428 0.1586141 0.03435331 0.9782267 0.2075394 0 0.3863257 0.9140059 -0.1238777 0.4458237 0 0.8951208 0.9902544 -0.137334 0.02314734 0.6666408 -0.7214129 0.1874932 0.9637643 -0.05990648 -0.259942 0.2845507 -0.9586611 0 0.9756193 -0.06346905 -0.2100927 0.9536238 0.01578366 0.3005871 0.7003737 -0.6910443 -0.1787026 0.7375915 -0.2716414 -0.6181989 0.9756166 0.1568261 -0.1535512 0.3491355 0.9227032 -0.1634726 0.4458227 0 -0.8951214 0.7285494 0.6293519 -0.2704294 0.1173555 -0.984842 0.1277266 0.2939189 -0.8554036 0.4264933 0.3922198 -0.9198716 0 0.3159073 -0.866684 0.3860846 -0.1401889 -0.9819009 0.127349 -0.4021375 -0.8809064 0.2495783 -0.3001559 -0.8962647 0.3265215 0 -0.7210256 0.6929085 -0.1169175 -0.9862339 -0.1169327 -0.1562079 -0.9027514 -0.4007982 -0.3592857 -0.8962457 -0.2601103 0.4854459 -0.5349034 -0.6915351 0.1142036 -0.9836628 -0.1391589 0.39222 -0.9198715 0 0.2714655 -0.8947047 -0.3546973 0.4659101 -0.8232091 -0.32443 -0.09689837 -0.146235 -0.9844928 0 -0.2033315 -0.97911 0 -0.7339097 -0.6792471 0.063313 0.8072507 -0.5868031 -0.1465331 0.1991429 -0.9689531 1.02326e-4 0.9961358 0.08782696 -0.9214792 0.08919054 -0.3780492 0 0.7259827 -0.687713 0.2242445 0.08180809 -0.9710932 0 0.1312643 -0.9913475 0.1439045 0.8174815 -0.5576877 0.8937282 0 -0.4486089 0.09693586 -0.1462604 -0.9844853 0.1980765 -0.719374 -0.6657829 0.6196517 -0.2174971 -0.7541399 0.4083752 -0.551476 -0.7273953 -0.02022808 -0.111622 0.9935449 0 -0.066302 0.9977997 -0.07148385 0.8690231 0.4895803 0.3509208 -0.5855004 0.7307831 3.26787e-5 0.3319255 0.9433057 7.3485e-5 0.7259824 0.6877133 0.3868172 0.2161677 0.896462 0.328571 0.7624858 0.5573657 -0.08641123 0.04831188 0.9950875 0 0.2008417 0.9796238 0 0.7259826 0.6877132 -0.3074586 0 0.9515616 0.02020496 -0.1116244 0.9935451 -0.1975346 -0.6861041 0.7001723 0.2655212 -0.05676525 0.9624325 -0.3165218 -0.7628709 0.5637748</float_array>
          <technique_common>
            <accessor source="#Cube_023-mesh-normals-array" count="185" stride="3">
              <param name="X" type="float"/>
              <param name="Y" type="float"/>
              <param name="Z" type="float"/>
            </accessor>
          </technique_common>
        </source>
        <vertices id="Cube_023-mesh-vertices">
          <input semantic="POSITION" source="#Cube_023-mesh-positions"/>
        </vertices>
        <polylist count="192">
          <input semantic="VERTEX" source="#Cube_023-mesh-vertices" offset="0"/>
          <input semantic="NORMAL" source="#Cube_023-mesh-normals" offset="1"/>
          <vcount>3 3 3 3 3 3 3 3 3 3 3 3 3 3 3 3 3 3 3 3 3 3 3 3 3 3 3 3 3 3 3 3 3 3 3 3 3 3 3 3 3 3 3 3 3 3 3 3 3 3 3 3 3 3 3 3 3 3 3 3 3 3 3 3 3 3 3 3 3 3 3 3 3 3 3 3 3 3 3 3 3 3 3 3 3 3 3 3 3 3 3 3 3 3 3 3 3 3 3 3 3 3 3 3 3 3 3 3 3 3 3 3 3 3 3 3 3 3 3 3 3 3 3 3 3 3 3 3 3 3 3 3 3 3 3 3 3 3 3 3 3 3 3 3 3 3 3 3 3 3 3 3 3 3 3 3 3 3 3 3 3 3 3 3 3 3 3 3 3 3 3 3 3 3 3 3 3 3 3 3 3 3 3 3 3 3 3 3 3 3 3 3 </vcount>
          <p>0 0 4 0 5 0 1 1 5 1 57 1 4 2 55 2 56 2 5 3 56 3 91 3 0 4 1 4 6 4 6 5 60 5 61 5 1 6 58 6 59 6 6 7 59 7 93 7 2 8 7 8 3 8 3 9 7 9 63 9 2 10 61 10 62 10 7 11 62 11 92 11 3 12 8 12 4 12 8 13 54 13 55 13 64 14 65 14 8 14 65 15 90 15 54 15 13 16 14 16 10 16 14 16 66 16 67 16 13 17 61 17 60 17 14 17 60 17 93 17 10 18 15 18 11 18 15 19 69 19 70 19 67 18 68 18 15 18 68 20 97 20 69 20 11 21 16 21 12 21 16 22 72 22 73 22 11 23 70 23 71 23 16 24 71 24 96 24 12 25 17 25 13 25 13 26 17 26 62 26 73 27 74 27 17 27 17 28 74 28 92 28 22 29 23 29 19 29 19 30 23 30 75 30 70 31 69 31 23 31 23 32 69 32 97 32 18 33 19 33 24 33 24 34 78 34 79 34 19 35 76 35 77 35 24 36 77 36 95 36 18 37 20 37 25 37 25 38 81 38 82 38 20 39 79 39 80 39 25 40 80 40 94 40 18 41 21 41 26 41 22 42 26 42 71 42 21 43 82 43 83 43 26 44 83 44 96 44 27 45 31 45 32 45 28 46 32 46 84 46 79 47 78 47 32 47 78 48 95 48 84 48 28 49 33 49 29 49 33 50 56 50 55 50 85 51 86 51 33 51 33 52 86 52 91 52 29 53 34 53 30 53 34 54 87 54 88 54 55 55 54 55 34 55 34 56 54 56 90 56 30 57 35 57 31 57 31 58 35 58 80 58 88 59 89 59 35 59 35 60 89 60 94 60 40 61 41 61 37 61 37 62 41 62 65 62 88 63 87 63 41 63 87 64 90 64 65 64 36 65 37 65 42 65 38 66 42 66 74 66 37 67 64 67 63 67 42 68 63 68 92 68 36 69 38 69 43 69 39 70 43 70 83 70 73 71 72 71 43 71 43 72 72 72 96 72 39 73 44 73 40 73 40 74 44 74 89 74 39 75 82 75 81 75 44 76 81 76 94 76 49 77 50 77 46 77 46 78 50 78 77 78 49 79 85 79 84 79 50 80 84 80 95 80 45 81 46 81 51 81 47 82 51 82 68 82 46 83 76 83 75 83 51 84 75 84 97 84 45 85 47 85 52 85 48 86 52 86 59 86 47 87 67 87 66 87 52 88 66 88 93 88 48 89 53 89 49 89 49 90 53 90 86 90 48 91 58 91 57 91 53 92 57 92 91 92 1 93 0 93 5 93 58 94 1 94 57 94 5 95 4 95 56 95 57 96 5 96 91 96 2 97 0 97 6 97 2 98 6 98 61 98 6 99 1 99 59 99 60 100 6 100 93 100 0 101 2 101 3 101 64 102 3 102 63 102 7 103 2 103 62 103 63 104 7 104 92 104 0 105 3 105 4 105 4 106 8 106 55 106 3 107 64 107 8 107 8 108 65 108 54 108 9 16 13 16 10 16 10 16 14 16 67 16 14 109 13 109 60 109 66 110 14 110 93 110 9 111 10 111 11 111 11 19 15 19 70 19 10 112 67 112 15 112 15 19 68 19 69 19 9 113 11 113 12 113 12 114 16 114 73 114 16 115 11 115 71 115 72 116 16 116 96 116 9 117 12 117 13 117 61 118 13 118 62 118 12 119 73 119 17 119 62 120 17 120 92 120 18 121 22 121 19 121 76 122 19 122 75 122 22 123 70 123 23 123 75 124 23 124 97 124 20 125 18 125 24 125 20 126 24 126 79 126 24 127 19 127 77 127 78 128 24 128 95 128 21 129 18 129 25 129 21 130 25 130 82 130 25 131 20 131 80 131 81 132 25 132 94 132 22 133 18 133 26 133 70 134 22 134 71 134 26 135 21 135 83 135 71 136 26 136 96 136 28 137 27 137 32 137 85 138 28 138 84 138 31 139 79 139 32 139 32 140 78 140 84 140 27 141 28 141 29 141 29 142 33 142 55 142 28 143 85 143 33 143 56 144 33 144 91 144 27 145 29 145 30 145 30 146 34 146 88 146 29 147 55 147 34 147 87 148 34 148 90 148 27 149 30 149 31 149 79 150 31 150 80 150 30 151 88 151 35 151 80 152 35 152 94 152 36 153 40 153 37 153 64 154 37 154 65 154 40 155 88 155 41 155 41 156 87 156 65 156 38 157 36 157 42 157 73 158 38 158 74 158 42 159 37 159 63 159 74 160 42 160 92 160 39 161 36 161 43 161 82 162 39 162 83 162 38 163 73 163 43 163 83 164 43 164 96 164 36 165 39 165 40 165 88 166 40 166 89 166 44 167 39 167 81 167 89 168 44 168 94 168 45 169 49 169 46 169 76 170 46 170 77 170 50 171 49 171 84 171 77 172 50 172 95 172 47 173 45 173 51 173 67 174 47 174 68 174 51 175 46 175 75 175 68 176 51 176 97 176 48 177 45 177 52 177 58 178 48 178 59 178 52 179 47 179 66 179 59 180 52 180 93 180 45 181 48 181 49 181 85 182 49 182 86 182 53 183 48 183 57 183 86 184 53 184 91 184</p>
        </polylist>
      </mesh>
    </geometry>
  </library_geometries>
  <library_controllers/>
  <library_visual_scenes>
    <visual_scene id="Scene" name="Scene">
      <node id="COL_VIZ_LeftFingerJoint52y_link_0" name="COL_VIZ_LeftFingerJoint52y_link_0" type="NODE">
        <instance_geometry url="#Cube_023-mesh" name="COL_VIZ_LeftFingerJoint52y_link_0"/>
      </node>
    </visual_scene>
  </library_visual_scenes>
  <scene>
    <instance_visual_scene url="#Scene"/>
  </scene>
</COLLADA>