<?xml version="1.0" encoding="utf-8"?>
<COLLADA xmlns="http://www.collada.org/2005/11/COLLADASchema" version="1.4.1">
  <asset>
    <contributor>
      <author>Blender User</author>
      <authoring_tool>Blender 2.76.0 commit date:2015-11-03, commit time:10:56, hash:f337fea</authoring_tool>
    </contributor>
    <created>2017-01-25T08:36:06</created>
    <modified>2017-01-25T08:36:06</modified>
    <unit name="meter" meter="1"/>
    <up_axis>Z_UP</up_axis>
  </asset>
  <library_images/>
  <library_geometries>
    <geometry id="Cube_033-mesh" name="Cube.033">
      <mesh>
        <source id="Cube_033-mesh-positions">
          <float_array id="Cube_033-mesh-positions-array" count="294">-8.618164 13.85308 2.099172 -3.554555 32.83047 18.48778 -2.41933 52.51388 3.92542e-4 -2.646543 24.31128 -26.20017 -6.441084 1.303018 -2.23558 -3.516468 4.003692 14.16955 -3.719319 51.37346 17.54696 -5.073663 40.51887 -24.83964 -5.433967 3.434275 -16.90425 1.250016 52.01097 0.1493594 1.416664 52.53796 16.86918 1.416664 51.00617 16.19381 1.065537 49.10177 -3.821982 -1.523815 53.54267 4.20676e-4 -1.686115 52.53796 16.86918 -1.416811 51.00617 16.19381 1.439451 52.90557 -2.855298 -1.170293 51.37378 -2.179922 10.93061 7.049776 -1.678699 6.053983 38.41717 18.76848 8.225148 1.320491 -1.53231 5.127244 35.86288 -26.57687 2.419183 52.51388 3.9194e-4 2.696783 51.98235 17.92256 1.608375 4.356433 11.7272 6.24452 4.108358 -16.1503 4.686983 39.56388 -24.3689 -2.806188 0.9230774 -1.90573 -0.6062093 3.012382 13.46157 -2.806188 0.9230774 -1.90573 -2.525578 2.705496 -12.8127 4.622519 -0.6059112 -1.6176 1.96101 3.223612 13.17967 1.691705 4.755403 12.5043 -2.927083 -0.6127604 -10.27594 1.641072 -0.6086505 -10.23678 3.65017 24.29869 -25.4829 -2.107934 24.31129 -25.5248 4.686983 39.56388 -24.3689 3.65017 24.29869 -25.4829 -2.289899 4.714886 -15.6095 -2.289899 4.714886 -15.6095 -3.996444 38.98708 -23.48889 4.686983 39.56388 -24.3689 6.487349 7.319498 -17.8051 1.28794 32.81007 18.09031 5.784678 38.41717 19.44386 1.869604 49.20897 17.03751 -3.015945 32.83047 17.81241 -2.022339 5.276536 14.92125 1.541365 5.201652 13.1877 1.869604 49.20897 17.03751 -1.86975 49.20897 17.03751 -2.02234 6.042431 13.5705 -4.356747 4.966066 -15.5535 -2.806188 0.9230774 -1.90573 -1.795819 3.251431 13.54067 -0.9559761 5.149563 13.4084 -3.015945 32.83047 17.81241 -1.548322 50.60746 18.52636 -1.416811 51.00617 16.19381 -3.17821 52.53836 12.13761 -1.708902 52.90557 -2.855298 -3.996444 38.98708 -23.48889 -2.107934 24.31129 -25.5248 -4.499739 7.947366 -17.3033 -1.416811 51.00617 16.19381 -1.416811 51.00617 16.19381 -1.416811 51.00617 16.19381 1.416664 51.00617 16.19381 1.955274 52.53796 16.19381 1.708756 52.90557 -2.855298 4.686983 39.56388 -24.3689 4.686983 39.56388 -24.3689 -2.019838 39.57128 -24.43899 1.548176 50.60746 18.52636 5.515374 38.41717 18.09311 1.541365 5.201652 13.1877 2.230315 3.223612 13.17967 5.016693 -0.6055493 -5.650929 6.783129 2.576568 -16.82567 6.24452 4.108358 -16.1503 4.588634 35.86288 -25.9015 4.588634 35.86288 -25.9015 1.691705 4.755403 12.5043 -0.3767107 4.823282 13.2 -0.3767107 4.823282 13.2 -4.356747 4.966066 -15.5535 -4.356747 4.966066 -15.5535 3.634144 3.723488 -16.3386 -4.356747 4.966066 -15.5535 -2.006149 4.802982 12.3099 -3.996444 38.98708 -23.48889 -1.61971 50.45057 16.57181 6.24452 4.108358 -16.1503 1.691705 4.755403 12.5043 4.686983 39.56388 -24.3689 1.619564 50.45057 16.57181</float_array>
          <technique_common>
            <accessor source="#Cube_033-mesh-positions-array" count="98" stride="3">
              <param name="X" type="float"/>
              <param name="Y" type="float"/>
              <param name="Z" type="float"/>
            </accessor>
          </technique_common>
        </source>
        <source id="Cube_033-mesh-normals">
          <float_array id="Cube_033-mesh-normals-array" count="411">-0.9490714 -0.2365253 0.2081329 0.3388002 -0.1389469 0.9305419 -0.3450151 -0.9245235 0.1619282 0.7281088 -0.3626906 -0.5816469 -0.9971261 -0.01264995 -0.07469713 0.2830857 0.9313817 0.2288902 0.7787051 -0.08922833 0.6210126 0.9378908 -0.3468717 -0.006411969 -0.9867517 0.159751 0.02829915 0.8551029 0.1691926 -0.4900746 -0.5981426 0.8004396 -0.03901094 0.8842996 0.3357259 -0.3245034 -0.9807263 0.04643583 -0.1897884 0.8278133 -0.5604643 -0.02459585 0.7188823 -0.3931089 -0.5733007 0.8686745 -0.2191039 -0.4442951 0.4802774 0.8752787 0.05675286 0 0 1 -0.9134227 -0.2875794 0.2880231 0 -0.4034357 0.9150081 0 0.5625021 0.8267959 -0.9541346 0.2980113 0.02857369 -0.9580014 0.1554173 -0.2409951 0 0.9998139 0.01929438 0.3463533 0.7490319 -0.5647925 0.9519429 0.2799805 -0.12416 0.005393087 0.907388 -0.4202595 -0.4338896 0.802741 -0.4090803 0.9707986 0.2397652 -0.007926046 0.3254469 0.1388689 0.9353073 -0.8399707 0.2953523 0.4552103 -0.8226031 0.08236783 0.5626185 0.8214061 -0.216307 0.5277344 0.7202022 0.6618982 0.2078453 -0.781821 0.001458287 0.6235014 0.3489091 0.817972 -0.4573669 0.8839301 -0.422526 -0.2003479 0.9468734 0.2371697 0.2172126 0.9947725 0.09240114 0.04347079 0.8793143 0.4495893 -0.1570861 -0.2049048 -0.9558733 0.2105241 0.3006429 0.4285268 0.8520439 0.96649 0.2386869 0.09447562 0 0.4034329 0.9150093 -0.6096088 0.7924383 -0.02046662 0.4206174 -0.9007552 0.1082645 -0.4111208 0.5316602 0.7404844 0.3482877 -0.5955463 -0.7238925 -0.9780091 -0.2021743 0.05122244 -0.5580859 -0.8165155 -0.1477932 0.2967981 -0.929761 -0.2178425 -0.180817 -0.8146243 -0.551083 0.00619632 0.4052471 -0.9141862 0.0231924 -0.4515241 -0.8919575 0.007509171 0.1383539 -0.9903544 0.004458665 -0.8559529 -0.5170348 -0.1607808 -0.2606484 -0.9519517 0.8937314 -0.08844822 -0.4397968 0.4295946 -0.1540612 0.8897829 0.1632544 -0.8092421 0.5643361 -0.9463059 -0.3110895 0.08791208 -0.9787063 -0.2043525 -0.0193423 0 0.06406742 0.9979457 0.9869766 -0.07578378 -0.1418941 0.8811647 -1.03254e-4 0.4728096 -0.06436908 -0.1584065 0.9852736 -0.01979809 0.1556551 -0.9876132 -0.2718208 -0.8122362 0.5161257 -0.9347668 -0.05383837 0.3511588 0.7811646 -0.04098236 0.6229787 -0.1185342 -0.9761595 0.1818307 0.3140566 -0.07299166 0.9465943 -0.980003 0.1633047 0.1136921 -0.9835513 0.1697144 -0.06183904 -0.3982091 0.04295182 0.9162885 0.2555631 0.9504747 0.1768768 -0.9608536 -0.1230523 -0.2482304 0.7684872 0.1839103 -0.6128659 -0.8581557 0.4921985 -0.1459779 -0.9861323 -0.1406236 -0.0881372 -0.07518827 -0.9583935 -0.2753703 0.9564543 -0.2154057 -0.1969662 0 0.9995037 -0.03150314 0 -0.4034293 0.9150109 -0.179739 0.9820753 0.05676358 0.9999391 0.004456222 -0.01010692 -0.9939151 0.1056343 -0.03121256 -0.9428994 0.3315438 0.03193056 0 0.8498468 -0.52703 0.4079614 0.6795048 -0.6097876 -0.8335831 0.5481597 -0.06826657 0.4706447 0.771961 -0.427282 0.9422166 0.2198584 -0.2527647 0.9813213 0.1855862 -0.05065792 -0.7535294 -0.2665864 0.600937 0.5764779 0.8169695 0.01530027 -0.7817162 0.6187102 -0.07821553 0.797324 -0.3642132 0.4812727 0.266848 -0.9359387 0.2298068 0.9785543 -0.1556206 0.1349587 0.9463304 0.2348469 -0.222049 0.9531562 -0.06356436 -0.2957247 -0.7615589 -0.2262127 -0.6073352 0.6968922 -0.6811863 -0.2243359 0.982702 0.1845457 -0.01548892 0.4470227 0.8944491 0.01147627 -0.7530652 0.2687112 -0.6005724 0.09457141 -0.9881607 0.1208093 0.09763646 0.1301465 0.9866758 0 -0.968105 0.2505454 -0.3201532 -0.09557038 -0.942533 0.315423 -0.07983076 0.9455873 0.9933396 -0.1150257 0.00675863 -0.2037232 -0.9764667 0.07077986 9.18617e-4 -0.9999997 0 -0.2249076 -0.7583223 -0.611853 -0.3520205 -0.7050865 -0.6155766 0.005504667 -0.4515079 -0.8922502 -0.08489644 -0.5073782 -0.8575313 -0.105735 0.07951641 -0.9912101 -0.9898643 0.07598716 -0.1199773 -0.09946864 -0.4237311 -0.90031 0.09752821 0.898124 -0.4287908 0.2269975 0.4325058 0.8725887 0.1313799 -0.4619446 -0.8771241 -0.07722854 -0.1750063 0.9815338 0.976884 -0.08811366 -0.1947656 0.1792747 -0.8955606 0.4072245 -0.3693668 0.07257854 0.9264451 0.936142 0.2979989 -0.1866408 -0.05442827 0.3410452 0.9384699 -0.06410551 0.0516377 0.9966064 0 0.424955 0.9052146 0.9787064 -0.2043521 -0.01934361 -0.9916884 0.1119235 0.06346255 -0.6028052 -0.6940768 -0.3935523 0.5311994 0.5118529 0.6751548</float_array>
          <technique_common>
            <accessor source="#Cube_033-mesh-normals-array" count="137" stride="3">
              <param name="X" type="float"/>
              <param name="Y" type="float"/>
              <param name="Z" type="float"/>
            </accessor>
          </technique_common>
        </source>
        <vertices id="Cube_033-mesh-vertices">
          <input semantic="POSITION" source="#Cube_033-mesh-positions"/>
        </vertices>
        <polylist count="192">
          <input semantic="VERTEX" source="#Cube_033-mesh-vertices" offset="0"/>
          <input semantic="NORMAL" source="#Cube_033-mesh-normals" offset="1"/>
          <vcount>3 3 3 3 3 3 3 3 3 3 3 3 3 3 3 3 3 3 3 3 3 3 3 3 3 3 3 3 3 3 3 3 3 3 3 3 3 3 3 3 3 3 3 3 3 3 3 3 3 3 3 3 3 3 3 3 3 3 3 3 3 3 3 3 3 3 3 3 3 3 3 3 3 3 3 3 3 3 3 3 3 3 3 3 3 3 3 3 3 3 3 3 3 3 3 3 3 3 3 3 3 3 3 3 3 3 3 3 3 3 3 3 3 3 3 3 3 3 3 3 3 3 3 3 3 3 3 3 3 3 3 3 3 3 3 3 3 3 3 3 3 3 3 3 3 3 3 3 3 3 3 3 3 3 3 3 3 3 3 3 3 3 3 3 3 3 3 3 3 3 3 3 3 3 3 3 3 3 3 3 3 3 3 3 3 3 3 3 3 3 3 3 </vcount>
          <p>0 0 4 0 5 0 1 1 5 1 57 1 55 2 56 2 5 2 56 3 91 3 57 3 1 4 6 4 2 4 6 5 60 5 61 5 1 6 58 6 59 6 59 7 93 7 60 7 0 8 2 8 7 8 3 9 7 9 63 9 2 10 61 10 62 10 7 11 62 11 92 11 0 12 3 12 8 12 4 13 8 13 54 13 3 14 64 14 65 14 8 15 65 15 90 15 9 16 13 16 14 16 14 17 66 17 67 17 61 18 60 18 14 18 60 17 93 17 66 17 10 19 15 19 11 19 11 17 15 17 69 17 67 17 68 17 15 17 68 20 97 20 69 20 9 21 11 21 16 21 12 22 16 22 72 22 70 23 71 23 16 23 71 17 96 17 72 17 9 24 12 24 17 24 13 25 17 25 62 25 12 26 73 26 74 26 17 27 74 27 92 27 22 28 23 28 19 28 19 29 23 29 75 29 70 30 69 30 23 30 23 31 69 31 97 31 18 32 19 32 24 32 20 33 24 33 78 33 19 34 76 34 77 34 24 35 77 35 95 35 18 36 20 36 25 36 25 17 81 17 82 17 79 37 80 37 25 37 25 17 80 17 94 17 21 38 26 38 22 38 22 39 26 39 71 39 21 17 82 17 83 17 26 17 83 17 96 17 27 40 31 40 32 40 32 41 84 41 85 41 31 42 79 42 78 42 32 43 78 43 95 43 27 44 28 44 33 44 33 45 56 45 55 45 28 17 85 17 86 17 86 46 91 46 56 46 27 17 29 17 34 17 30 47 34 47 87 47 55 48 54 48 34 48 54 17 90 17 87 17 27 49 30 49 35 49 35 50 80 50 79 50 30 51 88 51 89 51 89 52 94 52 80 52 40 17 41 17 37 17 37 53 41 53 65 53 88 17 87 17 41 17 41 17 87 17 90 17 36 54 37 54 42 54 38 55 42 55 74 55 64 17 63 17 42 17 42 17 63 17 92 17 38 17 43 17 39 17 43 17 83 17 82 17 73 17 72 17 43 17 43 17 72 17 96 17 36 17 39 17 44 17 40 56 44 56 89 56 39 57 82 57 81 57 81 17 94 17 89 17 45 58 49 58 50 58 50 17 77 17 76 17 85 59 84 59 50 59 84 17 95 17 77 17 46 17 51 17 47 17 51 17 68 17 67 17 76 60 75 60 51 60 51 61 75 61 97 61 45 62 47 62 52 62 52 63 59 63 58 63 67 17 66 17 52 17 52 64 66 64 93 64 45 65 48 65 53 65 53 17 86 17 85 17 58 66 57 66 53 66 57 67 91 67 86 67 1 68 0 68 5 68 58 69 1 69 57 69 4 70 55 70 5 70 5 71 56 71 57 71 0 72 1 72 2 72 2 73 6 73 61 73 6 74 1 74 59 74 6 75 59 75 60 75 3 76 0 76 7 76 64 77 3 77 63 77 7 78 2 78 62 78 63 17 7 17 92 17 4 79 0 79 8 79 55 80 4 80 54 80 8 81 3 81 65 81 54 17 8 17 90 17 10 82 9 82 14 82 10 83 14 83 67 83 13 84 61 84 14 84 14 17 60 17 66 17 9 85 10 85 11 85 70 17 11 17 69 17 10 17 67 17 15 17 15 17 68 17 69 17 12 86 9 86 16 86 73 17 12 17 72 17 11 87 70 87 16 87 16 88 71 88 72 88 13 89 9 89 17 89 61 90 13 90 62 90 17 91 12 91 74 91 62 92 17 92 92 92 18 93 22 93 19 93 76 94 19 94 75 94 22 95 70 95 23 95 75 96 23 96 97 96 20 97 18 97 24 97 79 98 20 98 78 98 24 99 19 99 77 99 78 100 24 100 95 100 21 101 18 101 25 101 21 102 25 102 82 102 20 103 79 103 25 103 81 17 25 17 94 17 18 104 21 104 22 104 70 105 22 105 71 105 26 106 21 106 83 106 71 17 26 17 96 17 28 107 27 107 32 107 28 108 32 108 85 108 32 109 31 109 78 109 84 17 32 17 95 17 29 17 27 17 33 17 29 17 33 17 55 17 33 110 28 110 86 110 33 111 86 111 56 111 30 112 27 112 34 112 88 17 30 17 87 17 29 17 55 17 34 17 34 17 54 17 87 17 31 113 27 113 35 113 31 114 35 114 79 114 35 115 30 115 89 115 35 116 89 116 80 116 36 117 40 117 37 117 64 17 37 17 65 17 40 17 88 17 41 17 65 118 41 118 90 118 38 119 36 119 42 119 73 17 38 17 74 17 37 17 64 17 42 17 74 17 42 17 92 17 36 17 38 17 39 17 39 120 43 120 82 120 38 17 73 17 43 17 83 17 43 17 96 17 40 121 36 121 44 121 88 122 40 122 89 122 44 123 39 123 81 123 44 124 81 124 89 124 46 125 45 125 50 125 46 126 50 126 76 126 49 127 85 127 50 127 50 17 84 17 77 17 45 128 46 128 47 128 47 17 51 17 67 17 46 129 76 129 51 129 68 130 51 130 97 130 48 131 45 131 52 131 48 17 52 17 58 17 47 132 67 132 52 132 59 133 52 133 93 133 49 134 45 134 53 134 49 135 53 135 85 135 48 17 58 17 53 17 53 136 57 136 86 136</p>
        </polylist>
      </mesh>
    </geometry>
  </library_geometries>
  <library_controllers/>
  <library_visual_scenes>
    <visual_scene id="Scene" name="Scene">
      <node id="COL_VIZ_LWy_link_0" name="COL_VIZ_LWy_link_0" type="NODE">
        <instance_geometry url="#Cube_033-mesh" name="COL_VIZ_LWy_link_0"/>
      </node>
    </visual_scene>
  </library_visual_scenes>
  <scene>
    <instance_visual_scene url="#Scene"/>
  </scene>
</COLLADA>