<?xml version="1.0" encoding="utf-8"?>
<COLLADA xmlns="http://www.collada.org/2005/11/COLLADASchema" version="1.4.1">
  <asset>
    <contributor>
      <author>Blender User</author>
      <authoring_tool>Blender 2.76.0 commit date:2015-11-03, commit time:10:56, hash:f337fea</authoring_tool>
    </contributor>
    <created>2017-01-25T08:36:08</created>
    <modified>2017-01-25T08:36:08</modified>
    <unit name="meter" meter="1"/>
    <up_axis>Z_UP</up_axis>
  </asset>
  <library_images/>
  <library_geometries>
    <geometry id="Cube_049-mesh" name="Cube.049">
      <mesh>
        <source id="Cube_049-mesh-positions">
          <float_array id="Cube_049-mesh-positions-array" count="294">-9.879123 -35.11738 -6.58219e-5 -9.407632 -35.11738 2.397911 -9.242074 -32.7657 -0.4056726 -9.407632 -35.11738 -2.398045 -9.253454 -38.07917 -6.70988e-5 -8.897038 -37.34982 2.132815 -8.614498 -32.88604 1.980946 -8.897378 -33.49504 -2.132948 -8.614027 -37.95872 -1.98108 -3.766317 -30.61532 -0.5948267 -3.982686 -30.87832 2.143013 -2.569777 -30.87822 -0.508264 -4.366176 -30.87832 -2.304654 -7.178974 -30.87862 -0.508264 -7.348556 -31.96911 2.474206 -2.332685 -31.49351 1.531537 -2.332685 -31.49351 -1.531668 -6.981008 -31.49391 -2.106728 0.1310634 -35.11658 -6.77487e-5 -0.34042 -35.11658 2.397911 -0.505908 -38.07847 0.405539 -0.3404289 -35.11658 -2.398045 -0.506379 -32.765 -0.4056745 -1.133953 -32.88544 1.980946 -0.8506129 -37.34912 2.132815 -0.8506129 -37.34912 -2.13295 -0.8509529 -33.49434 -2.132948 -4.256815 -40.37965 0.07341617 -4.580585 -39.59125 2.94141 -7.815142 -39.59156 0.2929967 -4.206685 -39.59125 -2.874136 -1.999578 -39.59105 0.6668993 -2.766985 -39.35026 2.106594 -7.415306 -39.35066 1.531535 -7.627265 -39.35066 -1.028375 -2.766985 -39.35026 -2.10673 -3.781937 -35.11688 -4.880738 -6.447915 -35.11708 -4.880738 -4.468615 -32.7653 -4.367908 -2.522588 -34.48848 -4.44708 -4.468155 -38.07877 -4.36791 -7.650666 -37.95862 -3.138298 -7.651135 -32.88604 -3.138296 -2.097325 -32.88554 -3.138296 -2.892755 -37.95822 -3.740328 -3.781927 -35.11688 4.880606 -3.300137 -35.11688 4.880606 -4.468615 -32.7653 4.367776 -6.447915 -35.11708 4.880606 -4.468145 -38.07877 4.367775 -4.106802 -37.95832 4.126883 -2.741275 -33.49454 4.023133 -6.855237 -32.88594 3.740195 -7.650666 -37.95862 3.138163 -8.492538 -38.87556 -1.168856 -8.492538 -38.87556 -0.807517 -8.235918 -38.87556 1.778026 -8.012008 -37.95862 3.138163 -8.454498 -35.11728 3.580394 -8.012468 -32.88604 3.138165 -8.236497 -31.96921 1.778037 -8.493118 -31.96921 -0.807514 -8.493118 -31.96921 -1.168853 -8.012477 -32.88604 -3.138296 -8.238898 -33.85628 -3.364796 -8.012008 -37.95862 -3.138298 -6.652378 -31.96901 3.362145 -6.291035 -31.96901 3.362145 -2.400015 -31.96861 2.835536 -2.038673 -31.96861 2.474196 -1.255443 -31.96861 -0.807516 -1.133953 -32.52411 -1.981078 -2.097325 -32.52421 -3.138296 -3.457527 -31.96871 -3.362276 -6.652378 -31.96901 -3.362276 -1.362933 -34.12704 3.511084 -1.362933 -34.48838 3.511084 -1.509093 -37.34912 3.364663 -2.038083 -38.87506 2.474204 -1.173253 -38.87496 0.3547229 -1.511483 -38.87496 -1.778171 -2.531413 -37.95822 -3.740328 -1.362943 -34.48838 -3.511216 -1.362943 -34.12704 -3.511217 -3.095595 -38.87516 3.362143 -4.066245 -38.87516 3.618763 -6.651797 -38.87546 3.362143 -6.651797 -38.87546 -3.362278 -6.290455 -38.87546 -3.362278 -3.095605 -38.87516 -3.362278 -7.995023 -38.63467 -1.898607 -7.997663 -37.47017 3.12377 -7.771583 -32.7656 -2.897404 -7.998003 -33.3745 3.123771 -2.278988 -38.63417 -2.594786 -1.976408 -38.07857 2.897271 -1.752968 -32.2095 -1.898604 -1.750318 -33.374 3.123771</float_array>
          <technique_common>
            <accessor source="#Cube_049-mesh-positions-array" count="98" stride="3">
              <param name="X" type="float"/>
              <param name="Y" type="float"/>
              <param name="Z" type="float"/>
            </accessor>
          </technique_common>
        </source>
        <source id="Cube_049-mesh-normals">
          <float_array id="Cube_049-mesh-normals-array" count="576">-0.952636 -0.2012425 0.2280045 -0.7936637 -0.2123309 0.5700997 -0.6859673 -0.7244401 0.06808507 -0.6926987 -0.4340876 0.5759659 -0.9157464 0.3591508 0.1800535 -0.8741307 0.4159076 0.2508318 -0.7500106 0.2683992 0.6045212 0.8864272 0.03984111 -0.4611502 -0.9389697 0.2069665 -0.2747742 -0.7988989 0.3071578 -0.5171216 -0.7285107 0.6850343 0 -0.6843231 0.5103672 -0.5207948 -0.9392168 -0.2894292 -0.184669 -0.9913342 -0.1313645 0 -0.584896 -0.0769304 -0.8074519 -0.6697025 -0.6558003 -0.3484603 -0.2638328 0.9106547 0.3179631 0 1 -1.12949e-4 -0.6459077 0.7607191 0.06410694 -0.5176282 0.544313 0.6601397 0.385106 0.915252 0.1183524 0.6666283 0.7282125 0.1591019 0.1034403 0.6359243 0.7647879 0.6394754 0.4267737 0.6394808 0.2219839 0.8575028 -0.4641253 0.4000018 0.7969314 -0.4526576 0.5503154 0.7752735 -0.3100063 0.1753882 0.557763 -0.811258 -0.2392464 0.8958459 -0.3744615 -0.4781757 0.7981619 -0.3664499 -6.56223e-5 0.6962098 -0.7178384 -0.6357088 0.6520672 -0.4131376 0.9206655 0.293879 0.2569248 0.8244109 0.372801 0.4258711 0.7466468 0.6409091 0.1781973 0.7195461 0.4075264 0.562295 0.9525547 -0.2399223 0.1872883 0.7812697 -0.5366632 0.3187637 0.7139317 -0.07212418 0.696491 0.6663214 -0.6550962 0.3561809 0.9528315 -0.231749 -0.1959712 0.7139104 -0.196022 -0.6722407 0.7646517 -0.632933 -0.1212582 0.5972806 -0.417868 -0.6845745 0.928896 0.3221722 -0.18264 0.8984208 0.310639 -0.3103929 0.9374099 -4.48766e-7 -0.3482282 0.6623963 0.5565065 -0.5015295 0.2478556 -0.9253467 0.2868816 0.3013076 -0.8630388 0.4054355 0.6869369 -0.6704995 0.2802647 0.5849741 -0.4153295 0.6966396 -0.1994056 -0.950388 0.2387468 -0.4090029 -0.8619236 0.2996739 -0.07442337 -0.6565433 0.750608 -0.617662 -0.4867687 0.6176974 -0.2236959 -0.9527498 -0.2054945 -0.2174833 -0.9346788 -0.2812058 -0.481298 -0.8765571 0 -0.3525388 -0.7902571 -0.5012087 0.2848269 -0.9272238 -0.2431661 0.3901083 -0.9017413 -0.1862208 5.23807e-5 -0.5633119 -0.8262445 0.5941418 -0.6884282 -0.4160073 -0.3458426 -0.3797492 -0.8580114 0 -0.522749 -0.8524868 0 0.2373138 -0.9714332 -0.6448642 -0.581352 -0.4961653 -0.3349686 0.4610946 -0.8216981 -0.3607902 0.1689168 -0.9172227 0 0.227335 -0.9738166 0 0.8944247 -0.4472185 0.4171782 0.5058191 -0.755056 0.4497071 0.4902737 -0.7465891 0.1624798 6.24808e-7 -0.9867119 0.9635187 0 -0.2676411 0.4153322 -0.2238999 -0.8816847 0.3631229 -0.4226816 -0.8303505 0.6201336 -0.158093 -0.7684016 0.6368971 -0.5943396 -0.4910423 0.5947175 -0.2689607 0.757609 0.33615 -0.3294702 0.8822996 0.2263517 -0.4644817 0.8561668 0.6359375 -0.6617915 0.3970082 0 0.4672854 0.8841065 0.3720367 0.5168528 0.7710071 0.3482443 0 0.9374039 0.5044578 0.5857706 0.6343463 -0.2517058 0.403647 0.8796099 -0.4458831 0.2581983 0.8570426 0 0.3811695 0.9245052 -0.5632302 0.4183886 0.7125467 -0.3458413 -0.3797501 0.8580114 -0.3607625 -0.1689664 0.9172245 0 -0.1537895 0.9881037 0 -0.02945369 -0.9995661 -0.9525123 -0.240094 0.1872843 -0.754849 -0.2448986 0.6084634 -0.8511217 -0.4365889 0.291517 0.7373426 -0.04152041 -0.6742418 -0.9207161 0.2937251 0.2569194 -0.7087521 0.7019418 0.07034331 -0.8232319 0.3726511 0.4282763 -0.7125421 0.4184176 0.5632146 -0.9289486 0.3220163 -0.1826477 -0.787732 0.3324949 -0.5185804 -0.8262335 0.44065 -0.35095 -0.5054759 0.8595092 0.07575005 -0.9295726 -0.1963697 -0.3119837 -0.8223188 -0.4865814 -0.2950091 -0.8460123 -0.3008879 -0.4401473 -0.5648091 -0.5878848 -0.579122 -0.07435864 0.9932045 0.08953046 -0.2644355 0.9115645 0.3148399 -0.25084 0.9136757 0.3198064 -0.6602009 0.5442991 0.517565 0.1888006 0.9460256 0.26342 0.651233 0.7441526 0.1487702 0.4343474 0.8388774 0.3280658 0.3375696 0.8786872 0.3375734 0.3705795 0.8896411 -0.2668513 0.4123167 0.7876542 -0.4578167 0.5574104 0.7622171 -0.329118 0.6316487 0.6912745 -0.3509409 -0.07946193 0.989063 -0.1242581 -0.6386176 0.7695243 0 -0.2386706 0.8859269 -0.397706 -0.5346633 0.6602934 -0.5273973 0.9156827 0.3593205 0.1800393 0.7364652 0 0.6764755 0.6573376 0.7239236 0.2093849 0.5795327 0.5882259 0.5640322 0.9505099 -0.1686827 0.2609161 0.6921275 -0.6050155 0.3935935 0.8540449 -0.2493801 0.4565271 0.6761686 -0.3857614 0.6276816 0.9525548 -0.2399188 -0.1872924 0.6466414 -0.2339807 -0.726022 0.8685057 -0.4324812 -0.242194 0.6669575 -0.5680623 -0.4821546 0.9389365 0.2071243 -0.2747683 0.7628659 0.6113606 -0.2104135 0.7805528 0.3321744 -0.5295257 -0.06230825 0.1365814 -0.9886674 0.2531549 -0.9251399 0.2828938 0.1720986 -0.7393469 0.6509596 0.3829236 -0.8560147 0.3472876 0.3441192 -0.8448079 0.4097337 -0.1949261 -0.9490728 0.2475173 -0.7809769 -0.6197312 0.07751494 -0.2452997 -0.9085574 0.3381593 -0.3767454 -0.8462178 0.3768004 -0.2046781 -0.9447134 -0.2561708 0 -0.5634096 -0.8261777 -0.5123766 -0.8290352 -0.2239887 -0.5483895 -0.7444934 -0.380787 0.3663775 -0.9127693 -0.1806101 0.6298121 -0.7702998 -0.09987503 0.3593551 -0.8377857 -0.4110705 0.4160903 -0.688445 -0.5940643 1.30906e-5 -0.1706066 -0.9853392 -0.675464 -0.07784354 -0.7332727 -0.3529902 -0.3078482 -0.8835313 0 -0.8779392 -0.4787722 -1.63486e-5 0.2130671 -0.9770376 -7.39948e-5 0.7839063 -0.6208792 -0.3901244 0.4267956 -0.8158729 -0.6190884 0.5335047 -0.5762831 0.1942874 0.2628341 -0.9450771 0.6280198 0 -0.7781975 0.4297738 0.4457777 -0.7852241 0.6793115 0.5483313 -0.4877179 0.3750084 -0.2418317 -0.8949224 7.29468e-5 -0.7838953 -0.6208931 0 -0.1995916 -0.9798792 0 -0.3811729 -0.9245039 0 -0.2563937 0.9665725 0.5911247 -0.07132285 0.8034207 0.5975726 -0.3682854 0.7122309 0.33876 -0.3536224 0.8718905 0.3023609 0.2865484 0.9091029 0.07235622 0.84158 0.535264 0.4978375 0.2649737 0.8258007 0.5839122 0.4132466 0.6987659 -1.60512e-5 0.2130662 0.9770379 -0.5164737 0.3130912 0.7970126 -0.2443554 0.4943055 0.8342376 0.4611436 0.0397762 -0.8864336 1.30906e-5 -0.1706073 0.9853391 -0.07025879 -0.7019953 0.7087076 -0.5230241 -0.2736021 0.8072099 0.4689515 0.3087617 -0.8274966</float_array>
          <technique_common>
            <accessor source="#Cube_049-mesh-normals-array" count="192" stride="3">
              <param name="X" type="float"/>
              <param name="Y" type="float"/>
              <param name="Z" type="float"/>
            </accessor>
          </technique_common>
        </source>
        <vertices id="Cube_049-mesh-vertices">
          <input semantic="POSITION" source="#Cube_049-mesh-positions"/>
        </vertices>
        <polylist count="192">
          <input semantic="VERTEX" source="#Cube_049-mesh-vertices" offset="0"/>
          <input semantic="NORMAL" source="#Cube_049-mesh-normals" offset="1"/>
          <vcount>3 3 3 3 3 3 3 3 3 3 3 3 3 3 3 3 3 3 3 3 3 3 3 3 3 3 3 3 3 3 3 3 3 3 3 3 3 3 3 3 3 3 3 3 3 3 3 3 3 3 3 3 3 3 3 3 3 3 3 3 3 3 3 3 3 3 3 3 3 3 3 3 3 3 3 3 3 3 3 3 3 3 3 3 3 3 3 3 3 3 3 3 3 3 3 3 3 3 3 3 3 3 3 3 3 3 3 3 3 3 3 3 3 3 3 3 3 3 3 3 3 3 3 3 3 3 3 3 3 3 3 3 3 3 3 3 3 3 3 3 3 3 3 3 3 3 3 3 3 3 3 3 3 3 3 3 3 3 3 3 3 3 3 3 3 3 3 3 3 3 3 3 3 3 3 3 3 3 3 3 3 3 3 3 3 3 3 3 3 3 3 3 </vcount>
          <p>0 0 4 0 5 0 5 1 57 1 58 1 4 2 55 2 56 2 5 3 56 3 91 3 0 4 1 4 6 4 2 5 6 5 60 5 1 6 58 6 59 6 6 7 59 7 93 7 0 8 2 8 7 8 7 9 63 9 64 9 2 10 61 10 62 10 7 11 62 11 92 11 0 12 3 12 8 12 8 13 54 13 55 13 3 14 64 14 65 14 8 15 65 15 90 15 13 16 14 16 10 16 14 17 66 17 67 17 13 18 61 18 60 18 14 19 60 19 93 19 9 20 10 20 15 20 15 21 69 21 70 21 10 22 67 22 68 22 68 23 97 23 69 23 9 24 11 24 16 24 16 25 72 25 73 25 70 26 71 26 16 26 16 27 71 27 96 27 12 28 17 28 13 28 13 29 17 29 62 29 12 30 73 30 74 30 17 31 74 31 92 31 18 32 22 32 23 32 19 33 23 33 75 33 70 34 69 34 23 34 23 35 69 35 97 35 18 36 19 36 24 36 24 37 78 37 79 37 19 38 76 38 77 38 24 39 77 39 95 39 18 40 20 40 25 40 25 41 81 41 82 41 20 42 79 42 80 42 25 43 80 43 94 43 18 44 21 44 26 44 22 45 26 45 71 45 82 46 83 46 26 46 26 47 83 47 96 47 27 48 31 48 32 48 28 49 32 49 84 49 31 50 79 50 78 50 78 51 95 51 84 51 27 52 28 52 33 52 29 53 33 53 56 53 28 54 85 54 86 54 86 55 91 55 56 55 27 56 29 56 34 56 30 57 34 57 87 57 55 58 54 58 34 58 34 59 54 59 90 59 27 60 30 60 35 60 31 61 35 61 80 61 30 62 88 62 89 62 35 63 89 63 94 63 40 64 41 64 37 64 37 65 41 65 65 65 88 66 87 66 41 66 41 67 87 67 90 67 37 68 42 68 38 68 38 69 42 69 74 69 64 70 63 70 42 70 42 71 63 71 92 71 38 72 43 72 39 72 39 73 43 73 83 73 73 74 72 74 43 74 43 75 72 75 96 75 36 76 39 76 44 76 40 77 44 77 89 77 39 78 82 78 81 78 81 79 94 79 89 79 45 80 49 80 50 80 46 81 50 81 77 81 85 82 84 82 50 82 84 83 95 83 77 83 45 84 46 84 51 84 47 85 51 85 68 85 76 86 75 86 51 86 51 87 75 87 97 87 47 88 52 88 48 88 52 89 59 89 58 89 67 90 66 90 52 90 52 91 66 91 93 91 48 92 53 92 49 92 49 93 53 93 86 93 58 94 57 94 53 94 53 95 57 95 91 95 1 96 0 96 5 96 1 97 5 97 58 97 5 98 4 98 56 98 57 99 5 99 91 99 2 100 0 100 6 100 61 101 2 101 60 101 6 102 1 102 59 102 60 103 6 103 93 103 3 104 0 104 7 104 3 105 7 105 64 105 7 106 2 106 62 106 63 107 7 107 92 107 4 108 0 108 8 108 4 109 8 109 55 109 8 110 3 110 65 110 54 111 8 111 90 111 9 112 13 112 10 112 10 113 14 113 67 113 14 114 13 114 60 114 66 115 14 115 93 115 11 116 9 116 15 116 11 117 15 117 70 117 15 118 10 118 68 118 15 119 68 119 69 119 12 120 9 120 16 120 12 121 16 121 73 121 11 122 70 122 16 122 72 123 16 123 96 123 9 124 12 124 13 124 61 125 13 125 62 125 17 126 12 126 74 126 62 127 17 127 92 127 19 128 18 128 23 128 76 129 19 129 75 129 22 130 70 130 23 130 75 131 23 131 97 131 20 132 18 132 24 132 20 133 24 133 79 133 24 134 19 134 77 134 78 135 24 135 95 135 21 136 18 136 25 136 21 137 25 137 82 137 25 138 20 138 80 138 81 139 25 139 94 139 22 140 18 140 26 140 70 141 22 141 71 141 21 142 82 142 26 142 71 143 26 143 96 143 28 144 27 144 32 144 85 145 28 145 84 145 32 146 31 146 78 146 32 147 78 147 84 147 29 148 27 148 33 148 55 149 29 149 56 149 33 150 28 150 86 150 33 151 86 151 56 151 30 152 27 152 34 152 88 153 30 153 87 153 29 154 55 154 34 154 87 155 34 155 90 155 31 156 27 156 35 156 79 157 31 157 80 157 35 158 30 158 89 158 80 159 35 159 94 159 36 160 40 160 37 160 64 161 37 161 65 161 40 162 88 162 41 162 65 163 41 163 90 163 36 164 37 164 38 164 73 165 38 165 74 165 37 166 64 166 42 166 74 167 42 167 92 167 36 168 38 168 39 168 82 169 39 169 83 169 38 170 73 170 43 170 83 171 43 171 96 171 40 172 36 172 44 172 88 173 40 173 89 173 44 174 39 174 81 174 44 175 81 175 89 175 46 176 45 176 50 176 76 177 46 177 77 177 49 178 85 178 50 178 50 179 84 179 77 179 47 180 45 180 51 180 67 181 47 181 68 181 46 182 76 182 51 182 68 183 51 183 97 183 45 184 47 184 48 184 48 185 52 185 58 185 47 186 67 186 52 186 59 187 52 187 93 187 45 188 48 188 49 188 85 189 49 189 86 189 48 190 58 190 53 190 86 191 53 191 91 191</p>
        </polylist>
      </mesh>
    </geometry>
  </library_geometries>
  <library_controllers/>
  <library_visual_scenes>
    <visual_scene id="Scene" name="Scene">
      <node id="COL_VIZ_RightFingerJoint40y_link_0" name="COL_VIZ_RightFingerJoint40y_link_0" type="NODE">
        <instance_geometry url="#Cube_049-mesh" name="COL_VIZ_RightFingerJoint40y_link_0"/>
      </node>
    </visual_scene>
  </library_visual_scenes>
  <scene>
    <instance_visual_scene url="#Scene"/>
  </scene>
</COLLADA>