<?xml version="1.0" encoding="utf-8"?>
<COLLADA xmlns="http://www.collada.org/2005/11/COLLADASchema" version="1.4.1">
  <asset>
    <contributor>
      <author>Blender User</author>
      <authoring_tool>Blender 2.76.0 commit date:2015-11-03, commit time:10:56, hash:f337fea</authoring_tool>
    </contributor>
    <created>2017-01-25T08:36:07</created>
    <modified>2017-01-25T08:36:07</modified>
    <unit name="meter" meter="1"/>
    <up_axis>Z_UP</up_axis>
  </asset>
  <library_images/>
  <library_geometries>
    <geometry id="Cube_016-mesh" name="Cube.016">
      <mesh>
        <source id="Cube_016-mesh-positions">
          <float_array id="Cube_016-mesh-positions-array" count="294">-6.39948 -3.898153 4.006969 -6.39948 -3.898153 4.385775 -5.81052 -1.116101 3.64428 -5.77558 -7.020991 -2.604149 -4.89509 -12.46168 1.849762 -5.74564 -10.70178 4.385775 -5.81052 -1.116101 4.023086 -4.898011 -2.52221 -2.616549 -5.639129 -9.679474 -2.194069 0.004605233 0.02887022 4.006968 0.004605233 0.02887022 4.385775 5.333893 -0.5957087 3.64428 0.007987618 -1.482049 -2.75942 -5.324813 -0.5946688 3.64428 -5.162912 -0.9422905 3.896818 3.044593 -0.3190417 4.259506 4.275152 -2.349248 -2.490281 -4.250403 -2.348399 -2.490281 6.408069 -3.899322 4.006969 6.408069 -3.899322 4.385775 4.90166 -12.46258 1.817692 5.7835 -7.022021 -2.604149 5.8196 -1.117141 3.64428 5.8196 -1.117141 4.023086 5.75288 -10.70278 4.385775 5.636229 -9.680484 -2.194069 4.92276 -2.523059 -2.616549 -2.035028 -13.41202 1.837602 0.003353297 -13.72082 4.219546 -4.409383 -12.98312 1.849762 0.002909481 -13.02162 -0.4968987 4.415954 -12.98402 1.817692 4.254052 -12.6364 2.070229 -3.929803 -12.8004 3.882927 -4.439653 -12.1397 -0.3534851 4.442632 -12.1406 -0.353496 0.007839262 -4.924351 -5.476919 -4.405095 -6.992071 -4.521584 -1.872229 -2.791669 -4.650272 4.413084 -6.992921 -4.521584 -0.00239259 -10.93178 -3.295105 -3.991425 -10.73808 -3.110986 -3.965785 -2.93639 -4.441533 3.998735 -2.937139 -4.441533 3.974465 -10.73878 -3.110986 0.004605233 -1.013995 5.017117 5.922362 -3.899322 4.764581 0.004605233 -0.4925624 4.76458 -5.913774 -3.898153 4.764581 0.003353297 -13.19939 4.598351 5.267173 -10.70278 4.764581 5.333893 -1.117141 4.401892 -5.324813 -1.116101 4.401892 -4.091704 -12.62658 4.388001 -4.581417 -11.4985 -1.679832 -4.571286 -12.6355 1.849762 -4.253607 -12.8004 3.882927 -5.421836 -10.52797 4.512044 -6.075676 -3.898153 4.512044 -6.075676 -3.550531 4.512044 -5.486716 -0.9422905 3.896818 -5.486716 -0.9422905 3.64428 -5.486716 -0.9422905 3.391743 -4.451147 -4.62299 -4.363527 -4.451147 -4.970612 -4.363527 -5.315325 -9.505664 -2.320338 -5.162912 -0.9422905 4.149354 0.004605233 -0.3187516 4.512043 3.044593 -0.3190417 4.512043 5.495796 -0.9433305 3.896818 5.495796 -0.9433305 3.64428 5.495796 -0.9433305 3.391743 3.836833 -2.763328 -4.188996 0.01037842 -2.534319 -4.530535 -3.803883 -2.762579 -4.188996 5.495796 -1.290952 4.149354 6.084265 -3.899323 4.512044 5.429076 -10.52897 4.512044 4.260437 -12.8012 3.733087 4.260437 -12.8012 3.48055 4.572617 -11.4993 -1.679832 5.312426 -9.506674 -2.320338 4.475426 -4.971432 -4.363527 4.475426 -4.62381 -4.363527 3.936633 -12.8012 3.985625 0.003353297 -13.3732 4.345815 -3.929803 -12.8004 4.135464 -4.257613 -11.4985 -1.932369 -2.84316e-5 -11.9936 -1.950909 4.248813 -11.4993 -1.932369 -4.581417 -11.4985 -1.932369 -4.253607 -12.8004 4.135464 -4.127687 -2.762579 -4.188996 -5.486716 -0.9422905 4.149354 4.572617 -11.4993 -1.932369 5.429076 -10.8766 4.512044 4.160637 -2.763328 -4.188996 5.495796 -0.9433305 4.149354</float_array>
          <technique_common>
            <accessor source="#Cube_016-mesh-positions-array" count="98" stride="3">
              <param name="X" type="float"/>
              <param name="Y" type="float"/>
              <param name="Z" type="float"/>
            </accessor>
          </technique_common>
        </source>
        <source id="Cube_016-mesh-normals">
          <float_array id="Cube_016-mesh-normals-array" count="561">-0.9626346 -0.1063761 -0.2490355 -0.3475 -0.03339493 0.9370852 -0.4729498 -0.8810861 0.002439022 -0.8150123 -0.5794438 0 -0.9783178 0.2071098 0 -0.4729497 0.8810895 0 -0.3633106 0 0.9316682 -0.4556366 0.2227318 0.8618503 -0.966593 0.1809632 -0.1815221 -0.9688078 0 -0.2478133 -0.4729493 0.8810896 0 -0.2604556 0.9271613 -0.2693232 -0.9861312 -0.02531367 0.1640259 -0.8154101 -0.5359715 -0.218726 -0.6528157 -0.2042484 -0.7294617 -0.2235611 -0.264942 -0.9379906 -0.1203189 0.54619 0.8289753 -0.119796 0.9927986 0 0 1 0 0.1137029 0.9935148 0 0.2700565 0.6450676 0.7148128 9.54072e-5 1 0 0.2468072 0.9690647 0 0.09207773 0.9530939 -0.2883295 0.2081217 0.9365689 -0.2820001 0.906504 0.4221972 0 0.03284209 0.9705164 -0.2387875 -0.2077007 0.9546589 -0.2132769 -0.7643827 0.5720689 -0.2974161 -0.09673446 0.8556225 -0.5084808 0 0.9715391 -0.2368797 0.9783546 0.2069355 0 0.2716339 0.1806831 0.9452875 0.4729483 0.8810902 0 0.4729484 0.8810902 0 0.995395 -0.09585899 0 0.7816877 -0.6041314 0.1548862 0.3630738 -0.03588163 0.9310693 0.3633072 -5.59845e-7 0.9316694 0.9866836 -0.02999913 0.1598612 0.2820855 -0.1615049 -0.9456976 -0.1432945 -0.9575214 -0.2502389 0.8632336 -0.5048047 0 0.966517 0.1844218 -0.1784192 0.6045472 0.7543166 -0.2559869 0.968745 0 -0.2480588 0.8718081 0.1898682 -0.4515538 0.4922674 -0.3497846 0.7970719 0.2247967 -0.9732961 -0.04648768 -0.9992501 -0.03871983 0 0.5055741 -0.5693602 0.6482468 -0.233228 -0.9696111 0.07388597 0 -0.9959861 0.08950954 -0.1441137 -0.9895612 0 0 -1 0 -0.1682292 -0.9213694 -0.350396 -0.1082697 -0.9166518 -0.3847433 -0.8282345 -0.5340794 -0.1696675 0.1930617 -0.915401 -0.3532256 0.7202884 -0.6495431 -0.2434716 0.1082864 -0.9163371 -0.3854873 -0.06037819 -0.3575923 -0.931924 -0.687749 -0.321113 -0.6510667 -0.09846186 -0.8259313 -0.5551061 0 -0.840292 -0.5421341 -0.2311254 0.04421901 -0.9719186 -0.1100917 0.8503052 -0.5146464 -0.1586761 0 -0.9873308 -0.7616068 0.1905246 -0.6193993 0.04240006 0.3933605 -0.9184061 0.1614894 0 -0.9868745 0.09726488 0.8478736 -0.5212004 0 0.8237504 -0.5669527 0.06051123 -0.3579671 -0.9317714 0.09847003 -0.825577 -0.5556314 0.9260937 9.39838e-4 -0.3772925 0.7037598 -0.3783621 -0.6013022 -0.03307288 0.003184974 0.999448 0.8639668 -0.0832017 0.4966276 0.1692369 -0.8118702 0.5587717 0.4731618 -0.5542248 0.6848013 0.1162516 0.1525303 0.9814378 0.07762992 0.08558422 0.9933021 0.8137665 0.2561349 0.5217079 0.8418495 0 0.5397125 -0.1115466 0.4331631 0.8943864 -0.6426876 0.2312763 0.7303861 -0.1378611 0.8158843 0.5615399 0 0.8237504 0.5669527 -0.05893468 -0.05530548 0.9967287 -0.1452211 -0.8560414 0.4960889 -0.8389625 -0.08273935 0.5378628 -0.6028637 -0.4221228 0.6770286 -0.995414 -0.09566098 0 -0.363074 -0.03580695 0.9310721 -0.7885991 -0.5964719 0.149442 -0.221138 -0.2690274 0.9374019 -0.9783178 0.2071096 0 -0.4729483 0.8810902 0 -0.5514989 0.2215937 0.8042048 -0.4729478 0.8810905 0 -0.9655872 0.1878595 -0.1798614 -0.8719192 0.1688167 -0.4596282 -0.6051334 0.7533669 -0.2573944 -0.8689761 0.1938001 -0.4553264 -0.9853796 -0.1698966 -0.012739 -0.4551427 -0.8479099 -0.2718343 -0.282689 -0.1603887 -0.9457073 -0.8644782 -0.5026705 0 -0.1847024 0.9827945 0 -0.1513354 0.3374786 0.9290888 -0.5912119 0.2753538 0.7580559 0.1151674 0.9931815 -0.01808744 0.9065022 0.422201 0 0.07787561 0.3403741 0.9370598 0.2468081 0.9690644 0 0.2074704 0.9547507 -0.2130899 0.09658473 0.8557497 -0.5082952 0.7657374 0.5712742 -0.2954522 0 0.9715523 -0.2368257 -0.09186953 0.9530488 -0.2885449 -0.9065049 0.4221951 0 -0.2083552 0.9362054 -0.283033 -0.03354072 0.9704319 -0.2390335 0.9783548 0.2069348 0 0.3554422 0.2069344 0.9115037 0.4729514 0.8810885 0 0.3633106 0 0.9316682 0.9633179 -0.1064851 -0.2463325 0.4669644 -0.8842762 0 0.3474681 -0.03346157 0.9370946 0.5464779 -0.5773581 0.6066461 0.9853482 -0.1700771 -0.01275396 0.6539826 -0.2071025 -0.7276094 0.8121393 -0.5384575 -0.224707 0.2232321 -0.2654945 -0.9379126 0.9669873 0.1811706 -0.1792004 0.4729504 0.8810891 0 0.87413 0.1659801 -0.4564508 0.2621888 0.9268538 -0.2686988 0.06452977 -0.9811019 -0.1824144 0.1344889 -0.3383091 0.9313752 -0.9170739 -0.3964802 -0.04217749 -0.07646542 -0.9922402 -0.09804379 -0.1756327 -0.9759494 0.1291363 -0.9013209 -0.4197831 0.1067834 -0.1583155 -0.3371041 0.9280609 -0.1942508 -0.9257635 -0.3243898 -0.177874 -0.8036764 -0.5678601 -0.8965823 -0.4175806 -0.147535 -0.3028858 -0.8703077 -0.3883617 0.06547445 -0.9919136 -0.1087223 0.9924435 0.09049242 0.08286803 0.1777755 -0.8033537 -0.5683476 0.3043956 -0.868914 -0.3902974 -0.04352396 -0.34098 -0.9390625 -0.9273242 0.008129835 -0.3741709 -0.0665661 -0.7830274 -0.618415 -0.7077447 -0.3769644 -0.5974909 -0.1139952 0.2700868 -0.956064 -0.09324139 0.8898727 -0.4465789 -0.4064269 0.06201648 -0.9115762 0 0.8237508 -0.5669521 0.2308847 0.04277324 -0.9720405 0.4016352 0.05906957 -0.9138928 0.03924012 0.1709992 -0.9844895 0.7633919 0.1871597 -0.6182266 0.04346239 -0.3411118 -0.9390175 0.06663292 -0.7829102 -0.6185562 0.6849964 -0.325632 -0.6517237 0 -0.8402607 -0.5421828 0.02589309 -0.03433704 0.9990749 0.8389502 -0.08291101 0.5378553 0.1815757 -0.4413439 0.8787752 0.8418499 -2.28635e-6 0.5397118 0.1116328 0.4331591 0.8943776 7.85376e-5 0.82375 0.5669534 0.8838476 0.2393382 0.4019089 0.275762 0.7001029 0.6586436 -0.1162196 0.1525513 0.9814384 -0.841849 0 0.5397132 -0.1341277 0.8543785 0.5020431 -0.726024 0.2528651 0.6394908 -0.02589976 -0.03433173 0.9990749 -0.1486188 -0.8146049 0.5606527 0.03750461 -0.03525757 0.9986743 0 -0.8237504 0.5669527</float_array>
          <technique_common>
            <accessor source="#Cube_016-mesh-normals-array" count="187" stride="3">
              <param name="X" type="float"/>
              <param name="Y" type="float"/>
              <param name="Z" type="float"/>
            </accessor>
          </technique_common>
        </source>
        <vertices id="Cube_016-mesh-vertices">
          <input semantic="POSITION" source="#Cube_016-mesh-positions"/>
        </vertices>
        <polylist count="192">
          <input semantic="VERTEX" source="#Cube_016-mesh-vertices" offset="0"/>
          <input semantic="NORMAL" source="#Cube_016-mesh-normals" offset="1"/>
          <vcount>3 3 3 3 3 3 3 3 3 3 3 3 3 3 3 3 3 3 3 3 3 3 3 3 3 3 3 3 3 3 3 3 3 3 3 3 3 3 3 3 3 3 3 3 3 3 3 3 3 3 3 3 3 3 3 3 3 3 3 3 3 3 3 3 3 3 3 3 3 3 3 3 3 3 3 3 3 3 3 3 3 3 3 3 3 3 3 3 3 3 3 3 3 3 3 3 3 3 3 3 3 3 3 3 3 3 3 3 3 3 3 3 3 3 3 3 3 3 3 3 3 3 3 3 3 3 3 3 3 3 3 3 3 3 3 3 3 3 3 3 3 3 3 3 3 3 3 3 3 3 3 3 3 3 3 3 3 3 3 3 3 3 3 3 3 3 3 3 3 3 3 3 3 3 3 3 3 3 3 3 3 3 3 3 3 3 3 3 3 3 3 3 </vcount>
          <p>0 0 4 0 5 0 1 1 5 1 57 1 4 2 55 2 56 2 5 3 56 3 91 3 0 4 1 4 6 4 2 5 6 5 60 5 1 6 58 6 59 6 6 7 59 7 93 7 0 8 2 8 7 8 7 9 63 9 64 9 2 10 61 10 62 10 7 11 62 11 92 11 3 12 8 12 4 12 4 13 8 13 54 13 3 14 64 14 65 14 8 15 65 15 90 15 9 16 13 16 14 16 14 17 66 17 67 17 61 18 60 18 14 18 60 18 93 18 66 18 9 19 10 19 15 19 11 20 15 20 69 20 67 21 68 21 15 21 15 22 68 22 97 22 9 23 11 23 16 23 12 24 16 24 72 24 11 25 70 25 71 25 16 26 71 26 96 26 9 27 12 27 17 27 13 28 17 28 62 28 12 29 73 29 74 29 17 30 74 30 92 30 18 31 22 31 23 31 19 32 23 32 75 32 22 33 70 33 69 33 23 34 69 34 97 34 18 35 19 35 24 35 20 36 24 36 78 36 19 37 76 37 77 37 24 38 77 38 95 38 20 39 25 39 21 39 21 40 25 40 81 40 20 41 79 41 80 41 25 42 80 42 94 42 18 43 21 43 26 43 22 44 26 44 71 44 82 45 83 45 26 45 26 46 83 46 96 46 31 47 32 47 28 47 28 48 32 48 84 48 79 49 78 49 32 49 78 50 95 50 84 50 27 51 28 51 33 51 29 52 33 52 56 52 85 53 86 53 33 53 86 54 91 54 56 54 27 55 29 55 34 55 34 56 87 56 88 56 55 57 54 57 34 57 54 54 90 54 87 54 30 58 35 58 31 58 31 59 35 59 80 59 88 60 89 60 35 60 89 54 94 54 80 54 40 61 41 61 37 61 37 62 41 62 65 62 88 63 87 63 41 63 41 64 87 64 90 64 36 65 37 65 42 65 38 66 42 66 74 66 64 67 63 67 42 67 42 68 63 68 92 68 36 69 38 69 43 69 43 70 83 70 82 70 73 71 72 71 43 71 43 72 72 72 96 72 39 73 44 73 40 73 44 74 89 74 88 74 39 75 82 75 81 75 44 76 81 76 94 76 49 77 50 77 46 77 46 78 50 78 77 78 49 79 85 79 84 79 50 80 84 80 95 80 45 81 46 81 51 81 47 82 51 82 68 82 46 83 76 83 75 83 51 84 75 84 97 84 45 85 47 85 52 85 48 86 52 86 59 86 47 87 67 87 66 87 52 88 66 88 93 88 48 89 53 89 49 89 49 90 53 90 86 90 48 91 58 91 57 91 53 92 57 92 91 92 1 93 0 93 5 93 58 94 1 94 57 94 5 95 4 95 56 95 57 96 5 96 91 96 2 97 0 97 6 97 61 98 2 98 60 98 6 99 1 99 59 99 60 100 6 100 93 100 3 101 0 101 7 101 3 102 7 102 64 102 7 103 2 103 62 103 63 104 7 104 92 104 0 105 3 105 4 105 55 106 4 106 54 106 8 107 3 107 65 107 54 108 8 108 90 108 10 109 9 109 14 109 10 110 14 110 67 110 13 111 61 111 14 111 14 18 60 18 66 18 11 112 9 112 15 112 70 113 11 113 69 113 10 114 67 114 15 114 69 115 15 115 97 115 12 116 9 116 16 116 73 117 12 117 72 117 16 118 11 118 71 118 72 119 16 119 96 119 13 120 9 120 17 120 61 121 13 121 62 121 17 122 12 122 74 122 62 123 17 123 92 123 19 124 18 124 23 124 76 125 19 125 75 125 23 126 22 126 69 126 75 127 23 127 97 127 20 128 18 128 24 128 79 129 20 129 78 129 24 130 19 130 77 130 78 131 24 131 95 131 18 132 20 132 21 132 82 133 21 133 81 133 25 134 20 134 80 134 81 135 25 135 94 135 22 136 18 136 26 136 70 137 22 137 71 137 21 138 82 138 26 138 71 139 26 139 96 139 27 140 31 140 28 140 85 141 28 141 84 141 31 142 79 142 32 142 32 143 78 143 84 143 29 144 27 144 33 144 55 145 29 145 56 145 28 146 85 146 33 146 33 54 86 54 56 54 30 147 27 147 34 147 30 148 34 148 88 148 29 149 55 149 34 149 34 150 54 150 87 150 27 151 30 151 31 151 79 152 31 152 80 152 30 153 88 153 35 153 35 154 89 154 80 154 36 155 40 155 37 155 64 156 37 156 65 156 40 157 88 157 41 157 65 158 41 158 90 158 38 159 36 159 42 159 73 160 38 160 74 160 37 161 64 161 42 161 74 162 42 162 92 162 39 163 36 163 43 163 39 164 43 164 82 164 38 165 73 165 43 165 83 166 43 166 96 166 36 167 39 167 40 167 40 168 44 168 88 168 44 169 39 169 81 169 89 170 44 170 94 170 45 171 49 171 46 171 76 172 46 172 77 172 50 173 49 173 84 173 77 174 50 174 95 174 47 175 45 175 51 175 67 176 47 176 68 176 51 177 46 177 75 177 68 178 51 178 97 178 48 179 45 179 52 179 58 180 48 180 59 180 52 181 47 181 66 181 59 182 52 182 93 182 45 183 48 183 49 183 85 184 49 184 86 184 53 185 48 185 57 185 86 186 53 186 91 186</p>
        </polylist>
      </mesh>
    </geometry>
  </library_geometries>
  <library_controllers/>
  <library_visual_scenes>
    <visual_scene id="Scene" name="Scene">
      <node id="COL_VIZ_LeftFingerJoint33y_link_0" name="COL_VIZ_LeftFingerJoint33y_link_0" type="NODE">
        <instance_geometry url="#Cube_016-mesh" name="COL_VIZ_LeftFingerJoint33y_link_0"/>
      </node>
    </visual_scene>
  </library_visual_scenes>
  <scene>
    <instance_visual_scene url="#Scene"/>
  </scene>
</COLLADA>