<?xml version="1.0" encoding="utf-8"?>
<COLLADA xmlns="http://www.collada.org/2005/11/COLLADASchema" version="1.4.1">
  <asset>
    <contributor>
      <author>Blender User</author>
      <authoring_tool>Blender 2.76.0 commit date:2015-11-03, commit time:10:56, hash:f337fea</authoring_tool>
    </contributor>
    <created>2017-01-25T08:36:10</created>
    <modified>2017-01-25T08:36:10</modified>
    <unit name="meter" meter="1"/>
    <up_axis>Z_UP</up_axis>
  </asset>
  <library_images/>
  <library_geometries>
    <geometry id="Cube_038-mesh" name="Cube.038">
      <mesh>
        <source id="Cube_038-mesh-positions">
          <float_array id="Cube_038-mesh-positions-array" count="294">-52.209 -0.7232388 -62.5 -51.76239 -0.7750592 62.5 -51.99089 50 -0.3518089 -52.209 -0.7232388 -62.5 -51.99486 -74.9999 -3.921762 -51.83469 -65.88372 41.00879 -51.791 46.86099 55.54811 -52.19017 46.86101 -56.16929 -52.15026 -65.14009 -47.29601 -5.324496 49.787 -1.592982 -51.791 46.86099 55.54811 36.2775 48.2228 -3.936222 -27.904 46.81671 -55.77399 -51.99089 50 -0.3518089 -51.791 46.86099 55.54811 14.3586 46.57199 42.64471 14.0355 46.57201 -47.76429 -52.19017 46.86101 -56.16929 43.5 13.0286 -3.899158 31.00461 -1.006016 35.7138 21.0929 -59.4657 -4.74335 30.7271 -0.9703622 -41.9459 40.66938 46.3931 -4.175952 30.26671 42.6812 32.31301 27.15421 -28.69111 34.22209 26.88511 -28.51279 -41.0727 30.01091 42.68121 -39.26499 -23.646 -74.5213 -4.322122 -36.16669 -70.06351 33.93199 -51.99486 -74.9999 -3.921762 -36.4351 -69.34949 -41.16791 7.929073 -69.69881 -4.897371 11.7692 -59.68531 25.33039 -51.8577 -70.06161 34.58879 -52.1296 -69.3477 -41.50441 7.217453 -65.2863 -32.02521 -27.6556 -0.7513089 -62.0794 -52.209 -0.7232388 -62.5 -27.904 46.81671 -55.77399 15.3422 -0.8952013 -53.1244 -34.57468 -65.1436 -46.91241 -52.15026 -65.14009 -47.29601 -52.19785 43.04621 -58.42529 14.7628 42.7886 -49.60659 -0.2631651 -59.14479 -42.79271 -51.76239 -0.7750592 62.5 15.706 -0.9405779 48.6882 -27.5105 46.81669 54.337 -51.76239 -0.7750592 62.5 -51.78659 -40.72921 54.88809 3.327654 -51.25341 38.33009 14.3586 46.57199 42.64471 -51.791 46.86099 55.54811 -51.8577 -70.06161 34.58879 -52.1296 -69.3477 -41.50441 -51.99486 -74.9999 -3.921762 -51.9193 -74.09451 17.39269 -51.83469 -65.88372 41.00879 -51.76239 -0.7750592 62.5 -51.791 46.86099 55.54811 -51.791 46.86099 55.54811 -51.791 46.86099 55.54811 -52.19017 46.86101 -56.16929 -52.19785 43.04621 -58.42529 -52.209 -0.7232388 -62.5 -52.15026 -65.14009 -47.29601 -51.791 46.86099 55.54811 -51.791 46.86099 55.54811 14.3586 46.57199 42.64471 29.01171 46.451 30.94461 40.66938 46.3931 -4.175952 28.76581 46.45101 -37.85729 14.0355 46.57201 -47.76429 -27.904 46.81671 -55.77399 -52.17028 48.70711 -50.57419 14.3586 46.57199 42.64471 31.00461 -1.006016 35.7138 8.287774 -40.78371 42.86019 11.7692 -59.68531 25.33039 16.1015 -65.54891 -4.90273 11.557 -59.2226 -34.05181 11.557 -59.2226 -34.05181 30.7271 -0.9703622 -41.9459 30.01091 42.68121 -39.26499 3.327654 -51.25341 38.33009 -51.8577 -70.06161 34.58879 -51.8577 -70.06161 34.58879 -52.1296 -69.3477 -41.50441 -34.57468 -65.1436 -46.91241 -0.2631651 -59.14479 -42.79271 -52.1296 -69.3477 -41.50441 -51.8577 -70.06161 34.58879 -52.17028 48.70711 -50.57419 -51.791 46.86099 55.54811 11.557 -59.2226 -34.05181 11.7692 -59.68531 25.33039 14.7628 42.7886 -49.60659 14.3586 46.57199 42.64471</float_array>
          <technique_common>
            <accessor source="#Cube_038-mesh-positions-array" count="98" stride="3">
              <param name="X" type="float"/>
              <param name="Y" type="float"/>
              <param name="Z" type="float"/>
            </accessor>
          </technique_common>
        </source>
        <source id="Cube_038-mesh-normals">
          <float_array id="Cube_038-mesh-normals-array" count="279">-0.9999937 -7.11098e-5 0.003579139 0 0 1 -0.9999936 5.3129e-6 0.003581047 -0.9999936 -7.93143e-5 0.003571271 -0.9999936 -7.98312e-5 0.003574669 -0.9999939 -7.3726e-5 0.003528237 0.9999936 5.29101e-5 -0.00357294 0.9999936 1.10137e-4 -0.003591418 -0.9999936 3.4071e-5 0.003590047 0.01702576 0.9977443 0.06493645 0.05833911 0.996322 0.06276106 0.03441905 0.99789 -0.05505251 0.3751537 0.9176582 -0.1310088 0.4995384 0.4549949 -0.7371846 0.002735257 0.9984182 -0.05615764 -0.006832361 -0.9496135 0.3133491 0.9560581 0.08344286 0.2810521 0.5558238 0.07384413 0.828014 0.957094 -0.1465801 0.2499707 0.8348813 -0.4876553 0.2552754 0.4725089 -0.1128121 0.874076 0.9511386 -0.2928457 -0.0978614 -0.4798988 0.03915613 -0.8764497 0.7517867 -0.6103144 -0.2496665 0.9433572 0.0357359 -0.3298488 0.8645951 0.3994072 -0.3048757 0.5052607 0.4433453 -0.740376 0.1495466 -0.9441099 0.2937558 0.2705262 -0.7179659 0.6413584 0.005203068 -0.9918672 0.1271711 0.9999938 -1.95964e-4 -0.003536641 0.003076434 -0.9888728 -0.1487314 0.1287671 -0.9749169 -0.1815379 0.745795 -0.6173793 -0.2502654 0.2074137 -0.8201161 -0.5332816 0.4863058 -0.5695136 -0.6626921 0.02119135 -0.2296434 -0.9730441 0.01266622 -0.8089459 -0.5877466 0.01716023 0.09267604 -0.9955485 -0.06197589 0.8096808 -0.5835888 0.1539047 0.1306304 -0.9794126 0.560584 0.05992281 -0.8259267 0.1980725 -0.222386 -0.9546265 0.5616493 -0.289849 -0.7749437 0.2510426 -0.1813034 0.9508453 -0.7054032 0.02773588 0.7082635 0.5083683 -0.5333723 0.6760737 0.2674181 0.1290448 0.9549006 0.6428231 0.114569 0.7573986 0.04955923 0.1442596 0.9882981 -0.9999935 -8.4735e-5 0.003625988 -0.9999937 -6.52858e-5 0.003572821 -0.9999938 1.23956e-4 0.003539621 -0.9999936 -7.75872e-5 0.003572821 -0.9999938 -7.01728e-5 0.003566741 0.006047546 0.9984101 0.05604326 0.04057949 0.9976915 0.05445247 0.3873549 0.9131317 0.12707 0.01767742 0.997915 -0.06207436 0.05076134 0.9967027 -0.06330186 0.003067255 0.9984254 -0.05601364 -0.9999937 -5.15177e-5 0.00357294 0.9487002 0.04043453 0.313581 0.8720395 0.3951426 0.2888073 0.5622081 0.4410907 0.6995435 0.9516611 -0.2951372 0.08506059 0.7497869 -0.6211865 0.2279189 0.6007551 -0.4813212 0.6382973 0.9530087 -0.1414326 -0.2679015 0.8335788 -0.4789756 -0.2751887 0.9515643 0.0782634 -0.2973217 0.2401327 -0.9520561 0.1895403 0.03977978 -0.305934 0.9512214 0.4405993 -0.8673779 0.2313609 0.01847267 -0.9923962 0.1216914 0.01467138 -0.989472 -0.1439788 0.01251649 -0.808722 -0.5880579 0.1460775 -0.9758263 -0.1625558 0.4472093 -0.8808942 -0.1550139 0.1957753 -0.7870882 -0.5849483 0.01640105 -0.230905 -0.9728381 0.08738136 0.131352 -0.9874773 0.2034778 0.08127087 -0.9757007 0.586485 0.07274049 -0.8066873 0.1693738 0.4575994 -0.8728776 0.1573238 -0.2423963 -0.9573366 0.5680012 -0.2888638 -0.7706701 0.1939527 -0.243369 0.9503442 0.6295078 -0.2259479 0.7434161 0.136984 -0.5639231 0.814387 0.2002781 0.06561076 0.9775398 9.50212e-4 0.9998462 -0.01751941 0.9999934 9.29813e-5 -0.003644287</float_array>
          <technique_common>
            <accessor source="#Cube_038-mesh-normals-array" count="93" stride="3">
              <param name="X" type="float"/>
              <param name="Y" type="float"/>
              <param name="Z" type="float"/>
            </accessor>
          </technique_common>
        </source>
        <vertices id="Cube_038-mesh-vertices">
          <input semantic="POSITION" source="#Cube_038-mesh-positions"/>
        </vertices>
        <polylist count="192">
          <input semantic="VERTEX" source="#Cube_038-mesh-vertices" offset="0"/>
          <input semantic="NORMAL" source="#Cube_038-mesh-normals" offset="1"/>
          <vcount>3 3 3 3 3 3 3 3 3 3 3 3 3 3 3 3 3 3 3 3 3 3 3 3 3 3 3 3 3 3 3 3 3 3 3 3 3 3 3 3 3 3 3 3 3 3 3 3 3 3 3 3 3 3 3 3 3 3 3 3 3 3 3 3 3 3 3 3 3 3 3 3 3 3 3 3 3 3 3 3 3 3 3 3 3 3 3 3 3 3 3 3 3 3 3 3 3 3 3 3 3 3 3 3 3 3 3 3 3 3 3 3 3 3 3 3 3 3 3 3 3 3 3 3 3 3 3 3 3 3 3 3 3 3 3 3 3 3 3 3 3 3 3 3 3 3 3 3 3 3 3 3 3 3 3 3 3 3 3 3 3 3 3 3 3 3 3 3 3 3 3 3 3 3 3 3 3 3 3 3 3 3 3 3 3 3 3 3 3 3 3 3 </vcount>
          <p>4 0 5 0 1 0 5 1 57 1 58 1 4 1 55 1 56 1 5 2 56 2 91 2 1 3 6 3 2 3 6 1 60 1 61 1 58 1 59 1 6 1 59 1 93 1 60 1 0 4 2 4 7 4 3 5 7 5 63 5 2 6 61 6 62 6 62 7 92 7 63 7 0 1 3 1 8 1 4 8 8 8 54 8 64 1 65 1 8 1 65 1 90 1 54 1 13 1 14 1 10 1 14 1 66 1 67 1 61 1 60 1 14 1 60 1 93 1 66 1 9 9 10 9 15 9 11 10 15 10 69 10 67 1 68 1 15 1 15 1 68 1 97 1 9 11 11 11 16 11 16 1 72 1 73 1 11 12 70 12 71 12 16 13 71 13 96 13 12 14 17 14 13 14 13 1 17 1 62 1 73 15 74 15 17 15 74 1 92 1 62 1 18 16 22 16 23 16 23 17 75 17 76 17 22 1 70 1 69 1 69 1 97 1 75 1 18 18 19 18 24 18 20 19 24 19 78 19 76 20 77 20 24 20 77 1 95 1 78 1 18 21 20 21 25 21 25 22 81 22 82 22 20 23 79 23 80 23 80 1 94 1 81 1 18 24 21 24 26 24 22 25 26 25 71 25 82 1 83 1 26 1 83 26 96 26 71 26 27 27 31 27 32 27 28 28 32 28 84 28 79 1 78 1 32 1 32 1 78 1 95 1 28 29 33 29 29 29 29 30 33 30 56 30 85 1 86 1 33 1 33 1 86 1 91 1 29 31 34 31 30 31 30 1 34 1 87 1 55 1 54 1 34 1 54 1 90 1 87 1 27 32 30 32 35 32 35 33 80 33 79 33 30 34 88 34 89 34 35 35 89 35 94 35 40 36 41 36 37 36 41 1 65 1 64 1 88 37 87 37 41 37 87 1 90 1 65 1 36 38 37 38 42 38 42 39 74 39 73 39 64 1 63 1 42 1 63 1 92 1 74 1 36 40 38 40 43 40 43 41 83 41 82 41 38 1 73 1 72 1 43 1 72 1 96 1 36 42 39 42 44 42 44 1 89 1 88 1 39 43 82 43 81 43 81 1 94 1 89 1 45 44 49 44 50 44 46 45 50 45 77 45 85 1 84 1 50 1 84 46 95 46 77 46 46 47 51 47 47 47 47 1 51 1 68 1 46 48 76 48 75 48 75 1 97 1 68 1 45 49 47 49 52 49 52 1 59 1 58 1 67 1 66 1 52 1 66 1 93 1 59 1 48 50 53 50 49 50 53 1 86 1 85 1 48 1 58 1 57 1 53 1 57 1 91 1 0 51 4 51 1 51 1 1 5 1 58 1 5 52 4 52 56 52 57 1 5 1 91 1 0 53 1 53 2 53 2 1 6 1 61 1 1 1 58 1 6 1 6 1 59 1 60 1 3 1 0 1 7 1 64 1 3 1 63 1 7 1 2 1 62 1 7 1 62 1 63 1 4 54 0 54 8 54 55 1 4 1 54 1 3 1 64 1 8 1 8 1 65 1 54 1 9 55 13 55 10 55 10 1 14 1 67 1 13 1 61 1 14 1 14 1 60 1 66 1 11 56 9 56 15 56 70 57 11 57 69 57 10 1 67 1 15 1 69 1 15 1 97 1 12 58 9 58 16 58 12 1 16 1 73 1 16 59 11 59 71 59 72 1 16 1 96 1 9 60 12 60 13 60 61 61 13 61 62 61 12 1 73 1 17 1 17 1 74 1 62 1 19 62 18 62 23 62 19 1 23 1 76 1 23 63 22 63 69 63 23 64 69 64 75 64 20 65 18 65 24 65 79 66 20 66 78 66 19 1 76 1 24 1 24 67 77 67 78 67 21 68 18 68 25 68 21 1 25 1 82 1 25 69 20 69 80 69 25 1 80 1 81 1 22 70 18 70 26 70 70 1 22 1 71 1 21 1 82 1 26 1 26 1 83 1 71 1 28 71 27 71 32 71 85 72 28 72 84 72 31 73 79 73 32 73 84 1 32 1 95 1 27 74 28 74 29 74 55 1 29 1 56 1 28 1 85 1 33 1 56 1 33 1 91 1 27 75 29 75 30 75 88 76 30 76 87 76 29 1 55 1 34 1 34 1 54 1 87 1 31 77 27 77 35 77 31 78 35 78 79 78 35 79 30 79 89 79 80 1 35 1 94 1 36 80 40 80 37 80 37 1 41 1 64 1 40 1 88 1 41 1 41 1 87 1 65 1 38 81 36 81 42 81 38 1 42 1 73 1 37 1 64 1 42 1 42 1 63 1 74 1 39 82 36 82 43 82 39 83 43 83 82 83 43 84 38 84 72 84 83 1 43 1 96 1 40 85 36 85 44 85 40 1 44 1 88 1 44 86 39 86 81 86 44 1 81 1 89 1 46 87 45 87 50 87 76 88 46 88 77 88 49 89 85 89 50 89 50 1 84 1 77 1 45 90 46 90 47 90 67 91 47 91 68 91 51 1 46 1 75 1 51 1 75 1 68 1 48 1 45 1 52 1 48 1 52 1 58 1 47 1 67 1 52 1 52 1 66 1 59 1 45 1 48 1 49 1 49 1 53 1 85 1 53 92 48 92 57 92 86 1 53 1 91 1</p>
        </polylist>
      </mesh>
    </geometry>
  </library_geometries>
  <library_controllers/>
  <library_visual_scenes>
    <visual_scene id="Scene" name="Scene">
      <node id="COL_VIZ_RHsegment_link_0" name="COL_VIZ_RHsegment_link_0" type="NODE">
        <instance_geometry url="#Cube_038-mesh" name="COL_VIZ_RHsegment_link_0"/>
      </node>
    </visual_scene>
  </library_visual_scenes>
  <scene>
    <instance_visual_scene url="#Scene"/>
  </scene>
</COLLADA>