<?xml version="1.0" encoding="utf-8"?>
<COLLADA xmlns="http://www.collada.org/2005/11/COLLADASchema" version="1.4.1">
  <asset>
    <contributor>
      <author>Blender User</author>
      <authoring_tool>Blender 2.76.0 commit date:2015-11-03, commit time:10:56, hash:f337fea</authoring_tool>
    </contributor>
    <created>2017-01-25T08:36:10</created>
    <modified>2017-01-25T08:36:10</modified>
    <unit name="meter" meter="1"/>
    <up_axis>Z_UP</up_axis>
  </asset>
  <library_images/>
  <library_geometries>
    <geometry id="Cube_006-mesh" name="Cube.006">
      <mesh>
        <source id="Cube_006-mesh-positions">
          <float_array id="Cube_006-mesh-positions-array" count="294">-19.19149 12.34347 -2.149438 -17.32879 12.34337 23.3976 -22.17261 39.88357 -1.917174 -12.2785 12.34347 -26.78841 -19.39731 0.8539273 -2.839 -18.4552 11.76176 24.43391 -17.98659 38.72036 24.26551 -10.69609 39.30197 -29.1444 -11.53829 2.017143 -22.0306 -19.83549 38.72036 11.77471 -9.183377 39.88357 27.31252 17.82581 38.72037 -0.2529647 0.1157566 38.72037 -30.4132 -19.91979 38.72037 -1.917174 -17.98659 38.72036 24.26551 8.452057 39.88357 27.21582 4.737456 38.72037 -29.6787 -9.569677 38.72037 -28.10809 19.28653 12.34337 -0.5673049 8.767328 16.92536 38.28561 17.06583 0.8539273 -1.44341 12.43012 12.34337 -26.04691 17.82581 38.72037 -0.2529647 18.27592 39.30196 20.23792 9.022518 15.39255 37.98711 11.84051 2.017143 -20.1746 11.46982 39.30197 -28.07601 -1.016322 -2.567113 0.2051199 -1.660482 12.16756 37.4317 -13.83389 -0.2406893 -0.9590971 -2.336162 0.8539313 -28.06401 11.51291 -0.2406886 -5.14921 5.473046 10.76846 35.9223 -1.660482 12.16756 37.4317 -11.53829 2.017143 -22.0306 10.87801 2.017132 -21.6927 -2.427582 22.38218 -30.371 -4.989628 22.38218 -30.0628 0.1157566 38.72037 -30.4132 0.1157566 38.72037 -30.4132 -2.336162 2.017143 -27.0277 -2.336162 2.017143 -27.0277 -4.996231 38.72037 -30.14809 2.513747 38.72037 -30.1433 7.674146 6.149683 -26.2453 0.06496483 19.20127 39.0666 4.949704 19.66986 38.42 4.949704 19.66986 38.42 -0.7472282 18.57057 39.0241 -2.275162 15.97416 38.56171 3.989077 19.95837 38.6505 4.949704 19.66986 38.42 -0.7472282 18.57057 39.0241 -2.275162 15.97416 38.56171 -11.53829 2.017143 -22.0306 -18.2709 0.8539273 -2.839 -16.6276 0.8539132 22.02571 -2.275162 15.97416 38.56171 -2.275162 15.97416 38.56171 -1.424292 17.80217 38.9229 -17.98659 38.72036 24.26551 -21.0462 39.88357 -1.917174 -14.4197 39.88357 -25.60201 -11.53769 38.72037 -26.4894 -5.005088 32.85427 -30.1697 -11.53829 2.017143 -22.0306 -9.183378 38.72036 26.27621 0.06496483 19.20127 39.0666 3.989077 19.95837 38.6505 18.27592 39.88357 20.23792 17.14951 38.72036 19.20161 14.29982 39.88357 -25.20261 2.513747 38.72037 -30.1433 2.513747 38.72037 -30.1433 -4.996231 38.72037 -30.14809 3.989077 19.95837 38.6505 5.826526 19.20127 38.154 5.826526 19.20127 38.154 13.94371 2.017137 19.466 15.07012 0.8539244 19.466 9.758137 2.017143 -23.0071 7.674146 6.149683 -26.2453 9.857686 12.34347 -26.277 2.513747 38.72037 -30.1433 5.473046 10.76846 35.9223 -2.358102 13.99556 38.0381 -2.358102 13.99556 38.0381 -6.540848 2.017143 -26.0887 -6.540848 2.017143 -26.0887 3.737237 2.017143 -26.3572 -11.53829 2.017143 -22.0306 -2.358102 13.99556 38.0381 -11.53769 38.72037 -26.4894 -9.183378 38.72036 26.27621 9.758137 2.017143 -23.0071 5.473046 10.76846 35.9223 2.513747 38.72037 -30.1433 7.888852 38.72036 26.17951</float_array>
          <technique_common>
            <accessor source="#Cube_006-mesh-positions-array" count="98" stride="3">
              <param name="X" type="float"/>
              <param name="Y" type="float"/>
              <param name="Z" type="float"/>
            </accessor>
          </technique_common>
        </source>
        <source id="Cube_006-mesh-normals">
          <float_array id="Cube_006-mesh-normals-array" count="384">-0.9994753 0.0162214 0.02803784 -0.3561423 0.9250531 0.1320592 0 -1 -5.7034e-7 -0.6001666 -0.2670208 0.7539895 -0.9969819 -0.02725487 0.07269233 0 0 1 -0.7187759 0.2031907 0.664887 -0.1986191 0.4520632 0.8695915 -0.921145 0.02009969 -0.3887003 0.727398 0.5849868 0.3587237 0 1 -2.28777e-6 0.4380062 0.8390753 0.3226505 -0.94529 -0.1899598 -0.2652212 0.5402436 -0.3198897 -0.7783364 3.92784e-6 -1 -6.28917e-7 -0.1681143 -0.6557397 0.736032 0.7173693 0.6946768 -0.05296671 -4.07817e-4 0.9972302 -0.07437604 -0.3552863 0.7896713 -0.500191 -0.004243671 0.4984514 0.8669074 0.937498 -0.3055561 -0.1665322 0 1 9.65872e-7 -0.2559365 -0.9666526 -0.008897602 -0.08842623 -0.9016981 0.4232276 0 1 0 0.2866973 0.9512985 0.1132966 0 -1 0 0.9981788 0.05555766 -0.02350318 0.3678764 0.4840401 0.7939599 0.677059 0 -0.7359288 0.4965258 0 0.8680221 0.962423 0.112061 0.2473551 0.9759091 0.1704122 0.1362392 -0.2360547 -0.2393487 0.9418017 0.9478036 -0.1622633 -0.2744794 0.5839182 -0.426246 -0.6909081 -0.1232419 -0.992307 -0.01176303 0.9748095 0.01799106 -0.2223125 0.2821208 -0.955657 -0.08442556 0.2290521 -0.0784446 -0.9702482 0.2922114 -0.9121271 0.2874659 0.718379 0.695652 -1.65494e-4 0.5290851 -0.8421205 0.1044123 -0.1664066 -0.9783606 -0.1229612 -0.4546602 -0.6926712 -0.5599024 0.1469231 -0.9811421 -0.1255944 -0.1638005 0.9765709 0.1395664 -0.01382106 0.8484702 -0.5290628 8.82742e-6 -1 -1.6039e-5 -0.4685546 -0.1896436 -0.8628395 -0.1194325 -0.005231022 -0.9928286 -0.4881395 0.003952085 -0.8727568 0.3072991 -0.05029082 -0.9502832 0.1094033 -0.0773909 -0.9909801 0.1511009 -0.2588307 0.9540311 0.1513065 -0.2584688 0.9540966 0.1511 -0.2588234 0.9540332 -0.1512975 0.2584681 -0.9540982 -0.1511209 0.2588965 -0.95401 -0.3491253 0.3922414 0.8510336 -0.4353432 0.8997046 0.03174549 -0.9762134 -0.1875708 0.1087414 -0.6210333 -0.1760833 0.7637488 -0.9824576 -0.1076321 0.1522911 0 0.9990146 0.04438358 -0.6907 -0.04098087 0.7219794 -0.9578567 -0.101418 -0.268747 -0.2526214 -0.06951171 -0.9650651 -0.2206321 -0.9726796 -0.07222145 -0.9255332 0.03918379 -0.3766337 0 -0.9981682 -0.06049972 -0.1379097 0.9902345 0.02041375 -0.925118 -0.2525648 0.2834924 -0.01515936 0.9987578 -0.04746699 0.1368656 0.9905783 0.004758238 0.004761874 0.4957007 0.8684805 0.4081034 -0.7094671 0.5745504 -1.70589e-7 1 2.71492e-7 -0.1515045 0.9861568 0.06738811 7.85639e-7 1 4.41122e-7 0.7042948 0.6820127 0.1970473 0 1 -3.31137e-6 -0.4526289 -0.7016306 -0.5503104 0.9443117 -0.1781217 0.2766731 -0.4285709 -0.5931788 -0.6815174 -0.4473975 0.8942 -0.01555234 0.4280778 0.4368804 0.7911288 0.9422299 -0.2024644 0.2668542 0.7166971 0.6940217 0.06840568 -0.2135238 -0.220873 0.9516421 0.4893499 -0.6401032 0.5922877 0.9463636 -0.1988561 -0.2546608 0.08902913 -0.03648024 -0.9953608 0.1342207 -0.9860264 -0.09867537 0.8043541 -0.05773657 -0.5913384 0.9641073 0.05648255 -0.2594355 0.2559364 0.9666527 0.008897542 0.08885478 -0.07161033 -0.9934672 -0.02320277 0.9840573 -0.1763324 -0.1043732 -0.9253521 0.3644582 0.1511058 -0.2588147 0.9540347 -0.6039364 -0.7875936 0.1223 -0.1981263 -0.9125502 0.3577686 -0.2459757 -0.9691397 0.01625585 -0.4660078 -0.433675 0.7712087 -0.1946134 -0.974818 -0.1088833 -0.1874772 -0.9743058 -0.1248223 0.123125 -0.982632 -0.1388328 0.9574806 -0.2591159 -0.1268455 0.2863724 -0.8519357 -0.4384021 -0.1178675 -0.1613862 -0.9798274 -0.7653784 -0.007699072 -0.6435346 0 1 -3.08372e-7 -0.05179083 0.005482852 -0.9986429 0 1 -1.51418e-5 0.9776685 -7.0188e-4 -0.210152 0.1111203 -0.113775 -0.9872728 0.1422912 -0.1597298 -0.9768519 0.2050305 -0.07727533 -0.9757003 0.4451161 -0.4023827 -0.799975 -0.1511272 0.2589826 -0.9539856 0.151085 -0.2588087 0.9540395 0.151147 -0.2588147 0.9540281 0.1511276 -0.2589817 0.9539859 0.1511862 -0.2588776 0.9540049 0.1511211 -0.2588971 0.9540098 -0.4809206 0.3160495 0.8178191 0.1510297 -0.2587823 0.9540554</float_array>
          <technique_common>
            <accessor source="#Cube_006-mesh-normals-array" count="128" stride="3">
              <param name="X" type="float"/>
              <param name="Y" type="float"/>
              <param name="Z" type="float"/>
            </accessor>
          </technique_common>
        </source>
        <vertices id="Cube_006-mesh-vertices">
          <input semantic="POSITION" source="#Cube_006-mesh-positions"/>
        </vertices>
        <polylist count="192">
          <input semantic="VERTEX" source="#Cube_006-mesh-vertices" offset="0"/>
          <input semantic="NORMAL" source="#Cube_006-mesh-normals" offset="1"/>
          <vcount>3 3 3 3 3 3 3 3 3 3 3 3 3 3 3 3 3 3 3 3 3 3 3 3 3 3 3 3 3 3 3 3 3 3 3 3 3 3 3 3 3 3 3 3 3 3 3 3 3 3 3 3 3 3 3 3 3 3 3 3 3 3 3 3 3 3 3 3 3 3 3 3 3 3 3 3 3 3 3 3 3 3 3 3 3 3 3 3 3 3 3 3 3 3 3 3 3 3 3 3 3 3 3 3 3 3 3 3 3 3 3 3 3 3 3 3 3 3 3 3 3 3 3 3 3 3 3 3 3 3 3 3 3 3 3 3 3 3 3 3 3 3 3 3 3 3 3 3 3 3 3 3 3 3 3 3 3 3 3 3 3 3 3 3 3 3 3 3 3 3 3 3 3 3 3 3 3 3 3 3 3 3 3 3 3 3 3 3 3 3 3 3 </vcount>
          <p>0 0 4 0 5 0 1 1 5 1 57 1 4 2 55 2 56 2 5 3 56 3 91 3 0 4 1 4 6 4 6 5 60 5 61 5 1 6 58 6 59 6 6 7 59 7 93 7 2 8 7 8 3 8 7 9 63 9 64 9 2 10 61 10 62 10 7 11 62 11 92 11 0 12 3 12 8 12 8 5 54 5 55 5 3 13 64 13 65 13 65 5 90 5 54 5 9 14 13 14 14 14 10 15 14 15 66 15 13 16 61 16 60 16 60 5 93 5 66 5 9 17 10 17 15 17 15 18 69 18 70 18 67 19 68 19 15 19 15 20 68 20 97 20 11 21 16 21 12 21 16 5 72 5 73 5 11 22 70 22 71 22 16 23 71 23 96 23 12 24 17 24 13 24 13 25 17 25 62 25 12 26 73 26 74 26 17 26 74 26 92 26 18 27 22 27 23 27 19 28 23 28 75 28 70 29 69 29 23 29 23 30 69 30 97 30 18 31 19 31 24 31 20 32 24 32 78 32 19 5 76 5 77 5 24 33 77 33 95 33 18 34 20 34 25 34 21 35 25 35 81 35 20 36 79 36 80 36 25 5 80 5 94 5 21 37 26 37 22 37 22 38 26 38 71 38 82 39 83 39 26 39 26 5 83 5 96 5 27 40 31 40 32 40 28 5 32 5 84 5 79 41 78 41 32 41 32 5 78 5 95 5 27 5 28 5 33 5 29 42 33 42 56 42 85 5 86 5 33 5 33 5 86 5 91 5 27 43 29 43 34 43 30 44 34 44 87 44 55 5 54 5 34 5 34 5 54 5 90 5 27 45 30 45 35 45 31 46 35 46 80 46 30 47 88 47 89 47 35 48 89 48 94 48 36 5 40 5 41 5 37 49 41 49 65 49 88 5 87 5 41 5 87 5 90 5 65 5 36 50 37 50 42 50 38 5 42 5 74 5 64 51 63 51 42 51 63 5 92 5 74 5 38 5 43 5 39 5 39 5 43 5 83 5 73 5 72 5 43 5 72 5 96 5 83 5 36 52 39 52 44 52 40 53 44 53 89 53 82 5 81 5 44 5 44 5 81 5 94 5 45 54 49 54 50 54 46 55 50 55 77 55 85 56 84 56 50 56 84 5 95 5 77 5 46 5 51 5 47 5 47 5 51 5 68 5 76 57 75 57 51 57 75 5 97 5 68 5 45 58 47 58 52 58 48 5 52 5 59 5 67 59 66 59 52 59 52 5 66 5 93 5 48 5 53 5 49 5 53 5 86 5 85 5 58 5 57 5 53 5 57 5 91 5 86 5 1 60 0 60 5 60 58 5 1 5 57 5 5 61 4 61 56 61 57 62 5 62 91 62 2 63 0 63 6 63 2 64 6 64 61 64 6 65 1 65 59 65 60 5 6 5 93 5 0 66 2 66 3 66 3 67 7 67 64 67 7 68 2 68 62 68 63 5 7 5 92 5 4 69 0 69 8 69 4 70 8 70 55 70 8 5 3 5 65 5 8 5 65 5 54 5 10 71 9 71 14 71 67 72 10 72 66 72 14 5 13 5 60 5 14 5 60 5 66 5 11 73 9 73 15 73 11 74 15 74 70 74 10 75 67 75 15 75 69 76 15 76 97 76 9 77 11 77 12 77 12 24 16 24 73 24 16 78 11 78 71 78 72 5 16 5 96 5 9 79 12 79 13 79 61 80 13 80 62 80 17 81 12 81 74 81 62 82 17 82 92 82 19 83 18 83 23 83 76 84 19 84 75 84 22 85 70 85 23 85 75 86 23 86 97 86 20 87 18 87 24 87 79 88 20 88 78 88 24 89 19 89 77 89 78 90 24 90 95 90 21 91 18 91 25 91 82 92 21 92 81 92 25 93 20 93 80 93 81 94 25 94 94 94 18 95 21 95 22 95 70 96 22 96 71 96 21 97 82 97 26 97 71 98 26 98 96 98 28 99 27 99 32 99 85 100 28 100 84 100 31 101 79 101 32 101 84 5 32 5 95 5 29 102 27 102 33 102 55 103 29 103 56 103 28 5 85 5 33 5 56 104 33 104 91 104 30 105 27 105 34 105 88 5 30 5 87 5 29 106 55 106 34 106 87 5 34 5 90 5 31 107 27 107 35 107 79 108 31 108 80 108 35 109 30 109 89 109 80 5 35 5 94 5 37 110 36 110 41 110 64 111 37 111 65 111 40 5 88 5 41 5 41 112 87 112 65 112 38 113 36 113 42 113 73 114 38 114 74 114 37 115 64 115 42 115 42 5 63 5 74 5 36 5 38 5 39 5 82 116 39 116 83 116 38 5 73 5 43 5 43 5 72 5 83 5 40 117 36 117 44 117 88 26 40 26 89 26 39 118 82 118 44 118 89 119 44 119 94 119 46 120 45 120 50 120 76 5 46 5 77 5 49 121 85 121 50 121 50 122 84 122 77 122 45 5 46 5 47 5 67 123 47 123 68 123 46 5 76 5 51 5 51 5 75 5 68 5 48 5 45 5 52 5 58 124 48 124 59 124 47 125 67 125 52 125 59 126 52 126 93 126 45 127 48 127 49 127 49 5 53 5 85 5 48 5 58 5 53 5 53 5 57 5 86 5</p>
        </polylist>
      </mesh>
    </geometry>
  </library_geometries>
  <library_controllers/>
  <library_visual_scenes>
    <visual_scene id="Scene" name="Scene">
      <node id="COL_VIZ_LAy_link_0" name="COL_VIZ_LAy_link_0" type="NODE">
        <instance_geometry url="#Cube_006-mesh" name="COL_VIZ_LAy_link_0"/>
      </node>
    </visual_scene>
  </library_visual_scenes>
  <scene>
    <instance_visual_scene url="#Scene"/>
  </scene>
</COLLADA>