<?xml version="1.0" encoding="utf-8"?>
<COLLADA xmlns="http://www.collada.org/2005/11/COLLADASchema" version="1.4.1">
  <asset>
    <contributor>
      <author>Blender User</author>
      <authoring_tool>Blender 2.76.0 commit date:2015-11-03, commit time:10:56, hash:f337fea</authoring_tool>
    </contributor>
    <created>2017-01-25T08:36:08</created>
    <modified>2017-01-25T08:36:08</modified>
    <unit name="meter" meter="1"/>
    <up_axis>Z_UP</up_axis>
  </asset>
  <library_images/>
  <library_geometries>
    <geometry id="Cube_046-mesh" name="Cube.046">
      <mesh>
        <source id="Cube_046-mesh-positions">
          <float_array id="Cube_046-mesh-positions-array" count="294">-6.404712 -7.780473 4.10576 -6.404712 -7.780473 4.493415 -3.365432 0.3606222 4.105764 -5.252142 -10.15208 -4.337407 -2.470092 -33.26708 0.5081189 -2.470092 -33.26708 0.7665555 -3.365432 0.3606222 4.364201 -3.365432 0.3606222 3.847327 -2.470092 -33.26708 -0.7667158 2.714658 0.3611921 4.105764 2.714658 0.3611921 4.234982 2.876579 0.3611921 4.105764 2.714658 0.3611921 3.976545 -2.879669 0.3606222 4.105764 -2.879669 0.3606222 4.234982 2.876579 0.3611921 4.234982 2.876579 0.3611921 3.976545 -2.879669 0.3606222 3.976545 6.403141 -7.779303 4.105771 6.403141 -7.779303 4.493426 2.470882 -33.26667 0.508118 5.231784 -10.15118 -4.337407 5.59985 -1.045639 3.743065 5.59985 -1.045639 4.001502 3.544132 -32.41698 1.065804 2.470872 -33.26667 -0.7667167 5.59985 -1.045639 3.484628 0.1493678 -33.52987 1.250007 0.1493678 -33.52987 1.379225 -0.7562727 -33.52987 1.108017 4.14481e-4 -33.52987 -1.38374 0.7571107 -33.52978 1.108017 0.7571107 -33.52978 1.237235 -0.7562727 -33.52987 1.237235 -1.048527 -33.52997 -1.016326 0.7570967 -33.52978 -1.2374 -0.001943051 -9.886561 -5.569546 -4.899848 -14.96238 -4.851501 2.714658 0.3611921 3.58889 4.899809 -14.96138 -4.851493 -0.2927248 -32.89247 -2.976653 -1.65331 -33.26698 -1.846804 -3.04159 0.3606222 3.58889 3.0385 0.3611921 3.58889 1.654082 -33.26667 -1.846804 2.714657 -0.5976047 5.13951 5.917378 -7.779303 4.881081 2.714658 0.3611921 4.622637 -5.918949 -7.780473 4.88107 3.48043e-4 -32.89247 2.985049 1.654082 -33.26667 1.846649 3.0385 0.3611921 4.622637 -3.04159 0.3606222 4.622637 -1.6533 -33.26698 1.846649 -3.039612 -33.85147 -0.9254845 -3.039612 -33.85147 -0.6670479 -3.039612 -33.85147 -0.4086112 -1.977142 -33.26698 1.846649 -6.08087 -7.780473 4.622634 -3.365432 0.3606222 4.622637 -3.365432 1.319419 4.3642 -2.717748 -0.5981746 4.105764 -2.717748 -0.5981746 4.105764 -5.59492 -1.719028 1.412691 -4.928301 -10.15208 -4.466626 -1.977152 -33.26698 -1.846804 -2.717748 -0.5981746 4.105764 -2.717748 0.3606223 4.364201 2.714658 -0.5976048 4.105764 3.362342 1.319989 4.3642 2.714658 -0.5976048 4.105764 2.714658 -0.5976048 4.105764 3.0385 1.319989 3.58889 2.714658 0.3611921 3.847327 -3.04159 1.319419 3.58889 3.362342 0.3611921 4.622637 6.0793 -7.779303 4.622645 1.977924 -33.26667 1.846649 3.040312 -33.85097 0.9253306 3.040312 -33.85097 0.666894 3.040312 -33.85097 0.4084573 1.977924 -33.26667 -1.846804 4.907942 -10.15118 -4.466626 5.59226 -1.717968 1.412691 1.247188 -32.82047 3.827748 3.48043e-4 -32.89248 2.726612 -2.06882 -33.85147 2.262119 -1.10769 -32.57117 -0.5948482 -1.10769 -33.52997 -0.8532848 1.216239 -32.57099 -0.3390564 -2.391928 -31.93388 -0.667048 0.1493678 -32.57107 1.250007 -2.717748 -0.5981746 4.105764 -2.717748 -0.5981746 4.105764 1.619898 -30.90279 -3.017669 0.1493678 -32.57107 1.250007 2.714658 -0.5976048 4.105764 2.714658 -0.5976048 4.105764</float_array>
          <technique_common>
            <accessor source="#Cube_046-mesh-positions-array" count="98" stride="3">
              <param name="X" type="float"/>
              <param name="Y" type="float"/>
              <param name="Z" type="float"/>
            </accessor>
          </technique_common>
        </source>
        <source id="Cube_046-mesh-normals">
          <float_array id="Cube_046-mesh-normals-array" count="525">-0.9882923 -0.1525728 0 -0.8918588 -0.1972084 0.4070585 -0.7161639 0.6979321 0 0.3318314 -0.9393083 0.08710885 -0.9368437 0.3497484 0 -1 0 0 -0.948623 0.3164091 0 0.7562368 0.170284 0.631751 -0.9368444 0.3497469 0 -0.3386889 -0.5394197 0.7709192 0 0 1 -0.9928349 -0.1194946 0 -0.7161631 0.697933 0 -0.3663665 -0.1508389 -0.918163 0.9065161 -0.08407717 0.4137145 -1.01857e-4 1 0 -0.6103603 -0.2061539 0.7648275 -6.0878e-6 0.1335629 -0.9910404 6.0878e-6 -0.1335629 0.9910404 0 1 0 6.0878e-6 0.133563 -0.9910404 0.02358114 -0.1335259 0.9907647 -0.5748125 0.3882977 0.7202886 -1.01857e-4 1 0 -0.986038 -0.1665205 0 0.0213415 0.3778463 0.9256224 -0.9860378 -0.1665217 1.83821e-6 0.9929595 0.118455 0 0.3294571 0.1099598 0.9377458 -0.01431077 0.1382954 -0.9902876 -0.7562368 0.1702843 0.631751 0.9933344 -0.1152687 0 0.5196697 -0.09945613 -0.8485587 0.5134062 -0.174138 0.8402918 -0.3892082 -0.9119882 0.1295943 0.9929423 -0.1185983 -7.7122e-6 0.8964465 -0.1702712 -0.4091349 0.7161659 0.6979301 0 -0.8929113 0.08386641 0.4423528 0.981069 0.1018421 -0.1647176 0.1534486 0.9881567 0 0.3153379 0.5253676 -0.7902854 0.08092045 0.9479693 -0.3079059 1.44367e-4 -1 0 -0.2062066 -0.9331353 0.2945123 -0.1393052 -0.9902496 0 0.1458728 0.07933485 0.9861173 0 -1 0 0.1394721 -0.990226 0 0.3755699 -0.9056606 0.19679 -0.5894778 0.564495 -0.5778075 -7.48136e-6 -1 4.96496e-5 0.9360771 -0.09155631 0.3396722 0.1594082 -0.9872128 0 -0.07021713 0.1564907 -0.9851804 1.17233e-4 -1 -7.74121e-6 -0.1393049 -0.9902495 0 -0.2362617 0.837107 -0.4933887 -0.3276133 -0.7790519 -0.5345539 -0.5830787 -0.231257 -0.7788065 0 -0.1619815 -0.9867939 -0.8832427 -0.1220375 0.4527573 -0.3718374 -0.6774007 0.6347167 -0.566749 0.4491778 -0.6906772 0.04485166 0 -0.9989938 0.2121199 0.5701197 -0.7937058 -0.704856 0.1371175 0.6959719 0 0.6663665 -0.7456244 -0.2118192 0.5704301 -0.793563 -0.6237573 0 -0.7816182 0.8474113 0 0.5309371 0.4570516 -0.2223983 -0.8611869 0.2480948 -0.8502016 0.4643343 0.8388091 -0.04483014 0.5425768 0.9007747 0.2945151 0.3191647 0.5279747 -0.1869444 0.8284289 0 -0.1182213 0.9929873 0.05764186 -0.9983373 0 -0.451762 -0.8857346 0.1067025 0.5759299 0.2285954 0.7848878 0 0.4745253 -0.880242 0.8154232 0.2721548 0.5108981 -4.69918e-5 0.4745252 0.8802419 0 0.03172826 0.9994966 -0.6103585 0.2061541 -0.7648286 -0.5279557 -0.1869961 0.8284294 -0.4501767 0.7073796 0.544936 -0.8318569 -0.1907104 0.5211945 -0.04132241 -0.5745611 -0.8174179 -0.9882924 -0.1525723 0 -0.3659024 -0.1587961 0.9170057 -0.7161622 0.697934 0 -0.9085199 0.05159163 0.4146444 -0.9368439 0.3497477 0 0.3595085 0.2428538 -0.900986 -0.3663353 0.1513349 0.9180939 -1 0 0 -0.9163155 0.3351252 -0.2192191 -0.3152272 0.5258547 -0.7900055 0.8286501 0.5597669 0 0.6209228 0.2163646 -0.7534199 -0.9857119 -0.1386787 -0.09560501 -0.7161632 0.6979328 0 -0.8963172 -0.1710714 -0.4090845 -0.2098088 -0.06065285 0.9758595 -1.01856e-4 1 1.27534e-4 -0.9860377 -0.1665225 0 0 1 3.56093e-7 0.9860377 -0.1665221 0 0 -0.1335636 0.9910403 -4.56585e-6 -0.133563 0.9910404 0.9860381 -0.1665204 0 0.986038 -0.1665205 1.85303e-6 -1.01856e-4 1 0 -1.01856e-4 1 6.59627e-7 0.9929595 0.1184551 0 0.3682984 0.1113665 0.9230135 0.1534479 0.9881568 6.31927e-7 0.3963215 0.2389429 0.8864737 0.4205298 0.06287777 -0.9050973 0.7161663 0.6979297 0 0.3652268 -0.1697215 0.9153164 0.5425309 -0.2685824 0.7959421 0.9855494 -0.1382347 -0.09789609 0.3663849 -0.1505076 -0.91821 0.7161653 0.6979308 -3.66756e-6 0.9085224 0.05145847 -0.4146556 0.9929596 0.1184544 0 0.9985817 -0.05160754 0.01308828 1.44367e-4 -1 0 0.1016606 -0.8948807 0.434573 -0.1393051 -0.9902496 0 0.8056702 0.5146383 -0.2933311 0.1394724 -0.990226 0 -0.06596225 -0.9047884 0.4207218 -0.5491248 0.509862 0.6621954 9.27177e-5 -1 -5.41596e-6 -1.08323e-4 1 -7.18687e-5 0.1557161 -0.9875706 -0.0213766 0.2492894 0.40257 -0.8807907 1.44367e-4 -1 2.67621e-6 -0.1393052 -0.9902496 0 0.1461061 0.6382345 -0.7558504 0.5727235 0.3974771 -0.7169379 -0.02999633 -0.1115716 -0.9933036 -0.845236 -0.04758685 0.5322704 0.03658568 -0.9609066 -0.2744451 0 -0.874073 0.4857946 -6.59636e-5 0.6663759 -0.7456159 -9.89914e-5 1 -6.41071e-7 0.9650545 0.02656686 -0.2606996 -0.8474116 0 0.5309367 0.5664163 0.4493508 -0.6908375 -0.9672154 0.02187901 -0.2530136 0 1 -5.34139e-7 0.7047951 0.1371663 0.696024 0.02922052 -0.1123133 -0.9932431 -0.01405054 -0.9561736 -0.2924634 0 -0.1619757 -0.9867948 0 -0.9080074 0.4189543 -0.05776923 -0.06161838 0.9964267 0.8318691 -0.1906304 0.5212045 0.08095091 0.9757965 -0.2031461 0 -0.6510373 -0.7590458 0 0.4745253 0.8802419 0.04178953 0.4741106 -0.8794731 0 0.03173196 0.9994965 -0.07941836 0.05965656 0.9950547 -0.8154626 0.2719943 0.5109208 -9.8992e-5 1 -1.23817e-4 0 0.4745258 -0.8802417 0.02741467 -0.06883299 0.9972515 0.220868 -0.9753038 0 0 -0.1182247 0.9929869 0 0.5793634 0.8150695</float_array>
          <technique_common>
            <accessor source="#Cube_046-mesh-normals-array" count="175" stride="3">
              <param name="X" type="float"/>
              <param name="Y" type="float"/>
              <param name="Z" type="float"/>
            </accessor>
          </technique_common>
        </source>
        <vertices id="Cube_046-mesh-vertices">
          <input semantic="POSITION" source="#Cube_046-mesh-positions"/>
        </vertices>
        <polylist count="192">
          <input semantic="VERTEX" source="#Cube_046-mesh-vertices" offset="0"/>
          <input semantic="NORMAL" source="#Cube_046-mesh-normals" offset="1"/>
          <vcount>3 3 3 3 3 3 3 3 3 3 3 3 3 3 3 3 3 3 3 3 3 3 3 3 3 3 3 3 3 3 3 3 3 3 3 3 3 3 3 3 3 3 3 3 3 3 3 3 3 3 3 3 3 3 3 3 3 3 3 3 3 3 3 3 3 3 3 3 3 3 3 3 3 3 3 3 3 3 3 3 3 3 3 3 3 3 3 3 3 3 3 3 3 3 3 3 3 3 3 3 3 3 3 3 3 3 3 3 3 3 3 3 3 3 3 3 3 3 3 3 3 3 3 3 3 3 3 3 3 3 3 3 3 3 3 3 3 3 3 3 3 3 3 3 3 3 3 3 3 3 3 3 3 3 3 3 3 3 3 3 3 3 3 3 3 3 3 3 3 3 3 3 3 3 3 3 3 3 3 3 3 3 3 3 3 3 3 3 3 3 3 3 </vcount>
          <p>0 0 4 0 5 0 1 1 5 1 57 1 4 2 55 2 56 2 56 3 91 3 57 3 0 4 1 4 6 4 2 5 6 5 60 5 58 6 59 6 6 6 59 7 93 7 60 7 0 8 2 8 7 8 3 9 7 9 63 9 2 10 61 10 62 10 7 10 62 10 92 10 3 11 8 11 4 11 8 12 54 12 55 12 3 13 64 13 65 13 8 14 65 14 90 14 13 15 14 15 10 15 14 16 66 16 67 16 61 17 60 17 14 17 14 18 60 18 93 18 10 19 15 19 11 19 15 20 69 20 70 20 10 21 67 21 68 21 15 10 68 10 97 10 11 19 16 19 12 19 16 22 72 22 73 22 11 10 70 10 71 10 16 10 71 10 96 10 12 23 17 23 13 23 13 24 17 24 62 24 73 25 74 25 17 25 17 26 74 26 92 26 18 27 22 27 23 27 23 28 75 28 76 28 70 29 69 29 23 29 69 30 97 30 75 30 18 31 19 31 24 31 20 32 24 32 78 32 76 33 77 33 24 33 77 34 95 34 78 34 20 35 25 35 21 35 21 36 25 36 81 36 20 37 79 37 80 37 80 38 94 38 81 38 18 39 21 39 26 39 22 40 26 40 71 40 21 41 82 41 83 41 26 42 83 42 96 42 27 43 31 43 32 43 32 44 84 44 85 44 31 45 79 45 78 45 32 46 78 46 95 46 27 47 28 47 33 47 29 48 33 48 56 48 85 49 86 49 33 49 33 50 86 50 91 50 27 51 29 51 34 51 34 52 87 52 88 52 55 53 54 53 34 53 34 54 54 54 90 54 27 55 30 55 35 55 31 56 35 56 80 56 30 57 88 57 89 57 89 58 94 58 80 58 40 59 41 59 37 59 37 60 41 60 65 60 88 61 87 61 41 61 87 62 90 62 65 62 36 63 37 63 42 63 42 64 74 64 73 64 64 65 63 65 42 65 42 66 63 66 92 66 36 67 38 67 43 67 43 68 83 68 82 68 73 69 72 69 43 69 43 70 72 70 96 70 39 71 44 71 40 71 44 72 89 72 88 72 39 73 82 73 81 73 81 74 94 74 89 74 49 75 50 75 46 75 46 76 50 76 77 76 49 77 85 77 84 77 50 78 84 78 95 78 45 79 46 79 51 79 47 80 51 80 68 80 46 81 76 81 75 81 51 80 75 80 97 80 45 82 47 82 52 82 48 83 52 83 59 83 67 84 66 84 52 84 52 10 66 10 93 10 48 85 53 85 49 85 53 86 86 86 85 86 48 87 58 87 57 87 57 88 91 88 86 88 1 89 0 89 5 89 58 90 1 90 57 90 5 91 4 91 56 91 5 92 56 92 57 92 2 93 0 93 6 93 61 94 2 94 60 94 1 95 58 95 6 95 6 96 59 96 60 96 3 97 0 97 7 97 64 98 3 98 63 98 7 99 2 99 62 99 63 100 7 100 92 100 0 101 3 101 4 101 4 102 8 102 55 102 8 103 3 103 65 103 54 104 8 104 90 104 9 15 13 15 10 15 10 105 14 105 67 105 13 106 61 106 14 106 66 10 14 10 93 10 9 107 10 107 11 107 11 108 15 108 70 108 15 109 10 109 68 109 69 110 15 110 97 110 9 19 11 19 12 19 12 107 16 107 73 107 16 111 11 111 71 111 72 112 16 112 96 112 9 113 12 113 13 113 61 10 13 10 62 10 12 114 73 114 17 114 62 10 17 10 92 10 19 115 18 115 23 115 19 116 23 116 76 116 22 117 70 117 23 117 23 118 69 118 75 118 20 119 18 119 24 119 79 120 20 120 78 120 19 121 76 121 24 121 24 122 77 122 78 122 18 123 20 123 21 123 82 124 21 124 81 124 25 125 20 125 80 125 25 126 80 126 81 126 22 127 18 127 26 127 70 10 22 10 71 10 26 128 21 128 83 128 71 10 26 10 96 10 28 129 27 129 32 129 28 130 32 130 85 130 32 131 31 131 78 131 84 132 32 132 95 132 29 47 27 47 33 47 55 133 29 133 56 133 28 134 85 134 33 134 56 135 33 135 91 135 30 136 27 136 34 136 30 137 34 137 88 137 29 138 55 138 34 138 87 139 34 139 90 139 31 140 27 140 35 140 79 141 31 141 80 141 35 142 30 142 89 142 35 143 89 143 80 143 36 144 40 144 37 144 64 145 37 145 65 145 40 146 88 146 41 146 41 147 87 147 65 147 38 148 36 148 42 148 38 149 42 149 73 149 37 150 64 150 42 150 74 151 42 151 92 151 39 152 36 152 43 152 39 153 43 153 82 153 38 154 73 154 43 154 83 155 43 155 96 155 36 156 39 156 40 156 40 157 44 157 88 157 44 158 39 158 81 158 44 159 81 159 89 159 45 160 49 160 46 160 76 161 46 161 77 161 50 162 49 162 84 162 77 163 50 163 95 163 47 164 45 164 51 164 67 165 47 165 68 165 51 166 46 166 75 166 68 10 51 10 97 10 48 167 45 167 52 167 58 168 48 168 59 168 47 169 67 169 52 169 59 170 52 170 93 170 45 171 48 171 49 171 49 172 53 172 85 172 53 173 48 173 57 173 53 174 57 174 86 174</p>
        </polylist>
      </mesh>
    </geometry>
  </library_geometries>
  <library_controllers/>
  <library_visual_scenes>
    <visual_scene id="Scene" name="Scene">
      <node id="COL_VIZ_RightFingerJoint31y_link_0" name="COL_VIZ_RightFingerJoint31y_link_0" type="NODE">
        <instance_geometry url="#Cube_046-mesh" name="COL_VIZ_RightFingerJoint31y_link_0"/>
      </node>
    </visual_scene>
  </library_visual_scenes>
  <scene>
    <instance_visual_scene url="#Scene"/>
  </scene>
</COLLADA>