<?xml version="1.0" encoding="utf-8"?>
<COLLADA xmlns="http://www.collada.org/2005/11/COLLADASchema" version="1.4.1">
  <asset>
    <contributor>
      <author>Blender User</author>
      <authoring_tool>Blender 2.76.0 commit date:2015-11-03, commit time:10:56, hash:f337fea</authoring_tool>
    </contributor>
    <created>2017-01-25T08:36:06</created>
    <modified>2017-01-25T08:36:06</modified>
    <unit name="meter" meter="1"/>
    <up_axis>Z_UP</up_axis>
  </asset>
  <library_images/>
  <library_geometries>
    <geometry id="Cube_010-mesh" name="Cube.010">
      <mesh>
        <source id="Cube_010-mesh-positions">
          <float_array id="Cube_010-mesh-positions-array" count="294">-5.400644 -4.002461 1.859698 -5.338933 -3.578421 4.411295 -4.867262 -0.3826991 3.669739 -4.037323 -4.810011 -4.211767 -4.133003 -13.41489 1.875267 -3.878473 -13.60429 4.034713 -4.867262 -0.3826991 4.048545 -3.778334 -2.473409 -4.037216 -4.141142 -12.10869 -1.780669 1.967869 0.9330511 4.03245 1.967869 0.5337639 4.284988 3.931748 -0.1830674 3.66973 -0.205478 -1.201736 -2.607636 -2.643905 0.5337533 4.032479 -2.643905 0.5337533 4.285017 3.931748 -0.1830674 3.922268 3.931748 -0.1830674 3.417192 -2.110144 -1.348816 -2.539068 4.84135 -4.313317 -0.2721865 4.9223 -3.578409 4.411257 3.716083 -13.41489 1.843129 3.633392 -4.81005 -4.211746 4.450589 -0.3827109 3.66973 4.450589 -0.3827109 4.048537 3.461812 -13.60429 3.884814 3.711733 -12.10879 -1.780638 3.732192 -1.997739 -2.591056 -1.841502 -14.50612 1.863098 -1.671012 -14.37853 4.201814 -1.930433 -14.37853 3.949277 -0.2087376 -13.65823 -0.3452091 1.684162 -14.10693 1.847028 1.513772 -14.37853 4.073355 -1.930433 -14.37853 4.201815 -2.100923 -14.10683 1.61056 1.684163 -14.10693 1.59449 -0.2054011 -4.756426 -5.451431 -3.777903 -4.810011 -4.843111 -0.2035435 -2.210789 -4.757552 3.373971 -4.81005 -4.84309 -0.2131465 -11.65689 -3.269666 -3.409102 -11.43489 -3.085525 -3.389203 -2.473409 -4.416023 2.991971 -2.473418 -4.416032 2.973042 -11.43489 -3.085505 -0.2083199 -3.57841 5.042621 4.662879 -3.578409 5.042602 1.967869 0.3341205 4.790063 -5.079513 -3.57842 5.04264 -0.2083122 -14.26159 4.623801 1.643482 -14.17889 4.578431 2.357 0.3341205 4.790063 -2.773615 0.3341098 4.790092 -2.060143 -14.17889 4.70689 -3.873583 -13.61454 1.622729 -3.873582 -13.61454 1.875267 -3.873583 -13.61454 2.127805 -3.619053 -13.40465 4.160983 -5.338933 -3.578421 4.790102 -4.607843 -0.5823426 4.174815 -2.903325 0.5337533 4.285017 -4.607842 -0.1830556 3.669739 -3.876643 -1.798087 -2.464778 -3.518913 -2.673052 -4.163485 -4.037323 -4.810011 -4.590574 -3.881722 -11.90905 -1.906938 -2.643905 0.5337533 4.537555 -2.384484 0.5337533 4.537555 2.22729 0.5337639 4.537526 4.191168 -0.1830673 3.922268 4.191168 -0.1830673 3.66973 3.472771 -1.798096 -2.464787 3.213351 -1.798096 -2.717325 -0.2035435 -2.011146 -4.505014 -3.259492 -2.273765 -4.163485 4.191168 -0.5823545 4.174806 4.9223 -3.578409 4.790064 3.202392 -13.40464 4.011083 3.456662 -13.61453 2.095667 3.456662 -13.61453 1.843129 3.456662 -13.61453 1.590591 3.452313 -11.90915 -1.906907 3.633392 -4.81005 -4.590553 3.121682 -2.673062 -4.163494 1.513772 -14.37853 4.325893 1.254352 -14.37853 4.325893 -1.930433 -14.37853 4.454352 -3.622302 -12.30834 -1.906938 -1.856072 -12.73513 -1.891048 2.843332 -11.63453 -2.832967 -4.027553 -13.04503 -0.5805659 -2.189854 -14.37853 4.454352 -3.876643 -1.798087 -2.717316 -2.903325 0.5337533 4.537555 3.452312 -12.30843 -1.906907 3.202392 -13.80393 4.011083 3.472771 -1.798096 -2.717325 4.191168 -0.1830673 4.174806</float_array>
          <technique_common>
            <accessor source="#Cube_010-mesh-positions-array" count="98" stride="3">
              <param name="X" type="float"/>
              <param name="Y" type="float"/>
              <param name="Z" type="float"/>
            </accessor>
          </technique_common>
        </source>
        <source id="Cube_010-mesh-normals">
          <float_array id="Cube_010-mesh-normals-array" count="558">-0.9856442 -0.132571 0.1045483 -0.3791399 -0.08982211 0.9209696 -0.609884 -0.7924908 -3.54471e-6 -0.417564 -0.9086395 0.003811359 -0.9892828 0.1460127 0 -0.4334372 0.885075 0.1696309 -0.9714952 0.2370598 0 -0.5478021 0.8366079 0 -0.9501888 0.2396549 -0.1992663 -0.3655722 0.109569 -0.9243115 -0.5870907 0.762877 -0.2708197 -0.9895696 -0.1440564 0 -0.9757236 -0.05659139 -0.2115674 -0.7243952 -0.6497036 -0.2305144 -0.99976 -0.02191334 0 0.2774515 -0.7445518 -0.6071765 -2.28763e-6 1 0 0 1 0 -0.28082 0.9153817 -0.288473 -2.2976e-7 1 0 0.3428804 0.939379 0 -1.72321e-7 1 0 -2.28762e-6 1 2.86596e-6 0.2808353 0.915372 -0.2884891 0.4941025 0.8694037 0 0.1571547 0.9503453 -0.2686005 0.2671965 0.9237247 -0.2744791 -4.59521e-7 1 0 -0.08393788 0.9561129 -0.2807181 -0.2478501 0.9291937 -0.2741706 -0.124409 0.8975329 -0.4230334 -0.1918774 0.9050452 -0.379574 0.9892808 0.1460259 0 0.3335255 0.154782 0.929948 0.6098824 0.792492 0 0.6098814 0.7924926 1.31291e-6 0.9828743 -0.1488791 0.1085957 0.6115743 -0.7911822 0.002770543 0.9850251 -0.1724112 0 0.4376482 0 0.8991464 0.9897668 -0.1338583 -0.04943406 0.2154014 -0.3065164 -0.9271732 0.6098835 -0.7924911 0 0.6654211 -0.6990265 -0.2618716 0.9409296 0.1436461 -0.3066223 0.501446 0.8221088 -0.2696093 0.9725077 0.2328706 0 0.66806 0.5536517 -0.4971578 0.1112936 -0.9874621 -0.1119489 0 -1 0 0.2676633 -0.9635125 0 0.3200309 -0.9460302 -0.05106014 -0.3659093 -0.9306506 0 -0.8378775 -0.5458535 -0.002334237 -0.2151483 -0.9040986 -0.3692114 -0.2675897 -0.963533 0 -0.262202 -0.9385885 -0.2242809 -0.2306519 -0.9730364 -6.84616e-6 0.07715272 -0.8176717 -0.5704916 -0.1555027 -0.8445818 -0.5123481 -0.0756554 -0.3005257 -0.9507684 -0.8854472 -0.1811901 -0.4279643 -0.1815918 -0.7740657 -0.6065037 -0.7320142 -0.4755981 -0.4878132 -0.1673023 0.204132 -0.9645414 -0.1281947 0.8089779 -0.5736908 -0.665799 0.2982103 -0.6839463 -0.7387563 0.4799776 -0.4731392 0.1237633 0.2608753 -0.9574064 0.9271323 0.2084816 -0.3113861 0.1427361 0.9132185 -0.3816522 0 0.8555904 -0.5176535 0.1578775 -0.2621304 -0.9520307 0.08999967 -0.8032588 -0.5887915 0.881663 -0.1863698 -0.4335169 0.8355295 0 -0.5494458 0.02622151 -0.03916007 0.9988889 0.4048484 -0.1547764 0.9011893 0 -0.7844719 0.6201645 0.3617094 -0.8127473 0.4567364 3.79505e-6 0.06441432 0.9979233 0 0.7844719 0.6201645 0.6648568 0.3025003 0.682978 0.3180261 0 0.948082 5.90875e-6 0.06441348 0.9979234 -0.4389309 0.3130531 0.8422218 0 0.7844716 0.6201648 -6.60111e-7 0.7844723 0.6201639 3.83959e-6 -0.03165608 0.9994989 -0.007394134 -0.786293 0.6178098 -0.6879032 -0.1656455 0.7066476 -0.5030418 -0.5333744 0.6800447 -0.9881505 -0.1457503 0.04812008 -0.9850256 -0.1724085 0 -0.6115206 -0.791224 0.002682447 -0.3144726 -0.1807716 0.9318953 -0.9892936 0.1459383 -3.26923e-4 -0.609883 0.7924916 0 -0.3335198 0.1547856 0.9299495 -0.2407308 0.2757644 0.9305928 -0.9644732 0.1243158 -0.2331031 -0.9718127 0.2357541 0 -0.8689729 0.4326799 -0.2401548 0.4389675 0.8127222 -0.383132 -0.9900181 -0.1334081 -0.0454601 -0.609883 -0.7924914 5.76811e-6 -0.2160097 -0.30579 -0.9272714 -0.9972253 -0.04734033 0.05745136 -0.04622644 0.5339614 0.8442443 -2.2876e-6 1 1.99594e-6 -2.29761e-7 1 0 -2.29761e-7 1 0 0.4178181 0.4856396 0.7678428 -1.7232e-7 1 0 0.2808347 0.9153721 -0.288489 -1.72321e-7 1 0 0.3595001 0.847652 -0.3901869 0.1462786 0.9099622 -0.3880351 -1.72321e-7 1 0 0.2671958 0.9237252 -0.2744781 -0.08280193 0.9563186 -0.2803547 -0.2816683 0.9161095 -0.2853184 -0.08484703 0.9164544 -0.3910403 -0.2464808 0.9691477 0 0.9897984 0.1371389 -0.03862726 0.9714915 0.2370746 0 0.6098821 0.7924923 0 0.4376472 0 0.8991468 0.992499 -0.1222361 0.00202614 0.3704988 -0.1024451 0.9231661 0.6107296 -0.7918344 0.002775788 0.9556147 -0.08382123 -0.2824441 0.9996749 -0.02549827 0 0.7257213 -0.6469539 -0.2340499 0.4376462 0 -0.8991473 0.9450856 0.2734555 -0.1789847 0.5872853 0.7631295 -0.2696838 0.874122 0.2190997 -0.4334812 0.6098816 0.7924927 0 0.002190709 -0.9985215 0.05431348 0 -1 6.18502e-6 0.2788268 -0.9556073 -0.0952391 0.32214 -0.9466921 0 -0.0569725 -0.9966589 0.05852597 -0.3659092 -0.9306506 7.23461e-6 -0.1811125 -0.9657037 -0.1860505 -0.4525271 -0.667795 -0.5909899 -0.1653888 -0.9143019 -0.3697277 -0.2790403 -0.9559845 -0.09071987 0.05259382 -0.879731 -0.472554 0.1064873 -0.952051 -0.2868089 0.2676631 -0.9635126 0 0.2309761 -0.8739734 -0.4275752 0.2511309 -0.9066854 -0.3389028 -0.1582129 -0.2614192 -0.9521706 -0.6799468 -0.2231592 -0.6984786 -0.08974343 -0.729803 -0.6777417 -0.733061 -0.4762769 -0.4855737 -0.1241509 0.261031 -0.9573137 -0.1354638 0.7772411 -0.6144477 -0.9272099 0.2108275 -0.3095701 -0.8385556 0.544816 -9.91353e-7 0.1670083 0.2036181 -0.964701 0.6662131 0.2962942 -0.6843757 0.1296497 0.7778509 -0.61493 0.9241256 0.2981439 -0.2389606 0.07589983 -0.3006749 -0.9507018 0.08457303 -0.8312844 -0.5493757 0.6794431 -0.2262905 -0.6979612 0.3435595 -0.8145205 -0.4674647 4.13305e-6 -0.04374688 0.9990427 0.6866349 -0.1761009 0.7053517 0.05058807 -0.8199192 0.5702397 0.3419959 0 0.9397014 0 0.06441676 0.9979232 2.00741e-6 0.7844709 0.6201657 0.4389383 0.3130534 0.8422178 0.378423 0.8107737 0.4465895 3.9948e-6 0.06441205 0.9979234 -0.6648594 0.3024951 0.6829779 2.1868e-6 0.7844706 0.6201661 -0.4971572 0.5380365 0.6806993 0.04304522 -0.03913724 0.9983063 0.01773053 -0.8980258 0.4395857 -0.3882523 -0.1394398 0.9109429 0 -0.7844713 0.6201652</float_array>
          <technique_common>
            <accessor source="#Cube_010-mesh-normals-array" count="186" stride="3">
              <param name="X" type="float"/>
              <param name="Y" type="float"/>
              <param name="Z" type="float"/>
            </accessor>
          </technique_common>
        </source>
        <vertices id="Cube_010-mesh-vertices">
          <input semantic="POSITION" source="#Cube_010-mesh-positions"/>
        </vertices>
        <polylist count="192">
          <input semantic="VERTEX" source="#Cube_010-mesh-vertices" offset="0"/>
          <input semantic="NORMAL" source="#Cube_010-mesh-normals" offset="1"/>
          <vcount>3 3 3 3 3 3 3 3 3 3 3 3 3 3 3 3 3 3 3 3 3 3 3 3 3 3 3 3 3 3 3 3 3 3 3 3 3 3 3 3 3 3 3 3 3 3 3 3 3 3 3 3 3 3 3 3 3 3 3 3 3 3 3 3 3 3 3 3 3 3 3 3 3 3 3 3 3 3 3 3 3 3 3 3 3 3 3 3 3 3 3 3 3 3 3 3 3 3 3 3 3 3 3 3 3 3 3 3 3 3 3 3 3 3 3 3 3 3 3 3 3 3 3 3 3 3 3 3 3 3 3 3 3 3 3 3 3 3 3 3 3 3 3 3 3 3 3 3 3 3 3 3 3 3 3 3 3 3 3 3 3 3 3 3 3 3 3 3 3 3 3 3 3 3 3 3 3 3 3 3 3 3 3 3 3 3 3 3 3 3 3 3 </vcount>
          <p>0 0 4 0 5 0 1 1 5 1 57 1 4 2 55 2 56 2 5 3 56 3 91 3 1 4 6 4 2 4 6 5 60 5 61 5 1 6 58 6 59 6 59 7 93 7 60 7 0 8 2 8 7 8 3 9 7 9 63 9 2 10 61 10 62 10 7 11 62 11 92 11 0 12 3 12 8 12 4 13 8 13 54 13 3 14 64 14 65 14 8 15 65 15 90 15 13 16 14 16 10 16 14 17 66 17 67 17 13 18 61 18 60 18 60 19 93 19 66 19 10 20 15 20 11 20 11 21 15 21 69 21 10 22 67 22 68 22 15 23 68 23 97 23 9 24 11 24 16 24 12 25 16 25 72 25 70 26 71 26 16 26 71 27 96 27 72 27 12 28 17 28 13 28 17 29 62 29 61 29 73 30 74 30 17 30 17 31 74 31 92 31 22 32 23 32 19 32 19 33 23 33 75 33 22 34 70 34 69 34 23 35 69 35 97 35 19 36 24 36 20 36 20 37 24 37 78 37 19 38 76 38 77 38 24 39 77 39 95 39 18 40 20 40 25 40 21 41 25 41 81 41 20 42 79 42 80 42 25 43 80 43 94 43 18 44 21 44 26 44 22 45 26 45 71 45 21 46 82 46 83 46 26 47 83 47 96 47 27 48 31 48 32 48 32 49 84 49 85 49 31 50 79 50 78 50 32 51 78 51 95 51 28 49 33 49 29 49 29 52 33 52 56 52 28 49 85 49 86 49 33 49 86 49 91 49 27 53 29 53 34 53 34 54 87 54 88 54 55 55 54 55 34 55 34 56 54 56 90 56 30 57 35 57 31 57 35 50 80 50 79 50 30 58 88 58 89 58 35 59 89 59 94 59 36 60 40 60 41 60 41 61 65 61 64 61 88 62 87 62 41 62 87 63 90 63 65 63 36 64 37 64 42 64 38 65 42 65 74 65 37 66 64 66 63 66 63 67 92 67 74 67 36 68 38 68 43 68 39 69 43 69 83 69 73 70 72 70 43 70 72 71 96 71 83 71 36 72 39 72 44 72 40 73 44 73 89 73 82 74 81 74 44 74 81 75 94 75 89 75 45 76 49 76 50 76 46 77 50 77 77 77 85 78 84 78 50 78 50 79 84 79 95 79 45 80 46 80 51 80 47 81 51 81 68 81 46 82 76 82 75 82 51 83 75 83 97 83 45 84 47 84 52 84 48 85 52 85 59 85 67 86 66 86 52 86 52 87 66 87 93 87 45 88 48 88 53 88 49 89 53 89 86 89 48 90 58 90 57 90 53 91 57 91 91 91 1 92 0 92 5 92 58 93 1 93 57 93 5 94 4 94 56 94 57 95 5 95 91 95 0 96 1 96 2 96 2 97 6 97 61 97 6 98 1 98 59 98 6 99 59 99 60 99 3 100 0 100 7 100 64 101 3 101 63 101 7 102 2 102 62 102 63 103 7 103 92 103 4 104 0 104 8 104 55 105 4 105 54 105 8 106 3 106 65 106 54 107 8 107 90 107 9 108 13 108 10 108 10 109 14 109 67 109 14 110 13 110 60 110 14 111 60 111 66 111 9 112 10 112 11 112 70 113 11 113 69 113 15 114 10 114 68 114 69 115 15 115 97 115 12 116 9 116 16 116 73 117 12 117 72 117 11 118 70 118 16 118 16 119 71 119 72 119 9 120 12 120 13 120 13 121 17 121 61 121 12 122 73 122 17 122 62 123 17 123 92 123 18 124 22 124 19 124 76 125 19 125 75 125 23 126 22 126 69 126 75 127 23 127 97 127 18 128 19 128 20 128 79 42 20 42 78 42 24 129 19 129 77 129 78 130 24 130 95 130 21 131 18 131 25 131 82 132 21 132 81 132 25 133 20 133 80 133 81 134 25 134 94 134 22 135 18 135 26 135 70 136 22 136 71 136 26 137 21 137 83 137 71 138 26 138 96 138 28 139 27 139 32 139 28 140 32 140 85 140 32 141 31 141 78 141 84 142 32 142 95 142 27 143 28 143 29 143 55 144 29 144 56 144 33 49 28 49 86 49 56 145 33 145 91 145 30 146 27 146 34 146 30 147 34 147 88 147 29 148 55 148 34 148 87 149 34 149 90 149 27 150 30 150 31 150 31 151 35 151 79 151 35 152 30 152 89 152 80 153 35 153 94 153 37 154 36 154 41 154 37 155 41 155 64 155 40 156 88 156 41 156 41 157 87 157 65 157 38 158 36 158 42 158 73 159 38 159 74 159 42 160 37 160 63 160 42 161 63 161 74 161 39 162 36 162 43 162 82 163 39 163 83 163 38 164 73 164 43 164 43 165 72 165 83 165 40 166 36 166 44 166 88 167 40 167 89 167 39 168 82 168 44 168 44 169 81 169 89 169 46 170 45 170 50 170 76 171 46 171 77 171 49 172 85 172 50 172 77 173 50 173 95 173 47 174 45 174 51 174 67 175 47 175 68 175 51 176 46 176 75 176 68 177 51 177 97 177 48 178 45 178 52 178 58 179 48 179 59 179 47 180 67 180 52 180 59 181 52 181 93 181 49 182 45 182 53 182 85 183 49 183 86 183 53 184 48 184 57 184 86 185 53 185 91 185</p>
        </polylist>
      </mesh>
    </geometry>
  </library_geometries>
  <library_controllers/>
  <library_visual_scenes>
    <visual_scene id="Scene" name="Scene">
      <node id="COL_VIZ_LeftFingerJoint13y_link_0" name="COL_VIZ_LeftFingerJoint13y_link_0" type="NODE">
        <instance_geometry url="#Cube_010-mesh" name="COL_VIZ_LeftFingerJoint13y_link_0"/>
      </node>
    </visual_scene>
  </library_visual_scenes>
  <scene>
    <instance_visual_scene url="#Scene"/>
  </scene>
</COLLADA>