<?xml version="1.0" encoding="utf-8"?>
<COLLADA xmlns="http://www.collada.org/2005/11/COLLADASchema" version="1.4.1">
  <asset>
    <contributor>
      <author>Blender User</author>
      <authoring_tool>Blender 2.76.0 commit date:2015-11-03, commit time:10:56, hash:f337fea</authoring_tool>
    </contributor>
    <created>2017-01-25T08:36:08</created>
    <modified>2017-01-25T08:36:08</modified>
    <unit name="meter" meter="1"/>
    <up_axis>Z_UP</up_axis>
  </asset>
  <library_images/>
  <library_geometries>
    <geometry id="Cube_050-mesh" name="Cube.050">
      <mesh>
        <source id="Cube_050-mesh-positions">
          <float_array id="Cube_050-mesh-positions-array" count="294">-5.703874 -7.2263 4.105779 -5.703874 -7.2263 4.493434 -2.984877 0.2487542 4.105772 -4.672765 -9.401759 -4.337388 -2.945377 -30.44458 0.6668955 -2.945377 -30.44458 0.925332 -2.984877 0.2487542 4.364208 -2.984877 0.2487542 3.847335 -2.945377 -30.44458 -0.9254841 0.02456742 0.2490023 4.105772 0.02456742 0.2490023 4.23499 0.1694275 0.2490023 4.105772 0.02456742 0.2490023 3.976553 -0.1202926 0.2490023 4.105772 -0.1202926 0.2490023 4.23499 0.1694275 0.2490023 4.23499 0.1694275 0.2490023 3.976553 -0.1202926 0.2490023 3.976553 5.754426 -7.22526 4.105768 5.754426 -7.22526 4.493422 2.998069 -30.44408 0.6668884 4.706497 -9.400938 -4.337388 3.033999 0.2492634 4.105782 3.033999 0.2492634 4.364218 3.021229 -29.41338 2.67391 2.998069 -30.44408 -0.9254851 3.033999 0.2492634 3.847345 -0.2667208 -30.44438 2.459623 -0.2667208 -30.44438 2.588842 -0.4115809 -30.44438 2.459623 -0.2667228 -30.44438 -2.589 -0.1218628 -30.44438 -2.459782 1.094196 -29.41358 3.440101 -3.136217 -29.41398 1.748812 -2.298827 -30.44458 -1.299561 1.34147 -30.44428 -2.30961 0.02423834 -9.158219 -5.569538 -4.238184 -9.401759 -4.725043 0.02366298 -2.839617 -2.891676 4.271917 -9.400938 -4.725043 -0.2667228 -30.44438 -2.976655 -0.9303536 -30.44438 -2.909235 -2.695157 0.2487542 3.588898 2.744279 0.2492634 3.588908 1.977389 -30.81858 -1.408641 0.02456742 -0.6377914 5.139518 5.319846 -7.22526 4.881078 0.02456742 0.2490022 4.622645 -5.269294 -7.2263 4.881089 -0.1969198 -30.81878 2.390967 0.09280019 -30.81878 2.390967 2.744279 0.2492634 4.622655 -2.695157 0.2487542 4.622645 -2.679047 -29.41388 2.932347 -2.443687 -30.44458 -1.299561 -2.443687 -30.44458 -1.170343 -2.443687 -30.44458 1.299402 -2.968767 -29.41388 2.932347 -5.703874 -7.2263 4.881089 -2.984877 0.2487542 4.622645 -2.695157 0.2487542 4.23499 -2.695157 0.2487542 4.105772 -2.695157 0.2487542 3.976553 -4.986357 -1.04216 3.226209 -4.672765 -9.401759 -4.725043 -3.192677 -29.96948 -1.933706 -0.1202926 0.2490022 4.364208 0.02456742 0.2490022 4.364208 0.1694275 0.2490022 4.364208 2.744279 0.2492634 4.235 2.744279 0.2492634 4.105782 2.744279 0.2492634 3.976563 2.599419 0.2492634 3.847345 2.454559 0.2492634 3.847345 -0.1202926 0.2490022 3.847335 3.033999 0.2492634 4.622655 5.754426 -7.22526 4.881078 3.245259 -29.96898 1.933547 2.061389 -30.44418 1.874462 2.061389 -30.44418 1.745244 1.48633 -30.44428 -2.30961 2.351109 -30.44418 -2.262275 4.706497 -9.400938 -4.725043 5.035767 -1.04121 3.226199 1.34147 -30.44428 2.43867 1.19661 -30.44428 2.43867 -1.288789 -30.44448 2.43867 -2.298827 -30.44458 -1.428779 -2.153967 -30.44458 -1.428779 1.790759 -29.41348 -3.276098 -2.443687 -30.44458 -1.428779 -1.433649 -30.44448 2.43867 -2.695157 0.2487542 3.847335 -4.696637 -1.04216 4.00152 1.935619 -29.41348 -3.276098 1.48633 -30.44428 2.43867 2.744279 0.2492634 3.847345 4.746047 -1.04121 4.00151</float_array>
          <technique_common>
            <accessor source="#Cube_050-mesh-positions-array" count="98" stride="3">
              <param name="X" type="float"/>
              <param name="Y" type="float"/>
              <param name="Z" type="float"/>
            </accessor>
          </technique_common>
        </source>
        <source id="Cube_050-mesh-normals">
          <float_array id="Cube_050-mesh-normals-array" count="525">-0.9930163 -0.1179773 0 -0.9906277 -0.1258517 0.0530858 -3.80185e-6 -1 0 -0.4283201 -0.8199322 0.3798063 -0.9397612 0.3418319 0 0 1 0 -0.9397612 0.3418319 0 0.4767419 -0.8035966 0.3563001 -0.9397609 0.3418325 0 0.1949934 -0.6540098 0.7309232 0 1 3.98031e-7 0 1 -3.98031e-7 -0.9966477 -0.08181399 0 -3.80184e-6 -1 0 -0.9974208 -0.07177603 0 -0.3344241 -0.8814954 -0.3333563 0 1 0 0 1 3.98031e-7 -9.63445e-5 1 0 -0.04984843 -0.1023931 0.9934943 -1.01392e-4 1 0 0.04986482 -0.1024064 0.9934921 0 0.999998 0.002016961 -1.01392e-4 1 3.58289e-7 0 1 -3.98032e-7 -9.63447e-5 1 0 -1.01415e-4 1 1.1322e-4 -9.63217e-5 1 -3.58287e-7 0.9396955 0.3420124 0 0.9396955 0.3420123 0 0 1 3.98032e-7 -0.4765934 -0.8037337 0.3561895 0.9924983 -0.122259 0 0.5031271 -0.7711104 0.3901948 -0.9092084 0.1506097 -0.3881455 0.3353577 -0.8779554 0.341657 0.9967206 -0.08092069 0 0.8909769 -0.1422484 -0.4311911 1.27959e-4 -1 7.15176e-6 0.03950679 -0.6925584 -0.7202793 0.9230288 0.3290529 -0.1993545 0 1 -1.99016e-7 0.9992254 -0.03935372 0 0 0.4337061 -0.9010544 0.595631 -0.8030667 0.01753938 0 0.6968497 -0.7172173 -0.7291812 -0.6843206 0 0 -1 -1.75026e-4 -0.4167757 -0.7797471 0.4672179 -0.4038907 -0.5799214 0.7075052 -8.05794e-5 1 -8.17649e-5 0 -1 9.2458e-5 0 -1 4.2031e-5 0 -1 0 7.80624e-5 -1 -9.11867e-5 0 0.9999998 -7.4527e-4 -0.4726281 0.4309252 -0.7687172 0 -0.6839821 -0.7294989 -0.1003552 -0.1189547 -0.9878152 -0.4170544 -0.1430116 -0.8975597 0 -1 -1.06725e-4 0 -0.7283004 -0.6852581 -0.6337857 0.5605373 -0.5330232 -1.01415e-4 1 5.06999e-5 0 0.6891884 -0.7245823 -0.4908713 0.8712322 3.50798e-7 0.6344159 0.55973 -0.5331218 0.2555578 0.6539351 -0.7120808 0 1 1.99015e-7 0 1 1.99016e-7 0.5419585 -0.1850013 -0.81979 -0.2897074 0.7506724 0.5937681 0 -0.1162402 -0.9932212 0 0.701245 0.7129205 0 -0.1049592 0.9944766 0.1796541 -0.142531 0.9733496 0 0.1263523 -0.9919854 0 0.1263676 -0.9919835 0.1580477 0.08846193 0.983461 -9.60132e-5 1 -5.39336e-5 0 0.03455311 0.9994029 0 0.433706 -0.9010545 -4.59982e-5 0.5035633 0.8639585 0 0.03455352 0.9994029 0 1 1.99016e-7 -0.0844075 0.5352578 -0.8404608 0.1770692 -0.06557863 0.9820113 -0.1739626 -0.6063547 0.7759324 0 -0.0874933 0.9961651 0 -0.4320134 0.9018672 -0.9930163 -0.1179776 0 -0.9924876 -0.1223462 0 -0.3204558 -0.8441547 0.4297803 -0.9397619 0.3418297 -9.27848e-7 -0.9397615 0.3418309 9.27852e-7 1.54299e-7 1 0 -0.9234148 0.3290551 -0.1975547 -0.9992972 -0.03748685 0 0 1 -1.99016e-7 0 0.4335744 -0.9011178 -0.9901392 -0.1036828 -0.09420448 -3.80185e-6 -1 0 -0.9749082 -0.04466974 0.2180796 -3.80185e-6 -1 0 0 1 3.98032e-7 -9.63452e-5 1 3.58288e-7 -9.63442e-5 1 0 0 1 3.98032e-7 -1.0139e-4 1 0 -1.01391e-4 1 3.58289e-7 0 0.999998 0.002025306 -1.01391e-4 1 0 -1.01393e-4 1 1.13489e-4 -9.63442e-5 1 3.58287e-7 0 1 -7.96063e-7 -9.63447e-5 1 -1.07486e-6 0.939696 0.342011 0 0.9396958 0.3420118 0 0 1 -1.99016e-7 -1.54299e-7 1 1.99015e-7 0.9906829 -0.1254551 0.05299508 1.0996e-4 -1 0 0.9924983 -0.1222587 0 -0.2624427 0.7319969 -0.6287324 0.9899847 -0.103266 -0.09626257 0.993794 -0.1112365 0 1.0996e-4 -1 0 1.15825e-4 -1 1.69481e-5 0.9396958 0.3420114 0 -0.1946431 -0.6538562 0.731154 0.6037827 -0.797149 0 -0.0738247 0.691164 -0.7189175 -0.47232 -0.8466147 0.2452699 -0.5250775 0.5249042 -0.6699024 9.76151e-5 -1 0 0.1349301 -0.3727113 -0.9180851 0.5530897 0.6161748 -0.560732 9.76152e-5 -1 -7.43654e-7 3.38171e-4 -0.9999998 4.27786e-4 3.25109e-5 -1 4.11264e-5 0 -1 1.304e-6 6.1388e-5 -1 1.54138e-5 0.1211725 -0.7065388 -0.6972232 0 -0.6839808 -0.7295 -0.1868422 -0.1135748 -0.9758027 0 -0.1344816 -0.9909162 -1.50029e-5 -1 -1.52591e-4 -0.3153033 -0.9030874 -0.2915768 -0.2005557 0.3822657 -0.9020257 0.02113276 0.9059443 -0.4228692 -0.2558739 0.654124 -0.7117937 -9.63216e-5 1 1.79144e-7 0.2011519 0.3822489 -0.9019001 0 0.6891816 -0.7245886 -0.280523 0.906868 -0.3144797 0.490698 0.8713298 1.75397e-7 0.1868844 -0.1213034 -0.974864 0.4393192 -0.7212404 0.5355474 -0.9215189 0.03889602 -0.3863806 0.4323086 0.7407742 0.5141624 -0.06351387 -0.09004819 0.9939102 0 -0.1285228 0.9917066 0 0.1263524 -0.9919854 -0.2596727 0.9656866 0.004423439 -5.15851e-5 0.5035632 0.8639584 0 0.03455317 0.9994029 0.08430367 0.5353026 -0.8404428 -0.1580749 0.08843737 0.9834588 0 0.03455352 0.9994029 -9.11913e-5 1 5.1241e-5 0 0.4335745 -0.9011178 0.06471139 -0.0909745 0.9937486 -1.01667e-5 0.1263943 -0.9919801 0 -0.08749347 0.9961652 0 -0.4320128 0.9018675</float_array>
          <technique_common>
            <accessor source="#Cube_050-mesh-normals-array" count="175" stride="3">
              <param name="X" type="float"/>
              <param name="Y" type="float"/>
              <param name="Z" type="float"/>
            </accessor>
          </technique_common>
        </source>
        <vertices id="Cube_050-mesh-vertices">
          <input semantic="POSITION" source="#Cube_050-mesh-positions"/>
        </vertices>
        <polylist count="192">
          <input semantic="VERTEX" source="#Cube_050-mesh-vertices" offset="0"/>
          <input semantic="NORMAL" source="#Cube_050-mesh-normals" offset="1"/>
          <vcount>3 3 3 3 3 3 3 3 3 3 3 3 3 3 3 3 3 3 3 3 3 3 3 3 3 3 3 3 3 3 3 3 3 3 3 3 3 3 3 3 3 3 3 3 3 3 3 3 3 3 3 3 3 3 3 3 3 3 3 3 3 3 3 3 3 3 3 3 3 3 3 3 3 3 3 3 3 3 3 3 3 3 3 3 3 3 3 3 3 3 3 3 3 3 3 3 3 3 3 3 3 3 3 3 3 3 3 3 3 3 3 3 3 3 3 3 3 3 3 3 3 3 3 3 3 3 3 3 3 3 3 3 3 3 3 3 3 3 3 3 3 3 3 3 3 3 3 3 3 3 3 3 3 3 3 3 3 3 3 3 3 3 3 3 3 3 3 3 3 3 3 3 3 3 3 3 3 3 3 3 3 3 3 3 3 3 3 3 3 3 3 3 </vcount>
          <p>0 0 4 0 5 0 1 1 5 1 57 1 4 2 55 2 56 2 56 3 91 3 57 3 0 4 1 4 6 4 2 5 6 5 60 5 1 6 58 6 59 6 59 7 93 7 60 7 0 8 2 8 7 8 3 9 7 9 63 9 2 10 61 10 62 10 7 11 62 11 92 11 3 12 8 12 4 12 8 13 54 13 55 13 3 14 64 14 65 14 8 15 65 15 90 15 13 16 14 16 10 16 14 17 66 17 67 17 61 18 60 18 14 18 60 19 93 19 66 19 10 16 15 16 11 16 15 20 69 20 70 20 67 17 68 17 15 17 68 21 97 21 69 21 11 16 16 16 12 16 16 22 72 22 73 22 11 23 70 23 71 23 71 24 96 24 72 24 12 16 17 16 13 16 17 25 62 25 61 25 12 26 73 26 74 26 74 27 92 27 62 27 18 28 22 28 23 28 19 29 23 29 75 29 22 30 70 30 69 30 69 31 97 31 75 31 18 32 19 32 24 32 20 33 24 33 78 33 76 34 77 34 24 34 77 35 95 35 78 35 20 36 25 36 21 36 21 37 25 37 81 37 79 38 80 38 25 38 80 39 94 39 81 39 18 40 21 40 26 40 22 41 26 41 71 41 21 42 82 42 83 42 26 43 83 43 96 43 27 44 31 44 32 44 32 45 84 45 85 45 79 46 78 46 32 46 78 47 95 47 84 47 28 48 33 48 29 48 29 49 33 49 56 49 28 50 85 50 86 50 86 51 91 51 56 51 27 52 29 52 34 52 34 53 87 53 88 53 55 53 54 53 34 53 54 53 90 53 87 53 30 54 35 54 31 54 31 55 35 55 80 55 30 56 88 56 89 56 89 57 94 57 80 57 36 58 40 58 41 58 37 59 41 59 65 59 88 60 87 60 41 60 87 61 90 61 65 61 37 62 42 62 38 62 42 63 74 63 73 63 37 64 64 64 63 64 42 65 63 65 92 65 38 66 43 66 39 66 39 67 43 67 83 67 73 68 72 68 43 68 43 69 72 69 96 69 39 70 44 70 40 70 40 71 44 71 89 71 39 72 82 72 81 72 81 73 94 73 89 73 49 74 50 74 46 74 46 75 50 75 77 75 85 76 84 76 50 76 50 77 84 77 95 77 45 78 46 78 51 78 47 79 51 79 68 79 46 80 76 80 75 80 51 81 75 81 97 81 45 82 47 82 52 82 48 83 52 83 59 83 47 84 67 84 66 84 52 85 66 85 93 85 48 86 53 86 49 86 49 87 53 87 86 87 48 88 58 88 57 88 53 89 57 89 91 89 1 90 0 90 5 90 58 91 1 91 57 91 5 13 4 13 56 13 5 92 56 92 57 92 2 93 0 93 6 93 61 16 2 16 60 16 6 94 1 94 59 94 6 95 59 95 60 95 3 96 0 96 7 96 64 97 3 97 63 97 7 98 2 98 62 98 63 99 7 99 92 99 0 100 3 100 4 100 4 101 8 101 55 101 8 102 3 102 65 102 54 103 8 103 90 103 9 104 13 104 10 104 10 16 14 16 67 16 13 105 61 105 14 105 14 106 60 106 66 106 9 107 10 107 11 107 11 108 15 108 70 108 10 16 67 16 15 16 15 109 68 109 69 109 9 16 11 16 12 16 12 110 16 110 73 110 16 111 11 111 71 111 16 112 71 112 72 112 9 16 12 16 13 16 13 113 17 113 61 113 17 114 12 114 74 114 17 115 74 115 62 115 19 116 18 116 23 116 76 117 19 117 75 117 23 118 22 118 69 118 23 119 69 119 75 119 20 120 18 120 24 120 79 121 20 121 78 121 19 122 76 122 24 122 24 123 77 123 78 123 18 124 20 124 21 124 82 125 21 125 81 125 20 126 79 126 25 126 25 127 80 127 81 127 22 128 18 128 26 128 70 16 22 16 71 16 26 129 21 129 83 129 71 11 26 11 96 11 28 130 27 130 32 130 28 131 32 131 85 131 31 132 79 132 32 132 32 133 78 133 84 133 27 53 28 53 29 53 55 134 29 134 56 134 33 135 28 135 86 135 33 136 86 136 56 136 30 137 27 137 34 137 30 138 34 138 88 138 29 139 55 139 34 139 34 53 54 53 87 53 27 140 30 140 31 140 79 141 31 141 80 141 35 142 30 142 89 142 35 143 89 143 80 143 37 144 36 144 41 144 64 145 37 145 65 145 40 146 88 146 41 146 41 147 87 147 65 147 36 148 37 148 38 148 38 149 42 149 73 149 42 150 37 150 63 150 74 151 42 151 92 151 36 152 38 152 39 152 82 153 39 153 83 153 38 154 73 154 43 154 83 155 43 155 96 155 36 156 39 156 40 156 88 157 40 157 89 157 44 158 39 158 81 158 44 159 81 159 89 159 45 160 49 160 46 160 76 161 46 161 77 161 49 162 85 162 50 162 77 163 50 163 95 163 47 164 45 164 51 164 67 16 47 16 68 16 51 165 46 165 75 165 68 166 51 166 97 166 48 167 45 167 52 167 58 168 48 168 59 168 52 169 47 169 66 169 59 170 52 170 93 170 45 171 48 171 49 171 85 172 49 172 86 172 53 173 48 173 57 173 86 174 53 174 91 174</p>
        </polylist>
      </mesh>
    </geometry>
  </library_geometries>
  <library_controllers/>
  <library_visual_scenes>
    <visual_scene id="Scene" name="Scene">
      <node id="COL_VIZ_RightFingerJoint41y_link_0" name="COL_VIZ_RightFingerJoint41y_link_0" type="NODE">
        <instance_geometry url="#Cube_050-mesh" name="COL_VIZ_RightFingerJoint41y_link_0"/>
      </node>
    </visual_scene>
  </library_visual_scenes>
  <scene>
    <instance_visual_scene url="#Scene"/>
  </scene>
</COLLADA>