<?xml version="1.0" encoding="utf-8"?>
<COLLADA xmlns="http://www.collada.org/2005/11/COLLADASchema" version="1.4.1">
  <asset>
    <contributor>
      <author>Blender User</author>
      <authoring_tool>Blender 2.76.0 commit date:2015-11-03, commit time:10:56, hash:f337fea</authoring_tool>
    </contributor>
    <created>2017-01-25T08:36:08</created>
    <modified>2017-01-25T08:36:08</modified>
    <unit name="meter" meter="1"/>
    <up_axis>Z_UP</up_axis>
  </asset>
  <library_images/>
  <library_geometries>
    <geometry id="Cube_062-mesh" name="Cube.062">
      <mesh>
        <source id="Cube_062-mesh-positions">
          <float_array id="Cube_062-mesh-positions-array" count="294">-10.93062 7.049776 -1.678679 -8.349077 38.31038 16.27388 -2.419232 52.51388 3.92845e-4 -4.311626 28.4661 -26.83527 -8.225186 1.320429 -1.53227 -3.021934 2.941718 12.92025 -2.641973 49.84168 16.19621 -5.764241 41.09578 -25.71974 -7.321758 2.576534 -17.50105 -1.254364 52.01099 4.20988e-4 -1.416685 51.00618 16.19381 3.165524 52.53836 12.74681 -1.170195 52.90557 -2.855338 -1.170195 51.37378 -2.179962 -1.68599 52.53797 16.86918 -1.416685 51.00618 16.19381 1.334987 50.63357 -4.497377 -0.4435664 49.73438 -3.723292 8.618161 13.85308 2.099212 3.554594 32.83047 18.48778 6.441123 1.303017 -2.23553 2.646563 24.31128 -26.20017 2.419379 52.51388 3.92172e-4 1.771609 49.84168 16.85471 2.800468 2.916057 13.18365 4.356777 4.966067 -15.5536 3.996444 38.98708 -23.48889 2.806227 0.9230224 -1.90567 1.691828 4.755372 12.5043 -4.353242 0.9258531 -1.61758 2.525577 1.173682 -13.48817 2.806227 0.9230224 -1.90567 1.961133 3.223577 13.17967 -3.855594 0.9206892 2.96819 -3.517954 0.9228312 -9.73105 2.927112 -0.6127987 -10.27596 2.107953 24.31129 -25.5248 -3.650208 24.29869 -25.483 -4.687021 40.32988 -25.71974 2.107953 24.31129 -25.5248 2.20482 12.78248 -21.0638 -6.75665 6.553581 -19.15585 -4.956326 40.32988 -25.71974 4.265749 39.75297 -24.83964 2.529194 7.193439 -19.71605 -1.28793 32.81008 18.09031 3.015984 32.83047 17.81241 -0.4435653 50.60747 18.62836 -5.515411 38.41718 18.09311 1.541528 5.201602 13.1878 1.810833 4.435705 14.53855 2.139094 49.97486 18.38826 -2.138948 49.97486 18.38826 -2.291568 5.276505 14.92125 -4.056564 -0.6089632 -10.40642 -3.517954 0.9228312 -9.73105 -4.394204 -0.6111052 3.643566 -2.560873 5.276505 14.92125 -5.515411 38.41718 18.09311 -1.869643 49.20897 17.03751 -1.955295 52.53797 16.86918 -1.416685 51.00618 16.19381 -5.200992 43.47007 -19.64046 -4.687021 39.56399 -24.36899 -4.588695 35.86288 -25.9015 -6.487346 7.319479 -17.8051 -1.416685 51.00618 16.19381 -1.416685 51.00618 16.19381 1.869789 49.20897 17.03751 3.180728 51.37347 16.87158 2.639609 51.00657 12.13751 1.604292 50.63357 -4.497377 3.996444 38.98708 -23.48889 -4.687021 39.56399 -24.36899 -4.687021 39.56399 -24.36899 1.869789 49.20897 17.03751 3.015984 32.83047 17.81241 2.080138 4.435705 14.53855 2.230438 3.223577 13.17967 2.806227 0.9230224 -1.90567 4.356777 4.966067 -15.5536 4.356777 4.966067 -15.5536 2.646563 24.31128 -26.87555 3.996444 38.98708 -23.48889 0.8214919 4.988773 13.2853 0.8214919 4.988773 13.2853 0.8214919 4.988773 13.2853 -3.634163 3.723489 -16.3386 -3.634163 3.723489 -16.3386 -3.634163 3.723489 -16.3386 -3.634163 3.723489 -16.3386 -2.578814 4.951533 11.695 -4.687021 39.56399 -24.36899 -1.619603 50.45057 16.57181 4.356777 4.966067 -15.5536 1.797298 4.699502 12.3067 3.996444 38.98708 -23.48889 1.771609 49.84168 16.85471</float_array>
          <technique_common>
            <accessor source="#Cube_062-mesh-positions-array" count="98" stride="3">
              <param name="X" type="float"/>
              <param name="Y" type="float"/>
              <param name="Z" type="float"/>
            </accessor>
          </technique_common>
        </source>
        <source id="Cube_062-mesh-normals">
          <float_array id="Cube_062-mesh-normals-array" count="429">-0.8504117 -0.3926207 0.3502129 -0.8958029 -0.1737139 0.4090974 -0.3029796 -0.9443407 -0.1281565 0.968512 -0.2439252 -0.04984927 -0.8944188 0.4430779 0.06080389 -0.2870424 0.3001523 -0.9096787 -0.5961605 0.2751759 0.7542353 -0.5131946 0.3900983 0.7644963 -0.9745691 -0.1283175 0.1837115 0.8665853 0.2103921 -0.4525098 0.9870497 -0.1421481 -0.07434368 0.8810026 0.4073057 -0.2407006 -0.9726464 0.03004097 -0.2303402 -0.8833211 0.1096444 0.4557653 0.9692872 0.005268096 0.2458751 0.3318375 -0.1183745 -0.93588 -0.9984714 -0.04979127 -0.02399277 0 0 1 0 0.403433 -0.9150093 0.8410804 0.05865585 0.5377205 -0.1162081 0.9557262 0.2703389 0.261504 -0.2302367 -0.9373403 0.2734845 0.9524632 -0.1342394 0.1082984 0.8541488 -0.5086271 0 0.9997488 -0.02241873 -0.9437326 -0.1334191 -0.3026027 0.5882062 0.6770604 -0.4422701 0.9924542 0.1093475 0.05548018 0.9647067 0.07693535 -0.2518373 0.7357665 -0.6764943 -0.03167057 0.9162334 -0.09222835 0.3898853 -0.4722535 -0.8738965 0.1152461 -0.7809911 -0.04607194 0.6228405 -0.9690085 -0.2276563 0.0958929 0.9774492 -0.106593 -0.1822934 0.0752018 -0.9583927 -0.2753693 0.9735563 -0.04829722 -0.2232835 0.4890778 0.7696636 -0.4103912 0.9957965 -0.09159374 0 -0.9824497 -0.1845796 -0.02688872 -0.6699868 -0.3949433 -0.6285997 0 0.5090913 0.8607127 0.1950418 -0.9439957 0.2661405 0.9238659 -0.3692381 -0.1006737 -0.1936232 -0.8795674 0.4345933 -3.81971e-4 -0.9999999 3.3312e-4 0.9518857 -0.2757821 -0.1336334 -0.9824956 -0.1852309 0.01979768 0.9780092 -0.2021742 0.05122041 0.1768155 -0.6999283 -0.6919803 0.03734827 -0.3414075 -0.9391732 -0.976431 0.1999263 0.08131378 0 -0.01476573 -0.999891 0 0.8698925 0.4932416 -0.9852862 -0.08707261 0.1470699 0.09971517 0.03019517 -0.9945578 0.9830694 -0.1424841 0.115208 0.007640898 0.8692154 0.4943746 -0.9384289 -0.1315008 -0.3194667 0.8495408 -0.208496 -0.484572 -0.9785506 0.01786971 0.2052306 0 -0.1145394 0.9934187 -0.3447338 -0.9363077 -0.06698107 0.06454831 -0.03020137 0.9974575 0.1594403 0.8447915 -0.5107899 -0.1466248 0.017578 0.989036 -0.9023506 0.2721474 -0.3342144 -0.9548771 0.1983342 -0.2210729 -0.1426464 -0.1080405 0.9838594 0.2917855 -0.6781536 0.6745138 0 -0.9949654 0.1002203 -0.8855243 -0.1742135 0.4306929 -0.532428 -0.1275568 0.8368093 -0.7424695 -0.5815116 0.3325409 0.9783577 -0.2063516 0.01534491 -0.9641695 0.1874367 -0.1877359 -0.6846446 0.7206082 0.1094793 -0.5277868 0.2666455 0.8064375 -0.2458111 -0.1753422 0.9533269 -0.9774992 0.1866295 -0.09830993 0.4355208 0.1287837 -0.8909189 0.8101139 -0.5676383 0.1466369 -0.9001817 -0.4272319 -0.08453351 -0.2376268 -0.9672222 -0.0895254 0.9639655 -0.1820252 -0.1940033 0.3990314 -0.7537825 -0.5220977 0.9861692 0.1645194 0.02009391 -0.9859787 -0.1660485 -0.01654928 0 -0.403433 0.9150093 -0.2779737 0.9589131 0.0567134 0.9523178 -0.292687 -0.08616912 -0.1569867 0.1696621 0.9729183 0.7311055 0.6446244 0.223482 0.3481122 0.7701434 -0.5345064 0.9516115 -0.2997063 -0.06791061 0 0.8524728 -0.5227716 -0.9993024 -0.01506692 -0.03417289 -0.8883802 0.4591004 -0.002732932 -0.8964883 -0.2957199 0.3299371 0.6541933 0.6164861 -0.4381508 0.9800032 0.1633034 0.1136913 -0.7815726 -0.02520602 0.623305 0.5156079 -0.8490985 -0.1148052 0.936755 -0.2478471 0.2471071 0.1147636 -0.9848337 0.130123 0.8135929 -0.1213349 0.568634 -0.3866338 -0.7090499 0.5897139 0.9752815 -0.0339449 -0.2183436 0.9961151 0.08806198 0 0.9873052 0.1569927 -0.02412015 -0.956281 0.2875944 0.0530681 0 -0.9885705 0.1507598 0.7019379 0.4187076 0.5761659 -4.38772e-4 -0.9999994 -0.001078426 0.9464239 0.3079133 0.09732037 0.0570721 -0.9373353 0.3437227 0.9450368 -0.3267196 0.01264476 0.02761965 -0.9993699 -0.02229678 -0.1984361 -0.903649 -0.3795281 0.144975 0.8722897 0.4670042 -0.005979597 -0.3609074 -0.9325824 -0.8554003 -0.08789241 -0.510456 0.2171719 -0.5578093 -0.8010525 -0.7874752 -0.4554614 0.4152563 -0.007224142 -0.01523244 -0.999858 0.9965698 0.08141404 0.01484394 -0.9156008 0.1684679 -0.3650943 0.007566511 0.8698678 0.493227 -0.3600481 -0.2383962 -0.9019605 -0.9187955 -0.1469328 -0.3663681 0.180895 -0.8319142 -0.5245911 0.06431102 -0.1680824 0.983673 -0.1789848 0.8401072 0.5120396 0 -0.9148739 -0.4037397 0.08422613 -0.03410291 0.995863 0.4895887 0.8703315 -0.05316102 0.9723516 0.05733686 -0.2263737 -0.03705978 -0.02844065 0.9989083 -0.3703871 0.8816428 0.2924371 -0.9632506 0.1005645 -0.2490682 0.4071915 -0.1190695 0.9055483 0 -0.09527337 0.9954512 -0.0374996 -0.9939271 0.1034546</float_array>
          <technique_common>
            <accessor source="#Cube_062-mesh-normals-array" count="143" stride="3">
              <param name="X" type="float"/>
              <param name="Y" type="float"/>
              <param name="Z" type="float"/>
            </accessor>
          </technique_common>
        </source>
        <vertices id="Cube_062-mesh-vertices">
          <input semantic="POSITION" source="#Cube_062-mesh-positions"/>
        </vertices>
        <polylist count="192">
          <input semantic="VERTEX" source="#Cube_062-mesh-vertices" offset="0"/>
          <input semantic="NORMAL" source="#Cube_062-mesh-normals" offset="1"/>
          <vcount>3 3 3 3 3 3 3 3 3 3 3 3 3 3 3 3 3 3 3 3 3 3 3 3 3 3 3 3 3 3 3 3 3 3 3 3 3 3 3 3 3 3 3 3 3 3 3 3 3 3 3 3 3 3 3 3 3 3 3 3 3 3 3 3 3 3 3 3 3 3 3 3 3 3 3 3 3 3 3 3 3 3 3 3 3 3 3 3 3 3 3 3 3 3 3 3 3 3 3 3 3 3 3 3 3 3 3 3 3 3 3 3 3 3 3 3 3 3 3 3 3 3 3 3 3 3 3 3 3 3 3 3 3 3 3 3 3 3 3 3 3 3 3 3 3 3 3 3 3 3 3 3 3 3 3 3 3 3 3 3 3 3 3 3 3 3 3 3 3 3 3 3 3 3 3 3 3 3 3 3 3 3 3 3 3 3 3 3 3 3 3 3 </vcount>
          <p>0 0 4 0 5 0 1 1 5 1 57 1 4 2 55 2 56 2 5 3 56 3 91 3 1 4 6 4 2 4 6 5 60 5 61 5 58 6 59 6 6 6 6 7 59 7 93 7 2 8 7 8 3 8 7 9 63 9 64 9 2 10 61 10 62 10 7 11 62 11 92 11 0 12 3 12 8 12 8 13 54 13 55 13 3 14 64 14 65 14 8 15 65 15 90 15 9 16 13 16 14 16 10 17 14 17 66 17 61 18 60 18 14 18 60 19 93 19 66 19 10 17 15 17 11 17 11 20 15 20 69 20 67 17 68 17 15 17 68 21 97 21 69 21 9 22 11 22 16 22 16 23 72 23 73 23 70 24 71 24 16 24 71 17 96 17 72 17 12 25 17 25 13 25 13 26 17 26 62 26 73 17 74 17 17 17 74 17 92 17 62 17 22 27 23 27 19 27 19 28 23 28 75 28 70 29 69 29 23 29 23 17 69 17 97 17 18 30 19 30 24 30 24 31 78 31 79 31 19 32 76 32 77 32 77 33 95 33 78 33 18 34 20 34 25 34 21 17 25 17 81 17 20 35 79 35 80 35 80 17 94 17 81 17 18 36 21 36 26 36 22 37 26 37 71 37 21 38 82 38 83 38 26 17 83 17 96 17 31 39 32 39 28 39 28 40 32 40 84 40 31 17 79 17 78 17 32 41 78 41 95 41 27 42 28 42 33 42 29 43 33 43 56 43 28 17 85 17 86 17 33 44 86 44 91 44 27 45 29 45 34 45 34 17 87 17 88 17 55 17 54 17 34 17 34 46 54 46 90 46 27 47 30 47 35 47 35 48 80 48 79 48 30 17 88 17 89 17 35 49 89 49 94 49 40 50 41 50 37 50 37 51 41 51 65 51 88 17 87 17 41 17 87 17 90 17 65 17 37 52 42 52 38 52 38 53 42 53 74 53 64 54 63 54 42 54 63 17 92 17 74 17 36 55 38 55 43 55 39 56 43 56 83 56 73 57 72 57 43 57 72 17 96 17 83 17 39 58 44 58 40 58 44 17 89 17 88 17 82 59 81 59 44 59 44 17 81 17 94 17 49 60 50 60 46 60 46 61 50 61 77 61 49 17 85 17 84 17 84 62 95 62 77 62 45 63 46 63 51 63 47 64 51 64 68 64 46 17 76 17 75 17 75 17 97 17 68 17 47 65 52 65 48 65 48 66 52 66 59 66 67 17 66 17 52 17 52 67 66 67 93 67 45 68 48 68 53 68 49 69 53 69 86 69 48 17 58 17 57 17 53 70 57 70 91 70 1 71 0 71 5 71 58 72 1 72 57 72 5 73 4 73 56 73 57 74 5 74 91 74 0 75 1 75 2 75 2 76 6 76 61 76 1 77 58 77 6 77 60 78 6 78 93 78 0 79 2 79 3 79 3 80 7 80 64 80 7 81 2 81 62 81 63 17 7 17 92 17 4 82 0 82 8 82 4 83 8 83 55 83 8 84 3 84 65 84 54 85 8 85 90 85 10 86 9 86 14 86 67 17 10 17 66 17 13 87 61 87 14 87 14 88 60 88 66 88 9 89 10 89 11 89 70 90 11 90 69 90 10 17 67 17 15 17 15 91 68 91 69 91 12 92 9 92 16 92 12 93 16 93 73 93 11 94 70 94 16 94 16 95 71 95 72 95 9 96 12 96 13 96 61 97 13 97 62 97 12 98 73 98 17 98 17 99 74 99 62 99 18 100 22 100 19 100 76 101 19 101 75 101 22 102 70 102 23 102 75 17 23 17 97 17 20 103 18 103 24 103 20 104 24 104 79 104 24 105 19 105 77 105 24 106 77 106 78 106 21 107 18 107 25 107 82 108 21 108 81 108 25 17 20 17 80 17 25 17 80 17 81 17 22 109 18 109 26 109 70 110 22 110 71 110 26 17 21 17 83 17 71 17 26 17 96 17 27 17 31 17 28 17 85 17 28 17 84 17 32 111 31 111 78 111 84 112 32 112 95 112 29 113 27 113 33 113 55 114 29 114 56 114 33 115 28 115 86 115 56 116 33 116 91 116 30 117 27 117 34 117 30 118 34 118 88 118 29 17 55 17 34 17 87 17 34 17 90 17 31 17 27 17 35 17 31 17 35 17 79 17 35 119 30 119 89 119 80 17 35 17 94 17 36 120 40 120 37 120 64 121 37 121 65 121 40 122 88 122 41 122 41 123 87 123 65 123 36 124 37 124 38 124 73 17 38 17 74 17 37 125 64 125 42 125 42 17 63 17 74 17 39 17 36 17 43 17 82 126 39 126 83 126 38 127 73 127 43 127 43 17 72 17 83 17 36 17 39 17 40 17 40 128 44 128 88 128 39 129 82 129 44 129 89 130 44 130 94 130 45 131 49 131 46 131 76 17 46 17 77 17 50 132 49 132 84 132 50 133 84 133 77 133 47 134 45 134 51 134 67 135 47 135 68 135 51 136 46 136 75 136 51 17 75 17 68 17 45 137 47 137 48 137 58 17 48 17 59 17 47 138 67 138 52 138 59 139 52 139 93 139 49 140 45 140 53 140 85 17 49 17 86 17 53 141 48 141 57 141 86 142 53 142 91 142</p>
        </polylist>
      </mesh>
    </geometry>
  </library_geometries>
  <library_controllers/>
  <library_visual_scenes>
    <visual_scene id="Scene" name="Scene">
      <node id="COL_VIZ_RWy_link_0" name="COL_VIZ_RWy_link_0" type="NODE">
        <instance_geometry url="#Cube_062-mesh" name="COL_VIZ_RWy_link_0"/>
      </node>
    </visual_scene>
  </library_visual_scenes>
  <scene>
    <instance_visual_scene url="#Scene"/>
  </scene>
</COLLADA>