<?xml version="1.0" encoding="utf-8"?>
<COLLADA xmlns="http://www.collada.org/2005/11/COLLADASchema" version="1.4.1">
  <asset>
    <contributor>
      <author>Blender User</author>
      <authoring_tool>Blender 2.79.0</authoring_tool>
    </contributor>
    <created>2020-02-20T18:21:48</created>
    <modified>2020-02-20T18:21:48</modified>
    <unit name="meter" meter="1"/>
    <up_axis>Z_UP</up_axis>
  </asset>
  <library_cameras>
    <camera id="Camera-camera" name="Camera">
      <optics>
        <technique_common>
          <perspective>
            <xfov sid="xfov">49.13434</xfov>
            <aspect_ratio>1.777778</aspect_ratio>
            <znear sid="znear">0.1</znear>
            <zfar sid="zfar">100</zfar>
          </perspective>
        </technique_common>
      </optics>
      <extra>
        <technique profile="blender">
          <shiftx sid="shiftx" type="float">0</shiftx>
          <shifty sid="shifty" type="float">0</shifty>
          <YF_dofdist sid="YF_dofdist" type="float">0</YF_dofdist>
        </technique>
      </extra>
    </camera>
  </library_cameras>
  <library_lights>
    <light id="Lamp-light" name="Lamp">
      <technique_common>
        <point>
          <color sid="color">1 1 1</color>
          <constant_attenuation>1</constant_attenuation>
          <linear_attenuation>0</linear_attenuation>
          <quadratic_attenuation>0.00111109</quadratic_attenuation>
        </point>
      </technique_common>
      <extra>
        <technique profile="blender">
          <type sid="type" type="int">0</type>
          <flag sid="flag" type="int">0</flag>
          <mode sid="mode" type="int">8192</mode>
          <gamma sid="blender_gamma" type="float">1</gamma>
          <red sid="red" type="float">1</red>
          <green sid="green" type="float">1</green>
          <blue sid="blue" type="float">1</blue>
          <shadow_r sid="blender_shadow_r" type="float">0</shadow_r>
          <shadow_g sid="blender_shadow_g" type="float">0</shadow_g>
          <shadow_b sid="blender_shadow_b" type="float">0</shadow_b>
          <energy sid="blender_energy" type="float">1</energy>
          <dist sid="blender_dist" type="float">29.99998</dist>
          <spotsize sid="spotsize" type="float">75</spotsize>
          <spotblend sid="spotblend" type="float">0.15</spotblend>
          <halo_intensity sid="blnder_halo_intensity" type="float">1</halo_intensity>
          <att1 sid="att1" type="float">0</att1>
          <att2 sid="att2" type="float">1</att2>
          <falloff_type sid="falloff_type" type="int">2</falloff_type>
          <clipsta sid="clipsta" type="float">1.000799</clipsta>
          <clipend sid="clipend" type="float">30.002</clipend>
          <bias sid="bias" type="float">1</bias>
          <soft sid="soft" type="float">3</soft>
          <compressthresh sid="compressthresh" type="float">0.04999995</compressthresh>
          <bufsize sid="bufsize" type="int">2880</bufsize>
          <samp sid="samp" type="int">3</samp>
          <buffers sid="buffers" type="int">1</buffers>
          <filtertype sid="filtertype" type="int">0</filtertype>
          <bufflag sid="bufflag" type="int">0</bufflag>
          <buftype sid="buftype" type="int">2</buftype>
          <ray_samp sid="ray_samp" type="int">1</ray_samp>
          <ray_sampy sid="ray_sampy" type="int">1</ray_sampy>
          <ray_sampz sid="ray_sampz" type="int">1</ray_sampz>
          <ray_samp_type sid="ray_samp_type" type="int">0</ray_samp_type>
          <area_shape sid="area_shape" type="int">1</area_shape>
          <area_size sid="area_size" type="float">0.1</area_size>
          <area_sizey sid="area_sizey" type="float">0.1</area_sizey>
          <area_sizez sid="area_sizez" type="float">1</area_sizez>
          <adapt_thresh sid="adapt_thresh" type="float">0.000999987</adapt_thresh>
          <ray_samp_method sid="ray_samp_method" type="int">1</ray_samp_method>
          <shadhalostep sid="shadhalostep" type="int">0</shadhalostep>
          <sun_effect_type sid="sun_effect_type" type="int">0</sun_effect_type>
          <skyblendtype sid="skyblendtype" type="int">1</skyblendtype>
          <horizon_brightness sid="horizon_brightness" type="float">1</horizon_brightness>
          <spread sid="spread" type="float">1</spread>
          <sun_brightness sid="sun_brightness" type="float">1</sun_brightness>
          <sun_size sid="sun_size" type="float">1</sun_size>
          <backscattered_light sid="backscattered_light" type="float">1</backscattered_light>
          <sun_intensity sid="sun_intensity" type="float">1</sun_intensity>
          <atm_turbidity sid="atm_turbidity" type="float">2</atm_turbidity>
          <atm_extinction_factor sid="atm_extinction_factor" type="float">1</atm_extinction_factor>
          <atm_distance_factor sid="atm_distance_factor" type="float">1</atm_distance_factor>
          <skyblendfac sid="skyblendfac" type="float">1</skyblendfac>
          <sky_exposure sid="sky_exposure" type="float">1</sky_exposure>
          <sky_colorspace sid="sky_colorspace" type="int">0</sky_colorspace>
        </technique>
      </extra>
    </light>
  </library_lights>
  <library_images/>
  <library_geometries>
    <geometry id="Cube_002-mesh" name="Cube.002">
      <mesh>
        <source id="Cube_002-mesh-positions">
          <float_array id="Cube_002-mesh-positions-array" count="330">0 -0.5 -1.001786 0 -0.5 1.001786 0.1950903 -0.5096074 -1.001786 0.1950903 -0.5096074 1.001786 0.3826835 -0.5380603 -1.001786 0.3826835 -0.5380603 1.001786 0.5555703 -0.5842652 -1.001786 0.5555703 -0.5842652 1.001786 0.7071068 -0.6464466 -1.001786 0.7071068 -0.6464466 1.001786 0.8314696 -0.7222149 -1.001786 0.8314696 -0.7222149 1.001786 0.9238795 -0.8086583 -1.001786 0.9238795 -0.8086583 1.001786 0.9807853 -0.9024549 -1.001786 0.9807853 -0.9024549 1.001786 1 -1 -1.001786 1 -1 1.001786 0.9807853 -1.097545 -1.001786 0.9807853 -1.097545 1.001786 0.9238796 -1.191342 -1.001786 0.9238796 -1.191342 1.001786 0.8314696 -1.277785 -1.001786 0.8314696 -1.277785 1.001786 0.7071068 -1.353553 -1.001786 0.7071068 -1.353553 1.001786 0.5555702 -1.415735 -1.001786 0.5555702 -1.415735 1.001786 0.3826833 -1.46194 -1.001786 0.3826833 -1.46194 1.001786 0.1950901 -1.490393 -1.001786 0.1950901 -1.490393 1.001786 -3.25841e-7 -1.5 -1.001786 -3.25841e-7 -1.5 1.001786 -0.1950907 -1.490393 -1.001786 -0.1950907 -1.490393 1.001786 -0.3826839 -1.46194 -1.001786 -0.3826839 -1.46194 1.001786 -0.5555707 -1.415735 -1.001786 -0.5555707 -1.415735 1.001786 -0.7071073 -1.353553 -1.001786 -0.7071073 -1.353553 1.001786 -0.83147 -1.277785 -1.001786 -0.83147 -1.277785 1.001786 -0.9238799 -1.191341 -1.001786 -0.9238799 -1.191341 1.001786 -0.9807854 -1.097545 -1.001786 -0.9807854 -1.097545 1.001786 -1 -0.9999995 -1.001786 -1 -0.9999995 1.001786 -0.9807851 -0.9024543 -1.001786 -0.9807851 -0.9024543 1.001786 -0.9238791 -0.8086578 -1.001786 -0.9238791 -0.8086578 1.001786 -0.8314689 -0.7222144 -1.001786 -0.8314689 -0.7222144 1.001786 -0.7071059 -0.6464462 -1.001786 -0.7071059 -0.6464462 1.001786 -0.5555691 -0.5842648 -1.001786 -0.5555691 -0.5842648 1.001786 -0.3826821 -0.53806 -1.001786 -0.3826821 -0.53806 1.001786 -0.1950888 -0.5096072 -1.001786 -0.1950888 -0.5096072 1.001786 -1 -1 -1 -1 -1 1 -1 1 -1 -1 1 1 1 -1 -1 1 -1 1 1 1 -1 1 1 1 0 -0.5 1 0 -0.5 -1 -0.1950888 -0.5096072 1 -0.1950888 -0.5096072 -1 -0.3826821 -0.53806 1 -0.3826821 -0.53806 -1 1 -0.999913 -1 0.9807853 -0.9024549 1 0.9808024 -0.9025418 1 0.9807853 -0.9024549 -1 0.5555703 -0.5842652 1 0.5555703 -0.5842652 -1 0.9238795 -0.8086583 1 0.9238795 -0.8086583 -1 -0.7071059 -0.6464462 1 -0.7071059 -0.6464462 -1 -0.5555691 -0.5842648 1 -0.5555691 -0.5842648 -1 -0.8314689 -0.7222144 1 -0.8314689 -0.7222144 -1 -0.9999829 -0.9999126 1 -0.9807851 -0.9024543 1 -0.9807851 -0.9024544 -1 -0.9808022 -0.9025413 -1 0.7071068 -0.6464466 1 0.7071068 -0.6464466 -1 0.8314696 -0.7222149 1 0.8314696 -0.7222149 -1 -0.9238791 -0.8086578 1 -0.9238791 -0.8086578 -1 0.3826835 -0.5380603 1 0.3826835 -0.5380603 -1 0.1950903 -0.5096074 1 0.1950903 -0.5096074 -1 1 -0.999913 -1 -1 -1 -1 1 -1 -1 -0.9999829 -0.9999126 1</float_array>
          <technique_common>
            <accessor source="#Cube_002-mesh-positions-array" count="110" stride="3">
              <param name="X" type="float"/>
              <param name="Y" type="float"/>
              <param name="Z" type="float"/>
            </accessor>
          </technique_common>
        </source>
        <source id="Cube_002-mesh-normals">
          <float_array id="Cube_002-mesh-normals-array" count="351">0.04918318 0.9987899 0 0.1499652 0.9886913 0 0.2581954 0.9660927 0 0.3796081 0.9251475 0 0.5202993 0.8539841 0 0.6831387 0.7302887 0 0.854956 0.5187007 0 0.9811463 0.1932668 0 0.9811456 -0.1932705 0 0.854958 -0.5186973 0 0.6831373 -0.7302899 0 0.5202938 -0.8539873 0 0.3796217 -0.9251419 0 0.258194 -0.9660931 0 0.1499581 -0.9886924 0 0.04918581 -0.9987897 0 -0.0491864 -0.9987897 0 -0.1499589 -0.9886924 0 -0.2581936 -0.9660933 0 -0.3796225 -0.9251415 0 -0.5202942 -0.8539872 0 -0.6831383 -0.7302891 0 -0.8549596 -0.5186947 0 -0.9811461 -0.1932678 0 -0.9811507 0.1932445 1.13211e-5 -0.8549554 0.5187016 0 -0.6831367 0.7302907 0 -0.5202985 0.8539845 0 -0.3796076 0.9251477 0 -0.258195 0.9660929 0 -1.11252e-6 0 1 -0.1499543 0.988693 0 -0.0491836 0.9987897 0 0 0 -1 -1 -8.64305e-6 0 0 1 0 1 0 0 0 -1 0 0 -0.001362383 0.9999992 0.854958 0.5186973 0 0.8549565 0.5186998 0 0.2581936 0.9660933 0 0.683138 0.7302893 0 0.6831381 0.7302892 0 0.9811469 0.1932636 -2.10024e-5 0.3796218 0.9251419 0 0.3796296 0.9251386 0 -0.3796215 0.9251419 0 -0.379629 0.9251388 0 -0.9811458 0.1932693 0 -0.8549571 0.5186989 0 -0.5202919 0.8539885 0 -0.5202989 0.8539844 0 -0.2581927 0.9660935 0 -0.2581951 0.9660928 0 0 0 1 0.04918617 0.9987897 0 0.04918855 0.9987895 0 -0.04918563 0.9987897 0 -0.04918891 0.9987896 0 -0.6831373 0.7302901 0 -0.6831377 0.7302897 0 0.1499586 0.9886924 0 0.1499545 0.9886929 0 -0.1499575 0.9886925 0 -0.1499544 0.9886929 0 0.5202939 0.8539873 0 0.981145 0.1932734 0 0.9810438 0.1937864 0 0.9811455 0.1932711 0 0.9811488 0.1932541 0 0.9811427 -0.1932848 0 0.9811428 -0.1932847 0 0.9811463 -0.1932668 0 0.6831378 -0.7302895 0 0.5202942 -0.8539872 0 0.2581941 -0.9660931 0 0.1499582 -0.9886924 0 -0.1499588 -0.9886923 0 -0.2581934 -0.9660933 0 -0.3796222 -0.9251416 0 -0.6831378 -0.7302895 0 -0.8549591 -0.5186955 0 -0.9811428 -0.1932847 -6.29583e-5 -0.9811458 -0.1932691 0 -0.9811426 -0.1932856 6.29586e-5 -0.9811425 0.1932863 6.2958e-5 -0.9815031 0.1914466 2.30104e-5 -0.8549554 0.5187016 3.80352e-5 -7.46333e-7 0 1 -1.16097e-6 0 1 1.11252e-6 0 1 7.46333e-7 0 1 1.16097e-6 0 1 7.46334e-7 0 -1 -1.11252e-6 0 -1 1.16097e-6 0 -1 -7.46333e-7 0 -1 1.11252e-6 0 -1 -1.16097e-6 0 -1 -1 0 8.55327e-6 -0.9809904 0.1940568 0 0 0 1 0.8549576 0.5186981 0 0.9809435 0.1942936 0 0.9811484 0.1932561 0 0.379622 0.9251418 0 -0.3796218 0.9251419 0 -0.9812989 0.1924906 0 -0.9811455 0.1932713 0 -0.9811485 0.1932554 -6.29479e-5 -0.9811448 0.1932746 0 -0.8549572 0.5186986 0 -0.5202923 0.8539884 0 -0.6831368 0.7302905 0 -0.1499575 0.9886925 0 0.5202935 0.8539875 0</float_array>
          <technique_common>
            <accessor source="#Cube_002-mesh-normals-array" count="117" stride="3">
              <param name="X" type="float"/>
              <param name="Y" type="float"/>
              <param name="Z" type="float"/>
            </accessor>
          </technique_common>
        </source>
        <vertices id="Cube_002-mesh-vertices">
          <input semantic="POSITION" source="#Cube_002-mesh-positions"/>
        </vertices>
        <lines count="8">
          <input semantic="VERTEX" source="#Cube_002-mesh-vertices" offset="0"/>
          <p>78 70 78 81 78 68 92 93 68 78 69 80 64 95 65 92</p>
        </lines>
        <triangles count="216">
          <input semantic="VERTEX" source="#Cube_002-mesh-vertices" offset="0"/>
          <input semantic="NORMAL" source="#Cube_002-mesh-normals" offset="1"/>
          <p>73 0 2 0 0 0 105 1 4 1 2 1 103 2 6 2 4 2 83 3 8 3 6 3 97 4 10 4 8 4 99 5 12 5 10 5 85 6 14 6 12 6 81 7 80 7 108 7 69 8 19 8 18 8 19 9 20 9 18 9 21 10 22 10 20 10 23 11 24 11 22 11 25 12 26 12 24 12 27 13 28 13 26 13 29 14 30 14 28 14 31 15 32 15 30 15 33 16 34 16 32 16 35 17 36 17 34 17 37 18 38 18 36 18 39 19 40 19 38 19 41 20 42 20 40 20 43 21 44 21 42 21 45 22 46 22 44 22 47 23 65 23 107 23 64 24 95 24 50 24 50 25 101 25 52 25 101 26 54 26 52 26 91 27 56 27 54 27 87 28 58 28 56 28 89 29 60 29 58 29 9 30 7 30 25 30 77 31 62 31 60 31 75 32 0 32 62 32 58 33 60 33 38 33 92 34 67 34 66 34 67 35 70 35 66 35 69 36 68 36 106 36 69 37 64 37 68 37 106 33 68 33 64 33 109 38 65 38 69 38 85 39 79 39 81 39 84 40 15 40 79 40 103 41 82 41 83 41 102 2 7 2 82 2 99 42 84 42 85 42 98 43 13 43 84 43 17 44 69 44 80 44 83 45 96 45 97 45 82 46 9 46 96 46 87 47 88 47 89 47 86 48 59 48 88 48 93 49 95 49 65 49 101 50 93 50 100 50 93 25 53 25 100 25 91 51 86 51 87 51 90 52 57 52 86 52 89 53 76 53 77 53 88 54 61 54 76 54 92 55 109 55 67 55 73 56 104 56 105 56 72 57 3 57 104 57 75 58 72 58 73 58 74 59 1 59 72 59 101 60 90 60 91 60 100 61 55 61 90 61 105 62 102 62 103 62 104 63 5 63 102 63 77 64 74 64 75 64 76 65 63 65 74 65 97 66 98 66 99 66 96 4 11 4 98 4 73 57 105 57 2 57 105 63 103 63 4 63 103 2 83 2 6 2 83 46 97 46 8 46 97 4 99 4 10 4 99 43 85 43 12 43 85 40 81 40 14 40 16 67 14 67 81 67 81 68 79 68 80 68 80 69 69 69 108 69 108 70 16 70 81 70 18 71 16 71 108 71 69 72 17 72 19 72 18 73 108 73 69 73 19 9 21 9 20 9 21 74 23 74 22 74 23 75 25 75 24 75 25 12 27 12 26 12 27 76 29 76 28 76 29 77 31 77 30 77 31 15 33 15 32 15 33 16 35 16 34 16 35 78 37 78 36 78 37 79 39 79 38 79 39 80 41 80 40 80 41 20 43 20 42 20 43 81 45 81 44 81 45 82 47 82 46 82 48 83 46 83 107 83 46 84 47 84 107 84 47 85 49 85 65 85 50 86 48 86 107 86 107 55 65 55 64 55 95 87 94 87 50 87 50 55 107 55 64 55 50 88 94 88 101 88 101 61 91 61 54 61 91 52 87 52 56 52 87 48 89 48 58 48 89 54 77 54 60 54 5 55 3 55 31 55 3 55 1 55 33 55 1 55 63 55 35 55 63 55 61 55 37 55 61 89 59 89 37 89 59 55 57 55 39 55 37 55 59 55 39 55 57 55 55 55 41 55 55 90 53 90 43 90 41 55 55 55 43 55 53 55 51 55 47 55 51 55 49 55 47 55 47 55 45 55 53 55 45 55 43 55 53 55 41 91 39 91 57 91 37 55 35 55 63 55 35 55 33 55 1 55 33 55 31 55 3 55 31 55 29 55 5 55 29 92 27 92 5 92 27 55 25 55 7 55 5 55 27 55 7 55 25 55 23 55 9 55 23 93 21 93 11 93 9 55 23 55 11 55 21 55 19 55 15 55 19 55 17 55 15 55 15 55 13 55 21 55 13 55 11 55 21 55 77 65 75 65 62 65 75 59 73 59 0 59 62 33 0 33 32 33 0 33 2 33 30 33 2 33 4 33 30 33 4 94 6 94 28 94 30 33 4 33 28 33 6 95 8 95 24 95 8 33 10 33 22 33 10 96 12 96 22 96 12 33 14 33 20 33 22 33 12 33 20 33 14 33 16 33 18 33 18 33 20 33 14 33 22 33 24 33 8 33 24 33 26 33 6 33 26 33 28 33 6 33 30 33 32 33 0 33 32 33 34 33 62 33 34 33 36 33 62 33 36 97 38 97 60 97 62 33 36 33 60 33 38 98 40 98 56 98 40 33 42 33 54 33 42 99 44 99 54 99 44 33 46 33 52 33 54 33 44 33 52 33 46 33 48 33 50 33 50 33 52 33 46 33 54 33 56 33 40 33 56 33 58 33 38 33 66 100 64 100 92 100 64 101 65 101 92 101 67 35 71 35 70 35 106 36 70 36 71 36 71 36 69 36 106 36 69 37 65 37 64 37 64 33 66 33 106 33 66 33 70 33 106 33 69 55 71 55 109 55 71 102 67 102 109 102 85 103 84 103 79 103 84 6 13 6 15 6 103 41 102 41 82 41 102 2 5 2 7 2 99 42 98 42 84 42 98 5 11 5 13 5 80 104 79 104 15 104 15 105 17 105 80 105 83 106 82 106 96 106 82 3 7 3 9 3 87 107 86 107 88 107 86 28 57 28 59 28 93 108 94 108 95 108 95 109 64 109 65 109 65 110 49 110 93 110 49 111 51 111 93 111 101 112 94 112 93 112 93 25 51 25 53 25 91 113 90 113 86 113 90 27 55 27 57 27 89 53 88 53 76 53 88 29 59 29 61 29 92 55 65 55 109 55 73 56 72 56 104 56 72 0 1 0 3 0 75 58 74 58 72 58 74 32 63 32 1 32 101 114 100 114 90 114 100 26 53 26 55 26 105 62 104 62 102 62 104 1 3 1 5 1 77 115 76 115 74 115 76 31 61 31 63 31 97 116 96 116 98 116 96 4 9 4 11 4</p>
        </triangles>
      </mesh>
    </geometry>
    <geometry id="Cylinder-mesh" name="Cylinder">
      <mesh>
        <source id="Cylinder-mesh-positions">
          <float_array id="Cylinder-mesh-positions-array" count="192">0 0.01899999 -0.02805 0 0.01899999 0.02805 0.003706693 0.01863491 -0.02805 0.003706693 0.01863491 0.02805 0.007270932 0.01755368 -0.02805 0.007270932 0.01755368 0.02805 0.0105558 0.01579791 -0.02805 0.0105558 0.01579791 0.02805 0.013435 0.013435 -0.02805 0.013435 0.013435 0.02805 0.01579791 0.0105558 -0.02805 0.01579791 0.0105558 0.02805 0.01755368 0.007270932 -0.02805 0.01755368 0.007270932 0.02805 0.01863491 0.003706693 -0.02805 0.01863491 0.003706693 0.02805 0.01899999 0 -0.02805 0.01899999 0 0.02805 0.01863491 -0.003706693 -0.02805 0.01863491 -0.003706693 0.02805 0.01755368 -0.007270932 -0.02805 0.01755368 -0.007270932 0.02805 0.01579791 -0.0105558 -0.02805 0.01579791 -0.0105558 0.02805 0.013435 -0.013435 -0.02805 0.013435 -0.013435 0.02805 0.0105558 -0.01579791 -0.02805 0.0105558 -0.01579791 0.02805 0.007270932 -0.01755368 -0.02805 0.007270932 -0.01755368 0.02805 0.003706693 -0.01863491 -0.02805 0.003706693 -0.01863491 0.02805 0 -0.01899999 -0.02805 0 -0.01899999 0.02805 -0.003706693 -0.01863491 -0.02805 -0.003706693 -0.01863491 0.02805 -0.007270991 -0.01755368 -0.02805 -0.007270991 -0.01755368 0.02805 -0.0105558 -0.01579791 -0.02805 -0.0105558 -0.01579791 0.02805 -0.013435 -0.013435 -0.02805 -0.013435 -0.013435 0.02805 -0.01579791 -0.0105558 -0.02805 -0.01579791 -0.0105558 0.02805 -0.01755368 -0.007270932 -0.02805 -0.01755368 -0.007270932 0.02805 -0.01863491 -0.003706693 -0.02805 -0.01863491 -0.003706693 0.02805 -0.01899999 0 -0.02805 -0.01899999 0 0.02805 -0.01863491 0.003706693 -0.02805 -0.01863491 0.003706693 0.02805 -0.01755368 0.007270991 -0.02805 -0.01755368 0.007270991 0.02805 -0.01579791 0.0105558 -0.02805 -0.01579791 0.0105558 0.02805 -0.013435 0.013435 -0.02805 -0.013435 0.013435 0.02805 -0.0105558 0.01579791 -0.02805 -0.0105558 0.01579791 0.02805 -0.007270932 0.01755368 -0.02805 -0.007270932 0.01755368 0.02805 -0.003706634 0.01863491 -0.02805 -0.003706634 0.01863491 0.02805</float_array>
          <technique_common>
            <accessor source="#Cylinder-mesh-positions-array" count="64" stride="3">
              <param name="X" type="float"/>
              <param name="Y" type="float"/>
              <param name="Z" type="float"/>
            </accessor>
          </technique_common>
        </source>
        <source id="Cylinder-mesh-normals">
          <float_array id="Cylinder-mesh-normals-array" count="255">0.09801727 0.9951847 0 0.2902848 0.9569404 0 0.4713965 0.8819215 0 0.6343937 0.7730102 0 0.7730107 0.6343931 0 0.8819216 0.4713963 0 0.9569402 0.2902849 0 0.9951848 0.09801703 0 0.9951847 -0.09801703 0 0.9569403 -0.2902849 0 0.8819215 -0.4713963 0 0.7730104 -0.6343934 0 0.6343931 -0.7730106 0 0.4713969 -0.8819212 0 0.2902843 -0.9569405 0 0.09801673 -0.9951848 0 -0.09801775 -0.9951847 0 -0.2902852 -0.9569402 0 -0.4713968 -0.8819212 0 -0.6343941 -0.7730098 0 -0.7730107 -0.6343932 0 -0.8819218 -0.4713959 0 -0.9569407 -0.2902837 0 -0.9951848 -0.09801697 0 -0.9951847 0.0980181 0 -0.95694 0.2902858 0 -0.8819208 0.4713976 0 -0.7730095 0.6343944 0 -0.6343926 0.7730111 0 -0.4713953 0.881922 0 1.6124e-7 0 1 -0.2902832 0.9569408 0 -0.09801656 0.9951848 0 0 0 -1 0.2902848 0.9569404 0 0.4713963 0.8819215 0 0.6343931 0.7730106 0 0.7730104 0.6343934 0 0.8819211 0.4713971 0 0.9569407 0.2902839 0 0.9951847 0.09801816 0 0.7730107 -0.6343931 0 0.6343934 -0.7730104 0 0.471397 -0.8819212 0 0.2902842 -0.9569405 0 -0.2902852 -0.9569403 0 -0.4713965 -0.8819214 0 -0.6343939 -0.77301 0 -0.7730112 -0.6343925 0 -0.8819215 -0.4713962 0 -0.9951848 -0.09801584 0 -0.8819206 0.4713981 0 -0.7730099 0.6343941 0 -0.471395 0.8819223 0 0 0 1 0 0 1 5.37663e-6 0 1 -7.40418e-6 0 1 3.63095e-6 0 1 5.37665e-6 0 1 -6.72083e-7 0 1 -3.63095e-6 0 1 5.37666e-6 0 1 5.37667e-6 0 1 -5.37666e-6 0 1 2.68833e-6 0 1 -5.25961e-7 0 1 1.94369e-6 0 1 -1.05192e-6 0 1 6.91897e-7 0 1 -0.2902832 0.9569408 0 -6.72094e-7 0 -1 2.68835e-6 0 -1 -5.37667e-6 0 -1 3.63096e-6 0 -1 -5.37667e-6 0 -1 3.70209e-6 0 -1 -5.37666e-6 0 -1 1.34417e-6 0 -1 -3.70209e-6 0 -1 3.63095e-6 0 -1 1.81547e-6 0 -1 9.71847e-7 0 -1 -2.76759e-6 0 -1 5.83901e-7 0 -1</float_array>
          <technique_common>
            <accessor source="#Cylinder-mesh-normals-array" count="85" stride="3">
              <param name="X" type="float"/>
              <param name="Y" type="float"/>
              <param name="Z" type="float"/>
            </accessor>
          </technique_common>
        </source>
        <vertices id="Cylinder-mesh-vertices">
          <input semantic="POSITION" source="#Cylinder-mesh-positions"/>
        </vertices>
        <triangles count="124">
          <input semantic="VERTEX" source="#Cylinder-mesh-vertices" offset="0"/>
          <input semantic="NORMAL" source="#Cylinder-mesh-normals" offset="1"/>
          <p>1 0 2 0 0 0 3 1 4 1 2 1 5 2 6 2 4 2 7 3 8 3 6 3 9 4 10 4 8 4 11 5 12 5 10 5 13 6 14 6 12 6 15 7 16 7 14 7 17 8 18 8 16 8 19 9 20 9 18 9 21 10 22 10 20 10 23 11 24 11 22 11 25 12 26 12 24 12 27 13 28 13 26 13 29 14 30 14 28 14 31 15 32 15 30 15 33 16 34 16 32 16 35 17 36 17 34 17 37 18 38 18 36 18 39 19 40 19 38 19 41 20 42 20 40 20 43 21 44 21 42 21 45 22 46 22 44 22 47 23 48 23 46 23 49 24 50 24 48 24 51 25 52 25 50 25 53 26 54 26 52 26 55 27 56 27 54 27 57 28 58 28 56 28 59 29 60 29 58 29 37 30 21 30 5 30 61 31 62 31 60 31 63 32 0 32 62 32 30 33 46 33 62 33 1 0 3 0 2 0 3 34 5 34 4 34 5 35 7 35 6 35 7 36 9 36 8 36 9 37 11 37 10 37 11 38 13 38 12 38 13 39 15 39 14 39 15 40 17 40 16 40 17 8 19 8 18 8 19 9 21 9 20 9 21 10 23 10 22 10 23 41 25 41 24 41 25 42 27 42 26 42 27 43 29 43 28 43 29 44 31 44 30 44 31 15 33 15 32 15 33 16 35 16 34 16 35 45 37 45 36 45 37 46 39 46 38 46 39 47 41 47 40 47 41 48 43 48 42 48 43 49 45 49 44 49 45 22 47 22 46 22 47 50 49 50 48 50 49 24 51 24 50 24 51 25 53 25 52 25 53 51 55 51 54 51 55 52 57 52 56 52 57 28 59 28 58 28 59 53 61 53 60 53 5 54 3 54 1 54 1 54 63 54 5 54 63 55 61 55 5 55 61 56 59 56 57 56 57 54 55 54 53 54 53 57 51 57 45 57 51 58 49 58 45 58 49 54 47 54 45 54 45 59 43 59 41 59 41 54 39 54 37 54 37 60 35 60 33 60 33 54 31 54 29 54 29 54 27 54 21 54 27 61 25 61 21 61 25 54 23 54 21 54 21 62 19 62 17 62 17 63 15 63 13 63 13 64 11 64 9 64 9 65 7 65 5 65 61 54 57 54 5 54 57 66 53 66 5 66 45 67 41 67 53 67 41 68 37 68 53 68 37 54 33 54 21 54 33 54 29 54 21 54 21 54 17 54 13 54 13 69 9 69 5 69 21 54 13 54 5 54 5 54 53 54 37 54 61 70 63 70 62 70 63 32 1 32 0 32 62 71 0 71 2 71 2 72 4 72 6 72 6 73 8 73 10 73 10 74 12 74 6 74 12 33 14 33 6 33 14 75 16 75 18 75 18 33 20 33 14 33 20 76 22 76 14 76 22 77 24 77 26 77 26 78 28 78 30 78 30 33 32 33 34 33 34 33 36 33 38 33 38 79 40 79 46 79 40 80 42 80 46 80 42 33 44 33 46 33 46 33 48 33 50 33 50 33 52 33 54 33 54 33 56 33 62 33 56 81 58 81 62 81 58 33 60 33 62 33 62 33 2 33 14 33 2 33 6 33 14 33 22 33 26 33 14 33 26 33 30 33 14 33 30 33 34 33 46 33 34 82 38 82 46 82 46 83 50 83 54 83 46 84 54 84 62 84 62 33 14 33 30 33</p>
        </triangles>
      </mesh>
    </geometry>
  </library_geometries>
  <library_controllers/>
  <library_visual_scenes>
    <visual_scene id="Scene" name="Scene">
      <node id="Camera" name="Camera" type="NODE">
        <matrix sid="transform">0.6859207 -0.3240135 0.6515582 7.481132 0.7276763 0.3054208 -0.6141704 -6.50764 0 0.8953956 0.4452714 5.343665 0 0 0 1</matrix>
        <instance_camera url="#Camera-camera"/>
      </node>
      <node id="Lamp" name="Lamp" type="NODE">
        <matrix sid="transform">-0.2908646 -0.7711008 0.5663932 4.076245 0.9551712 -0.1998834 0.2183912 1.005454 -0.05518906 0.6045247 0.7946723 5.903862 0 0 0 1</matrix>
        <instance_light url="#Lamp-light"/>
      </node>
      <node id="Cube" name="Cube" type="NODE">
        <matrix sid="transform">0.019 0 0 0 0 0.038 0 0.038 0 0 0.028 0 0 0 0 1</matrix>
        <instance_geometry url="#Cube_002-mesh" name="Cube"/>
      </node>
      <node id="Cylinder" name="Cylinder" type="NODE">
        <matrix sid="transform">1 0 0 0 0 1 0 0 0 0 1 0 0 0 0 1</matrix>
        <instance_geometry url="#Cylinder-mesh" name="Cylinder"/>
      </node>
    </visual_scene>
  </library_visual_scenes>
  <scene>
    <instance_visual_scene url="#Scene"/>
  </scene>
</COLLADA>