<?xml version="1.0" encoding="utf-8"?>
<COLLADA xmlns="http://www.collada.org/2005/11/COLLADASchema" version="1.4.1">
  <asset>
    <contributor>
      <author>Blender User</author>
      <authoring_tool>Blender 2.76.0 commit date:2015-11-03, commit time:10:56, hash:f337fea</authoring_tool>
    </contributor>
    <created>2017-02-16T09:08:39</created>
    <modified>2017-02-16T09:08:39</modified>
    <unit name="meter" meter="1"/>
    <up_axis>Z_UP</up_axis>
  </asset>
  <library_images/>
  <library_geometries>
    <geometry id="Cube_063-mesh" name="Cube.063">
      <mesh>
        <source id="Cube_063-mesh-positions">
          <float_array id="Cube_063-mesh-positions-array" count="24">-1 -1 -1 -1 -1 1 -1 1 -1 -1 1 1 1 -1 -1 1 -1 1 1 1 -1 1 1 1</float_array>
          <technique_common>
            <accessor source="#Cube_063-mesh-positions-array" count="8" stride="3">
              <param name="X" type="float"/>
              <param name="Y" type="float"/>
              <param name="Z" type="float"/>
            </accessor>
          </technique_common>
        </source>
        <source id="Cube_063-mesh-normals">
          <float_array id="Cube_063-mesh-normals-array" count="18">-1 0 0 0 1 0 1 0 0 0 -1 0 0 0 -1 0 0 1</float_array>
          <technique_common>
            <accessor source="#Cube_063-mesh-normals-array" count="6" stride="3">
              <param name="X" type="float"/>
              <param name="Y" type="float"/>
              <param name="Z" type="float"/>
            </accessor>
          </technique_common>
        </source>
        <vertices id="Cube_063-mesh-vertices">
          <input semantic="POSITION" source="#Cube_063-mesh-positions"/>
        </vertices>
        <polylist count="12">
          <input semantic="VERTEX" source="#Cube_063-mesh-vertices" offset="0"/>
          <input semantic="NORMAL" source="#Cube_063-mesh-normals" offset="1"/>
          <vcount>3 3 3 3 3 3 3 3 3 3 3 3 </vcount>
          <p>3 0 2 0 0 0 7 1 6 1 2 1 5 2 4 2 6 2 1 3 0 3 4 3 2 4 6 4 4 4 7 5 3 5 1 5 1 0 3 0 0 0 3 1 7 1 2 1 7 2 5 2 6 2 5 3 1 3 4 3 0 4 2 4 4 4 5 5 7 5 1 5</p>
        </polylist>
      </mesh>
    </geometry>
  </library_geometries>
  <library_controllers/>
  <library_visual_scenes>
    <visual_scene id="Scene" name="Scene">
      <node id="Anchor" name="Anchor" type="NODE">
        <instance_geometry url="#Cube_063-mesh" name="Anchor"/>
      </node>
    </visual_scene>
  </library_visual_scenes>
  <scene>
    <instance_visual_scene url="#Scene"/>
  </scene>
</COLLADA>