<?xml version="1.0" encoding="UTF-8"?>
<COLLADA xmlns="http://www.collada.org/2005/11/COLLADASchema" version="1.4.1">
    <asset>
        <contributor>
            <author>VCGLab</author>
            <authoring_tool>VCGLib | MeshLab</authoring_tool>
        </contributor>
        <created>Mi Nov 9 01:50:50 2016 GMT</created>
        <modified>Mi Nov 9 01:50:50 2016 GMT</modified>
        <up_axis>Y_UP</up_axis>
    </asset>
    <library_geometries>
        <geometry id="shape0-lib" name="shape0">
            <mesh>
                <source id="shape0-lib-positions" name="position">
                    <float_array id="shape0-lib-positions-array" count="1773">0.0166186 -0.0153406 -0.0387204 0.0166185 -0.0153842 -0.0328543 0.0160185 -0.0180319 -0.0387204 0.0160265 -0.0180429 -0.0328543 0.0152594 -0.0203302 -0.0387204 0.0152673 -0.0203408 -0.0328543 0.0143104 -0.0223724 -0.0387204 0.0143182 -0.0223828 -0.0328543 0.0131734 -0.0241663 -0.0387204 0.0131812 -0.0241764 -0.0328543 0.0118504 -0.0257195 -0.0387204 0.0118581 -0.0257293 -0.0328543 0.0103434 -0.0270397 -0.0387204 0.010351 -0.0270491 -0.0328543 0.00865423 -0.0281345 -0.0387204 0.00866173 -0.0281436 -0.0328543 0.00678493 -0.0290116 -0.0387204 0.00679236 -0.0290204 -0.0328543 0.00473745 -0.0296787 -0.0387204 0.00474479 -0.0296871 -0.0328543 0.00251374 -0.0301433 -0.0387204 0.002521 -0.0301514 -0.0328543 0.000115749 -0.0304132 -0.0387204 0.000122929 -0.030421 -0.0328543 -0.00243198 -0.0304638 -0.0387204 -0.00243053 -0.0304793 -0.0328543 -0.00499624 -0.0301481 -0.0387204 -0.0050051 -0.0301697 -0.0328543 -0.00738921 -0.0293513 -0.0387204 -0.00739807 -0.0293699 -0.0328543 -0.00956969 -0.0281081 -0.0387204 -0.00957854 -0.0281238 -0.0328543 -0.0115377 -0.0264894 -0.0387204 -0.0115466 -0.0265021 -0.0328543 -0.0132933 -0.0245657 -0.0387204 -0.0133022 -0.0245755 -0.0328543 -0.0148366 -0.0224078 -0.0387204 -0.0148454 -0.0224147 -0.0328543 -0.0161675 -0.0200864 -0.0387204 -0.0161764 -0.0200903 -0.0328543 -0.0172862 -0.017672 -0.0387204 -0.017295 -0.017673 -0.0328543 -0.0181926 -0.0152355 -0.0387204 -0.0182014 -0.0152335 -0.0328543 -0.0188868 -0.0128475 -0.0387204 -0.0188956 -0.0128425 -0.0328543 -0.0193688 -0.0105787 -0.0387204 -0.0193777 -0.0105707 -0.0328543 -0.0196655 -0.00821876 -0.0387204 -0.0196677 -0.00827812 -0.0328543 -0.0198646 -0.00501251 -0.0387204 -0.0198716 -0.00499453 -0.0328543 -0.0199198 -0.00191718 -0.0387204 -0.0199256 -0.00190199 -0.0328543 -0.0198355 0.0117747 -0.0387204 -0.0198401 0.0117871 -0.0328543 -0.0196399 0.0142084 -0.0387204 -0.0196433 0.0142179 -0.0328543 -0.0193614 0.0164118 -0.0387204 -0.0193637 0.0164186 -0.0328543 -0.0190285 0.0184521 -0.0387204 -0.0190296 0.0184561 -0.0328543 -0.0186695 0.0203965 -0.0387204 -0.0186694 0.0203977 -0.0328543 -0.0183128 0.0223119 -0.0387204 -0.0183115 0.0223103 -0.0328543 -0.0179866 0.0242655 -0.0387204 -0.0179842 0.0242612 -0.0328543 0.0168018 0.0224771 -0.0387204 0.0168031 0.0224614 -0.0328543 0.0171495 0.0192016 -0.0387204 0.0171515 0.0191897 -0.0328543 0.0174488 0.0162107 -0.0387204 0.0174516 0.0162028 -0.0328543 0.0176806 0.0134108 -0.0387204 0.0176842 0.0134067 -0.0328543 0.0178258 -0.000252971 -0.0387204 0.0178302 -0.00025311 -0.0328543 0.0178653 -0.00295244 -0.0387204 0.0178705 -0.00294867 -0.0328543 0.0177801 -0.00574237 -0.0387204 0.0177861 -0.00573469 -0.0328543 0.0175509 -0.00871655 -0.0387204 0.0175577 -0.00870496 -0.0328543 0.0171588 -0.0119688 -0.0387204 0.0171664 -0.0119533 -0.0328543 0.0165298 -0.0153481 -0.0223822 0.0159406 -0.0179945 -0.0223822 0.0151851 -0.0202814 -0.0223822 0.0142405 -0.0223135 -0.0223822 0.0131089 -0.0240984 -0.0223822 0.0117922 -0.0256439 -0.0223822 0.0102923 -0.0269574 -0.0223822 0.00861123 -0.0280466 -0.0223822 0.00675085 -0.0289192 -0.0223822 0.00471313 -0.0295827 -0.0223822 0.00250003 -0.0300448 -0.0223822 0.0001135 -0.0303131 -0.0223822 -0.00242759 -0.030371 -0.0223822 -0.00498964 -0.0300628 -0.0223822 -0.00737109 -0.0292669 -0.0223822 -0.00954108 -0.0280268 -0.0223822 -0.0114996 -0.026413 -0.0223822 -0.0132468 -0.0244957 -0.0223822 -0.0147826 -0.0223453 -0.0223822 -0.0161072 -0.0200321 -0.0223822 -0.0172204 -0.0176265 -0.0223822 -0.0181225 -0.0151988 -0.0223822 -0.0188133 -0.0128193 -0.0223822 -0.0192931 -0.0105585 -0.0223822 -0.0195818 -0.00827595 -0.0223822 -0.0197846 -0.00500925 -0.0223822 -0.0198385 -0.00193155 -0.0223822 -0.0197533 0.0117445 -0.0223822 -0.0195576 0.0141637 -0.0223822 -0.0192793 0.0163538 -0.0223822 -0.0189468 0.0183815 -0.0223822 -0.0185884 0.0203138 -0.0223822 -0.0182322 0.0222173 -0.0223822 -0.0179064 0.0241588 -0.0223822 0.0167135 0.0223678 -0.0223822 0.0170602 0.0191118 -0.0223822 0.0173589 0.0161392 -0.0223822 0.0175903 0.0133565 -0.0223822 0.0177356 -0.000290382 -0.0223822 0.0177758 -0.00297304 -0.0223822 0.0176917 -0.00574571 -0.0223822 0.0174645 -0.00870175 -0.0223822 0.017075 -0.0119345 -0.0223822 0.0158712 -0.0150848 -0.0123435 0.0153031 -0.0176359 -0.0123435 0.0145748 -0.0198406 -0.0123435 0.0136641 -0.0217998 -0.0123434 0.0125731 -0.0235207 -0.0123434 0.0113037 -0.0250106 -0.0123434 0.00985768 -0.026277 -0.0123435 0.00823693 -0.0273271 -0.0123435 0.00644333 -0.0281683 -0.0123435 0.00447877 -0.028808 -0.0123435 0.00234513 -0.0292536 -0.0123435 4.42759e-05 -0.0295122 -0.0123435 -0.00240563 -0.0295681 -0.0123435 -0.00487577 -0.029271 -0.0123435 -0.00717173 -0.0285036 -0.0123435 -0.00926381 -0.0273081 -0.0123435 -0.0111521 -0.0257521 -0.0123435 -0.0128365 -0.0239036 -0.0123435 -0.0143172 -0.0218304 -0.0123435 -0.0155942 -0.0196003 -0.0123435 -0.0166675 -0.017281 -0.0123435 -0.0175371 -0.0149404 -0.0123434 -0.0182032 -0.0126464 -0.0123434 -0.0186657 -0.0104667 -0.0123434 -0.018944 -0.00826664 -0.0123435 -0.0191396 -0.00511662 -0.0123435 -0.0191915 -0.00214944 -0.0123435 -0.0191094 0.000468123 -0.0123435 -0.0189206 0.0137614 -0.0123435 -0.0186524 0.0158728 -0.0123435 -0.0183318 0.0178278 -0.0123435 -0.0179862 0.0196907 -0.0123434 -0.0176428 0.0215258 -0.0123434 -0.0173288 0.0233976 -0.0123434 0.0160483 0.0216708 -0.0123434 0.0163826 0.0185317 -0.0123434 0.0166705 0.0156659 -0.0123434 0.0168936 0.0129832 -0.0123434 0.0170337 -0.000567307 -0.0123434 0.0170724 -0.00315362 -0.0123435 0.0169914 -0.00582672 -0.0123435 0.0167723 -0.0086766 -0.0123435 0.0163968 -0.0117933 -0.0123435 0.014881 -0.0146885 -0.00614971 0.0143448 -0.0170966 -0.00614971 0.0136572 -0.019178 -0.00614971 0.0127975 -0.0210275 -0.00614971 0.0117676 -0.022652 -0.0061497 0.0105692 -0.0240585 -0.00614971 0.00920416 -0.025254 -0.00614971 0.00767414 -0.0262453 -0.00614971 0.00598096 -0.0270395 -0.00614971 0.00412638 -0.0276434 -0.00614971 0.00211219 -0.0280639 -0.00614971 -5.98509e-05 -0.0283081 -0.00614971 -0.00237262 -0.0283609 -0.00614971 -0.00470451 -0.0280804 -0.00614971 -0.00687193 -0.027356 -0.00614971 -0.00884689 -0.0262274 -0.00614971 -0.0106294 -0.0247585 -0.00614971 -0.0122196 -0.0230135 -0.00614971 -0.0136174 -0.0210564 -0.00614971 -0.0148229 -0.0189511 -0.00614971 -0.0158361 -0.0167616 -0.00614971 -0.016657 -0.0145521 -0.00614971 -0.0172858 -0.0123865 -0.0061497 -0.0177224 -0.0103288 -0.00614971 -0.0179851 -0.00825212 -0.00614971 -0.0181698 -0.0052782 -0.00614971 -0.0182188 -0.00247713 -0.00614971 -0.0181413 -6.11894e-06 -0.00614971 -0.0179631 0.0131566 -0.00614971 -0.0177098 0.0151498 -0.00614971 -0.0174072 0.0169953 -0.00614971 -0.017081 0.0187539 -0.00614971 -0.0167568 0.0204862 -0.0061497 -0.0164603 0.0222532 -0.0061497 0.0150481 0.0206231 -0.00614971 0.0153637 0.0176598 -0.0061497 0.0156355 0.0149543 -0.00614971 0.0158462 0.0124218 -0.0061497 0.0159785 -0.00098363 -0.00614971 0.016015 -0.00342513 -0.00614971 0.0159385 -0.00594857 -0.00614971 0.0157317 -0.00863889 -0.00614971 0.0153772 -0.011581 -0.00614971 0.0137874 -0.0142509 -0.00201717 0.0132864 -0.0165012 -0.00201717 0.0126438 -0.0184462 -0.00201717 0.0118405 -0.0201746 -0.00201717 0.010878 -0.0216927 -0.00201716 0.00975813 -0.0230071 -0.00201717 0.00848244 -0.0241243 -0.00201717 0.00705263 -0.0250507 -0.00201717 0.00547035 -0.0257928 -0.00201717 0.00373723 -0.0263572 -0.00201717 0.00185495 -0.0267502 -0.00201717 -0.000174836 -0.0269784 -0.00201717 -0.00233617 -0.0270277 -0.00201717 -0.00451539 -0.0267657 -0.00201717 -0.00654086 -0.0260887 -0.00201717 -0.00838648 -0.0250339 -0.00201717 -0.0100523 -0.0236613 -0.00201717 -0.0115383 -0.0220306 -0.00201717 -0.0128445 -0.0202015 -0.00201717 -0.013971 -0.0182341 -0.00201717 -0.0149179 -0.016188 -0.00201717 -0.0156851 -0.0141232 -0.00201717 -0.0162727 -0.0120994 -0.00201716 -0.0166807 -0.0101765 -0.00201717 -0.0169262 -0.0082362 -0.00201717 -0.0170988 -0.00545659 -0.00201717 -0.0171445 -0.002839 -0.00201717 -0.0170721 -0.000529841 -0.00201717 -0.0169056 0.0124886 -0.00201717 -0.0166689 0.0143513 -0.00201717 -0.0163861 0.0160759 -0.00201717 -0.0160812 0.0177193 -0.00201717 -0.0157782 0.0193382 -0.00201716 -0.0155012 0.0209894 -0.00201716 0.0139437 0.019466 -0.00201717 0.0142386 0.0166968 -0.00201716 0.0144926 0.0141686 -0.00201717 0.0146895 0.011802 -0.00201716 0.014813 -0.00144341 -0.00201717 0.0148472 -0.00372498 -0.00201717 0.0147757 -0.00608313 -0.00201717 0.0145824 -0.00859723 -0.00201717 0.0142512 -0.0113467 -0.00201717 0.0106702 -0.0135227 0.000240659 0.0102649 -0.0153405 0.000240659 0.00975188 -0.0168937 0.000240659 0.00911052 -0.0182739 0.000240659 0.00834213 -0.0194862 0.000240661 0.00744802 -0.0205359 0.000240659 0.00642953 -0.0214281 0.000240659 0.00528798 -0.022168 0.000240659 0.00402469 -0.0227607 0.000240659 0.00264096 -0.0232115 0.000240659 0.00113815 -0.0235255 0.000240659 -0.000482443 -0.0237079 0.000240659 -0.0022044 -0.0237423 0.000240659 -0.00393766 -0.0235292 0.000240659 -0.00555487 -0.0229906 0.000240659 -0.00702846 -0.0221503 0.000240659 -0.00835848 -0.0210563 0.000240659 -0.00954495 -0.0197562 0.000240659 -0.0105879 -0.0182977 0.000240659 -0.0114874 -0.0167288 0.000240659 -0.0122434 -0.0150971 0.000240659 -0.0128559 -0.0134503 0.000240659 -0.0133251 -0.0118364 0.000240661 -0.0136508 -0.010303 0.000240659 -0.0138512 -0.00871009 0.000240659 -0.0139858 -0.00654101 0.000240659 -0.0140231 -0.00444923 0.000240659 -0.0139661 -0.0026037 0.000240659 -0.0138339 -0.000959097 0.000240659 -0.0136457 0.000529936 0.000240659 -0.0134207 0.0128697 0.000240659 -0.0130892 0.0147522 0.000240659 -0.0128044 0.0168149 0.00015012 -0.0124829 0.0193079 0.000280577 -0.000647272 0.0262278 -0.0387204 -0.000645243 0.0262144 -0.0328543 -0.000650901 0.0261028 -0.0223822 0.0105861 0.0176087 0.000310514 0.011029 0.0133757 0.000240661 0.0112313 0.000393614 0.000240659 0.011388 -0.00149851 0.000240661 0.0114862 -0.00332498 0.000240659 0.0115129 -0.00514921 0.000240659 0.0114553 -0.00703456 0.000240659 0.0113005 -0.00904444 0.000240659 0.0110355 -0.0112422 0.000240659 -0.000692719 0.0252717 -0.0123435 -0.000755609 0.0240224 -0.00614971 -0.000765875 0.0230217 -0.00201717 -0.00135183 0.020932 0.000197722 0.00417708 0.020552 0.000192733 0.00642905 0.0227887 -0.00201717 0.00697523 0.0239758 -0.00614971 0.00749659 0.0252223 -0.0123435 0.00784338 0.0260516 -0.0223822 0.00789007 0.026163 -0.0328543 0.00788885 0.0261795 -0.0387204 -0.00688074 0.0209842 0.00020271 -0.0079608 0.0232548 -0.00201717 -0.00848645 0.024069 -0.00614971 -0.00888203 0.025321 -0.0123435 -0.00914518 0.0261539 -0.0223822 -0.00918056 0.0262659 -0.0328543 -0.00918339 0.0262762 -0.0387204 -0.0021669 -0.0219085 0.000240659 -0.00212848 -0.0209621 0.000240659 0.00217518 -0.0206455 0.000240659 -0.00207918 -0.0198629 0.000240659 -0.00633354 -0.0190803 0.000240659 0.00271418 -0.0195841 0.000240659 -0.00201967 -0.0186323 0.000240659 -0.00675351 -0.0176806 0.000240659 0.00319576 -0.0183889 0.000240661 -0.00195061 -0.0172916 0.000240661 -0.00709699 -0.0161944 0.000240661 -0.0018727 -0.0158621 0.000240659 0.00398264 -0.0156294 0.000240659 -0.00178659 -0.0143651 0.000240659 -0.00755583 -0.0131007 0.000240661 0.00428595 -0.0140812 0.000240659 -0.00169298 -0.0128218 0.000240659 -0.00767191 -0.0115624 0.000240659 0.00453987 -0.0123195 0.000240659 -0.00159048 -0.0111164 0.000240659 -0.00772082 -0.00991323 0.000240659 -0.0077305 -0.00771631 0.000240659 -0.00147517 -0.00889161 0.000240659 0.00478016 -0.0100669 0.000240659 -0.00769222 -0.00559803 0.000240659 -0.00136132 -0.00674683 0.000240659 0.00496958 -0.00789564 0.000240659 -0.00761073 -0.00371142 0.000240659 -0.00125538 -0.00481913 0.000240659 0.00509997 -0.00592685 0.000240659 -0.00749718 -0.00200663 0.000240659 -0.00116048 -0.00305415 0.000240659 0.00517622 -0.00410168 0.000240659 -0.00736271 -0.000433794 0.000240659 -0.00107976 -0.00139752 0.000240659 0.0052032 -0.00236125 0.000240659 -0.00721849 0.00105693 0.000240659 -0.00101633 0.00020512 0.000240659 0.00518583 -0.000646693 0.000240661 -0.00700908 0.0139028 0.000240659 -0.000928953 0.0130534 0.000240659 0.00515118 0.00124302 0.000240659 -0.00684603 0.0159551 0.000172756 -0.000887675 0.0150953 0.000195392 0.00507068 0.0142355 0.000218025 0.00361891 -0.017068 0.000240659 -0.00736431 -0.0146562 0.000240659 0.00157975 -0.021565 0.000240659 -0.00583672 -0.0203591 0.000240659 -0.00526269 -0.0214824 0.000240659 0.000928894 -0.0223346 0.000240659 -0.0196655 -0.00821876 -0.0387204 -0.0198646 -0.00501251 -0.0387204 -0.0196399 0.0142084 -0.0387204 -0.0193614 0.0164118 -0.0387204 -0.0190285 0.0184521 -0.0387204 -0.0186695 0.0203965 -0.0387204 0.0168018 0.0224771 -0.0387204 0.0168018 0.0224771 -0.0387204 0.0168031 0.0224614 -0.0328543 0.00251374 -0.0301433 -0.0387204 0.000115749 -0.0304132 -0.0387204 0.0177801 -0.00574237 -0.0387204 0.0175509 -0.00871655 -0.0387204 0.00678493 -0.0290116 -0.0387204 0.00473745 -0.0296787 -0.0387204 0.0178258 -0.000252971 -0.0387204 0.0178653 -0.00295244 -0.0387204 -0.00243198 -0.0304638 -0.0387204 -0.00499624 -0.0301481 -0.0387204 -0.0181926 -0.0152355 -0.0387204 -0.0188868 -0.0128475 -0.0387204 -0.00738921 -0.0293513 -0.0387204 -0.00956969 -0.0281081 -0.0387204 0.0166186 -0.0153406 -0.0387204 0.0171588 -0.0119688 -0.0387204 -0.0193688 -0.0105787 -0.0387204 0.0131734 -0.0241663 -0.0387204 0.0118504 -0.0257195 -0.0387204 0.0171495 0.0192016 -0.0387204 0.0103434 -0.0270397 -0.0387204 0.00865423 -0.0281345 -0.0387204 -0.0161675 -0.0200864 -0.0387204 -0.0172862 -0.017672 -0.0387204 0.0174488 0.0162107 -0.0387204 0.0176806 0.0134108 -0.0387204 -0.0132933 -0.0245657 -0.0387204 -0.0148366 -0.0224078 -0.0387204 -0.0183128 0.0223119 -0.0387204 -0.0179866 0.0242655 -0.0387204 -0.0179866 0.0242655 -0.0387204 0.0152594 -0.0203302 -0.0387204 0.0143104 -0.0223724 -0.0387204 -0.0198355 0.0117747 -0.0387204 0.0160185 -0.0180319 -0.0387204 -0.0199198 -0.00191718 -0.0387204 -0.0179842 0.0242612 -0.0328543 -0.0115377 -0.0264894 -0.0387204 -0.0179064 0.0241588 -0.0223822 0.0167135 0.0223678 -0.0223822 0.0160483 0.0216708 -0.0123434 -0.0173288 0.0233976 -0.0123434 0.0150481 0.0206231 -0.00614971 -0.0164603 0.0222532 -0.0061497 -0.00654086 -0.0260887 -0.00201717 -0.00838648 -0.0250339 -0.00201717 -0.0149179 -0.016188 -0.00201717 -0.0156851 -0.0141232 -0.00201717 -0.0162727 -0.0120994 -0.00201716 -0.0166807 -0.0101765 -0.00201717 0.0137874 -0.0142509 -0.00201717 0.0142512 -0.0113467 -0.00201717 -0.0100523 -0.0236613 -0.00201717 0.010878 -0.0216927 -0.00201716 0.00975813 -0.0230071 -0.00201717 -0.0128445 -0.0202015 -0.00201717 -0.013971 -0.0182341 -0.00201717 -0.0157782 0.0193382 -0.00201716 -0.0155012 0.0209894 -0.00201716 -0.0155012 0.0209894 -0.00201716 -0.0155012 0.0209894 -0.00201716 0.00848244 -0.0241243 -0.00201717 0.00705263 -0.0250507 -0.00201717 0.0142386 0.0166968 -0.00201716 0.0144926 0.0141686 -0.00201717 0.0126438 -0.0184462 -0.00201717 0.0118405 -0.0201746 -0.00201717 -0.0115383 -0.0220306 -0.00201717 0.0146895 0.011802 -0.00201716 0.014813 -0.00144341 -0.00201717 -0.0171445 -0.002839 -0.00201717 -0.0170721 -0.000529841 -0.00201717 0.0145824 -0.00859723 -0.00201717 0.0132864 -0.0165012 -0.00201717 -0.0169262 -0.0082362 -0.00201717 -0.0170988 -0.00545659 -0.00201717 -0.0169056 0.0124886 -0.00201717 -0.0166689 0.0143513 -0.00201717 -0.0163861 0.0160759 -0.00201717 -0.0160812 0.0177193 -0.00201717 -0.000174836 -0.0269784 -0.00201717 -0.00233617 -0.0270277 -0.00201717 0.0148472 -0.00372498 -0.00201717 0.0147757 -0.00608313 -0.00201717 0.00373723 -0.0263572 -0.00201717 0.00185495 -0.0267502 -0.00201717 0.00547035 -0.0257928 -0.00201717 -0.00451539 -0.0267657 -0.00201717 0.0139437 0.019466 -0.00201717 0.0139437 0.019466 -0.00201717 0.0139437 0.019466 -0.00201717 0.00642905 0.0227887 -0.00201717 0.00788885 0.0261795 -0.0387204 -0.00555487 -0.0229906 0.000240659 -0.00702846 -0.0221503 0.000240659 -0.0122434 -0.0150971 0.000240659 -0.0128559 -0.0134503 0.000240659 -0.0133251 -0.0118364 0.000240661 -0.0136508 -0.010303 0.000240659 0.0106702 -0.0135227 0.000240659 0.0110355 -0.0112422 0.000240659 -0.00835848 -0.0210563 0.000240659 0.00834213 -0.0194862 0.000240661 0.00744802 -0.0205359 0.000240659 -0.0105879 -0.0182977 0.000240659 -0.0114874 -0.0167288 0.000240659 -0.0128044 0.0168149 0.00015012 -0.0124829 0.0193079 0.000280577 -0.0124829 0.0193079 0.000280577 0.00642953 -0.0214281 0.000240659 0.00528798 -0.022168 0.000240659 0.011029 0.0133757 0.000240661 0.0112313 0.000393614 0.000240659 0.00975188 -0.0168937 0.000240659 0.00911052 -0.0182739 0.000240659 -0.00954495 -0.0197562 0.000240659 0.011388 -0.00149851 0.000240661 0.0114862 -0.00332498 0.000240659 -0.0140231 -0.00444923 0.000240659 -0.0139661 -0.0026037 0.000240659 0.0113005 -0.00904444 0.000240659 0.0102649 -0.0153405 0.000240659 -0.0138512 -0.00871009 0.000240659 -0.0139858 -0.00654101 0.000240659 -0.0138339 -0.000959097 0.000240659 -0.0136457 0.000529936 0.000240659 -0.0134207 0.0128697 0.000240659 -0.0130892 0.0147522 0.000240659 -0.000482443 -0.0237079 0.000240659 -0.0022044 -0.0237423 0.000240659 0.0115129 -0.00514921 0.000240659 0.0114553 -0.00703456 0.000240659 0.00264096 -0.0232115 0.000240659 0.00113815 -0.0235255 0.000240659 0.00402469 -0.0227607 0.000240659 -0.00393766 -0.0235292 0.000240659 0.0105861 0.0176087 0.000310514 0.0105861 0.0176087 0.000310514 0.00417708 0.020552 0.000192733 -0.00918339 0.0262762 -0.0387204 -0.000647272 0.0262278 -0.0387204 -0.0079608 0.0232548 -0.00201717 -0.000765875 0.0230217 -0.00201717 -0.00688074 0.0209842 0.00020271 -0.00135183 0.020932 0.000197722 -0.00675426 0.0109268 -0.0224152 -0.00241627 0.0383157 -0.0149849 -0.00661316 0.0111729 -0.0234045 -0.00227517 0.0385617 -0.0159742 -0.00627822 0.0113779 -0.0243557 -0.00194022 0.0387668 -0.0169254 -0.0057623 0.011534 -0.0252325 -0.0014243 0.0389229 -0.0178022 -0.00508523 0.0116353 -0.0260009 -0.000747236 0.0390241 -0.0185706 -0.00427304 0.0116777 -0.0266316 6.49572e-05 0.0390666 -0.0192013 -0.00335693 0.0116597 -0.0271002 0.000981065 0.0390486 -0.0196699 -0.00237211 0.0115821 -0.0273887 0.00196588 0.0389709 -0.0199584 -0.00135643 0.0114476 -0.0274862 0.00298156 0.0388365 -0.0200559 -0.000348923 0.0112616 -0.0273887 0.00398907 0.0386505 -0.0199584 0.000611702 0.0110312 -0.0271002 0.0049497 0.03842 -0.0196699 0.00148852 0.0107652 -0.0266316 0.00582652 0.038154 -0.0192013 0.00224785 0.0104738 -0.0260009 0.00658584 0.0378627 -0.0185706 0.00286049 0.0101683 -0.0252325 0.00719849 0.0375572 -0.0178022 0.00330291 0.00986039 -0.0243557 0.00764091 0.0372493 -0.0169254 0.00355811 0.0095619 -0.0234045 0.0078961 0.0369508 -0.0159742 0.00361627 0.0092843 -0.0224152 0.00795427 0.0366732 -0.0149849 0.00347517 0.00903826 -0.0214258 0.00781317 0.0364271 -0.0139955 0.00314022 0.00883324 -0.0204746 0.00747822 0.0362221 -0.0130443 0.0026243 0.00867711 -0.0195978 0.0069623 0.036066 -0.0121675 0.00194724 0.00857587 -0.0188294 0.00628523 0.0359647 -0.0113991 0.00113505 0.00853343 -0.0181988 0.00547304 0.0359223 -0.0107685 0.000218937 0.00855139 -0.0177301 0.00455693 0.0359403 -0.0102998 -0.00076588 0.00862909 -0.0174416 0.00357211 0.036018 -0.0100113 -0.00178156 0.00876352 -0.0173441 0.00255643 0.0361524 -0.00991383 -0.00278907 0.00894953 -0.0174416 0.00154892 0.0363384 -0.0100113 -0.0037497 0.00917997 -0.0177301 0.000588298 0.0365688 -0.0102998 -0.00462652 0.00944597 -0.0181988 -0.000288524 0.0368348 -0.0107685 -0.00538584 0.00973733 -0.0188294 -0.00104785 0.0371262 -0.0113991 -0.00599848 0.0100428 -0.0195979 -0.00166049 0.0374317 -0.0121676 -0.00644091 0.0103507 -0.0204746 -0.00210291 0.0377396 -0.0130443 -0.0066961 0.0106492 -0.0214259 -0.00235811 0.0380381 -0.0139956</float_array>
                    <technique_common>
                        <accessor count="591" source="#shape0-lib-positions-array" stride="3">
                            <param name="X" type="float"/>
                            <param name="Y" type="float"/>
                            <param name="Z" type="float"/>
                        </accessor>
                    </technique_common>
                </source>
                <source id="shape0-lib-normals" name="normal">
                    <float_array id="shape0-lib-normals-array" count="2598">0.976096 -0.217334 -0.00173804 0.949521 -0.313697 -0.00185077 0.906827 -0.421499 -0.00195331 0.844577 -0.53543 -0.00203011 0.761185 -0.648531 -0.00206848 0.658823 -0.752296 -0.00205656 0.543889 -0.839155 -0.00199415 0.424776 -0.905297 -0.00188947 0.309757 -0.950814 -0.00175596 0.204537 -0.978857 -0.00160615 0.11185 -0.993724 -0.00145963 0.0198308 -0.9998 -0.00265542 -0.119405 -0.992838 -0.00382714 -0.316992 -0.948422 -0.00348565 -0.495278 -0.868729 -0.00306565 -0.635239 -0.772311 -0.00263129 -0.738631 -0.674106 -0.00223638 -0.813395 -0.581709 -0.00190288 -0.867535 -0.497374 -0.00163645 -0.907533 -0.419979 -0.00143575 -0.937384 -0.348295 -0.0012936 -0.96034 -0.278829 -0.00121218 -0.978221 -0.207564 -0.00119531 -0.992188 -0.124744 -0.00162536 -0.998078 -0.0619659 -0.00100197 -0.999847 -0.0174719 -0.000945615 -0.99998 0.00624811 -0.000801922 -0.99674 0.0806771 -0.000719342 -0.992024 0.126045 -0.000532622 -0.986822 0.16181 -0.000295082 -0.983223 0.182407 -2.30886e-05 -0.983094 0.183104 0.000263191 -0.98635 0.16466 0.000534144 0.994377 0.1059 -0.000128246 0.994992 0.0999574 -0.000341887 0.996557 0.0829036 -0.000556365 0.999943 0.0106904 -0.000752563 0.999892 0.0146458 -0.000895226 0.999533 -0.0305419 -0.000984197 0.997045 -0.0768151 -0.00100379 0.992808 -0.119714 -0.000968805 0.987488 -0.157691 -0.00114878 -0.996705 0.0806613 0.00858555 0.424614 -0.905314 0.0104324 -0.998044 -0.0619765 0.00819673 0.906787 -0.421481 0.00951776 0.996514 0.0829 0.0093252 0.999501 -0.0302918 0.00897155 0.309601 -0.95081 0.010416 -0.867777 -0.496881 0.00849598 0.987448 -0.157691 0.00890126 0.111718 -0.993686 0.0103419 -0.992062 -0.125487 0.00816033 -0.937353 -0.348283 0.00822191 0.997018 -0.0766497 0.00890345 0.992781 -0.119614 0.00887903 -0.991987 0.126037 0.00877917 0.976056 -0.217331 0.00901273 -0.999946 0.00622405 0.00834046 -0.739116 -0.673518 0.00904523 -0.982899 0.183923 0.00908207 -0.960309 -0.27882 0.00816357 -0.999813 -0.0174817 0.0082755 -0.1194 -0.992793 0.0103019 -0.635903 -0.771712 0.00942194 -0.986785 0.161788 0.00895794 0.949484 -0.31368 0.00924199 -0.316978 -0.948379 0.0101492 -0.907502 -0.419965 0.00832892 0.204379 -0.978837 0.0103762 -0.986177 0.165453 0.00893861 0.999902 0.0106899 0.009011 -0.983184 0.182393 0.00907322 -0.978189 -0.207557 0.00814463 0.543739 -0.83919 0.0103961 0.658786 -0.75226 0.0102779 -0.813741 -0.581162 0.0087334 0.761145 -0.648503 0.010075 0.0228155 -0.999686 0.0103239 0.844541 -0.535401 0.00980981 0.994332 0.105895 0.00945024 0.994948 0.099953 0.00941302 0.999847 0.0149559 0.00908132 -0.496142 -0.868186 0.00981859 -0.958429 -0.27828 0.0630469 -0.984456 0.161419 0.0692134 0.997517 0.0106218 0.0696237 -0.811916 -0.579873 0.0673826 0.99172 0.105612 0.0730512 0.997136 -0.0302316 0.0693196 -0.494734 -0.865746 0.0756469 -0.996708 0.0141542 0.0798331 -0.983857 0.165065 0.0691328 -0.935492 -0.347596 0.0634928 -0.997398 0.0312671 0.0649617 0.994697 -0.0764719 0.0687751 0.993967 0.0826824 0.0720587 0.542015 -0.836536 0.0801663 -0.98974 0.125748 0.0678354 -0.905653 -0.419114 0.0643098 0.656749 -0.749932 0.0792644 0.203734 -0.975748 0.0800515 -0.976284 -0.207155 0.0629074 0.308621 -0.947786 0.0803435 0.98515 -0.157322 0.0687651 0.990482 -0.119334 0.0685917 0.423256 -0.90243 0.0804617 -0.980803 0.181954 0.0701249 0.973731 -0.216812 0.0695756 0.992356 0.099686 0.0727513 0.947106 -0.312895 0.071317 0.0227051 -0.996563 0.0796631 -0.634241 -0.769717 0.0726273 -0.316012 -0.94553 0.0781633 0.904381 -0.42036 0.0734373 0.842156 -0.533898 0.0756735 0.997425 0.014925 0.0701521 0.111367 -0.990571 0.0797939 -0.996073 -0.0618524 0.0633419 -0.997802 -0.01744 0.0639286 -0.990122 -0.125244 0.0630233 0.758885 -0.646571 0.0777154 -0.980512 0.183489 0.0702031 -0.737339 -0.671911 0.0697609 -0.119064 -0.989705 0.0794186 -0.865936 -0.495837 0.0655789 0.978908 0.104249 0.175701 0.985514 -0.029875 0.166944 -0.487896 -0.853759 0.181804 -0.987758 0.0133733 0.155417 -0.972451 0.163152 0.166497 -0.926318 -0.344185 0.153203 -0.987166 0.0309541 0.156667 0.983281 -0.0755934 0.165664 0.981465 0.0816466 0.173377 0.533607 -0.823575 0.192324 -0.978684 0.124348 0.163448 -0.896545 -0.414897 0.155135 0.646795 -0.738559 0.190227 0.200588 -0.960666 0.192056 -0.966882 -0.20516 0.151819 0.303815 -0.933033 0.192732 0.973847 -0.155514 0.165641 0.979174 -0.117971 0.165232 0.416652 -0.88834 0.193011 -0.969108 0.17979 0.168833 0.962298 -0.214265 0.167552 0.935432 -0.30904 0.171645 0.979638 0.0984133 0.174998 0.0223824 -0.981306 0.191146 -0.626145 -0.759876 0.174731 -0.31135 -0.931579 0.187675 0.892573 -0.414874 0.176618 0.830498 -0.526501 0.181853 0.985523 0.0147467 0.168902 0.109646 -0.975357 0.191458 -0.98635 -0.0612531 0.152846 -0.987884 -0.0172711 0.154231 -0.980553 -0.124031 0.152094 0.747812 -0.637144 0.186615 -0.968794 0.181304 0.169018 -0.728638 -0.663976 0.167996 -0.117233 -0.974645 0.190589 -0.856888 -0.490649 0.158135 -0.949159 -0.275587 0.152148 -0.973016 0.159541 0.166695 0.985797 0.0101923 0.167633 -0.802967 -0.573474 0.162393 -0.967668 0.0123796 0.251922 -0.949816 0.159361 0.269173 -0.907968 -0.337365 0.248555 -0.966741 0.0303134 0.253955 0.960616 -0.0738508 0.267886 0.956768 0.0795938 0.279751 0.517226 -0.79829 0.308562 -0.956704 0.121561 0.264464 -0.878348 -0.406473 0.251565 0.627346 -0.71636 0.305394 0.194445 -0.931252 0.308156 -0.948062 -0.201167 0.246396 0.294446 -0.904275 0.309174 0.951406 -0.151928 0.26785 0.956717 -0.115264 0.267219 0.403778 -0.86088 0.309594 -0.945936 0.175498 0.272775 0.939627 -0.209214 0.270797 0.912343 -0.301413 0.277093 0.95454 0.0958923 0.282237 0.0217096 -0.951531 0.306786 -0.610153 -0.740468 0.281816 -0.302235 -0.904287 0.301528 0.869298 -0.404054 0.284713 0.807593 -0.511979 0.292697 0.961941 0.0143957 0.272877 -0.966899 -0.060043 0.247994 0.106313 -0.94567 0.307256 -0.968057 -0.0169197 0.250158 -0.961398 -0.121618 0.246827 0.726137 -0.618681 0.299931 -0.945581 0.176963 0.273059 -0.711384 -0.648255 0.271475 -0.113688 -0.945239 0.305937 -0.838838 -0.480309 0.256231 -0.930606 -0.270197 0.246911 -0.950316 0.155824 0.269478 0.962572 0.00949668 0.27086 -0.785159 -0.560755 0.26283 0.953635 0.10156 0.283313 0.962457 -0.0291751 0.26986 -0.474452 -0.830223 0.292617 0.45562 0.0379048 0.889367 0.302167 -0.466212 0.831469 -0.427107 0.0539829 0.902588 -0.559173 -0.258767 0.787633 0.365934 -0.417733 0.83162 0.115332 -0.552375 0.825579 -0.596048 -0.126631 0.792901 0.173728 -0.533538 0.827741 0.570257 -0.0910632 0.816403 0.571788 -0.0688882 0.817504 0.236879 -0.505041 0.829953 -0.536418 0.0944443 0.838651 0.56258 -0.125438 0.817171 0.543668 -0.179571 0.819865 0.536614 0.0539098 0.842104 0.0129579 -0.56726 0.823437 -0.375263 -0.455402 0.807333 -0.180761 -0.540816 0.821489 0.51454 -0.239103 0.823455 0.474658 -0.30084 0.827161 0.558291 0.00835629 0.829603 0.0632873 -0.562931 0.824077 -0.595135 -0.0369485 0.802776 -0.589493 -0.01051 0.807705 -0.597854 -0.0751855 0.798071 0.424481 -0.361574 0.830109 -0.527068 0.109768 0.842704 -0.443856 -0.404459 0.799628 -0.0677319 -0.563227 0.823522 -0.532624 -0.304974 0.789495 -0.589331 -0.171312 0.789519 -0.567538 0.0103492 0.823282 0.550317 0.00513497 0.83494 -0.495235 -0.35369 0.793502 0.546819 0.0582372 0.835223 0.565625 -0.0171441 0.824484 -0.287301 -0.502733 0.815302 -0.567272 0.0456019 0.822267 -0.571493 0.0307925 0.820029 -0.577377 -0.214778 0.787722 -0.579904 0.0179246 0.814488 0.570321 -0.0438455 0.820251 0.38361 0.923492 0.00252544 0.383518 0.923461 0.0115303 0.00602766 0.999925 0.0106601 0.00566063 0.999981 0.00228579 0.0056589 0.999982 0.0017519 0.00602548 0.999925 0.0106701 -0.222023 0.974977 0.0111738 -0.222029 0.975038 0.001818 -0.221203 0.971394 0.086392 0.0059991 0.996571 0.0825251 0.00600129 0.99657 0.0825311 0.382016 0.919843 0.0891807 0.374732 0.902302 0.213136 0.00590532 0.98023 0.197774 0.00590555 0.98023 0.197772 -0.217235 0.953979 0.206717 -0.209584 0.920382 0.330109 -0.18172 0.641891 0.744952 0.0228181 0.704432 0.709404 0.0059134 0.981264 0.19258 0.0223883 0.691162 0.722353 0.00578865 0.960908 0.276808 0.360747 0.868628 0.339628 0.23818 0.550648 0.800036 0 0 1 0 0 1 0 0 1 0 0 1 0 0 1 0 0 1 0 0 1 0 0 1 -0.000597766 0.0221749 0.999754 0.000963648 0.0329908 0.999455 0 0 1 -4.50381e-07 1.78243e-08 1 0 0 1 0 0 1 0 0 1 0 0 1 0 0 1 0 0 1 0 0 1 0 0 1 4.24351e-07 1.99022e-06 1 -4.37055e-07 -2.17375e-06 1 0 0 1 0 0 1 0 0 1 0 0 1 -4.37048e-07 -2.17375e-06 1 4.24352e-07 1.99022e-06 1 0 0 1 0 0 1 0 0 1 0 0 1 0 0 1 0 0 1 0 0 1 0 0 1 -2.25285e-07 -1.64033e-06 1 2.0816e-07 1.49003e-06 1 -0.00355079 0.00172 0.999992 -0.0176848 0.00150162 0.999843 0.000879563 -0.000329159 1 0.000845954 -0.00595009 0.999982 0.0156474 -0.0058472 0.999861 0.00456883 0.0327044 0.999455 0 0 1 0 0 1 0 0 1 0 0 1 0 0 1 0 0 1 0 0 1 0 0 1 4.06825e-07 1.85637e-06 1 -4.0749e-07 -1.85571e-06 1 -1.62426e-07 1.79771e-06 1 -3.98458e-07 -1.98182e-06 1 0 0 1 0 0 1 0 0 1 0 0 1 -4.16868e-07 -2.07334e-06 1 4.14084e-07 1.94208e-06 1 0 0 1 4.80423e-07 -2.91419e-08 1 0 0 1 0 0 1 0 0 1 0 0 1 0 0 1 0 0 1 0 0 1 0 0 1 0 0 -1 0.976029 -0.217635 -0.00159517 0.949545 -0.313625 -0.00188222 0.906866 -0.421414 -0.00198891 0.844638 -0.535334 -0.00207094 0.761269 -0.648433 -0.00211322 0.658932 -0.752199 -0.00210636 0.543759 -0.839239 -0.00204693 0.424636 -0.905362 -0.00194397 0.309612 -0.950861 -0.00181177 0.20439 -0.978888 -0.00166448 0.111723 -0.993738 -0.00151183 0.0228167 -0.999739 -0.00135866 -0.122166 -0.992506 -0.00260097 -0.31594 -0.948771 -0.00396199 -0.496163 -0.868222 -0.00350193 -0.635928 -0.771742 -0.00301921 -0.739143 -0.673543 -0.00257423 -0.81377 -0.581183 -0.00219523 -0.867807 -0.496898 -0.00188655 -0.907338 -0.420399 -0.00164578 -0.937246 -0.348667 -0.00146926 -0.960248 -0.279146 -0.00135196 -0.978166 -0.207822 -0.00129924 -0.992094 -0.125493 -0.00132698 -0.998077 -0.0619833 -0.000992367 -0.99984 -0.0178411 -0.00113934 -0.999981 0.00616018 -0.00100694 -0.996786 0.080109 -0.000955399 -0.99211 0.125369 -0.000789695 -0.986949 0.161034 -0.000571209 -0.983377 0.181575 -0.000307898 -0.982935 0.183953 -2.34144e-05 -0.986216 0.165465 0.000259115 0.994415 0.105537 7.59226e-05 0.995031 0.0995664 -0.000141291 0.99659 0.082507 -0.000366309 0.999943 0.0106284 -0.000608319 0.999888 0.0149565 -0.000752421 0.999541 -0.030293 -0.000866021 0.997057 -0.0766527 -0.000921286 0.99282 -0.119617 -0.000914334 0.98741 -0.158178 -0.000860247 -0.996704 0.0806741 0.00858262 0.424613 -0.905315 0.0104322 -0.998044 -0.0619813 0.00819823 0.906788 -0.42148 0.00951782 0.996515 0.0828943 0.00932673 0.999501 -0.0303033 0.00897459 0.309596 -0.950811 0.0104149 -0.867773 -0.496888 0.00849378 0.987449 -0.157685 0.00890345 0.111717 -0.993686 0.0103421 -0.992061 -0.125489 0.00816086 -0.937352 -0.348287 0.00822101 0.997018 -0.0766503 0.00890363 0.992781 -0.119613 0.00887955 -0.991986 0.12604 0.00877854 0.976058 -0.217325 0.00901436 -0.999946 0.0062479 0.00830938 -0.73911 -0.673525 0.009043 -0.982895 0.183946 0.00907805 -0.960307 -0.278826 0.00816207 -0.999813 -0.0174713 0.00827246 -0.119435 -0.992788 0.0103108 -0.635892 -0.77172 0.0094187 -0.986782 0.161803 0.00895501 0.949482 -0.313685 0.00924095 -0.316965 -0.948383 0.010146 -0.9075 -0.419969 0.00832779 0.204379 -0.978837 0.0103762 -0.986176 0.165458 0.00893767 0.999902 0.0106472 0.00906649 -0.983183 0.1824 0.00907206 -0.978189 -0.207559 0.00814413 0.543731 -0.839195 0.0103944 0.658789 -0.752257 0.0102786 -0.813734 -0.581171 0.00873056 0.761148 -0.6485 0.0100758 0.0227763 -0.999687 0.0103334 0.844538 -0.535405 0.00980879 0.994333 0.10589 0.00945182 0.994948 0.0999465 0.00941485 0.999847 0.0149612 0.00907998 -0.496131 -0.868192 0.00981558 -0.958429 -0.278279 0.0630474 -0.984458 0.161406 0.0692154 0.997492 0.0103132 0.0700296 -0.811919 -0.579868 0.0673839 0.99172 0.105613 0.0730509 0.997137 -0.0302273 0.0693185 -0.494743 -0.865741 0.0756494 -0.994546 0.0804867 0.0663267 -0.983857 0.165064 0.069133 -0.935493 -0.347594 0.0634933 -0.99746 0.00620858 0.0709562 0.994697 -0.0764711 0.0687749 0.993967 0.0826865 0.0720577 0.542018 -0.836535 0.0801669 -0.98974 0.125752 0.0678348 -0.905654 -0.419112 0.0643103 0.656748 -0.749933 0.0792642 0.203737 -0.975747 0.0800509 -0.976283 -0.207155 0.0629073 0.308617 -0.947787 0.0803424 0.98515 -0.157324 0.0687643 0.990482 -0.119337 0.0685908 0.42326 -0.902428 0.0804626 -0.980804 0.181952 0.0701252 0.973731 -0.216813 0.0695753 0.992355 0.099691 0.0727501 0.947106 -0.312895 0.071317 0.0227304 -0.996563 0.0796569 -0.634248 -0.76971 0.0726294 -0.316013 -0.94553 0.0781635 0.90438 -0.420362 0.0734369 0.84216 -0.533891 0.0756749 0.997425 0.0149249 0.0701521 0.111356 -0.990572 0.0797964 -0.996073 -0.0618541 0.0633425 -0.997802 -0.0174466 0.0639304 -0.990123 -0.125241 0.0630227 0.758882 -0.646574 0.0777146 -0.980514 0.183477 0.0702048 -0.737342 -0.671907 0.0697621 -0.119045 -0.989708 0.0794138 -0.865939 -0.495832 0.0655803 0.978908 0.104252 0.1757 0.985514 -0.029874 0.166943 -0.4879 -0.853756 0.181806 -0.987954 0.0140299 0.154108 -0.972451 0.163152 0.166497 -0.926319 -0.344183 0.153204 -0.987166 0.0309463 0.15667 0.983281 -0.0755932 0.165664 0.981465 0.0816482 0.173376 0.533614 -0.82357 0.192326 -0.978684 0.124344 0.163449 -0.896546 -0.414895 0.155136 0.646792 -0.738562 0.190226 0.200587 -0.960666 0.192056 -0.966882 -0.205161 0.151819 0.303817 -0.933032 0.192733 0.973847 -0.155517 0.16564 0.979174 -0.117972 0.165232 0.416649 -0.888342 0.19301 -0.969109 0.179785 0.168834 0.962297 -0.214267 0.167551 0.935432 -0.309038 0.171645 0.979638 0.0984138 0.174998 0.0223889 -0.981307 0.191143 -0.626146 -0.759875 0.174731 -0.311356 -0.931576 0.187677 0.892573 -0.414872 0.176619 0.830495 -0.526505 0.181852 0.985523 0.0147486 0.168901 0.109651 -0.975357 0.191456 -0.986351 -0.0612486 0.152843 -0.987884 -0.0172666 0.154229 -0.980552 -0.124033 0.152095 0.747815 -0.63714 0.186616 -0.968795 0.181296 0.169019 -0.728637 -0.663977 0.167995 -0.117225 -0.974646 0.190586 -0.85689 -0.490645 0.158137 -0.94916 -0.275584 0.15215 -0.973015 0.159543 0.166695 0.985639 0.0097243 0.168584 -0.802967 -0.573474 0.162393 -0.96819 0.0131084 0.249874 -0.949816 0.159355 0.269174 -0.907969 -0.337361 0.248557 -0.966741 0.0303136 0.253955 0.960616 -0.0738508 0.267886 0.956768 0.0795954 0.27975 0.517225 -0.798291 0.308562 -0.956704 0.121556 0.264465 -0.878349 -0.406471 0.251566 0.62735 -0.716356 0.305396 0.19444 -0.931253 0.308158 -0.948062 -0.201164 0.246397 0.29445 -0.904273 0.309176 0.951406 -0.15193 0.267849 0.956718 -0.115265 0.267218 0.403774 -0.860883 0.309592 -0.945937 0.175491 0.272776 0.939627 -0.209217 0.270796 0.912343 -0.301412 0.277093 0.95454 0.0958972 0.282235 0.0217359 -0.951534 0.306773 -0.61016 -0.740461 0.28182 -0.302245 -0.904282 0.301533 0.869297 -0.404055 0.284713 0.807593 -0.511979 0.292697 0.961942 0.014398 0.272876 -0.966899 -0.0600451 0.247996 0.106317 -0.94567 0.307254 -0.968056 -0.0169245 0.25016 -0.9614 -0.121609 0.246823 0.726139 -0.618679 0.299932 -0.945581 0.176959 0.273059 -0.71139 -0.648247 0.271479 -0.113672 -0.945244 0.305929 -0.838838 -0.480309 0.256231 -0.930607 -0.270195 0.246912 -0.950316 0.155819 0.269479 0.96216 0.00897811 0.272336 -0.785161 -0.560751 0.262832 0.953635 0.101563 0.283312 0.962458 -0.029172 0.269859 -0.474453 -0.830222 0.292618 0.455982 0.0377598 0.889188 0.302111 -0.466281 0.831451 -0.426517 0.054194 0.902855 -0.559161 -0.259064 0.787544 0.365889 -0.417805 0.831603 0.115415 -0.552383 0.825562 -0.59612 -0.126487 0.79287 0.173814 -0.533535 0.827725 0.570071 -0.0913105 0.816505 0.57176 -0.0689393 0.817519 0.236958 -0.505028 0.829939 -0.53482 0.0992243 0.83912 0.562554 -0.125256 0.817217 0.543668 -0.179613 0.819857 0.544714 0.00848708 0.838579 0.0113149 -0.566646 0.823884 -0.374965 -0.455838 0.807226 -0.180252 -0.541206 0.821344 0.514531 -0.239157 0.823445 0.474639 -0.3009 0.82715 0.558278 0.00818744 0.829613 0.0633637 -0.562948 0.82406 -0.595132 -0.0369568 0.802778 -0.589538 -0.0103039 0.807675 -0.597697 -0.0756096 0.798149 0.42445 -0.36164 0.830096 -0.529757 0.0991414 0.842335 -0.443658 -0.404874 0.799528 -0.0691605 -0.562445 0.823937 -0.532568 -0.305315 0.789401 -0.589448 -0.171143 0.789469 -0.540913 0.088694 0.836389 0.54981 0.02955 0.834767 -0.495118 -0.354069 0.793406 0.544571 0.0431595 0.837603 0.565598 -0.0172782 0.8245 -0.286894 -0.503163 0.81518 -0.571274 0.00730845 0.820727 -0.568755 0.0954263 0.816953 -0.577546 -0.21459 0.787649 -0.579914 0.0181839 0.814475 0.570289 -0.0439341 0.820268 0.383543 0.92352 0.00240499 0.383518 0.923461 0.0115306 0.00602148 0.999925 0.0106651 0.00602798 0.999978 0.00282023 0.00602581 0.999979 0.00228566 0.00601929 0.999925 0.0106651 -0.222016 0.974979 0.0111802 -0.222661 0.974896 0.000820599 -0.221207 0.971393 0.0863884 0.00600399 0.996571 0.0825291 0.00600376 0.996571 0.0825291 0.382014 0.919843 0.0891821 0.374729 0.902302 0.213139 0.00590505 0.98023 0.197774 0.00590718 0.98023 0.197774 -0.217237 0.95398 0.206715 -0.28069 0.934296 0.219781 -0.195597 0.65106 0.733391 0.00748225 0.726354 0.68728 0.0314662 0.971413 0.235302 0.0501011 0.7198 0.692372 0.0314663 0.971413 0.235302 0.385579 0.872034 0.301472 0.245009 0.554119 0.795564 0 0 1 0 0 1 0 0 1 0 0 1 0 0 1 0 0 1 0 0 1 0 0 1 0 0 1 0 0 1 0.00342497 0.00176322 0.999993 0.00308746 0.0221004 0.999751 -2.49338e-07 1.48164e-06 1 -2.51647e-07 -1.64059e-06 1 0 0 1 0 0 1 0 0 1 0 0 1 0 0 1 0 0 1 0 0 1 0 0 1 4.2631e-07 1.94142e-06 1 -4.41801e-07 -2.07206e-06 1 0 0 1 0 0 1 0 0 1 0 0 1 -4.82809e-07 -2.26438e-06 1 4.46551e-07 2.03358e-06 1 0 0 1 0 0 1 0 0 1 0 0 1 0 0 1 0 0 1 0 0 1 0 0 1 -2.37821e-07 -1.55045e-06 1 2.06204e-07 1.5014e-06 1 -3.02886e-08 -2.1681e-07 1 -0.00627402 -0.0171559 0.999833 -0.00328787 0.00353896 0.999988 -0.00390139 -0.000709355 0.999992 -0.0111279 -0.0508238 0.998646 0.00248283 0.0435077 0.99905 0 0 1 0 0 1 0 0 1 0 0 1 0 0 1 0 0 1 0 0 1 0 0 1 4.03868e-07 1.91736e-06 1 -4.07303e-07 -1.85855e-06 1 0 0 1 -6.05548e-07 -2.80556e-07 1 0 0 1 0 0 1 0 0 1 0 0 1 -4.23805e-07 -1.98768e-06 1 4.16863e-07 1.89838e-06 1 9.36506e-08 -1.794e-06 1 3.90767e-07 1.85516e-06 1 0 0 1 0 0 1 0 0 1 0 0 1 0 0 1 0 0 1 0 0 1 0 0 1 0 0 -1 0 0 -1 0 0 -1 0 0 -1 0 0 -1 0 0 -1 0 0 -1 0 0 -1 0 0 -1 0 0 -1 0 0 -1 0 0 -1 0 0 -1 0 0 -1 0 0 -1 0 0 -1 0 0 -1 0 0 -1 0 0 -1 0 0 -1 0 0 -1 0 0 -1 0 0 -1 0 0 -1 0 0 -1 0 0 -1 0 0 -1 0 0 -1 0 0 -1 0 0 -1 0 0 -1 0 0 -1 0 0 -1 0 0 -1 0 0 -1 0 0 -1 0 0 -1 0 0 -1 0 0 -1 0 0 -1 0 0 -1 0 0 -1 0 0 -1 -0.978964 0.180738 -0.0946771 -0.933405 0.223906 -0.280394 -0.851977 0.258468 -0.455334 -0.737808 0.283098 -0.612776 -0.595283 0.296848 -0.746672 -0.429884 0.299191 -0.851871 -0.247966 0.290036 -0.924333 -0.0565184 0.269735 -0.961275 0.137105 0.239068 -0.961275 0.325454 0.199214 -0.924334 0.501301 0.151704 -0.85187 0.65788 0.0983653 -0.746672 0.789179 0.0412453 -0.612777 0.89015 -0.0174597 -0.455334 0.956912 -0.0754933 -0.280393 0.986901 -0.130626 -0.0946772 0.978964 -0.180739 0.0946779 0.933405 -0.223906 0.280394 0.851977 -0.258468 0.455335 0.737808 -0.283098 0.612777 0.595283 -0.296848 0.746672 0.429885 -0.299191 0.851871 0.247964 -0.290036 0.924334 0.0565166 -0.269735 0.961275 -0.137106 -0.239068 0.961275 -0.325457 -0.199214 0.924333 -0.501301 -0.151704 0.85187 -0.657882 -0.0983645 0.74667 -0.78918 -0.041245 0.612776 -0.89015 0.0174598 0.455333 0.151106 0.954033 0.258819 -0.986901 0.130626 0.0946765 -0.956912 0.0754937 0.280392 -0.151105 -0.954033 -0.258819 -0.978964 0.180738 -0.0946771 -0.933405 0.223906 -0.280394 -0.851977 0.258468 -0.455334 -0.737808 0.283098 -0.612777 -0.595285 0.296848 -0.746671 -0.429885 0.299191 -0.851871 -0.247964 0.290036 -0.924334 -0.0565175 0.269735 -0.961275 0.137104 0.239068 -0.961275 0.325454 0.199215 -0.924334 0.5013 0.151705 -0.851871 0.657881 0.0983649 -0.746671 0.789179 0.0412453 -0.612777 0.89015 -0.0174597 -0.455334 0.956912 -0.0754933 -0.280393 0.986901 -0.130626 -0.0946772 0.978964 -0.180739 0.0946776 0.933405 -0.223906 0.280394 0.851977 -0.258468 0.455335 0.737808 -0.283098 0.612777 0.595284 -0.296848 0.746672 0.429886 -0.299191 0.85187 0.247964 -0.290036 0.924334 0.0565155 -0.269735 0.961275 -0.137104 -0.239068 0.961275 -0.325457 -0.199214 0.924333 -0.501302 -0.151704 0.85187 -0.657881 -0.0983647 0.74667 -0.78918 -0.0412449 0.612776 -0.89015 0.0174598 0.455333 0.151094 0.954037 0.258814 0.151109 0.954032 0.258823 0.151104 0.954035 0.258813 0.151103 0.954026 0.258847 0.151106 0.954034 0.258818 0.151097 0.954032 0.258831 0.151093 0.954033 0.258827 0.151103 0.954034 0.25882 0.151102 0.954035 0.258816 0.151103 0.954035 0.258815 0.151106 0.954032 0.258824 0.151105 0.954031 0.25883 0.151105 0.954034 0.258819 0.151098 0.954032 0.258829 0.151116 0.954033 0.258815 0.151096 0.954035 0.258819 0.151109 0.954032 0.258822 0.151104 0.954035 0.258816 0.151105 0.954033 0.258819 0.151108 0.954034 0.258817 0.151116 0.95403 0.258828 0.151105 0.954032 0.258823 0.151106 0.954034 0.258817 0.151106 0.954033 0.258819 0.151105 0.954034 0.258819 0.151105 0.954034 0.258819 0.151103 0.954034 0.25882 0.151105 0.954034 0.258819 0.151105 0.954034 0.258819 -0.986901 0.130626 0.0946766 -0.956912 0.0754936 0.280392 -0.151105 -0.954034 -0.258819 -0.151105 -0.954034 -0.258819 -0.151103 -0.954033 -0.258823 -0.151105 -0.954034 -0.258817 -0.151105 -0.954034 -0.258819 -0.151107 -0.954033 -0.258821 -0.15111 -0.954032 -0.258822 -0.151106 -0.954033 -0.258819 -0.151103 -0.954034 -0.25882 -0.151104 -0.954034 -0.258819 -0.151104 -0.954033 -0.258821 -0.151105 -0.954034 -0.258819 -0.151105 -0.954034 -0.258819 -0.151105 -0.954034 -0.258818 -0.151105 -0.954034 -0.258818 -0.151102 -0.954034 -0.258818 -0.151104 -0.954034 -0.258819 -0.151105 -0.954033 -0.25882 -0.151104 -0.954034 -0.258817 -0.151105 -0.954034 -0.258819 -0.151104 -0.954034 -0.258819 -0.151106 -0.954034 -0.258819 -0.151106 -0.954033 -0.25882 -0.151106 -0.954033 -0.258819 -0.151105 -0.954034 -0.258819 -0.151105 -0.954034 -0.258819 -0.151105 -0.954034 -0.258819 -0.151104 -0.954034 -0.258818 -0.151105 -0.954034 -0.258819</float_array>
                    <technique_common>
                        <accessor count="866" source="#shape0-lib-normals-array" stride="3">
                            <param name="X" type="float"/>
                            <param name="Y" type="float"/>
                            <param name="Z" type="float"/>
                        </accessor>
                    </technique_common>
                </source>
                <source id="shape0-lib-vcolor" name="vcolor">
                    <float_array id="shape0-lib-vcolor-array" count="2364">0.654902 0.501961 0.313725 1 0.654902 0.501961 0.313725 1 0.654902 0.501961 0.313725 1 0.654902 0.501961 0.313725 1 0.654902 0.501961 0.313725 1 0.654902 0.501961 0.313725 1 0.654902 0.501961 0.313725 1 0.654902 0.501961 0.313725 1 0.654902 0.501961 0.313725 1 0.654902 0.501961 0.313725 1 0.654902 0.501961 0.313725 1 0.654902 0.501961 0.313725 1 0.654902 0.501961 0.313725 1 0.654902 0.501961 0.313725 1 0.654902 0.501961 0.313725 1 0.654902 0.501961 0.313725 1 0.654902 0.501961 0.313725 1 0.654902 0.501961 0.313725 1 0.654902 0.501961 0.313725 1 0.654902 0.501961 0.313725 1 0.654902 0.501961 0.313725 1 0.654902 0.501961 0.313725 1 0.654902 0.501961 0.313725 1 0.654902 0.501961 0.313725 1 0.654902 0.501961 0.313725 1 0.654902 0.501961 0.313725 1 0.654902 0.501961 0.313725 1 0.654902 0.501961 0.313725 1 0.654902 0.501961 0.313725 1 0.654902 0.501961 0.313725 1 0.654902 0.501961 0.313725 1 0.654902 0.501961 0.313725 1 0.654902 0.501961 0.313725 1 0.654902 0.501961 0.313725 1 0.654902 0.501961 0.313725 1 0.654902 0.501961 0.313725 1 0.654902 0.501961 0.313725 1 0.654902 0.501961 0.313725 1 0.654902 0.501961 0.313725 1 0.654902 0.501961 0.313725 1 0.654902 0.501961 0.313725 1 0.654902 0.501961 0.313725 1 0.654902 0.501961 0.313725 1 0.654902 0.501961 0.313725 1 0.654902 0.501961 0.313725 1 0.654902 0.501961 0.313725 1 0.654902 0.501961 0.313725 1 0.654902 0.501961 0.313725 1 0.654902 0.501961 0.313725 1 0.654902 0.501961 0.313725 1 0.654902 0.501961 0.313725 1 0.654902 0.501961 0.313725 1 0.654902 0.501961 0.313725 1 0.654902 0.501961 0.313725 1 0.654902 0.501961 0.313725 1 0.654902 0.501961 0.313725 1 0.654902 0.501961 0.313725 1 0.654902 0.501961 0.313725 1 0.654902 0.501961 0.313725 1 0.654902 0.501961 0.313725 1 0.654902 0.501961 0.313725 1 0.654902 0.501961 0.313725 1 0.654902 0.501961 0.313725 1 0.654902 0.501961 0.313725 1 0.654902 0.501961 0.313725 1 0.654902 0.501961 0.313725 1 0.654902 0.501961 0.313725 1 0.654902 0.501961 0.313725 1 0.654902 0.501961 0.313725 1 0.654902 0.501961 0.313725 1 0.654902 0.501961 0.313725 1 0.654902 0.501961 0.313725 1 0.654902 0.501961 0.313725 1 0.654902 0.501961 0.313725 1 0.654902 0.501961 0.313725 1 0.654902 0.501961 0.313725 1 0.654902 0.501961 0.313725 1 0.654902 0.501961 0.313725 1 0.654902 0.501961 0.313725 1 0.654902 0.501961 0.313725 1 0.654902 0.501961 0.313725 1 0.654902 0.501961 0.313725 1 0.654902 0.501961 0.313725 1 0.654902 0.501961 0.313725 1 0.654902 0.501961 0.313725 1 0.654902 0.501961 0.313725 1 0.654902 0.501961 0.313725 1 0.654902 0.501961 0.313725 1 0.654902 0.501961 0.313725 1 0.654902 0.501961 0.313725 1 0.654902 0.501961 0.313725 1 0.654902 0.501961 0.313725 1 0.654902 0.501961 0.313725 1 0.654902 0.501961 0.313725 1 0.654902 0.501961 0.313725 1 0.654902 0.501961 0.313725 1 0.654902 0.501961 0.313725 1 0.654902 0.501961 0.313725 1 0.654902 0.501961 0.313725 1 0.654902 0.501961 0.313725 1 0.654902 0.501961 0.313725 1 0.654902 0.501961 0.313725 1 0.654902 0.501961 0.313725 1 0.654902 0.501961 0.313725 1 0.654902 0.501961 0.313725 1 0.654902 0.501961 0.313725 1 0.654902 0.501961 0.313725 1 0.654902 0.501961 0.313725 1 0.654902 0.501961 0.313725 1 0.654902 0.501961 0.313725 1 0.654902 0.501961 0.313725 1 0.654902 0.501961 0.313725 1 0.654902 0.501961 0.313725 1 0.654902 0.501961 0.313725 1 0.654902 0.501961 0.313725 1 0.654902 0.501961 0.313725 1 0.654902 0.501961 0.313725 1 0.654902 0.501961 0.313725 1 0.654902 0.501961 0.313725 1 0.654902 0.501961 0.313725 1 0.654902 0.501961 0.313725 1 0.654902 0.501961 0.313725 1 0.654902 0.501961 0.313725 1 0.654902 0.501961 0.313725 1 0.654902 0.501961 0.313725 1 0.654902 0.501961 0.313725 1 0.654902 0.501961 0.313725 1 0.654902 0.501961 0.313725 1 0.654902 0.501961 0.313725 1 0.654902 0.501961 0.313725 1 0.654902 0.501961 0.313725 1 0.654902 0.501961 0.313725 1 0.654902 0.501961 0.313725 1 0.654902 0.501961 0.313725 1 0.654902 0.501961 0.313725 1 0.654902 0.501961 0.313725 1 0.654902 0.501961 0.313725 1 0.654902 0.501961 0.313725 1 0.654902 0.501961 0.313725 1 0.654902 0.501961 0.313725 1 0.654902 0.501961 0.313725 1 0.654902 0.501961 0.313725 1 0.654902 0.501961 0.313725 1 0.654902 0.501961 0.313725 1 0.654902 0.501961 0.313725 1 0.654902 0.501961 0.313725 1 0.654902 0.501961 0.313725 1 0.654902 0.501961 0.313725 1 0.654902 0.501961 0.313725 1 0.654902 0.501961 0.313725 1 0.654902 0.501961 0.313725 1 0.654902 0.501961 0.313725 1 0.654902 0.501961 0.313725 1 0.654902 0.501961 0.313725 1 0.654902 0.501961 0.313725 1 0.654902 0.501961 0.313725 1 0.654902 0.501961 0.313725 1 0.654902 0.501961 0.313725 1 0.654902 0.501961 0.313725 1 0.654902 0.501961 0.313725 1 0.654902 0.501961 0.313725 1 0.654902 0.501961 0.313725 1 0.654902 0.501961 0.313725 1 0.654902 0.501961 0.313725 1 0.654902 0.501961 0.313725 1 0.654902 0.501961 0.313725 1 0.654902 0.501961 0.313725 1 0.654902 0.501961 0.313725 1 0.654902 0.501961 0.313725 1 0.654902 0.501961 0.313725 1 0.654902 0.501961 0.313725 1 0.654902 0.501961 0.313725 1 0.654902 0.501961 0.313725 1 0.654902 0.501961 0.313725 1 0.654902 0.501961 0.313725 1 0.654902 0.501961 0.313725 1 0.654902 0.501961 0.313725 1 0.654902 0.501961 0.313725 1 0.654902 0.501961 0.313725 1 0.654902 0.501961 0.313725 1 0.654902 0.501961 0.313725 1 0.654902 0.501961 0.313725 1 0.654902 0.501961 0.313725 1 0.654902 0.501961 0.313725 1 0.654902 0.501961 0.313725 1 0.654902 0.501961 0.313725 1 0.654902 0.501961 0.313725 1 0.654902 0.501961 0.313725 1 0.654902 0.501961 0.313725 1 0.654902 0.501961 0.313725 1 0.654902 0.501961 0.313725 1 0.654902 0.501961 0.313725 1 0.654902 0.501961 0.313725 1 0.654902 0.501961 0.313725 1 0.654902 0.501961 0.313725 1 0.654902 0.501961 0.313725 1 0.654902 0.501961 0.313725 1 0.654902 0.501961 0.313725 1 0.654902 0.501961 0.313725 1 0.654902 0.501961 0.313725 1 0.654902 0.501961 0.313725 1 0.654902 0.501961 0.313725 1 0.654902 0.501961 0.313725 1 0.654902 0.501961 0.313725 1 0.654902 0.501961 0.313725 1 0.654902 0.501961 0.313725 1 0.654902 0.501961 0.313725 1 0.654902 0.501961 0.313725 1 0.654902 0.501961 0.313725 1 0.654902 0.501961 0.313725 1 0.654902 0.501961 0.313725 1 0.654902 0.501961 0.313725 1 0.654902 0.501961 0.313725 1 0.654902 0.501961 0.313725 1 0.654902 0.501961 0.313725 1 0.654902 0.501961 0.313725 1 0.654902 0.501961 0.313725 1 0.654902 0.501961 0.313725 1 0.654902 0.501961 0.313725 1 0.654902 0.501961 0.313725 1 0.654902 0.501961 0.313725 1 0.654902 0.501961 0.313725 1 0.654902 0.501961 0.313725 1 0.654902 0.501961 0.313725 1 0.654902 0.501961 0.313725 1 0.654902 0.501961 0.313725 1 0.654902 0.501961 0.313725 1 0.654902 0.501961 0.313725 1 0.654902 0.501961 0.313725 1 0.654902 0.501961 0.313725 1 0.654902 0.501961 0.313725 1 0.654902 0.501961 0.313725 1 0.654902 0.501961 0.313725 1 0.654902 0.501961 0.313725 1 0.654902 0.501961 0.313725 1 0.654902 0.501961 0.313725 1 0.654902 0.501961 0.313725 1 0.654902 0.501961 0.313725 1 0.654902 0.501961 0.313725 1 0.654902 0.501961 0.313725 1 0.654902 0.501961 0.313725 1 0.654902 0.501961 0.313725 1 0.654902 0.501961 0.313725 1 0.654902 0.501961 0.313725 1 0.654902 0.501961 0.313725 1 0.654902 0.501961 0.313725 1 0.654902 0.501961 0.313725 1 0.654902 0.501961 0.313725 1 0.654902 0.501961 0.313725 1 0.654902 0.501961 0.313725 1 0.654902 0.501961 0.313725 1 0.654902 0.501961 0.313725 1 0.654902 0.501961 0.313725 1 0.654902 0.501961 0.313725 1 0.654902 0.501961 0.313725 1 0.654902 0.501961 0.313725 1 0.654902 0.501961 0.313725 1 0.654902 0.501961 0.313725 1 0.654902 0.501961 0.313725 1 0.654902 0.501961 0.313725 1 0.654902 0.501961 0.313725 1 0.654902 0.501961 0.313725 1 0.654902 0.501961 0.313725 1 0.654902 0.501961 0.313725 1 0.654902 0.501961 0.313725 1 0.654902 0.501961 0.313725 1 0.654902 0.501961 0.313725 1 0.654902 0.501961 0.313725 1 0.654902 0.501961 0.313725 1 0.654902 0.501961 0.313725 1 0.654902 0.501961 0.313725 1 0.654902 0.501961 0.313725 1 0.654902 0.501961 0.313725 1 0.654902 0.501961 0.313725 1 0.654902 0.501961 0.313725 1 0.654902 0.501961 0.313725 1 0.654902 0.501961 0.313725 1 0.654902 0.501961 0.313725 1 0.654902 0.501961 0.313725 1 0.654902 0.501961 0.313725 1 0.654902 0.501961 0.313725 1 0.654902 0.501961 0.313725 1 0.654902 0.501961 0.313725 1 0.654902 0.501961 0.313725 1 0.654902 0.501961 0.313725 1 0.654902 0.501961 0.313725 1 0.654902 0.501961 0.313725 1 0.654902 0.501961 0.313725 1 0.654902 0.501961 0.313725 1 0.654902 0.501961 0.313725 1 0.654902 0.501961 0.313725 1 0.654902 0.501961 0.313725 1 0.654902 0.501961 0.313725 1 0.654902 0.501961 0.313725 1 0.654902 0.501961 0.313725 1 0.654902 0.501961 0.313725 1 0.654902 0.501961 0.313725 1 0.654902 0.501961 0.313725 1 0.654902 0.501961 0.313725 1 0.654902 0.501961 0.313725 1 0.654902 0.501961 0.313725 1 0.654902 0.501961 0.313725 1 0.654902 0.501961 0.313725 1 0.654902 0.501961 0.313725 1 0.654902 0.501961 0.313725 1 0.654902 0.501961 0.313725 1 0.654902 0.501961 0.313725 1 0.654902 0.501961 0.313725 1 0.654902 0.501961 0.313725 1 0.654902 0.501961 0.313725 1 0.654902 0.501961 0.313725 1 0.654902 0.501961 0.313725 1 0.654902 0.501961 0.313725 1 0.654902 0.501961 0.313725 1 0.654902 0.501961 0.313725 1 0.654902 0.501961 0.313725 1 0.654902 0.501961 0.313725 1 0.654902 0.501961 0.313725 1 0.654902 0.501961 0.313725 1 0.654902 0.501961 0.313725 1 0.654902 0.501961 0.313725 1 0.654902 0.501961 0.313725 1 0.654902 0.501961 0.313725 1 0.654902 0.501961 0.313725 1 0.654902 0.501961 0.313725 1 0.654902 0.501961 0.313725 1 0.654902 0.501961 0.313725 1 0.654902 0.501961 0.313725 1 0.654902 0.501961 0.313725 1 0.654902 0.501961 0.313725 1 0.654902 0.501961 0.313725 1 0.654902 0.501961 0.313725 1 0.654902 0.501961 0.313725 1 0.654902 0.501961 0.313725 1 0.654902 0.501961 0.313725 1 0.654902 0.501961 0.313725 1 0.654902 0.501961 0.313725 1 0.654902 0.501961 0.313725 1 0.654902 0.501961 0.313725 1 0.654902 0.501961 0.313725 1 0.654902 0.501961 0.313725 1 0.654902 0.501961 0.313725 1 0.654902 0.501961 0.313725 1 0.654902 0.501961 0.313725 1 0.654902 0.501961 0.313725 1 0.654902 0.501961 0.313725 1 0.654902 0.501961 0.313725 1 0.654902 0.501961 0.313725 1 0.654902 0.501961 0.313725 1 0.654902 0.501961 0.313725 1 0.654902 0.501961 0.313725 1 0.654902 0.501961 0.313725 1 0.654902 0.501961 0.313725 1 0.654902 0.501961 0.313725 1 0.654902 0.501961 0.313725 1 0.654902 0.501961 0.313725 1 0.654902 0.501961 0.313725 1 0.654902 0.501961 0.313725 1 0.654902 0.501961 0.313725 1 0.654902 0.501961 0.313725 1 0.654902 0.501961 0.313725 1 0.654902 0.501961 0.313725 1 0.654902 0.501961 0.313725 1 0.654902 0.501961 0.313725 1 0.654902 0.501961 0.313725 1 0.654902 0.501961 0.313725 1 0.654902 0.501961 0.313725 1 0.654902 0.501961 0.313725 1 0.654902 0.501961 0.313725 1 0.654902 0.501961 0.313725 1 0.654902 0.501961 0.313725 1 0.654902 0.501961 0.313725 1 0.654902 0.501961 0.313725 1 0.654902 0.501961 0.313725 1 0.654902 0.501961 0.313725 1 0.654902 0.501961 0.313725 1 0.654902 0.501961 0.313725 1 0.654902 0.501961 0.313725 1 0.654902 0.501961 0.313725 1 0.654902 0.501961 0.313725 1 0.654902 0.501961 0.313725 1 0.654902 0.501961 0.313725 1 0.654902 0.501961 0.313725 1 0.654902 0.501961 0.313725 1 0.654902 0.501961 0.313725 1 0.654902 0.501961 0.313725 1 0.654902 0.501961 0.313725 1 0.654902 0.501961 0.313725 1 0.654902 0.501961 0.313725 1 0.654902 0.501961 0.313725 1 0.654902 0.501961 0.313725 1 0.654902 0.501961 0.313725 1 0.654902 0.501961 0.313725 1 0.654902 0.501961 0.313725 1 0.654902 0.501961 0.313725 1 0.654902 0.501961 0.313725 1 0.654902 0.501961 0.313725 1 0.654902 0.501961 0.313725 1 0.654902 0.501961 0.313725 1 0.654902 0.501961 0.313725 1 0.654902 0.501961 0.313725 1 0.654902 0.501961 0.313725 1 0.654902 0.501961 0.313725 1 0.654902 0.501961 0.313725 1 0.654902 0.501961 0.313725 1 0.654902 0.501961 0.313725 1 0.654902 0.501961 0.313725 1 0.654902 0.501961 0.313725 1 0.654902 0.501961 0.313725 1 0.654902 0.501961 0.313725 1 0.654902 0.501961 0.313725 1 0.654902 0.501961 0.313725 1 0.654902 0.501961 0.313725 1 0.654902 0.501961 0.313725 1 0.654902 0.501961 0.313725 1 0.654902 0.501961 0.313725 1 0.654902 0.501961 0.313725 1 0.654902 0.501961 0.313725 1 0.654902 0.501961 0.313725 1 0.654902 0.501961 0.313725 1 0.654902 0.501961 0.313725 1 0.654902 0.501961 0.313725 1 0.654902 0.501961 0.313725 1 0.654902 0.501961 0.313725 1 0.654902 0.501961 0.313725 1 0.654902 0.501961 0.313725 1 0.654902 0.501961 0.313725 1 0.654902 0.501961 0.313725 1 0.654902 0.501961 0.313725 1 0.654902 0.501961 0.313725 1 0.654902 0.501961 0.313725 1 0.654902 0.501961 0.313725 1 0.654902 0.501961 0.313725 1 0.654902 0.501961 0.313725 1 0.654902 0.501961 0.313725 1 0.654902 0.501961 0.313725 1 0.654902 0.501961 0.313725 1 0.654902 0.501961 0.313725 1 0.654902 0.501961 0.313725 1 0.654902 0.501961 0.313725 1 0.654902 0.501961 0.313725 1 0.654902 0.501961 0.313725 1 0.654902 0.501961 0.313725 1 0.654902 0.501961 0.313725 1 0.654902 0.501961 0.313725 1 0.654902 0.501961 0.313725 1 0.654902 0.501961 0.313725 1 0.654902 0.501961 0.313725 1 0.654902 0.501961 0.313725 1 0.654902 0.501961 0.313725 1 0.654902 0.501961 0.313725 1 0.654902 0.501961 0.313725 1 0.654902 0.501961 0.313725 1 0.654902 0.501961 0.313725 1 0.654902 0.501961 0.313725 1 0.654902 0.501961 0.313725 1 0.654902 0.501961 0.313725 1 0.654902 0.501961 0.313725 1 0.654902 0.501961 0.313725 1 0.654902 0.501961 0.313725 1 0.654902 0.501961 0.313725 1 0.654902 0.501961 0.313725 1 0.654902 0.501961 0.313725 1 0.654902 0.501961 0.313725 1 0.654902 0.501961 0.313725 1 0.654902 0.501961 0.313725 1 0.654902 0.501961 0.313725 1 0.654902 0.501961 0.313725 1 0.654902 0.501961 0.313725 1 0.654902 0.501961 0.313725 1 0.654902 0.501961 0.313725 1 0.654902 0.501961 0.313725 1 0.654902 0.501961 0.313725 1 0.654902 0.501961 0.313725 1 0.654902 0.501961 0.313725 1 0.654902 0.501961 0.313725 1 0.654902 0.501961 0.313725 1 0.654902 0.501961 0.313725 1 0.654902 0.501961 0.313725 1 0.654902 0.501961 0.313725 1 0.654902 0.501961 0.313725 1 0.654902 0.501961 0.313725 1 0.654902 0.501961 0.313725 1 0.654902 0.501961 0.313725 1 0.654902 0.501961 0.313725 1 0.654902 0.501961 0.313725 1 0.654902 0.501961 0.313725 1 0.654902 0.501961 0.313725 1 0.654902 0.501961 0.313725 1 0.654902 0.501961 0.313725 1 0.654902 0.501961 0.313725 1 0.654902 0.501961 0.313725 1 0.654902 0.501961 0.313725 1 0.654902 0.501961 0.313725 1 0.654902 0.501961 0.313725 1 0.654902 0.501961 0.313725 1 0.654902 0.501961 0.313725 1 0.654902 0.501961 0.313725 1 0.654902 0.501961 0.313725 1 0.654902 0.501961 0.313725 1 0.654902 0.501961 0.313725 1 0.654902 0.501961 0.313725 1 0.654902 0.501961 0.313725 1 0.654902 0.501961 0.313725 1 0.654902 0.501961 0.313725 1 0.654902 0.501961 0.313725 1 0.654902 0.501961 0.313725 1 0.654902 0.501961 0.313725 1 0.654902 0.501961 0.313725 1 0.654902 0.501961 0.313725 1 0.654902 0.501961 0.313725 1 0.654902 0.501961 0.313725 1 0.654902 0.501961 0.313725 1 0.654902 0.501961 0.313725 1 0.654902 0.501961 0.313725 1 0.654902 0.501961 0.313725 1 0.654902 0.501961 0.313725 1 0.654902 0.501961 0.313725 1 0.654902 0.501961 0.313725 1 0.654902 0.501961 0.313725 1 0.654902 0.501961 0.313725 1 0.654902 0.501961 0.313725 1 0.654902 0.501961 0.313725 1 0.654902 0.501961 0.313725 1 0.654902 0.501961 0.313725 1 0.654902 0.501961 0.313725 1 0.654902 0.501961 0.313725 1 0.0784314 0.0627451 0.0392157 1 0.0784314 0.0627451 0.0392157 1 0.0784314 0.0627451 0.0392157 1 0.0784314 0.0627451 0.0392157 1 0.0784314 0.0627451 0.0392157 1 0.0784314 0.0627451 0.0392157 1 0.0784314 0.0627451 0.0392157 1 0.0784314 0.0627451 0.0392157 1 0.0784314 0.0627451 0.0392157 1 0.0784314 0.0627451 0.0392157 1 0.0784314 0.0627451 0.0392157 1 0.0784314 0.0627451 0.0392157 1 0.0784314 0.0627451 0.0392157 1 0.0784314 0.0627451 0.0392157 1 0.0784314 0.0627451 0.0392157 1 0.0784314 0.0627451 0.0392157 1 0.0784314 0.0627451 0.0392157 1 0.0784314 0.0627451 0.0392157 1 0.0784314 0.0627451 0.0392157 1 0.0784314 0.0627451 0.0392157 1 0.0784314 0.0627451 0.0392157 1 0.0784314 0.0627451 0.0392157 1 0.0784314 0.0627451 0.0392157 1 0.0784314 0.0627451 0.0392157 1 0.0784314 0.0627451 0.0392157 1 0.0784314 0.0627451 0.0392157 1 0.0784314 0.0627451 0.0392157 1 0.0784314 0.0627451 0.0392157 1 0.0784314 0.0627451 0.0392157 1 0.0784314 0.0627451 0.0392157 1 0.0784314 0.0627451 0.0392157 1 0.0784314 0.0627451 0.0392157 1 0.0784314 0.0627451 0.0392157 1 0.0784314 0.0627451 0.0392157 1 0.0784314 0.0627451 0.0392157 1 0.0784314 0.0627451 0.0392157 1 0.0784314 0.0627451 0.0392157 1 0.0784314 0.0627451 0.0392157 1 0.0784314 0.0627451 0.0392157 1 0.0784314 0.0627451 0.0392157 1 0.0784314 0.0627451 0.0392157 1 0.0784314 0.0627451 0.0392157 1 0.0784314 0.0627451 0.0392157 1 0.0784314 0.0627451 0.0392157 1 0.0784314 0.0627451 0.0392157 1 0.0784314 0.0627451 0.0392157 1 0.0784314 0.0627451 0.0392157 1 0.0784314 0.0627451 0.0392157 1 0.0784314 0.0627451 0.0392157 1 0.0784314 0.0627451 0.0392157 1 0.0784314 0.0627451 0.0392157 1 0.0784314 0.0627451 0.0392157 1 0.0784314 0.0627451 0.0392157 1 0.0784314 0.0627451 0.0392157 1 0.0784314 0.0627451 0.0392157 1 0.0784314 0.0627451 0.0392157 1 0.0784314 0.0627451 0.0392157 1 0.0784314 0.0627451 0.0392157 1 0.0784314 0.0627451 0.0392157 1 0.0784314 0.0627451 0.0392157 1 0.0784314 0.0627451 0.0392157 1 0.0784314 0.0627451 0.0392157 1 0.0784314 0.0627451 0.0392157 1 0.0784314 0.0627451 0.0392157 1</float_array>
                    <technique_common>
                        <accessor count="591" source="#shape0-lib-vcolor-array" stride="4">
                            <param name="R" type="float"/>
                            <param name="G" type="float"/>
                            <param name="B" type="float"/>
                            <param name="A" type="float"/>
                        </accessor>
                    </technique_common>
                </source>
                <vertices id="shape0-lib-vertices">
                    <input semantic="POSITION" source="#shape0-lib-positions"/>
                </vertices>
                <triangles count="866">
                    <input offset="0" semantic="VERTEX" source="#shape0-lib-vertices"/>
                    <input offset="1" semantic="COLOR" source="#shape0-lib-vcolor"/>
                    <input offset="2" semantic="NORMAL" source="#shape0-lib-normals"/>
                    <p>1 1 0 3 3 0 2 2 0 3 3 1 5 5 1 4 4 1 5 5 2 7 7 2 6 6 2 7 7 3 9 9 3 8 8 3 9 9 4 11 11 4 10 10 4 11 11 5 13 13 5 12 12 5 15 15 6 14 14 6 12 12 6 17 17 7 16 16 7 14 14 7 19 19 8 18 18 8 16 16 8 21 21 9 20 20 9 18 18 9 23 23 10 22 22 10 20 20 10 25 25 11 24 24 11 22 22 11 25 25 12 27 27 12 26 26 12 27 27 13 29 29 13 28 28 13 31 31 14 30 30 14 28 28 14 33 33 15 32 32 15 30 30 15 35 35 16 34 34 16 32 32 16 37 37 17 36 36 17 34 34 17 39 39 18 38 38 18 36 36 18 39 39 19 41 41 19 40 40 19 41 41 20 43 43 20 42 42 20 43 43 21 45 45 21 44 44 21 45 45 22 47 47 22 46 46 22 49 49 23 48 48 23 46 46 23 51 51 24 50 50 24 48 48 24 51 51 25 53 53 25 52 52 25 53 53 26 55 55 26 54 54 26 55 55 27 57 57 27 56 56 27 57 57 28 59 59 28 58 58 28 59 59 29 61 61 29 60 60 29 61 61 30 63 63 30 62 62 30 65 65 31 64 64 31 62 62 31 67 67 32 66 66 32 64 64 32 69 69 33 71 71 33 70 70 33 71 71 34 73 73 34 72 72 34 73 73 35 75 75 35 74 74 35 75 75 36 77 77 36 76 76 36 79 79 37 78 78 37 76 76 37 81 81 38 80 80 38 78 78 38 83 83 39 82 82 39 80 80 39 85 85 40 84 84 40 82 82 40 85 85 41 1 1 41 0 0 41 55 55 42 113 113 42 114 114 42 15 15 43 93 93 43 94 94 43 49 49 44 110 110 44 111 111 44 5 5 45 88 88 45 89 89 45 75 75 46 73 73 46 122 122 46 81 81 47 79 79 47 125 125 47 17 17 48 94 94 48 95 95 48 39 39 49 37 37 49 104 104 49 85 85 50 128 128 50 86 86 50 23 23 51 21 21 51 96 96 51 47 47 52 109 109 52 110 110 52 43 43 53 41 41 53 106 106 53 83 83 54 81 81 54 126 126 54 83 83 55 127 127 55 128 128 55 57 57 56 114 114 56 115 115 56 1 1 57 86 86 57 87 87 57 53 53 58 112 112 58 113 113 58 35 35 59 33 33 59 102 102 59 63 63 60 117 117 60 118 118 60 45 45 61 43 43 61 107 107 61 51 51 62 111 111 62 112 112 62 27 27 63 25 25 63 98 98 63 33 33 64 31 31 64 101 101 64 59 59 65 115 115 65 116 116 65 3 3 66 87 87 66 88 88 66 29 29 67 27 27 67 99 99 67 41 41 68 39 39 68 105 105 68 21 21 69 19 19 69 95 95 69 65 65 70 118 118 70 119 119 70 77 77 71 75 75 71 123 123 71 61 61 72 116 116 72 117 117 72 47 47 73 45 45 73 108 108 73 13 13 74 92 92 74 93 93 74 11 11 75 91 91 75 92 92 75 37 37 76 35 35 76 103 103 76 9 9 77 90 90 77 91 91 77 25 25 78 23 23 78 97 97 78 7 7 79 89 89 79 90 90 79 71 71 80 69 69 80 120 120 80 73 73 81 71 71 81 121 121 81 79 79 82 77 77 82 124 124 82 31 31 83 29 29 83 100 100 83 108 108 84 107 107 84 150 150 84 115 115 85 158 158 85 159 159 85 124 124 86 123 123 86 166 166 86 104 104 87 103 103 87 146 146 87 121 121 88 120 120 88 163 163 88 126 126 89 125 125 89 168 168 89 101 101 90 100 100 90 143 143 90 113 113 91 156 156 91 157 157 91 118 118 92 161 161 92 162 162 92 107 107 93 106 106 93 149 149 93 112 112 94 155 155 94 156 156 94 127 127 95 126 126 95 169 169 95 123 123 96 122 122 96 165 165 96 92 92 97 135 135 97 136 136 97 114 114 98 157 157 98 158 158 98 106 106 99 105 105 99 148 148 99 91 91 100 134 134 100 135 135 100 96 96 101 95 95 101 138 138 101 109 109 102 108 108 102 151 151 102 94 94 103 137 137 103 138 138 103 128 128 104 171 171 104 129 129 104 127 127 105 170 170 105 171 171 105 93 93 106 136 136 106 137 137 106 116 116 107 159 159 107 160 160 107 86 86 108 129 129 108 130 130 108 122 122 109 121 121 109 164 164 109 87 87 110 130 130 110 131 131 110 98 98 111 97 97 111 140 140 111 102 102 112 101 101 112 144 144 112 100 100 113 99 99 113 142 142 113 88 88 114 131 131 114 132 132 114 89 89 115 132 132 115 133 133 115 125 125 116 124 124 116 167 167 116 97 97 117 96 96 117 139 139 117 110 110 118 153 153 118 154 154 118 111 111 119 154 154 119 155 155 119 109 109 120 152 152 120 153 153 120 90 90 121 133 133 121 134 134 121 117 117 122 160 160 122 161 161 122 103 103 123 102 102 123 145 145 123 99 99 124 98 98 124 141 141 124 105 105 125 104 104 125 147 147 125 164 164 126 163 163 126 206 206 126 169 169 127 168 168 127 211 211 127 144 144 128 143 143 128 186 186 128 156 156 129 199 199 129 200 200 129 161 161 130 204 204 130 205 205 130 150 150 131 149 149 131 192 192 131 155 155 132 198 198 132 199 199 132 170 170 133 169 169 133 212 212 133 166 166 134 165 165 134 208 208 134 135 135 135 178 178 135 179 179 135 157 157 136 200 200 136 201 201 136 149 149 137 148 148 137 191 191 137 134 134 138 177 177 138 178 178 138 139 139 139 138 138 139 181 181 139 152 152 140 151 151 140 194 194 140 137 137 141 180 180 141 181 181 141 171 171 142 214 214 142 172 172 142 170 170 143 213 213 143 214 214 143 136 136 144 179 179 144 180 180 144 159 159 145 202 202 145 203 203 145 129 129 146 172 172 146 173 173 146 130 130 147 173 173 147 174 174 147 165 165 148 164 164 148 207 207 148 141 141 149 140 140 149 183 183 149 145 145 150 144 144 150 187 187 150 143 143 151 142 142 151 185 185 151 131 131 152 174 174 152 175 175 152 132 132 153 175 175 153 176 176 153 168 168 154 167 167 154 210 210 154 140 140 155 139 139 155 182 182 155 153 153 156 196 196 156 197 197 156 154 154 157 197 197 157 198 198 157 152 152 158 195 195 158 196 196 158 133 133 159 176 176 159 177 177 159 160 160 160 203 203 160 204 204 160 146 146 161 145 145 161 188 188 161 142 142 162 141 141 162 184 184 162 148 148 163 147 147 163 190 190 163 151 151 164 150 150 164 193 193 164 158 158 165 201 201 165 202 202 165 167 167 166 166 166 166 209 209 166 147 147 167 146 146 167 189 189 167 199 199 168 242 242 168 243 243 168 204 204 169 247 247 169 248 248 169 193 193 170 192 192 170 235 235 170 198 198 171 241 241 171 242 242 171 213 213 172 212 212 172 255 255 172 209 209 173 208 208 173 251 251 173 178 178 174 221 221 174 222 222 174 200 200 175 243 243 175 244 244 175 192 192 176 191 191 176 234 234 176 177 177 177 220 220 177 221 221 177 182 182 178 181 181 178 224 224 178 195 195 179 194 194 179 237 237 179 180 180 180 223 223 180 224 224 180 214 214 181 257 257 181 215 215 181 213 213 182 256 256 182 257 257 182 179 179 183 222 222 183 223 223 183 202 202 184 245 245 184 246 246 184 172 172 185 215 215 185 216 216 185 173 173 186 216 216 186 217 217 186 208 208 187 207 207 187 250 250 187 184 184 188 183 183 188 226 226 188 188 188 189 187 187 189 230 230 189 186 186 190 185 185 190 228 228 190 174 174 191 217 217 191 218 218 191 175 175 192 218 218 192 219 219 192 211 211 193 210 210 193 253 253 193 196 196 194 239 239 194 240 240 194 183 183 195 182 182 195 225 225 195 197 197 196 240 240 196 241 241 196 195 195 197 238 238 197 239 239 197 176 176 198 219 219 198 220 220 198 203 203 199 246 246 199 247 247 199 189 189 200 188 188 200 231 231 200 185 185 201 184 184 201 227 227 201 191 191 202 190 190 202 233 233 202 194 194 203 193 193 203 236 236 203 201 201 204 244 244 204 245 245 204 210 210 205 209 209 205 252 252 205 190 190 206 189 189 206 232 232 206 207 207 207 206 206 207 470 470 207 212 212 208 211 211 208 254 254 208 187 187 209 186 186 209 229 229 209 450 450 210 446 446 210 297 297 210 443 443 211 264 264 211 265 265 211 458 458 212 286 286 212 287 287 212 428 428 213 438 438 213 277 277 213 436 436 214 263 263 214 264 264 214 467 467 215 466 466 215 267 267 215 430 430 216 280 280 216 281 281 216 466 466 217 468 468 217 266 266 217 432 432 218 433 433 218 303 303 218 433 433 219 454 454 219 302 302 219 468 468 220 444 444 220 265 265 220 460 460 221 288 288 221 289 289 221 432 432 222 258 258 222 259 259 222 455 455 223 259 259 223 260 260 223 446 446 224 445 445 224 296 296 224 463 463 225 462 462 225 269 269 225 434 434 226 427 427 226 273 273 226 426 426 227 469 469 227 271 271 227 447 447 228 260 260 228 261 261 228 448 448 229 261 261 229 262 262 229 464 464 230 451 451 230 299 299 230 462 462 231 467 467 231 268 268 231 456 456 232 282 282 232 283 283 232 457 457 233 283 283 233 284 284 233 431 431 234 281 281 234 282 282 234 435 435 235 262 262 235 263 263 235 461 461 236 289 289 236 290 290 236 449 449 237 434 434 237 274 274 237 469 469 238 463 463 238 270 270 238 438 438 239 437 437 239 276 276 239 429 429 240 279 279 240 280 280 240 459 459 241 287 287 241 288 288 241 451 451 242 450 450 242 298 298 242 437 437 243 449 449 243 275 275 243 445 445 244 471 471 244 518 518 244 465 465 245 464 464 245 300 300 245 427 427 246 426 426 246 272 272 246 453 453 247 285 285 247 286 286 247 439 439 248 290 290 248 291 291 248 428 428 249 278 278 249 279 279 249 452 452 250 284 284 250 285 285 250 454 454 251 465 465 251 301 301 251 379 379 252 314 314 252 313 313 252 313 313 253 312 312 253 421 421 253 312 312 254 313 313 254 293 293 254 314 314 255 292 292 255 293 293 255 292 292 256 321 321 256 320 320 256 293 293 257 320 320 257 319 319 257 420 420 258 319 319 258 320 320 258 418 418 259 320 320 259 321 321 259 423 423 260 318 318 260 319 319 260 294 294 261 319 319 261 318 318 261 311 311 262 312 312 262 294 294 262 422 422 263 421 421 263 312 312 263 311 311 264 310 310 264 424 424 264 310 310 265 311 311 265 304 304 265 304 304 266 318 318 266 317 317 266 425 425 267 317 317 267 318 318 267 317 317 268 425 425 268 441 441 268 489 489 269 315 315 269 316 316 269 306 306 270 316 316 270 315 315 270 305 305 271 317 317 271 523 523 271 308 308 272 309 309 272 306 306 272 473 473 273 310 310 273 305 305 273 249 249 274 424 424 274 310 310 274 309 309 275 308 308 275 295 295 275 514 514 276 516 516 276 372 372 276 322 322 277 510 510 277 372 372 277 371 371 278 517 517 278 322 322 278 476 476 279 475 475 279 371 371 279 516 516 280 492 492 280 369 369 280 372 372 281 369 369 281 323 323 281 371 371 282 322 322 282 323 323 282 483 483 283 371 371 283 370 370 283 366 366 284 365 365 284 362 362 284 365 365 285 364 364 285 361 361 285 363 363 286 362 362 286 359 359 286 360 360 287 359 359 287 356 356 287 357 357 288 356 356 288 353 353 288 354 354 289 353 353 289 350 350 289 351 351 290 350 350 290 347 347 290 348 348 291 347 347 291 344 344 291 345 345 292 344 344 292 341 341 292 338 338 293 337 337 293 340 340 293 335 335 294 334 334 294 337 337 294 333 333 295 367 367 295 334 334 295 331 331 296 330 330 296 367 367 296 328 328 297 327 327 297 330 330 297 324 324 298 327 327 298 328 328 298 369 369 299 324 324 299 325 325 299 324 324 300 369 369 300 492 492 300 327 327 301 324 324 301 491 491 301 330 330 302 327 327 302 485 485 302 367 367 303 330 330 303 484 484 303 334 334 304 367 367 304 496 496 304 337 337 305 334 334 305 495 495 305 481 481 306 340 340 306 337 337 306 482 482 307 345 345 307 340 340 307 502 502 308 348 348 308 345 345 308 513 513 309 351 351 309 348 348 309 512 512 310 354 354 310 351 351 310 499 499 311 357 357 311 354 354 311 498 498 312 360 360 312 357 357 312 494 494 313 363 363 313 360 360 313 493 493 314 366 366 314 363 363 314 519 519 315 520 520 315 366 366 315 520 520 316 526 526 316 365 365 316 526 526 317 525 525 317 364 364 317 364 364 318 525 525 318 490 490 318 509 509 319 361 361 319 364 364 319 508 508 320 358 358 320 361 361 320 507 507 321 355 355 321 358 358 321 506 506 322 352 352 322 355 355 322 501 501 323 349 349 323 352 352 323 500 500 324 346 346 324 349 349 324 505 505 325 343 343 325 346 346 325 504 504 326 342 342 326 343 343 326 480 480 327 339 339 327 342 342 327 479 479 328 336 336 328 339 339 328 478 478 329 368 368 329 336 336 329 477 477 330 332 332 330 368 368 330 487 487 331 329 329 331 332 332 331 486 486 332 326 326 332 329 329 332 497 497 333 370 370 333 326 326 333 370 370 334 323 323 334 325 325 334 326 326 335 325 325 335 328 328 335 329 329 336 328 328 336 331 331 336 332 332 337 331 331 337 333 333 337 368 368 338 333 333 338 335 335 338 336 336 339 335 335 339 338 338 339 339 339 340 338 338 340 341 341 340 344 344 341 343 343 341 342 342 341 347 347 342 346 346 342 343 343 342 350 350 343 349 349 343 346 346 343 353 353 344 352 352 344 349 349 344 356 356 345 355 355 345 352 352 345 359 359 346 358 358 346 355 355 346 362 362 347 361 361 347 358 358 347 407 407 348 522 522 348 474 474 348 0 0 349 1 1 349 2 2 349 2 2 350 3 3 350 4 4 350 4 4 351 5 5 351 6 6 351 6 6 352 7 7 352 8 8 352 8 8 353 9 9 353 10 10 353 10 10 354 11 11 354 12 12 354 13 13 355 15 15 355 12 12 355 15 15 356 17 17 356 14 14 356 17 17 357 19 19 357 16 16 357 19 19 358 21 21 358 18 18 358 21 21 359 23 23 359 20 20 359 23 23 360 25 25 360 22 22 360 24 24 361 25 25 361 26 26 361 26 26 362 27 27 362 28 28 362 29 29 363 31 31 363 28 28 363 31 31 364 33 33 364 30 30 364 33 33 365 35 35 365 32 32 365 35 35 366 37 37 366 34 34 366 37 37 367 39 39 367 36 36 367 38 38 368 39 39 368 40 40 368 40 40 369 41 41 369 42 42 369 42 42 370 43 43 370 44 44 370 44 44 371 45 45 371 46 46 371 47 47 372 49 49 372 46 46 372 49 49 373 51 51 373 48 48 373 50 50 374 51 51 374 52 52 374 52 52 375 53 53 375 54 54 375 54 54 376 55 55 376 56 56 376 56 56 377 57 57 377 58 58 377 58 58 378 59 59 378 60 60 378 60 60 379 61 61 379 62 62 379 63 63 380 65 65 380 62 62 380 65 65 381 67 67 381 64 64 381 68 68 382 69 69 382 70 70 382 70 70 383 71 71 383 72 72 383 72 72 384 73 73 384 74 74 384 74 74 385 75 75 385 76 76 385 77 77 386 79 79 386 76 76 386 79 79 387 81 81 387 78 78 387 81 81 388 83 83 388 80 80 388 83 83 389 85 85 389 82 82 389 84 84 390 85 85 390 0 0 390 57 57 391 55 55 391 114 114 391 17 17 392 15 15 392 94 94 392 51 51 393 49 49 393 111 111 393 7 7 394 5 5 394 89 89 394 123 123 395 75 75 395 122 122 395 126 126 396 81 81 396 125 125 396 19 19 397 17 17 397 95 95 397 105 105 398 39 39 398 104 104 398 1 1 399 85 85 399 86 86 399 97 97 400 23 23 400 96 96 400 49 49 401 47 47 401 110 110 401 107 107 402 43 43 402 106 106 402 127 127 403 83 83 403 126 126 403 85 85 404 83 83 404 128 128 404 59 59 405 57 57 405 115 115 405 3 3 406 1 1 406 87 87 406 55 55 407 53 53 407 113 113 407 103 103 408 35 35 408 102 102 408 65 65 409 63 63 409 118 118 409 108 108 410 45 45 410 107 107 410 53 53 411 51 51 411 112 112 411 99 99 412 27 27 412 98 98 412 102 102 413 33 33 413 101 101 413 61 61 414 59 59 414 116 116 414 5 5 415 3 3 415 88 88 415 100 100 416 29 29 416 99 99 416 106 106 417 41 41 417 105 105 417 96 96 418 21 21 418 95 95 418 67 67 419 65 65 419 119 119 419 124 124 420 77 77 420 123 123 420 63 63 421 61 61 421 117 117 421 109 109 422 47 47 422 108 108 422 15 15 423 13 13 423 93 93 423 13 13 424 11 11 424 92 92 424 104 104 425 37 37 425 103 103 425 11 11 426 9 9 426 91 91 426 98 98 427 25 25 427 97 97 427 9 9 428 7 7 428 90 90 428 121 121 429 71 71 429 120 120 429 122 122 430 73 73 430 121 121 430 125 125 431 79 79 431 124 124 431 101 101 432 31 31 432 100 100 432 151 151 433 108 108 433 150 150 433 116 116 434 115 115 434 159 159 434 167 167 435 124 124 435 166 166 435 147 147 436 104 104 436 146 146 436 164 164 437 121 121 437 163 163 437 169 169 438 126 126 438 168 168 438 144 144 439 101 101 439 143 143 439 114 114 440 113 113 440 157 157 440 119 119 441 118 118 441 162 162 441 150 150 442 107 107 442 149 149 442 113 113 443 112 112 443 156 156 443 170 170 444 127 127 444 169 169 444 166 166 445 123 123 445 165 165 445 93 93 446 92 92 446 136 136 446 115 115 447 114 114 447 158 158 447 149 149 448 106 106 448 148 148 448 92 92 449 91 91 449 135 135 449 139 139 450 96 96 450 138 138 450 152 152 451 109 109 451 151 151 451 95 95 452 94 94 452 138 138 452 86 86 453 128 128 453 129 129 453 128 128 454 127 127 454 171 171 454 94 94 455 93 93 455 137 137 455 117 117 456 116 116 456 160 160 456 87 87 457 86 86 457 130 130 457 165 165 458 122 122 458 164 164 458 88 88 459 87 87 459 131 131 459 141 141 460 98 98 460 140 140 460 145 145 461 102 102 461 144 144 461 143 143 462 100 100 462 142 142 462 89 89 463 88 88 463 132 132 463 90 90 464 89 89 464 133 133 464 168 168 465 125 125 465 167 167 465 140 140 466 97 97 466 139 139 466 111 111 467 110 110 467 154 154 467 112 112 468 111 111 468 155 155 468 110 110 469 109 109 469 153 153 469 91 91 470 90 90 470 134 134 470 118 118 471 117 117 471 161 161 471 146 146 472 103 103 472 145 145 472 142 142 473 99 99 473 141 141 473 148 148 474 105 105 474 147 147 474 207 207 475 164 164 475 206 206 475 212 212 476 169 169 476 211 211 476 187 187 477 144 144 477 186 186 477 157 157 478 156 156 478 200 200 478 162 162 479 161 161 479 205 205 479 193 193 480 150 150 480 192 192 480 156 156 481 155 155 481 199 199 481 213 213 482 170 170 482 212 212 482 209 209 483 166 166 483 208 208 483 136 136 484 135 135 484 179 179 484 158 158 485 157 157 485 201 201 485 192 192 486 149 149 486 191 191 486 135 135 487 134 134 487 178 178 487 182 182 488 139 139 488 181 181 488 195 195 489 152 152 489 194 194 489 138 138 490 137 137 490 181 181 490 129 129 491 171 171 491 172 172 491 171 171 492 170 170 492 214 214 492 137 137 493 136 136 493 180 180 493 160 160 494 159 159 494 203 203 494 130 130 495 129 129 495 173 173 495 131 131 496 130 130 496 174 174 496 208 208 497 165 165 497 207 207 497 184 184 498 141 141 498 183 183 498 188 188 499 145 145 499 187 187 499 186 186 500 143 143 500 185 185 500 132 132 501 131 131 501 175 175 501 133 133 502 132 132 502 176 176 502 211 211 503 168 168 503 210 210 503 183 183 504 140 140 504 182 182 504 154 154 505 153 153 505 197 197 505 155 155 506 154 154 506 198 198 506 153 153 507 152 152 507 196 196 507 134 134 508 133 133 508 177 177 508 161 161 509 160 160 509 204 204 509 189 189 510 146 146 510 188 188 510 185 185 511 142 142 511 184 184 511 191 191 512 148 148 512 190 190 512 194 194 513 151 151 513 193 193 513 159 159 514 158 158 514 202 202 514 210 210 515 167 167 515 209 209 515 190 190 516 147 147 516 189 189 516 200 200 517 199 199 517 243 243 517 205 205 518 204 204 518 248 248 518 236 236 519 193 193 519 235 235 519 199 199 520 198 198 520 242 242 520 256 256 521 213 213 521 255 255 521 252 252 522 209 209 522 251 251 522 179 179 523 178 178 523 222 222 523 201 201 524 200 200 524 244 244 524 235 235 525 192 192 525 234 234 525 178 178 526 177 177 526 221 221 526 225 225 527 182 182 527 224 224 527 238 238 528 195 195 528 237 237 528 181 181 529 180 180 529 224 224 529 172 172 530 214 214 530 215 215 530 214 214 531 213 213 531 257 257 531 180 180 532 179 179 532 223 223 532 203 203 533 202 202 533 246 246 533 173 173 534 172 172 534 216 216 534 174 174 535 173 173 535 217 217 535 251 251 536 208 208 536 250 250 536 227 227 537 184 184 537 226 226 537 231 231 538 188 188 538 230 230 538 229 229 539 186 186 539 228 228 539 175 175 540 174 174 540 218 218 540 176 176 541 175 175 541 219 219 541 254 254 542 211 211 542 253 253 542 197 197 543 196 196 543 240 240 543 226 226 544 183 183 544 225 225 544 198 198 545 197 197 545 241 241 545 196 196 546 195 195 546 239 239 546 177 177 547 176 176 547 220 220 547 204 204 548 203 203 548 247 247 548 232 232 549 189 189 549 231 231 549 228 228 550 185 185 550 227 227 550 234 234 551 191 191 551 233 233 551 237 237 552 194 194 552 236 236 552 202 202 553 201 201 553 245 245 553 253 253 554 210 210 554 252 252 554 233 233 555 190 190 555 232 232 555 250 250 556 207 207 556 470 470 556 255 255 557 212 212 557 254 254 557 230 230 558 187 187 558 229 229 558 298 298 559 450 450 559 297 297 559 444 444 560 443 443 560 265 265 560 459 459 561 458 458 561 287 287 561 278 278 562 428 428 562 277 277 562 443 443 563 436 436 563 264 264 563 268 268 564 467 467 564 267 267 564 431 431 565 430 430 565 281 281 565 267 267 566 466 466 566 266 266 566 258 258 567 432 432 567 303 303 567 303 303 568 433 433 568 302 302 568 266 266 569 468 468 569 265 265 569 461 461 570 460 460 570 289 289 570 455 455 571 432 432 571 259 259 571 447 447 572 455 455 572 260 260 572 297 297 573 446 446 573 296 296 573 270 270 574 463 463 574 269 269 574 274 274 575 434 434 575 273 273 575 272 272 576 426 426 576 271 271 576 448 448 577 447 447 577 261 261 577 435 435 578 448 448 578 262 262 578 300 300 579 464 464 579 299 299 579 269 269 580 462 462 580 268 268 580 457 457 581 456 456 581 283 283 581 452 452 582 457 457 582 284 284 582 456 456 583 431 431 583 282 282 583 436 436 584 435 435 584 263 263 584 439 439 585 461 461 585 290 290 585 275 275 586 449 449 586 274 274 586 271 271 587 469 469 587 270 270 587 277 277 588 438 438 588 276 276 588 430 430 589 429 429 589 280 280 589 460 460 590 459 459 590 288 288 590 299 299 591 451 451 591 298 298 591 276 276 592 437 437 592 275 275 592 296 296 593 445 445 593 518 518 593 301 301 594 465 465 594 300 300 594 273 273 595 427 427 595 272 272 595 458 458 596 453 453 596 286 286 596 440 440 597 439 439 597 291 291 597 429 429 598 428 428 598 279 279 598 453 453 599 452 452 599 285 285 599 302 302 600 454 454 600 301 301 600 381 381 601 379 379 601 313 313 601 381 381 602 313 313 602 421 421 602 294 294 603 312 312 603 293 293 603 313 313 604 314 314 604 293 293 604 293 293 605 292 292 605 320 320 605 294 294 606 293 293 606 319 319 606 418 418 607 420 420 607 320 320 607 411 411 608 418 418 608 321 321 608 420 420 609 423 423 609 319 319 609 304 304 610 294 294 610 318 318 610 304 304 611 311 311 611 294 294 611 311 311 612 422 422 612 312 312 612 422 422 613 311 311 613 424 424 613 305 305 614 310 310 614 304 304 614 305 305 615 304 304 615 317 317 615 423 423 616 425 425 616 318 318 616 523 523 617 317 317 617 441 441 617 442 442 618 489 489 618 316 316 618 307 307 619 306 306 619 315 315 619 524 524 620 305 305 620 523 523 620 307 307 621 308 308 621 306 306 621 524 524 622 473 473 622 305 305 622 473 473 623 249 249 623 310 310 623 472 472 624 309 309 624 295 295 624 515 515 625 514 514 625 372 372 625 510 510 626 322 322 626 511 511 626 510 510 627 515 515 627 372 372 627 517 517 628 371 371 628 475 475 628 517 517 629 511 511 629 322 322 629 483 483 630 476 476 630 371 371 630 372 372 631 516 516 631 369 369 631 322 322 632 372 372 632 323 323 632 370 370 633 371 371 633 323 323 633 497 497 634 483 483 634 370 370 634 363 363 635 366 366 635 362 362 635 362 362 636 365 365 636 361 361 636 360 360 637 363 363 637 359 359 637 357 357 638 360 360 638 356 356 638 354 354 639 357 357 639 353 353 639 351 351 640 354 354 640 350 350 640 348 348 641 351 351 641 347 347 641 345 345 642 348 348 642 344 344 642 340 340 643 345 345 643 341 341 643 341 341 644 338 338 644 340 340 644 338 338 645 335 335 645 337 337 645 335 335 646 333 333 646 334 334 646 333 333 647 331 331 647 367 367 647 331 331 648 328 328 648 330 330 648 325 325 649 324 324 649 328 328 649 323 323 650 369 369 650 325 325 650 491 491 651 324 324 651 492 492 651 485 485 652 327 327 652 491 491 652 484 484 653 330 330 653 485 485 653 496 496 654 367 367 654 484 484 654 495 495 655 334 334 655 496 496 655 503 503 656 337 337 656 495 495 656 503 503 657 481 481 657 337 337 657 481 481 658 482 482 658 340 340 658 482 482 659 502 502 659 345 345 659 502 502 660 513 513 660 348 348 660 513 513 661 512 512 661 351 351 661 512 512 662 499 499 662 354 354 662 499 499 663 498 498 663 357 357 663 498 498 664 494 494 664 360 360 664 494 494 665 493 493 665 363 363 665 493 493 666 519 519 666 366 366 666 366 366 667 520 520 667 365 365 667 365 365 668 526 526 668 364 364 668 488 488 669 364 364 669 490 490 669 488 488 670 509 509 670 364 364 670 509 509 671 508 508 671 361 361 671 508 508 672 507 507 672 358 358 672 507 507 673 506 506 673 355 355 673 506 506 674 501 501 674 352 352 674 501 501 675 500 500 675 349 349 675 500 500 676 505 505 676 346 346 676 505 505 677 504 504 677 343 343 677 504 504 678 480 480 678 342 342 678 480 480 679 479 479 679 339 339 679 479 479 680 478 478 680 336 336 680 478 478 681 477 477 681 368 368 681 477 477 682 487 487 682 332 332 682 487 487 683 486 486 683 329 329 683 486 486 684 497 497 684 326 326 684 326 326 685 370 370 685 325 325 685 329 329 686 326 326 686 328 328 686 332 332 687 329 329 687 331 331 687 368 368 688 332 332 688 333 333 688 336 336 689 368 368 689 335 335 689 339 339 690 336 336 690 338 338 690 342 342 691 339 339 691 341 341 691 341 341 692 344 344 692 342 342 692 344 344 693 347 347 693 343 343 693 347 347 694 350 350 694 346 346 694 350 350 695 353 353 695 349 349 695 353 353 696 356 356 696 352 352 696 356 356 697 359 359 697 355 355 697 359 359 698 362 362 698 358 358 698 385 385 699 398 398 699 373 373 699 385 385 700 397 397 700 393 393 700 397 397 701 396 396 701 405 405 701 382 382 702 408 408 702 409 409 702 390 390 703 395 395 703 419 419 703 390 390 704 391 391 704 394 394 704 419 419 705 383 383 705 390 390 705 413 413 706 387 387 706 382 382 706 399 399 707 403 403 707 386 386 707 403 403 708 400 400 708 402 402 708 386 386 709 414 414 709 399 399 709 409 409 710 416 416 710 413 413 710 416 416 711 404 404 711 396 396 711 373 373 712 384 384 712 385 385 712 415 415 713 407 407 713 388 388 713 374 374 714 389 389 714 384 384 714 409 409 715 404 404 715 416 416 715 403 403 716 399 399 716 400 400 716 413 413 717 414 414 717 387 387 717 395 395 718 390 390 718 394 394 718 382 382 719 383 383 719 408 408 719 393 393 720 397 397 720 392 392 720 384 384 721 373 373 721 374 374 721 388 388 722 417 417 722 415 415 722 521 521 723 375 375 723 376 376 723 521 521 724 377 377 724 378 378 724 410 410 725 412 412 725 521 521 725 521 521 726 378 378 726 410 410 726 521 521 727 522 522 727 375 375 727 385 385 728 393 393 728 398 398 728 408 408 729 383 383 729 419 419 729 387 387 730 414 414 730 386 386 730 396 396 731 404 404 731 405 405 731 415 415 732 522 522 732 407 407 732 474 474 733 380 380 733 401 401 733 401 401 734 406 406 734 474 474 734 376 376 735 377 377 735 521 521 735 388 388 736 389 389 736 417 417 736 413 413 737 382 382 737 409 409 737 397 397 738 405 405 738 392 392 738 406 406 739 407 407 739 474 474 739 522 522 740 415 415 740 375 375 740 374 374 741 417 417 741 389 389 741 528 528 742 530 530 742 529 529 742 530 530 743 532 532 743 531 531 743 532 532 744 534 534 744 533 533 744 534 534 745 536 536 745 535 535 745 536 536 746 538 538 746 537 537 746 538 538 747 540 540 747 539 539 747 540 540 748 542 542 748 541 541 748 542 542 749 544 544 749 543 543 749 544 544 750 546 546 750 545 545 750 546 546 751 548 548 751 547 547 751 548 548 752 550 550 752 549 549 752 550 550 753 552 552 753 551 551 753 552 552 754 554 554 754 553 553 754 554 554 755 556 556 755 555 555 755 556 556 756 558 558 756 557 557 756 558 558 757 560 560 757 559 559 757 560 560 758 562 562 758 561 561 758 562 562 759 564 564 759 563 563 759 564 564 760 566 566 760 565 565 760 566 566 761 568 568 761 567 567 761 568 568 762 570 570 762 569 569 762 570 570 763 572 572 763 571 571 763 572 572 764 574 574 764 573 573 764 574 574 765 576 576 765 575 575 765 576 576 766 578 578 766 577 577 766 578 578 767 580 580 767 579 579 767 580 580 768 582 582 768 581 581 768 582 582 769 584 584 769 583 583 769 584 584 770 586 586 770 585 585 770 586 586 771 588 588 771 587 587 771 562 562 772 552 552 772 570 570 772 590 590 773 528 528 773 527 527 773 588 588 774 590 590 774 589 589 774 527 527 775 543 543 775 545 545 775 527 527 776 528 528 776 529 529 776 529 529 777 530 530 777 531 531 777 531 531 778 532 532 778 533 533 778 533 533 779 534 534 779 535 535 779 535 535 780 536 536 780 537 537 780 537 537 781 538 538 781 539 539 781 539 539 782 540 540 782 541 541 782 541 541 783 542 542 783 543 543 783 543 543 784 544 544 784 545 545 784 545 545 785 546 546 785 547 547 785 547 547 786 548 548 786 549 549 786 549 549 787 550 550 787 551 551 787 551 551 788 552 552 788 553 553 788 553 553 789 554 554 789 555 555 789 555 555 790 556 556 790 557 557 790 557 557 791 558 558 791 559 559 791 559 559 792 560 560 792 561 561 792 561 561 793 562 562 793 563 563 793 563 563 794 564 564 794 565 565 794 565 565 795 566 566 795 567 567 795 567 567 796 568 568 796 569 569 796 569 569 797 570 570 797 571 571 797 571 571 798 572 572 798 573 573 798 573 573 799 574 574 799 575 575 799 575 575 800 576 576 800 577 577 800 577 577 801 578 578 801 579 579 801 579 579 802 580 580 802 581 581 802 581 581 803 582 582 803 583 583 803 583 583 804 584 584 804 585 585 804 585 585 805 586 586 805 587 587 805 536 536 806 532 532 806 530 530 806 532 532 807 536 536 807 534 534 807 546 546 808 540 540 808 538 538 808 546 546 809 544 544 809 542 542 809 552 552 810 548 548 810 546 546 810 548 548 811 552 552 811 550 550 811 552 552 812 556 556 812 554 554 812 562 562 813 560 560 813 558 558 813 570 570 814 564 564 814 562 562 814 570 570 815 568 568 815 566 566 815 574 574 816 572 572 816 570 570 816 578 578 817 576 576 817 574 574 817 584 584 818 580 580 818 578 578 818 580 580 819 584 584 819 582 582 819 590 590 820 588 588 820 586 586 820 530 530 821 528 528 821 590 590 821 538 538 822 536 536 822 530 530 822 546 546 823 542 542 823 540 540 823 578 578 824 552 552 824 546 546 824 552 552 825 558 558 825 556 556 825 570 570 826 566 566 826 564 564 826 578 578 827 574 574 827 570 570 827 586 586 828 584 584 828 578 578 828 530 530 829 590 590 829 586 586 829 546 546 830 538 538 830 530 530 830 578 578 831 570 570 831 552 552 831 558 558 832 552 552 832 562 562 832 530 530 833 586 586 833 578 578 833 578 578 834 546 546 834 530 530 834 589 589 835 590 590 835 527 527 835 587 587 836 588 588 836 589 589 836 583 583 837 589 589 837 527 527 837 583 583 838 585 585 838 587 587 838 579 579 839 581 581 839 583 583 839 575 575 840 577 577 840 579 579 840 559 559 841 573 573 841 575 575 841 567 567 842 569 569 842 571 571 842 563 563 843 565 565 843 567 567 843 559 559 844 561 561 844 563 563 844 551 551 845 557 557 845 559 559 845 557 557 846 553 553 846 555 555 846 547 547 847 549 549 847 551 551 847 527 527 848 545 545 848 547 547 848 527 527 849 541 541 849 543 543 849 535 535 850 537 537 850 539 539 850 539 539 851 533 533 851 535 535 851 533 533 852 529 529 852 531 531 852 583 583 853 587 587 853 589 589 853 575 575 854 579 579 854 583 583 854 567 567 855 571 571 855 573 573 855 573 573 856 563 563 856 567 567 856 551 551 857 553 553 857 557 557 857 559 559 858 547 547 858 551 551 858 527 527 859 529 529 859 541 541 859 539 539 860 529 529 860 533 533 860 559 559 861 583 583 861 527 527 861 559 559 862 563 563 862 573 573 862 527 527 863 547 547 863 559 559 863 541 541 864 529 529 864 539 539 864 559 559 865 575 575 865 583 583 865</p>
                </triangles>
            </mesh>
        </geometry>
    </library_geometries>
    <library_visual_scenes>
        <visual_scene id="VisualSceneNode" name="VisualScene">
            <node id="node" name="node">
                <instance_geometry url="#shape0-lib"/>
            </node>
        </visual_scene>
    </library_visual_scenes>
    <scene>
        <instance_visual_scene url="#VisualSceneNode"/>
    </scene>
</COLLADA>
