<?xml version="1.0" encoding="UTF-8"?>
<COLLADA xmlns="http://www.collada.org/2005/11/COLLADASchema" version="1.4.1">
    <asset>
        <contributor>
            <author>VCGLab</author>
            <authoring_tool>VCGLib | MeshLab</authoring_tool>
        </contributor>
        <created>Mi Nov 9 01:57:26 2016 GMT</created>
        <modified>Mi Nov 9 01:57:26 2016 GMT</modified>
        <up_axis>Y_UP</up_axis>
    </asset>
    <library_geometries>
        <geometry id="shape0-lib" name="shape0">
            <mesh>
                <source id="shape0-lib-positions" name="position">
                    <float_array id="shape0-lib-positions-array" count="294">-0.00275978 -0.00368401 0.00276343 -0.00384857 0.0036442 0.00103305 0.00391279 0.0036442 0.00103388 0.00284306 -0.00368401 0.00276403 -0.00278043 -0.00235346 0.00918833 -0.0028608 0.00363031 0.0109837 0.00292288 0.00348046 0.0109843 0.00282348 -0.00235346 0.00918893 -0.00311181 -0.00376406 0.00612308 -0.00432083 0.00400689 0.00618922 0.00438395 0.00400689 0.00619016 0.00317499 -0.00376406 0.00612376 3.09831e-05 0.00384066 0.011528 3.21732e-05 0.00400689 0.000440218 2.64148e-05 -0.00253764 0.00937245 3.67588e-05 -0.00402555 0.00254635 3.1556e-05 0.00400689 0.00618969 3.1566e-05 -0.0043473 0.00611853 -0.00326926 -0.00010104 0.0103556 -0.00335675 -0.00028774 0.00195679 0.00332832 -0.000101041 0.0103563 0.00342399 -0.000287742 0.00195752 -0.00405011 -0.000298175 0.00617796 0.00411328 -0.00029817 0.00617883 3.24834e-05 -0.000329179 0.00145159 3.06443e-05 -0.000118179 0.0108634 -0.00303308 -0.00305161 0.00789405 -0.00379675 0.00400689 0.00915389 0.00385923 0.00400689 0.00915471 0.00308319 -0.00305161 0.0078947 3.12378e-05 0.00400689 0.00915424 2.84792e-05 -0.00353178 0.0079088 -0.003924 -0.00019633 0.00853416 0.00398464 -0.000196332 0.00853501 -0.00432051 0.00400689 0.00318204 0.00438427 0.00400689 0.00318298 0.00309521 -0.00385854 0.00420208 -0.00301891 -0.00385854 0.00420142 3.18788e-05 0.00400689 0.00318251 3.46999e-05 -0.00446686 0.0041574 -0.00397815 -0.000297754 0.00379028 0.0040438 -0.00029776 0.00379115 -0.00311754 -0.00223783 0.0023697 0.003173 -0.00142738 0.00974663 -0.00382069 -0.00222543 0.00615058 3.48572e-05 -0.0023807 0.00187651 2.82889e-05 -0.00144592 0.0102166 -0.0031234 -0.00142738 0.00974595 0.00319423 -0.00223783 0.00237038 0.00388381 -0.00222549 0.00615141 0.00376575 -0.00181535 0.0081829 -0.00371141 -0.00181535 0.0081821 0.00377788 -0.00227246 0.00402697 -0.00370596 -0.0022724 0.00402617 -0.00311535 0.00184968 0.0108269 0.00363028 0.00183549 0.00147254 0.00420907 0.00183257 0.00618352 -0.00356585 0.00183549 0.00147177 0.00317717 0.00181755 0.0108276 -0.00414595 0.00183257 0.00618262 3.21157e-05 0.00183084 0.000980892 3.10036e-05 0.00182536 0.011342 -0.00387205 0.0018414 0.00881818 0.00393443 0.0018414 0.00881902 -0.00412284 0.00183412 0.00353302 0.00418664 0.00183412 0.00353391 -0.00214399 0.00400689 0.000439984 -0.00148714 -0.00245264 0.00930052 -0.00214461 0.00400689 0.00618946 -0.00143171 0.00392374 0.0114593 -0.00147159 -0.00389281 0.00262576 -0.00160375 -0.00417867 0.00611964 -0.00169401 -0.00010635 0.0107448 -0.00174071 -0.000308924 0.00156924 -0.00156048 -0.00338885 0.00788282 -0.00188273 0.00400689 0.00915409 -0.00155019 -0.00428906 0.00418936 -0.00214429 0.00400689 0.00318227 -0.00161657 -0.00141147 0.0100993 -0.00161034 -0.00231209 0.00199805 -0.00160215 0.00183752 0.0112346 -0.00184937 0.00183317 0.00107785 0.00149369 0.0037953 0.0114597 0.00155007 -0.00389281 0.00262608 0.00166688 -0.00417867 0.00611999 0.00220834 0.00400689 0.000440451 0.00153505 -0.00245264 0.00930085 0.00220772 0.00400689 0.00618993 0.00180684 -0.000308924 0.00156962 0.00175412 -0.000106348 0.0107452 0.0019452 0.00400689 0.0091545 0.001614 -0.00338885 0.00788316 0.00220804 0.00400689 0.00318274 0.0016231 -0.00428906 0.0041897 0.00168359 -0.00231209 0.0019984 0.00166961 -0.00141147 0.0100997 0.00191376 0.00183317 0.00107825 0.00166406 0.00182149 0.0112349</float_array>
                    <technique_common>
                        <accessor count="98" source="#shape0-lib-positions-array" stride="3">
                            <param name="X" type="float"/>
                            <param name="Y" type="float"/>
                            <param name="Z" type="float"/>
                        </accessor>
                    </technique_common>
                </source>
                <source id="shape0-lib-normals" name="normal">
                    <float_array id="shape0-lib-normals-array" count="576">-0.964488 -0.194186 -0.179038 1.78758e-05 0.986056 -0.166416 0.890505 -0.405963 -0.205412 -0.278684 -0.946095 -0.165043 0.254936 -0.303891 -0.917964 -0.300426 -0.0778827 0.95062 -0.984706 0.00725681 0.174073 1.68387e-11 1 -1.57074e-07 0.886209 -0.412078 0.211719 -0.204405 -0.904972 0.373154 1.82406e-11 1 -1.69807e-07 0.0980406 -0.959855 -0.262805 0.000103083 -0.281557 -0.959545 0.0436247 -0.0918285 0.994819 1.19235e-11 1 -1.57077e-07 0.0930528 -0.906022 0.412875 -0.931099 -0.18124 -0.316553 0.942268 -0.101633 -0.319065 0.229954 -0.227427 -0.946255 -0.216469 -0.443114 0.869937 -0.988022 -0.142573 0.0590437 0.997396 -0.0449598 0.0563986 -0.0671058 -0.213026 -0.974739 0.0642869 -0.44577 0.892836 -0.879925 0.0846419 0.467511 -2.9731e-05 0.961014 0.276498 0.746512 -0.511396 0.425669 -0.190433 -0.848004 0.494595 0.0533121 0.996138 0.0697662 0.0730775 -0.824965 0.560439 -0.905525 -0.255333 0.338866 0.940096 -0.0242265 0.340047 -0.995886 -0.0906195 -0.000106855 1.66002e-11 1 -1.5485e-07 0.917626 -0.39701 -0.0185795 -0.264862 -0.963666 0.0345728 1.66007e-11 1 -1.5485e-07 0.109819 -0.992099 0.060662 -0.989703 -0.139989 -0.0298526 0.998572 -0.0448246 -0.029066 0.92922 -0.164641 -0.330824 0.989544 -0.118979 0.0815264 -0.894025 -0.309388 -0.324035 0.241688 -0.309063 -0.919819 -0.184179 -0.556178 0.810398 -0.85229 -0.50194 0.147166 -0.0838294 -0.374119 -0.923584 0.068951 -0.612866 0.787173 0.896889 -0.206332 0.391174 -0.746454 -0.523669 0.410582 0.991973 -0.117442 -0.0468649 -0.907792 -0.417528 -0.0397943 -0.954004 -0.152865 -0.257892 0.217779 -0.237397 -0.946686 -0.255127 -0.224859 0.940398 -0.994587 0.0109518 0.103325 -0.0504118 -0.225735 -0.972884 0.0629602 -0.238629 0.969068 0.957386 -0.128829 -0.258486 0.991394 -0.0800532 0.10358 -0.935729 -0.0113599 0.352538 0.935564 -0.0221492 0.352462 -0.997595 -0.0687629 -0.00874207 0.996747 -0.0801417 -0.00848257 -0.112927 -0.961789 -0.249416 -0.0518821 -0.0917932 0.994426 -0.0883862 -0.908236 0.409017 -0.208125 0.978102 -2.25017e-05 -0.254734 -0.30391 -0.918014 1.68143e-11 1 -1.57074e-07 -0.0644414 -0.445484 0.892968 -0.229866 -0.228504 -0.946017 -0.0836479 -0.829548 0.552136 -0.225725 0.970968 0.0791843 -0.102383 -0.99328 0.0539628 1.66334e-11 1 -1.5485e-07 -0.0689791 -0.61264 0.787346 -0.241984 -0.310164 -0.91937 -0.0654966 -0.238568 0.968915 -0.217575 -0.23768 -0.946662 1.82042e-11 1 -1.69807e-07 0.000102868 -0.281557 -0.959545 1.68727e-11 1 -1.57074e-07 0.180263 -0.95144 -0.249533 0.298117 -0.0825487 0.950953 0.241703 -0.882834 0.40272 0.0672709 -0.212793 -0.974779 0.216318 -0.444067 0.869489 -1.26756e-05 0.995814 0.0914054 0.111558 -0.826387 0.551941 1.66173e-11 1 -1.5485e-07 0.27999 -0.958778 0.0484793 0.0838443 -0.373866 -0.923685 0.184254 -0.557159 0.809707 0.0506162 -0.225694 -0.972883 0.252618 -0.22711 0.940535 -0.957302 -0.128891 -0.258767 0.208125 0.978102 2.21695e-05 0.896131 -0.305282 -0.322106 -0.1809 -0.95116 -0.25014 0.216396 -0.261903 -0.940521 -0.260166 -0.0476914 0.964386 -0.991423 -0.0800542 0.103301 1.68907e-11 1 -1.57074e-07 0.850015 -0.504572 0.151265 -0.241925 -0.883281 0.401605 1.82224e-11 1 -1.69807e-07 0.112737 -0.961911 -0.249033 -0.050244 -0.240829 -0.969266 0.0647818 -0.107376 0.992106 1.68391e-11 1 -1.57074e-07 0.0884797 -0.908046 0.409419 -0.927861 -0.16769 -0.333097 0.954274 -0.151567 -0.257661 0.243441 -0.217313 -0.945258 -0.202153 -0.427269 0.881235 -0.989892 -0.118935 0.0772546 0.994567 0.0100696 0.103609 -0.0805359 -0.202251 -0.976017 0.0730505 -0.436862 0.896558 -0.935545 -0.0221152 0.352513 0.256651 0.95659 0.138078 0.742079 -0.528432 0.412405 -0.11125 -0.826631 0.551638 -2.73618e-06 0.99935 0.0360458 0.0837003 -0.829386 0.55237 -0.899027 -0.202479 0.388268 0.935679 -0.0129013 0.352615 -0.996745 -0.0801422 -0.00874131 1.66334e-11 1 -1.5485e-07 0.907906 -0.417621 -0.0360366 -0.280626 -0.958664 0.0470379 1.66173e-11 1 -1.5485e-07 0.102369 -0.993254 0.0544796 -0.991783 -0.117338 -0.0509671 0.997658 -0.0678684 -0.00848311 0.932135 -0.176737 -0.316051 0.987361 -0.146592 0.0602435 -0.888563 -0.40805 -0.209648 0.158116 -0.375921 -0.913062 -0.11483 -0.613626 0.781202 -0.887472 -0.412549 0.205419 -0.081682 -0.375979 -0.923021 0.071825 -0.610207 0.788979 0.903525 -0.261766 0.339296 -0.75007 -0.509744 0.421375 0.990181 -0.136786 -0.0288376 -0.91634 -0.399641 -0.0246482 -0.941925 -0.102521 -0.319792 0.22991 -0.228479 -0.946012 -0.235182 -0.21072 0.948834 -0.997454 -0.0449883 0.0553305 -0.0671075 -0.212447 -0.974865 0.0680283 -0.24264 0.967728 0.964551 -0.194038 -0.178861 0.984669 0.00717635 0.174284 -0.940402 -0.0233152 0.339265 0.875986 0.0892788 0.474002 -0.99854 -0.0448502 -0.0301022 0.995891 -0.0905647 0.000106884 -0.0983109 -0.959765 -0.263032 -0.0660365 -0.10156 0.992635 -0.0931532 -0.906134 0.412606 1.78581e-05 0.986056 -0.166417 -0.216207 -0.261937 -0.940555 1.68723e-11 1 -1.57074e-07 -0.0730883 -0.436651 0.896657 -0.243766 -0.218153 -0.94498 -0.0729591 -0.825068 0.560303 -2.15799e-05 0.979469 0.201593 -0.110081 -0.992091 0.0603102 1.66168e-11 1 -1.5485e-07 -0.0717576 -0.610056 0.789102 -0.158557 -0.376392 -0.912792 -0.0682087 -0.240696 0.968201 -0.22986 -0.228666 -0.945979 1.82224e-11 1 -1.69807e-07 0.0504472 -0.240829 -0.969256 2.17833e-11 1 -1.57077e-07 0.278179 -0.946487 -0.163643 0.259496 -0.0512142 0.964385 0.204653 -0.904383 0.374444 0.0805673 -0.202072 -0.976051 0.202271 -0.428466 0.880626 0.0341783 0.996974 0.0698227 0.190641 -0.847479 0.495415 1.66338e-11 1 -1.5485e-07 0.264824 -0.96361 0.0363781 0.0816015 -0.37582 -0.923093 0.115095 -0.613995 0.780873 0.0672721 -0.212423 -0.974859 0.234959 -0.214371 0.948071</float_array>
                    <technique_common>
                        <accessor count="192" source="#shape0-lib-normals-array" stride="3">
                            <param name="X" type="float"/>
                            <param name="Y" type="float"/>
                            <param name="Z" type="float"/>
                        </accessor>
                    </technique_common>
                </source>
                <source id="shape0-lib-vcolor" name="vcolor">
                    <float_array id="shape0-lib-vcolor-array" count="392">0.654902 0.501961 0.313725 1 0.654902 0.501961 0.313725 1 0.654902 0.501961 0.313725 1 0.654902 0.501961 0.313725 1 0.654902 0.501961 0.313725 1 0.654902 0.501961 0.313725 1 0.654902 0.501961 0.313725 1 0.654902 0.501961 0.313725 1 0.654902 0.501961 0.313725 1 0.654902 0.501961 0.313725 1 0.654902 0.501961 0.313725 1 0.654902 0.501961 0.313725 1 0.654902 0.501961 0.313725 1 0.654902 0.501961 0.313725 1 0.654902 0.501961 0.313725 1 0.654902 0.501961 0.313725 1 0.654902 0.501961 0.313725 1 0.654902 0.501961 0.313725 1 0.654902 0.501961 0.313725 1 0.654902 0.501961 0.313725 1 0.654902 0.501961 0.313725 1 0.654902 0.501961 0.313725 1 0.654902 0.501961 0.313725 1 0.654902 0.501961 0.313725 1 0.654902 0.501961 0.313725 1 0.654902 0.501961 0.313725 1 0.654902 0.501961 0.313725 1 0.654902 0.501961 0.313725 1 0.654902 0.501961 0.313725 1 0.654902 0.501961 0.313725 1 0.654902 0.501961 0.313725 1 0.654902 0.501961 0.313725 1 0.654902 0.501961 0.313725 1 0.654902 0.501961 0.313725 1 0.654902 0.501961 0.313725 1 0.654902 0.501961 0.313725 1 0.654902 0.501961 0.313725 1 0.654902 0.501961 0.313725 1 0.654902 0.501961 0.313725 1 0.654902 0.501961 0.313725 1 0.654902 0.501961 0.313725 1 0.654902 0.501961 0.313725 1 0.654902 0.501961 0.313725 1 0.654902 0.501961 0.313725 1 0.654902 0.501961 0.313725 1 0.654902 0.501961 0.313725 1 0.654902 0.501961 0.313725 1 0.654902 0.501961 0.313725 1 0.654902 0.501961 0.313725 1 0.654902 0.501961 0.313725 1 0.654902 0.501961 0.313725 1 0.654902 0.501961 0.313725 1 0.654902 0.501961 0.313725 1 0.654902 0.501961 0.313725 1 0.654902 0.501961 0.313725 1 0.654902 0.501961 0.313725 1 0.654902 0.501961 0.313725 1 0.654902 0.501961 0.313725 1 0.654902 0.501961 0.313725 1 0.654902 0.501961 0.313725 1 0.654902 0.501961 0.313725 1 0.654902 0.501961 0.313725 1 0.654902 0.501961 0.313725 1 0.654902 0.501961 0.313725 1 0.654902 0.501961 0.313725 1 0.654902 0.501961 0.313725 1 0.654902 0.501961 0.313725 1 0.654902 0.501961 0.313725 1 0.654902 0.501961 0.313725 1 0.654902 0.501961 0.313725 1 0.654902 0.501961 0.313725 1 0.654902 0.501961 0.313725 1 0.654902 0.501961 0.313725 1 0.654902 0.501961 0.313725 1 0.654902 0.501961 0.313725 1 0.654902 0.501961 0.313725 1 0.654902 0.501961 0.313725 1 0.654902 0.501961 0.313725 1 0.654902 0.501961 0.313725 1 0.654902 0.501961 0.313725 1 0.654902 0.501961 0.313725 1 0.654902 0.501961 0.313725 1 0.654902 0.501961 0.313725 1 0.654902 0.501961 0.313725 1 0.654902 0.501961 0.313725 1 0.654902 0.501961 0.313725 1 0.654902 0.501961 0.313725 1 0.654902 0.501961 0.313725 1 0.654902 0.501961 0.313725 1 0.654902 0.501961 0.313725 1 0.654902 0.501961 0.313725 1 0.654902 0.501961 0.313725 1 0.654902 0.501961 0.313725 1 0.654902 0.501961 0.313725 1 0.654902 0.501961 0.313725 1 0.654902 0.501961 0.313725 1 0.654902 0.501961 0.313725 1 0.654902 0.501961 0.313725 1</float_array>
                    <technique_common>
                        <accessor count="98" source="#shape0-lib-vcolor-array" stride="4">
                            <param name="R" type="float"/>
                            <param name="G" type="float"/>
                            <param name="B" type="float"/>
                            <param name="A" type="float"/>
                        </accessor>
                    </technique_common>
                </source>
                <vertices id="shape0-lib-vertices">
                    <input semantic="POSITION" source="#shape0-lib-positions"/>
                </vertices>
                <triangles count="192">
                    <input offset="0" semantic="VERTEX" source="#shape0-lib-vertices"/>
                    <input offset="1" semantic="COLOR" source="#shape0-lib-vcolor"/>
                    <input offset="2" semantic="NORMAL" source="#shape0-lib-normals"/>
                    <p>34 34 0 1 1 0 57 57 0 92 92 1 35 35 1 2 2 1 52 52 2 36 36 2 3 3 2 76 76 3 37 37 3 0 0 3 96 96 4 85 85 4 2 2 4 80 80 5 69 69 5 5 5 5 62 62 6 27 27 6 9 9 6 28 28 7 10 10 7 87 87 7 29 29 8 11 11 8 49 49 8 74 74 9 26 26 9 8 8 9 38 38 10 13 13 10 66 66 10 39 39 11 15 15 11 83 83 11 81 81 12 66 66 12 13 13 12 82 82 13 12 12 13 61 61 13 75 75 14 30 30 14 16 16 14 31 31 15 17 17 15 84 84 15 40 40 16 19 19 16 42 42 16 65 65 17 41 41 17 21 21 17 88 88 18 21 21 18 48 48 18 78 78 19 72 72 19 18 18 19 51 51 20 32 32 20 22 22 20 33 33 21 23 23 21 56 56 21 79 79 22 73 73 22 24 24 22 95 95 23 89 89 23 25 25 23 54 54 24 5 5 24 27 27 24 6 6 25 28 28 25 90 90 25 7 7 26 29 29 26 50 50 26 4 4 27 26 26 27 74 74 27 69 69 28 12 12 28 30 30 28 86 86 29 14 14 29 31 31 29 47 47 30 18 18 30 32 32 30 20 20 31 33 33 31 63 63 31 9 9 32 34 34 32 64 64 32 87 87 33 10 10 33 35 35 33 11 11 34 36 36 34 52 52 34 71 71 35 8 8 35 37 37 35 68 68 36 16 16 36 38 38 36 17 17 37 39 39 37 93 93 37 22 22 38 40 40 38 53 53 38 56 56 39 23 23 39 41 41 39 41 41 40 52 52 40 48 48 40 50 50 41 49 49 41 23 23 41 53 53 42 42 42 42 0 0 42 94 94 43 48 48 43 3 3 43 78 78 44 47 47 44 4 4 44 26 26 45 51 51 45 44 44 45 70 70 46 79 79 46 45 45 46 86 86 47 95 95 47 46 46 47 43 43 48 50 50 48 33 33 48 4 4 49 47 47 49 51 51 49 23 23 50 49 49 50 52 52 50 8 8 51 44 44 51 53 53 51 64 64 52 57 57 52 19 19 52 96 96 53 55 55 53 21 21 53 72 72 54 80 80 54 54 54 54 32 32 55 62 62 55 59 59 55 73 73 56 81 81 56 60 60 56 97 97 57 61 61 57 25 25 57 35 35 58 65 65 58 55 55 58 63 63 59 56 56 59 10 10 59 18 18 60 54 54 60 62 62 60 58 58 61 63 63 61 28 28 61 59 59 62 64 64 62 40 40 62 10 10 63 56 56 63 65 65 63 39 39 64 76 76 64 70 70 64 61 61 65 12 12 65 69 69 65 31 31 66 74 74 66 71 71 66 77 77 67 66 66 67 1 1 67 1 1 68 66 66 68 81 81 68 27 27 69 75 75 69 68 68 69 25 25 70 72 72 70 78 78 70 42 42 71 19 19 71 73 73 71 67 67 72 74 74 72 31 31 72 5 5 73 69 69 73 75 75 73 17 17 74 71 71 74 76 76 74 9 9 75 68 68 75 77 77 75 46 46 76 78 78 76 67 67 76 0 0 77 42 42 77 79 79 77 25 25 78 61 61 78 80 80 78 19 19 79 57 57 79 81 81 79 92 92 80 85 85 80 13 13 80 13 13 81 85 85 81 96 96 81 90 90 82 87 87 82 16 16 82 93 93 83 83 83 83 3 3 83 6 6 84 82 82 84 97 97 84 91 91 85 84 84 85 11 11 85 24 24 86 88 88 86 94 94 86 20 20 87 89 89 87 95 95 87 82 82 88 90 90 88 30 30 88 7 7 89 86 86 89 91 91 89 87 87 90 92 92 90 38 38 90 84 84 91 93 93 91 36 36 91 45 45 92 94 94 92 83 83 92 7 7 93 43 43 93 95 95 93 60 60 94 96 96 94 88 88 94 58 58 95 97 97 95 89 89 95 64 64 96 34 34 96 57 57 96 85 85 97 92 92 97 2 2 97 48 48 98 52 52 98 3 3 98 70 70 99 76 76 99 0 0 99 55 55 100 96 96 100 2 2 100 54 54 101 80 80 101 5 5 101 59 59 102 62 62 102 9 9 102 90 90 103 28 28 103 87 87 103 50 50 104 29 29 104 49 49 104 71 71 105 74 74 105 8 8 105 77 77 106 38 38 106 66 66 106 93 93 107 39 39 107 83 83 107 60 60 108 81 81 108 13 13 108 97 97 109 82 82 109 61 61 109 68 68 110 75 75 110 16 16 110 91 91 111 31 31 111 84 84 111 53 53 112 40 40 112 42 42 112 55 55 113 65 65 113 21 21 113 94 94 114 88 88 114 48 48 114 47 47 115 78 78 115 18 18 115 44 44 116 51 51 116 22 22 116 63 63 117 33 33 117 56 56 117 45 45 118 79 79 118 24 24 118 46 46 119 95 95 119 25 25 119 62 62 120 54 54 120 27 27 120 82 82 121 6 6 121 90 90 121 43 43 122 7 7 122 50 50 122 67 67 123 4 4 123 74 74 123 75 75 124 69 69 124 30 30 124 91 91 125 86 86 125 31 31 125 51 51 126 47 47 126 32 32 126 58 58 127 20 20 127 63 63 127 59 59 128 9 9 128 64 64 128 92 92 129 87 87 129 35 35 129 49 49 130 11 11 130 52 52 130 76 76 131 71 71 131 37 37 131 77 77 132 68 68 132 38 38 132 84 84 133 17 17 133 93 93 133 44 44 134 22 22 134 53 53 134 65 65 135 56 56 135 41 41 135 21 21 136 41 41 136 48 48 136 33 33 137 50 50 137 23 23 137 37 37 138 53 53 138 0 0 138 83 83 139 94 94 139 3 3 139 67 67 140 78 78 140 4 4 140 8 8 141 26 26 141 44 44 141 15 15 142 70 70 142 45 45 142 14 14 143 86 86 143 46 46 143 20 20 144 43 43 144 33 33 144 26 26 145 4 4 145 51 51 145 41 41 146 23 23 146 52 52 146 37 37 147 8 8 147 53 53 147 40 40 148 64 64 148 19 19 148 88 88 149 96 96 149 21 21 149 18 18 150 72 72 150 54 54 150 22 22 151 32 32 151 59 59 151 24 24 152 73 73 152 60 60 152 89 89 153 97 97 153 25 25 153 2 2 154 35 35 154 55 55 154 28 28 155 63 63 155 10 10 155 32 32 156 18 18 156 62 62 156 6 6 157 58 58 157 28 28 157 22 22 158 59 59 158 40 40 158 35 35 159 10 10 159 65 65 159 15 15 160 39 39 160 70 70 160 80 80 161 61 61 161 69 69 161 17 17 162 31 31 162 71 71 162 34 34 163 77 77 163 1 1 163 57 57 164 1 1 164 81 81 164 9 9 165 27 27 165 68 68 165 46 46 166 25 25 166 78 78 166 79 79 167 42 42 167 73 73 167 14 14 168 67 67 168 31 31 168 27 27 169 5 5 169 75 75 169 39 39 170 17 17 170 76 76 170 34 34 171 9 9 171 77 77 171 14 14 172 46 46 172 67 67 172 70 70 173 0 0 173 79 79 173 72 72 174 25 25 174 80 80 174 73 73 175 19 19 175 81 81 175 38 38 176 92 92 176 13 13 176 60 60 177 13 13 177 96 96 177 30 30 178 90 90 178 16 16 178 36 36 179 93 93 179 3 3 179 58 58 180 6 6 180 97 97 180 29 29 181 91 91 181 11 11 181 45 45 182 24 24 182 94 94 182 43 43 183 20 20 183 95 95 183 12 12 184 82 82 184 30 30 184 29 29 185 7 7 185 91 91 185 16 16 186 87 87 186 38 38 186 11 11 187 84 84 187 36 36 187 15 15 188 45 45 188 83 83 188 86 86 189 7 7 189 95 95 189 24 24 190 60 60 190 88 88 190 20 20 191 58 58 191 89 89 191</p>
                </triangles>
            </mesh>
        </geometry>
    </library_geometries>
    <library_visual_scenes>
        <visual_scene id="VisualSceneNode" name="VisualScene">
            <node id="node" name="node">
                <instance_geometry url="#shape0-lib"/>
            </node>
        </visual_scene>
    </library_visual_scenes>
    <scene>
        <instance_visual_scene url="#VisualSceneNode"/>
    </scene>
</COLLADA>
