<?xml version="1.0" encoding="utf-8"?>
<COLLADA xmlns="http://www.collada.org/2005/11/COLLADASchema" version="1.4.1">
  <asset>
    <contributor>
      <author>Blender User</author>
      <authoring_tool>Blender 2.76.0 commit date:2015-11-03, commit time:10:56, hash:f337fea</authoring_tool>
    </contributor>
    <created>2016-11-13T17:55:49</created>
    <modified>2016-11-13T17:55:49</modified>
    <unit name="meter" meter="1"/>
    <up_axis>Z_UP</up_axis>
  </asset>
  <library_images/>
  <library_geometries>
    <geometry id="shape0_055-mesh" name="shape0.055">
      <mesh>
        <source id="shape0_055-mesh-positions">
          <float_array id="shape0_055-mesh-positions-array" count="1365">-27.7012 18.6832 2.344413 -27.7146 18.8961 2.343603 -28.0452 18.8893 0.1785479 -27.6755 18.6713 2.471873 -27.4218 18.554 3.728293 -26.9963 17.9634 5.710742 -27.0555 18.9124 5.709672 -26.8383 17.7843 6.315672 -26.5338 17.4394 7.481243 -26.1465 16.6987 8.886572 -26.2845 18.9339 8.889762 -25.6451 15.8922 10.4234 -25.477 15.6218 10.9386 -25.1561 14.8652 11.8713 -25.4062 18.9602 11.887 -24.3186 13.1701 13.9674 -24.2795 13.0588 14.0597 -24.0674 13.0655 14.6684 -24.4248 18.9913 14.7045 -23.9798 12.4085 14.6009 -22.9924 13.1009 17.2969 -22.8286 10.1896 16.4528 -22.5181 9.409268 16.8746 -23.3449 19.027 17.34551 -21.8237 13.1407 19.7526 -21.3555 6.783036 18.2976 -20.8511 5.251845 18.765 -20.5657 13.1847 22.039 -20.0637 3.076936 19.4303 -19.8662 2.275846 19.5083 -19.2841 2.296176 20.5662 -22.1708 19.0669 19.8131 -19.2228 13.2326 24.1591 -18.0058 2.341765 22.5843 -20.9071 19.1111 22.11041 -19.0422 1.024467 19.6349 -17.7977 13.28419 26.1333 -19.558 19.1592 24.2407 -17.3602 -1.394433 19.7477 -18.8067 0.7023776 19.6677 -17.7552 -0.7357261 19.8142 -16.6492 2.390945 24.4639 -18.1258 19.2111 26.23011 -16.591 -2.558622 19.6303 -16.2967 13.3391 28.0647 -15.6705 -3.952022 19.4896 -16.6219 19.2661 28.1693 -15.2204 2.443186 26.3023 -15.2597 -4.538443 19.4305 -14.1702 -6.582332 18.796 -14.7938 13.3942 29.9443 -13.7898 2.495645 28.0916 -13.9467 -7.001641 18.6659 -15.1114 19.32149 30.057 -13.2913 13.44949 31.7491 -12.3595 2.548314 29.8096 -12.611 -7.717801 19.5924 -13.538 -7.751791 18.433 -10.9182 2.601724 31.4357 -13.6013 19.37709 31.8694 -11.3783 -7.672401 21.0731 -12.8232 -8.191171 18.2932 -12.5464 -8.386301 18.1836 -11.7772 13.50559 33.45739 -10.1361 -7.626382 22.4746 -12.0795 19.4335 33.58489 -11.2844 -9.241211 17.7028 -12.3846 -8.495902 18.122 -9.454387 2.656374 32.94919 -8.874597 -7.579272 23.779 -10.0813 -10.0055 17.2716 -10.9186 -9.473566 17.5717 -10.2396 13.56309 35.04729 -10.534 19.49119 35.1814 -8.918787 -10.6791 16.89 -9.541426 -10.3183 17.0944 -8.666232 13.62239 36.4971 -7.583817 -7.530632 24.9685 -8.226437 -11.0329 16.6882 -7.956707 2.712813 34.32929 -8.952776 19.5508 36.63721 -7.779036 -11.2616 16.5578 -7.045289 13.68409 37.785 -6.413679 2.771563 35.55519 -7.323668 19.6128 37.93029 -7.398386 -11.4263 16.4629 -6.941668 -11.6685 16.2501 -6.253979 -7.480002 26.0252 -5.364687 13.74879 38.88929 -4.813848 2.833163 36.60639 -6.650979 -11.8227 16.1147 -3.61242 13.81699 39.78809 -3.1458 2.898113 37.462 -5.634609 19.6778 39.03889 -4.875177 -7.426912 26.9312 -5.667459 -12.2424 15.7408 -1.77646 13.88929 40.4598 -3.87354 19.7464 39.9412 -3.43759 -7.370933 27.6686 -5.518397 -12.306 15.6841 -1.39809 2.966963 38.10129 -2.02839 19.81909 40.615 -1.93133 -7.311592 28.2196 -4.35961 -12.675 15.347 -4.397229 -12.663 15.3579 0.1552029 13.96629 40.8824 0.440728 3.040243 38.5037 -0.08707726 19.89649 41.03879 -3.11801 -12.763 15.4899 -3.81064 -12.7902 15.2365 2.23552 14.05019 41.03019 -0.346557 -7.248443 28.5665 -1.78649 -12.7099 15.7813 -3.16322 -12.8666 15.1553 2.42144 3.120073 38.64429 2.01704 19.98129 41.185 1.35992 -7.179673 28.6877 -1.89951 -12.9307 15.067 -3.13276 -12.8682 15.1532 4.635 14.14789 40.85639 4.4003 20.07839 41.00951 -0.352572 -12.6521 15.8831 -1.82933 -12.9298 15.0658 4.70477 3.213103 38.47879 3.32903 -7.099433 28.5451 1.30157 -12.5847 15.7633 -0.506703 -12.9122 15.0433 6.858589 3.301883 37.9897 6.89751 14.24119 40.34259 1.15885 -12.7929 15.095 -0.4105439 -12.9053 15.0462 5.185237 -7.022923 28.1236 8.815427 3.383593 37.20509 6.674209 20.17208 40.4948 2.79452 -12.581 15.2241 2.86112 -12.5204 15.4091 8.953207 14.32699 39.51829 2.81658 -12.5781 15.2258 6.871767 -6.952504 27.4473 10.5908 3.458743 36.16009 8.740306 20.25839 39.66809 3.19728 -12.5064 15.2743 10.8182 14.40599 38.42049 4.41859 -12.163 15.5236 8.401821 -6.887732 26.5465 12.1999 3.527863 34.8898 10.6148 20.33769 38.5666 4.529627 -12.1214 15.5548 12.5085 14.47859 37.086 5.992259 -11.5734 15.9661 9.788607 -6.828173 25.4517 13.6581 3.591443 33.42939 12.3138 20.41069 37.22729 6.304139 -11.4291 16.0764 14.0403 14.54539 35.55179 7.565127 -10.8458 16.5226 14.9808 3.650014 31.814 13.8536 20.4778 35.6874 7.615909 -10.8182 16.5439 8.097277 -10.5867 16.6606 11.0454 -6.773363 24.1929 15.4298 14.60689 33.85469 8.820671 -10.1969 16.8585 12.1853 -6.722893 22.8006 16.1832 3.704074 30.0787 15.2502 20.53969 33.98379 9.84428 -9.69555 17.1116 16.693 14.66369 32.03179 10.941 -9.039772 17.4466 13.2216 -6.676291 21.305 17.2808 3.754154 28.2587 16.52 20.59679 32.15369 11.6403 -8.650505 17.6447 17.8459 14.7163 30.1198 13.1972 -7.641021 18.1625 14.1675 -6.633131 19.7363 18.2888 3.800755 26.389 17.6792 20.64959 30.23421 13.4975 -7.456391 18.2569 18.9049 14.7652 28.1557 13.7012 -7.322751 18.3255 19.2226 3.844395 24.505 18.7437 20.69879 28.26241 14.0154 -7.104091 18.4381 14.7877 -6.604462 18.5859 15.64 -5.087721 19.045 19.8858 14.8111 26.1765 16.6511 -3.245912 19.6028 17.1875 -2.414392 19.6881 20.1304 3.887165 22.5557 20.8391 14.856 24.1295 19.73 20.74489 26.2752 18.2185 -0.767436 19.8569 21.1675 3.936556 20.1669 19.152 0.7591816 20.0135 20.6631 2.942936 19.8198 21.929 14.9079 21.6192 20.6996 20.79059 24.1908 20.8521 3.210996 19.796 22.4214 8.755765 18.4281 22.8772 14.9538 19.1822 21.3372 3.944776 19.7307 21.4649 4.759036 19.6545 22.3562 8.55356 18.5335 23.4327 12.2033 16.5886 23.6472 14.9921 16.9 23.3784 12.0612 16.7022 21.7773 20.842 21.7029 24.2215 14.561 14.6981 24.2583 15.0234 14.7453 22.7308 20.88809 19.25341 24.3554 15.0287 14.3222 23.5052 20.92659 16.95911 24.12 20.95819 14.7932 24.3741 15.1424 14.2303 24.6199 16.1128 13.0698 24.6984 16.4221 12.6999 24.5945 20.98369 12.7283 24.8879 17.4137 11.5106 24.9358 17.6638 11.2108 25.0167 17.9298 10.7237 24.9479 21.00419 10.7374 25.1503 18.5463 9.590502 25.1998 21.02039 8.793334 25.2447 18.9831 8.787742 25.3606 19.6823 7.302272 25.3694 21.03319 6.868863 25.3231 19.5398 7.761182 25.3958 19.8172 6.867622 25.4787 20.34379 5.163543 25.476 21.04339 4.936902 25.4896 20.4137 4.937333 25.5419 20.79679 3.054903 25.5391 21.052 2.970283 25.5132 20.69809 4.014052 25.5444 20.80539 2.970873 25.5788 21.01149 0.9584835 25.5781 21.0599 0.9418464 25.5791 21.01319 0.9420474 25.5766 21.0613 0.4679684 4.4003 20.07839 41.00951 6.674209 20.17208 40.4948 8.740306 20.25839 39.66809 13.8536 20.4778 35.6874 12.3138 20.41069 37.22729 19.73 20.74489 26.2752 10.6148 20.33769 38.5666 17.6792 20.64959 30.23421 -16.6219 19.2661 28.1693 16.52 20.59679 32.15369 18.7437 20.69879 28.26241 25.5391 21.052 2.970283 -8.952776 19.5508 36.63721 15.2502 20.53969 33.98379 -9.0557 19.6585 0.2810432 -27.7062 18.9031 0.180378 24.9479 21.00419 10.7374 -13.6013 19.37709 31.8694 -2.02839 19.81909 40.615 24.9576 21.03619 0.4647144 -27.9548 18.893 0.179036 -25.4062 18.9602 11.887 25.476 21.04339 4.936902 22.7308 20.88809 19.25341 -15.1114 19.32149 30.057 -12.0795 19.4335 33.58489 -5.634609 19.6778 39.03889 2.01704 19.98129 41.185 24.9937 21.03759 0.4649254 -28.016 18.8905 0.178705 -27.0555 18.9124 5.709672 -22.1708 19.0669 19.8131 25.1998 21.02039 8.793334 24.12 20.95819 14.7932 21.7773 20.842 21.7029 -10.534 19.49119 35.1814 -7.323668 19.6128 37.93029 -3.87354 19.7464 39.9412 -0.08707726 19.89649 41.03879 25.224 21.047 0.4662474 -28.0452 18.8893 0.1785479 -27.7146 18.8961 2.343603 -26.2845 18.9339 8.889762 -19.558 19.1592 24.2407 -24.4248 18.9913 14.7045 25.3694 21.03319 6.868863 23.5052 20.92659 16.95911 24.5945 20.98369 12.7283 20.6996 20.79059 24.1908 25.4729 21.0571 0.4674084 -18.1258 19.2111 26.23011 -20.9071 19.1111 22.11041 -23.3449 19.027 17.34551 25.5571 21.06049 0.4678635 25.5781 21.0599 0.9418464 25.5766 21.0613 0.4679684 -19.8662 2.275846 19.5083 -19.2841 2.296176 20.5662 -18.0058 2.341765 22.5843 -16.6492 2.390945 24.4639 -15.2204 2.443186 26.3023 -13.7898 2.495645 28.0916 -12.3595 2.548314 29.8096 -12.611 -7.717801 19.5924 -11.3783 -7.672401 21.0731 -13.538 -7.751791 18.433 -10.9182 2.601724 31.4357 -10.1361 -7.626382 22.4746 -9.454387 2.656374 32.94919 -8.874597 -7.579272 23.779 -7.583817 -7.530632 24.9685 -7.956707 2.712813 34.32929 -6.253979 -7.480002 26.0252 -6.413679 2.771563 35.55519 -4.813848 2.833163 36.60639 -4.875177 -7.426912 26.9312 -3.1458 2.898113 37.462 -3.43759 -7.370933 27.6686 -1.39809 2.966963 38.10129 -1.93133 -7.311592 28.2196 0.440728 3.040243 38.5037 -0.346557 -7.248443 28.5665 2.42144 3.120073 38.64429 1.35992 -7.179673 28.6877 4.70477 3.213103 38.47879 3.32903 -7.099433 28.5451 6.858589 3.301883 37.9897 5.185237 -7.022923 28.1236 8.815427 3.383593 37.20509 6.871767 -6.952504 27.4473 10.5908 3.458743 36.16009 8.401821 -6.887732 26.5465 12.1999 3.527863 34.8898 9.788607 -6.828173 25.4517 13.6581 3.591443 33.42939 14.9808 3.650014 31.814 11.0454 -6.773363 24.1929 12.1853 -6.722893 22.8006 16.1832 3.704074 30.0787 13.2216 -6.676291 21.305 17.2808 3.754154 28.2587 14.1675 -6.633131 19.7363 18.2888 3.800755 26.389 19.2226 3.844395 24.505 14.7877 -6.604462 18.5859 20.1304 3.887165 22.5557 21.1675 3.936556 20.1669 21.3372 3.944776 19.7307 -5.364687 13.74879 38.88929 -3.61242 13.81699 39.78809 -1.77646 13.88929 40.4598 0.1552029 13.96629 40.8824 2.23552 14.05019 41.03019 4.635 14.14789 40.85639 6.89751 14.24119 40.34259 8.953207 14.32699 39.51829 10.8182 14.40599 38.42049 12.5085 14.47859 37.086 14.0403 14.54539 35.55179 -28.0452 18.8893 0.1785479 -27.7012 18.6832 2.344413 -26.8383 17.7843 6.315672 -26.5338 17.4394 7.481243 -26.1465 16.6987 8.886572 -25.6451 15.8922 10.4234 -25.477 15.6218 10.9386 -25.1561 14.8652 11.8713 -16.591 -2.558622 19.6303 -15.6705 -3.952022 19.4896 -15.2597 -4.538443 19.4305 -15.2597 -4.538443 19.4305 -14.1702 -6.582332 18.796 -13.9467 -7.001641 18.6659 -13.538 -7.751791 18.433 -12.8232 -8.191171 18.2932 -12.8232 -8.191171 18.2932 -12.5464 -8.386301 18.1836 -12.3846 -8.495902 18.122 -11.2844 -9.241211 17.7028 -10.9186 -9.473566 17.5717 -10.0813 -10.0055 17.2716 -9.541426 -10.3183 17.0944 -8.918787 -10.6791 16.89 -8.226437 -11.0329 16.6882 -7.779036 -11.2616 16.5578 -7.398386 -11.4263 16.4629 -7.398386 -11.4263 16.4629 -6.941668 -11.6685 16.2501 -6.650979 -11.8227 16.1147 -5.667459 -12.2424 15.7408 -5.518397 -12.306 15.6841 -4.397229 -12.663 15.3579 -4.35961 -12.675 15.347 -3.81064 -12.7902 15.2365 -3.16322 -12.8666 15.1553 -3.13276 -12.8682 15.1532 -1.89951 -12.9307 15.067 -1.82933 -12.9298 15.0658 -0.506703 -12.9122 15.0433 -0.4105439 -12.9053 15.0462 1.15885 -12.7929 15.095 2.79452 -12.581 15.2241 2.81658 -12.5781 15.2258 3.19728 -12.5064 15.2743 4.41859 -12.163 15.5236 4.529627 -12.1214 15.5548 5.992259 -11.5734 15.9661 6.304139 -11.4291 16.0764 7.565127 -10.8458 16.5226 7.565127 -10.8458 16.5226 7.615909 -10.8182 16.5439 8.097277 -10.5867 16.6606 8.097277 -10.5867 16.6606 8.820671 -10.1969 16.8585 8.820671 -10.1969 16.8585 9.84428 -9.69555 17.1116 9.84428 -9.69555 17.1116 10.941 -9.039772 17.4466 10.941 -9.039772 17.4466 11.6403 -8.650505 17.6447 11.6403 -8.650505 17.6447 13.1972 -7.641021 18.1625 13.1972 -7.641021 18.1625 13.4975 -7.456391 18.2569 13.4975 -7.456391 18.2569 13.7012 -7.322751 18.3255 13.7012 -7.322751 18.3255 14.0154 -7.104091 18.4381 14.0154 -7.104091 18.4381 14.0154 -7.104091 18.4381 14.7877 -6.604462 18.5859 16.6511 -3.245912 19.6028 16.6511 -3.245912 19.6028 17.1875 -2.414392 19.6881 18.2185 -0.767436 19.8569 19.152 0.7591816 20.0135 19.152 0.7591816 20.0135 21.4649 4.759036 19.6545 21.4649 4.759036 19.6545 22.3562 8.55356 18.5335 22.3562 8.55356 18.5335 24.6984 16.4221 12.6999 24.8879 17.4137 11.5106 25.0167 17.9298 10.7237 25.1503 18.5463 9.590502 23.3784 12.0612 16.7022 23.3784 12.0612 16.7022 -22.8286 10.1896 16.4528 -22.8286 10.1896 16.4528 -21.3555 6.783036 18.2976 -21.3555 6.783036 18.2976 -20.0637 3.076936 19.4303 -20.0637 3.076936 19.4303 -17.7552 -0.7357261 19.8142 -17.7552 -0.7357261 19.8142</float_array>
          <technique_common>
            <accessor source="#shape0_055-mesh-positions-array" count="455" stride="3">
              <param name="X" type="float"/>
              <param name="Y" type="float"/>
              <param name="Z" type="float"/>
            </accessor>
          </technique_common>
        </source>
        <source id="shape0_055-mesh-normals">
          <float_array id="shape0_055-mesh-normals-array" count="1398">-0.9866414 -0.0615006 0.1508529 -0.9795386 -0.06092882 0.1918123 -0.9794898 -0.06085395 0.1920846 -0.9700009 -0.06024414 0.2355181 -0.969987 -0.06022167 0.2355813 -0.9577884 -0.05953484 0.2812422 -0.9577953 -0.05957543 0.28121 -0.9425139 -0.058824 0.3289487 -0.9319413 -0.1578039 0.3264709 -0.923748 -0.05805253 0.3785755 -0.9128563 -0.160295 0.3754982 -0.8898426 -0.1630747 0.4261302 -0.9011216 -0.05716639 0.4297813 -0.8626039 -0.1661651 0.4778114 -0.8308291 -0.1694912 0.5300904 -0.8743489 -0.05613213 0.4820408 -0.7720718 -0.4645043 0.433752 -0.7965138 -0.1727882 0.5794049 -0.8429915 -0.05504626 0.5351032 -0.7326799 -0.4872999 0.4750991 -0.7326463 -0.4873211 0.4751291 -0.8096948 -0.05436748 0.5843274 -0.6916977 -0.5087079 0.5126116 -0.7750076 -0.1747803 0.6073016 -0.6917355 -0.5086995 0.512569 -0.7877147 -0.05363088 0.6137015 0.6669467 0.5209205 -0.5327514 -0.7663859 -0.1756483 0.6179 -0.6667708 -0.5208762 0.5330148 -0.7791275 -0.05377089 0.6245551 -0.7537094 -0.1770261 0.632917 -0.6436961 -0.5299107 0.5521324 -0.656831 -0.5256667 0.5405992 -0.7332825 -0.1793636 0.6558396 -0.7663856 -0.05307286 0.6401848 -0.621188 -0.5395934 0.5682997 0.4328112 0.821932 -0.3702734 -0.7033932 -0.1827719 0.6869006 -0.588632 -0.5534303 0.5892601 -0.7464739 -0.05250108 0.6633403 -0.4183769 -0.8278399 0.3736869 -0.4185113 -0.8278013 0.3736222 -0.39594 -0.8366825 0.3784101 -0.3958474 -0.8367105 0.3784446 -0.7034114 -0.1827747 0.6868813 -0.5444875 -0.5712126 0.6142064 -0.7169442 -0.0515148 0.6952246 -0.3653146 -0.8480244 0.3839271 -0.3653283 -0.8480236 0.3839157 -0.6618338 -0.1872835 0.7258794 -0.3265119 -0.8611674 0.3895905 -0.6754591 -0.05003499 0.735698 -0.326564 -0.8611508 0.3895838 -0.4873549 -0.5922074 0.6416974 -0.6058769 -0.1927755 0.7718489 -0.6202209 -0.0484814 0.7829277 0.2803386 0.8751329 -0.394402 -0.5328012 -0.1989096 0.8225314 -0.4163106 -0.6150727 0.6696051 -0.2802847 -0.8750337 0.39466 -0.4403682 -0.2050306 0.8740928 -0.5468944 -0.04598999 0.8359375 -0.3317039 -0.6378226 0.6950935 -0.2276716 -0.8884853 0.3984467 -0.3285387 -0.2102028 0.9208024 -0.4542465 -0.04298043 0.8898386 -0.2356514 -0.6581246 0.7150807 -0.2276104 -0.8884974 0.3984547 -0.3414 -0.03908365 0.9391052 -0.1702898 -0.9004055 0.4003393 -0.17023 -0.9004151 0.4003428 -0.2007292 -0.2134122 0.9561188 -0.1322817 -0.6738191 0.726959 -0.2122737 -0.03457921 0.9765983 -0.05179369 -0.9136623 0.4031608 -0.1105172 -0.9098562 0.3999346 -0.06058609 -0.2138469 0.9749866 -0.02427583 -0.6834674 0.7295774 -0.07394576 -0.9497782 0.3040617 -0.06814742 -0.02853924 0.997267 0.008704364 -0.9172584 0.3981977 -0.02743613 -0.9538037 0.2991753 -0.02946442 -0.9537153 0.2992641 0.07921802 -0.2113082 0.974204 0.08000713 -0.6970505 0.7125443 0.0731672 -0.02332812 0.9970469 0.06572848 -0.9180074 0.3910781 0.01725876 -0.9560219 0.2927873 0.01774603 -0.9559996 0.2928308 0.2247787 -0.2056633 0.9524586 0.08004456 -0.6970467 0.7125439 0.2220787 -0.01665681 0.9748865 0.06538105 -0.920704 0.384746 0.05963832 -0.9565879 0.2852771 0.06003534 -0.9565718 0.2852476 0.1864564 -0.6943768 0.6950359 0.3719642 -0.1964505 0.907221 0.1229907 -0.9188981 0.374833 0.1021444 -0.9556364 0.2762708 0.2957254 -0.684582 0.6662538 0.3725239 -0.01006489 0.927968 0.1245249 -0.9157143 0.3820484 0.1044492 -0.9556327 0.2754209 0.2993327 -0.6729736 0.6763923 0.504328 -0.1846509 0.8435386 0.1458184 -0.9532613 0.2646316 0.5073928 -0.003825724 0.8617064 0.1831662 -0.9140989 0.3617644 0.4028611 -0.6571898 0.6370279 0.6149623 -0.1716839 0.7696402 0.2422063 -0.9063452 0.346229 0.6196133 0.001640915 0.7849056 0.2422166 -0.9063443 0.3462242 0.4944768 -0.6366786 0.5917204 0.7020925 -0.1589857 0.6941108 0.2981551 -0.8960529 0.328927 0.7075118 0.006113469 0.7066752 0.2980965 -0.8960635 0.3289509 0.5718683 -0.6138262 0.5442281 0.7678638 -0.1475701 0.6233847 0.3497683 -0.8838536 0.3105883 0.7735359 0.009627878 0.6336794 0.3916323 -0.8735674 0.2889709 0.6345493 -0.5909727 0.4980951 0.8161079 -0.1379712 0.5611881 0.3535977 -0.8808478 0.3147631 0.8217012 0.0122531 0.5697869 0.431275 -0.8602347 0.2720264 0.6835891 -0.5699672 0.4558985 0.8506061 -0.1303315 0.5093948 0.3993633 -0.8678476 0.2955493 0.8561085 0.01409149 0.516604 0.4642834 -0.8476915 0.256632 0.7206764 -0.5520494 0.4193652 0.8746591 -0.1246278 0.4684437 0.4385005 -0.8549263 0.2771614 0.8799438 0.01536655 0.4748293 0.4674561 -0.8453162 0.2586997 0.748096 -0.5407425 0.3846427 0.8905409 -0.1207036 0.4385973 -0.4931622 0.8347627 -0.2448718 0.8957315 0.01612824 0.4443029 -0.7641929 0.5305802 -0.3667342 0.9011644 -0.1180679 0.4170885 0.7772634 -0.5224965 0.3505128 0.9120231 -0.1153998 0.3935693 0.9062439 0.01693916 0.4224159 0.7892077 -0.5166639 0.3319786 0.7795804 -0.5184863 0.3513212 0.9267368 -0.1118647 0.3586715 0.9169948 0.01782095 0.3985011 0.8068516 -0.5063176 0.3043567 0.9425492 -0.1077835 0.3162022 0.9316627 0.0186302 0.3628464 0.9572595 -0.1037446 0.2699838 0.9472437 0.01947897 0.3199218 0.9700669 -0.09980791 0.2213792 0.9617827 0.02020919 0.2730671 0.9743822 0.02089899 0.2239254 0.9743323 0.02079564 0.2241522 0.9844011 0.02133369 0.1746408 0.984324 0.0212472 0.1750848 0.9914549 0.02161604 0.1286466 0.9915032 0.02149879 0.1282939 0.995893 0.02165085 0.08791106 0.9959459 0.02153271 0.08733958 0.998239 0.02173101 0.05519539 0.9982652 0.02159219 0.05477684 0.9992471 0.02171087 0.03215485 0.9992579 0.0215277 0.03194159 0.9995915 0.02107894 0.01930207 0.9995598 0.02150946 0.02043443 0.9997663 0.02139592 -0.003103792 -0.04048299 0.9991754 0.003116965 -0.040488 0.9991753 0.003093779 -0.04054117 0.9991732 0.003100812 -0.03876435 0.9992447 0.002712368 -0.04071241 0.9991661 0.003114521 -0.04080605 0.9991623 0.003138422 -0.0398299 0.9992021 0.00296694 -0.0405578 0.9991724 0.003108561 -0.04034996 0.9991809 0.003102183 -0.04106569 0.9991518 0.003080844 0.04080873 -0.9940382 -0.1011078 0.0408082 -0.9940449 -0.1010423 0.04027366 -0.9551986 -0.2932127 0.04027169 -0.9551864 -0.2932528 0.03818857 -0.8796324 -0.4741188 0.0381897 -0.8796602 -0.4740669 0.03600472 -0.8383481 -0.5439451 0.03463852 -0.7703043 -0.6367351 0.03456604 -0.7639026 -0.6444053 0.02975428 -0.6313226 -0.7749495 0.02372759 -0.4681046 -0.8833545 0.01679199 -0.2869065 -0.9578115 0.009208917 -0.09467154 -0.995466 0.001264691 0.1012794 -0.9948573 0.001270473 0.101171 -0.9948683 0.001272678 0.1012334 -0.9948619 -0.006713569 0.2931913 -0.9560303 -0.01450401 0.4753407 -0.8796823 -0.01433968 0.4737882 -0.8805221 -0.006810724 0.293115 -0.956053 0.009213685 -0.09465169 -0.9954679 -0.01423501 0.4741819 -0.8803119 -0.02156317 0.6362838 -0.7711537 0.01433968 -0.4737882 0.8805221 -0.006711363 0.2931939 -0.9560294 -0.9794867 -0.06088405 0.1920912 -0.9794908 -0.06075817 0.1921102 -0.9699882 -0.06022059 0.2355771 -0.9699867 -0.06020396 0.2355871 -0.957801 -0.05956059 0.2811935 -0.9577881 -0.05958378 0.2812325 -0.9425082 -0.05884897 0.3289607 -0.9424998 -0.05885183 0.3289843 -0.9425144 -0.05824369 0.3290506 -0.9237759 -0.05802059 0.3785128 -0.912851 -0.1602411 0.3755339 -0.9128724 -0.1602299 0.3754869 -0.8898478 -0.1630547 0.4261271 -0.8898599 -0.163049 0.426104 -0.9011607 -0.05712842 0.4297044 -0.862614 -0.1661584 0.4777956 -0.8625972 -0.1661229 0.4778382 -0.8625993 -0.1661396 0.4778286 -0.8308298 -0.1694917 0.5300892 -0.874298 -0.05617445 0.4821281 -0.7964756 -0.1727772 0.5794606 -0.842947 -0.05500769 0.5351771 -0.7326707 -0.487309 0.4751038 -0.7326608 -0.4873192 0.4751086 -0.808974 -0.05381411 0.5853762 -0.7750226 -0.1747836 0.6072815 -0.6916964 -0.5087095 0.5126118 -0.7883131 -0.05406844 0.6128939 -0.6667799 -0.5208765 0.533003 -0.7663667 -0.1756439 0.617925 -0.6669554 -0.5208154 0.5328432 -0.7789096 -0.05361664 0.6248401 -0.7537224 -0.1770297 0.6329007 -0.6556654 -0.528034 0.5397065 -0.6568278 -0.5256902 0.5405804 -0.7666426 -0.05324506 0.6398626 -0.6405222 -0.5362491 0.5496984 -0.432848 -0.8219535 0.3701825 -0.7332935 -0.1793661 0.6558265 -0.6167353 -0.5484509 0.5646584 -0.7461983 -0.05232769 0.6636641 -0.4184309 -0.8278328 0.3736425 -0.3959127 -0.8366891 0.3784236 -0.5829389 -0.5647109 0.5841951 -0.7166169 -0.05132299 0.6955761 -0.3653667 -0.8480106 0.3839077 -0.6618224 -0.1872816 0.7258902 -0.6757624 -0.05019557 0.7354086 -0.3266499 -0.8611282 0.3895615 -0.5377138 -0.5847073 0.6074383 -0.6059069 -0.1927798 0.7718244 -0.6198445 -0.04829913 0.7832369 -0.280186 -0.8750577 0.3946768 -0.5328101 -0.1989105 0.8225255 -0.479743 -0.6076186 0.6329663 -0.2803416 -0.8750209 0.3946479 -0.4403756 -0.2050304 0.8740892 -0.5473158 -0.04617798 0.8356513 -0.408431 -0.6319782 0.6586257 -0.3285992 -0.2102108 0.9207791 -0.4546405 -0.04314512 0.8896295 -0.3241909 -0.6557737 0.6818073 -0.2275327 -0.8885121 0.3984659 -0.3419514 -0.03930222 0.9388955 -0.1712024 -0.9002736 0.4002466 -0.2006723 -0.2134029 0.9561328 -0.2292782 -0.6766662 0.6996817 -0.2118455 -0.03441369 0.9766971 -0.108446 -0.9123806 0.3947165 -0.1104965 -0.9099638 0.3996955 -0.06064134 -0.2138569 0.974981 -0.1276549 -0.6929921 0.7095535 -0.06966948 -0.02914422 0.9971444 -0.04908275 -0.9188686 0.3914993 -0.0274232 -0.9537941 0.299207 0.07916814 -0.2113209 0.9742053 -0.02315509 -0.6936076 0.7199808 0.0743398 -0.02279722 0.9969724 0.009779334 -0.9225445 0.3857668 0.01770234 -0.9560214 0.2927622 0.2247656 -0.2056617 0.952462 0.2213853 -0.01641196 0.9750484 0.05963999 -0.9565871 0.2852792 0.1864451 -0.6943772 0.6950386 0.3719722 -0.1964536 0.9072171 0.1020348 -0.9557399 0.2759534 0.3718272 -0.009821832 0.92825 0.1809332 -0.916907 0.3557313 0.3937366 -0.6785289 0.6201372 0.5043505 -0.1846532 0.8435248 0.5067358 -0.003583729 0.862094 0.1831592 -0.9140782 0.3618201 0.484465 -0.6567161 0.5779426 0.6149905 -0.1716862 0.7696173 0.2422914 -0.9063354 0.3461952 0.6190199 0.001881957 0.7853731 0.5618593 -0.6322249 0.5334845 0.7021148 -0.1589874 0.6940878 0.2982674 -0.8960352 0.3288732 0.7069779 0.006358861 0.7072071 0.6253097 -0.6073724 0.4899865 0.7678849 -0.1475727 0.6233581 0.349665 -0.883883 0.3106209 0.3500723 -0.883778 0.3104608 0.7731353 0.009835779 0.634165 0.3916704 -0.87356 0.2889422 0.6756053 -0.5840511 0.4499354 0.8160877 -0.1379683 0.561218 0.8213556 0.01245504 0.5702806 0.4312831 -0.8602325 0.27202 0.714133 -0.563603 0.4151694 0.8506419 -0.1303365 0.5093336 0.8557494 0.01432663 0.5171921 0.464285 -0.8476908 0.2566315 0.7425925 -0.5468114 0.3867217 0.8746385 -0.1246245 0.468483 0.8796878 0.01555031 0.4752976 0.7642832 -0.5305953 0.3665241 0.747524 -0.5379811 0.3895951 0.8905568 -0.1207069 0.4385642 0.493119 -0.8347376 0.2450451 0.8954703 0.01632702 0.4448217 0.7642921 -0.5305912 0.3665114 0.901165 -0.1180682 0.4170874 0.7772654 -0.5224955 0.3505099 0.9120165 -0.115397 0.3935857 0.9064342 0.01678061 0.4220137 0.7892445 -0.5166139 0.3319686 0.7892273 -0.51665 0.3319537 0.9268242 -0.1118045 0.3584644 0.9268128 -0.1117753 0.358503 0.9268087 -0.1117865 0.3585101 0.9268137 -0.111783 0.3584982 0.9173367 0.01745527 0.3977297 0.9425482 -0.1077864 0.3162042 0.9426906 -0.1077672 0.315786 0.9316049 0.01869553 0.3629915 0.957255 -0.1037746 0.2699887 0.9472032 0.01952707 0.3200389 0.9617198 0.02028924 0.2732828 0.9743964 0.02090567 0.2238629 0.9743961 0.02071446 0.2238821 0.9743308 0.02079689 0.2241586 0.9843489 0.02122926 0.1749476 0.9843453 0.02121889 0.1749693 0.9914548 0.0216149 0.128648 0.9958989 0.02170944 0.08783042 0.9958692 0.02179598 0.08814537 0.9982391 0.02161544 0.05524164 0.9992481 0.02160793 0.03219455 0.9992502 0.02161455 0.03212422 0.9995816 0.02155023 0.01929259 -0.04043859 0.9991768 0.003249406 -0.04046863 0.9991767 0.002896726 -0.04050111 0.9991747 0.00311917 -0.04048639 0.9991754 0.003103673 -0.04048895 0.9991753 0.003062129 -0.04048693 0.9991754 0.003059506 -0.04048299 0.9991756 0.003075182 -0.04048609 0.9991754 0.003074884 -0.04048621 0.9991755 0.003072798 -0.04048901 0.9991753 0.003079295 -0.04049587 0.999175 0.003099203 -0.04049259 0.9991752 0.003083109 -0.04047161 0.9991762 0.003050386 -0.04048568 0.9991755 0.003073215 -0.04048627 0.9991754 0.003076612 -0.04048818 0.9991753 0.003078639 -0.04048794 0.9991754 0.003058254 -0.04051399 0.9991745 0.002990603 -0.04048448 0.9991756 0.003035426 -0.0404877 0.9991754 0.003063857 -0.04048711 0.9991753 0.00308609 -0.04048645 0.9991754 0.003074824 -0.04048216 0.9991757 0.003040254 -0.04047334 0.999176 0.003040373 -0.04050469 0.9991747 0.003098249 -0.04048943 0.9991754 0.00303781 -0.04048728 0.9991753 0.003092765 -0.04048818 0.9991754 0.003056883 -0.04048568 0.9991755 0.003078222 -0.04048943 0.9991753 0.003077864 -0.0404852 0.9991754 0.003086507 -0.04048401 0.9991754 0.003098547 -0.04049956 0.9991748 0.003095865 -0.04059988 0.9991707 0.003101944 -0.04051595 0.9991741 0.003086745 -0.04048496 0.9991756 0.003052532 -0.04022759 0.9991863 0.002914845 -0.04031127 0.9991828 0.002980649 -0.04050189 0.9991748 0.00307691 -0.04074209 0.9991645 0.003220856 -0.04087388 0.9991594 0.003138959 -0.04024851 0.9991852 0.003028392 -0.04107087 0.9991514 0.003122687 -0.04136174 0.9991396 0.003092348 0.04081004 -0.9940419 -0.1010707 0.04080849 -0.9940465 -0.1010258 0.04027235 -0.955192 -0.2932347 0.04027372 -0.9552094 -0.2931774 0.03818744 -0.8796197 -0.4741423 0.03818881 -0.8796508 -0.4740846 0.03818863 -0.8796268 -0.4741291 0.03463703 -0.7702814 -0.6367629 0.03434479 -0.7617269 -0.6469873 0.02975332 -0.631316 -0.7749547 0.02372848 -0.4681116 -0.8833508 0.01678919 -0.2868868 -0.9578174 0.009209632 -0.09465801 -0.9954673 0.00127393 0.1011797 -0.9948674 0.001269817 0.1012951 -0.9948557 0.001274466 0.1011552 -0.9948698 -0.006713688 0.2931881 -0.9560313 -0.01485061 0.4733799 -0.8807333 -0.01431554 0.473756 -0.8805398 0.12052 0.2625647 -0.9573582 -0.01675742 0.4767044 -0.8789039 -0.01776027 0.4776191 -0.8783875 -0.01396024 0.4733454 -0.8807664 0.02452385 0.4217144 -0.9063971 -0.01439297 0.4739066 -0.8804576 -0.007095158 0.2928959 -0.9561181 -0.006562471 0.2932808 -0.9560039 -0.004391849 0.4841172 -0.8749921 -0.01611953 0.4722149 -0.881336 -0.01348173 0.4752148 -0.8797667 -0.01471257 0.473536 -0.8806517 -0.01489448 0.4730425 -0.8809137 -0.01468849 0.4735901 -0.8806229 -0.01434153 0.4740296 -0.8803921 -0.01419353 0.4742596 -0.8802706 -0.02164125 0.6363618 -0.7710872 -0.02152025 0.6363978 -0.7710607 -0.02149271 0.6367979 -0.7707313 -0.02423512 0.6292315 -0.7768402 -0.02132618 0.6390403 -0.7688776 -0.01775318 0.65306 -0.7570981 -0.02138692 0.6369386 -0.7706178 -0.02161657 0.636497 -0.7709763 -0.02101308 0.6354271 -0.7718749 -0.0216186 0.6364107 -0.7710475 -0.02145993 0.636719 -0.7707973 -0.02162462 0.6364028 -0.7710538 -0.02160763 0.6364477 -0.7710173 -0.02145206 0.6367584 -0.7707651 -0.02159494 0.6280245 -0.7778939 -0.02087122 0.6350111 -0.772221 -0.02988958 0.6621953 -0.748735 -0.0215696 0.6362932 -0.7711457 -0.0216754 0.6362478 -0.7711803 -0.02209734 0.6375756 -0.7700709 0.01675742 -0.4767044 0.8789039 0.01396036 -0.4733489 0.8807645 0.01776027 -0.4776191 0.8783875 0.01424109 -0.4734597 0.8807004 0.01431554 -0.473756 0.8805398 0.01484835 -0.4744603 0.8801517 0.01439297 -0.4739066 0.8804576</float_array>
          <technique_common>
            <accessor source="#shape0_055-mesh-normals-array" count="466" stride="3">
              <param name="X" type="float"/>
              <param name="Y" type="float"/>
              <param name="Z" type="float"/>
            </accessor>
          </technique_common>
        </source>
        <source id="shape0_055-mesh-colors-shape0-lib-vcolor" name="shape0-lib-vcolor">
          <float_array id="shape0_055-mesh-colors-shape0-lib-vcolor-array" count="4194">0.654902 0.5019608 0.3137255 0.654902 0.5019608 0.3137255 0.654902 0.5019608 0.3137255 0.654902 0.5019608 0.3137255 0.654902 0.5019608 0.3137255 0.654902 0.5019608 0.3137255 0.654902 0.5019608 0.3137255 0.654902 0.5019608 0.3137255 0.654902 0.5019608 0.3137255 0.654902 0.5019608 0.3137255 0.654902 0.5019608 0.3137255 0.654902 0.5019608 0.3137255 0.654902 0.5019608 0.3137255 0.654902 0.5019608 0.3137255 0.654902 0.5019608 0.3137255 0.654902 0.5019608 0.3137255 0.654902 0.5019608 0.3137255 0.654902 0.5019608 0.3137255 0.654902 0.5019608 0.3137255 0.654902 0.5019608 0.3137255 0.654902 0.5019608 0.3137255 0.654902 0.5019608 0.3137255 0.654902 0.5019608 0.3137255 0.654902 0.5019608 0.3137255 0.654902 0.5019608 0.3137255 0.654902 0.5019608 0.3137255 0.654902 0.5019608 0.3137255 0.654902 0.5019608 0.3137255 0.654902 0.5019608 0.3137255 0.654902 0.5019608 0.3137255 0.654902 0.5019608 0.3137255 0.654902 0.5019608 0.3137255 0.654902 0.5019608 0.3137255 0.654902 0.5019608 0.3137255 0.654902 0.5019608 0.3137255 0.654902 0.5019608 0.3137255 0.654902 0.5019608 0.3137255 0.654902 0.5019608 0.3137255 0.654902 0.5019608 0.3137255 0.654902 0.5019608 0.3137255 0.654902 0.5019608 0.3137255 0.654902 0.5019608 0.3137255 0.654902 0.5019608 0.3137255 0.654902 0.5019608 0.3137255 0.654902 0.5019608 0.3137255 0.654902 0.5019608 0.3137255 0.654902 0.5019608 0.3137255 0.654902 0.5019608 0.3137255 0.654902 0.5019608 0.3137255 0.654902 0.5019608 0.3137255 0.654902 0.5019608 0.3137255 0.654902 0.5019608 0.3137255 0.654902 0.5019608 0.3137255 0.654902 0.5019608 0.3137255 0.654902 0.5019608 0.3137255 0.654902 0.5019608 0.3137255 0.654902 0.5019608 0.3137255 0.654902 0.5019608 0.3137255 0.654902 0.5019608 0.3137255 0.654902 0.5019608 0.3137255 0.654902 0.5019608 0.3137255 0.654902 0.5019608 0.3137255 0.654902 0.5019608 0.3137255 0.654902 0.5019608 0.3137255 0.654902 0.5019608 0.3137255 0.654902 0.5019608 0.3137255 0.654902 0.5019608 0.3137255 0.654902 0.5019608 0.3137255 0.654902 0.5019608 0.3137255 0.654902 0.5019608 0.3137255 0.654902 0.5019608 0.3137255 0.654902 0.5019608 0.3137255 0.654902 0.5019608 0.3137255 0.654902 0.5019608 0.3137255 0.654902 0.5019608 0.3137255 0.654902 0.5019608 0.3137255 0.654902 0.5019608 0.3137255 0.654902 0.5019608 0.3137255 0.654902 0.5019608 0.3137255 0.654902 0.5019608 0.3137255 0.654902 0.5019608 0.3137255 0.654902 0.5019608 0.3137255 0.654902 0.5019608 0.3137255 0.654902 0.5019608 0.3137255 0.654902 0.5019608 0.3137255 0.654902 0.5019608 0.3137255 0.654902 0.5019608 0.3137255 0.654902 0.5019608 0.3137255 0.654902 0.5019608 0.3137255 0.654902 0.5019608 0.3137255 0.654902 0.5019608 0.3137255 0.654902 0.5019608 0.3137255 0.654902 0.5019608 0.3137255 0.654902 0.5019608 0.3137255 0.654902 0.5019608 0.3137255 0.654902 0.5019608 0.3137255 0.654902 0.5019608 0.3137255 0.654902 0.5019608 0.3137255 0.654902 0.5019608 0.3137255 0.654902 0.5019608 0.3137255 0.654902 0.5019608 0.3137255 0.654902 0.5019608 0.3137255 0.654902 0.5019608 0.3137255 0.654902 0.5019608 0.3137255 0.654902 0.5019608 0.3137255 0.654902 0.5019608 0.3137255 0.654902 0.5019608 0.3137255 0.654902 0.5019608 0.3137255 0.654902 0.5019608 0.3137255 0.654902 0.5019608 0.3137255 0.654902 0.5019608 0.3137255 0.654902 0.5019608 0.3137255 0.654902 0.5019608 0.3137255 0.654902 0.5019608 0.3137255 0.654902 0.5019608 0.3137255 0.654902 0.5019608 0.3137255 0.654902 0.5019608 0.3137255 0.654902 0.5019608 0.3137255 0.654902 0.5019608 0.3137255 0.654902 0.5019608 0.3137255 0.654902 0.5019608 0.3137255 0.654902 0.5019608 0.3137255 0.654902 0.5019608 0.3137255 0.654902 0.5019608 0.3137255 0.654902 0.5019608 0.3137255 0.654902 0.5019608 0.3137255 0.654902 0.5019608 0.3137255 0.654902 0.5019608 0.3137255 0.654902 0.5019608 0.3137255 0.654902 0.5019608 0.3137255 0.654902 0.5019608 0.3137255 0.654902 0.5019608 0.3137255 0.654902 0.5019608 0.3137255 0.654902 0.5019608 0.3137255 0.654902 0.5019608 0.3137255 0.654902 0.5019608 0.3137255 0.654902 0.5019608 0.3137255 0.654902 0.5019608 0.3137255 0.654902 0.5019608 0.3137255 0.654902 0.5019608 0.3137255 0.654902 0.5019608 0.3137255 0.654902 0.5019608 0.3137255 0.654902 0.5019608 0.3137255 0.654902 0.5019608 0.3137255 0.654902 0.5019608 0.3137255 0.654902 0.5019608 0.3137255 0.654902 0.5019608 0.3137255 0.654902 0.5019608 0.3137255 0.654902 0.5019608 0.3137255 0.654902 0.5019608 0.3137255 0.654902 0.5019608 0.3137255 0.654902 0.5019608 0.3137255 0.654902 0.5019608 0.3137255 0.654902 0.5019608 0.3137255 0.654902 0.5019608 0.3137255 0.654902 0.5019608 0.3137255 0.654902 0.5019608 0.3137255 0.654902 0.5019608 0.3137255 0.654902 0.5019608 0.3137255 0.654902 0.5019608 0.3137255 0.654902 0.5019608 0.3137255 0.654902 0.5019608 0.3137255 0.654902 0.5019608 0.3137255 0.654902 0.5019608 0.3137255 0.654902 0.5019608 0.3137255 0.654902 0.5019608 0.3137255 0.654902 0.5019608 0.3137255 0.654902 0.5019608 0.3137255 0.654902 0.5019608 0.3137255 0.654902 0.5019608 0.3137255 0.654902 0.5019608 0.3137255 0.654902 0.5019608 0.3137255 0.654902 0.5019608 0.3137255 0.654902 0.5019608 0.3137255 0.654902 0.5019608 0.3137255 0.654902 0.5019608 0.3137255 0.654902 0.5019608 0.3137255 0.654902 0.5019608 0.3137255 0.654902 0.5019608 0.3137255 0.654902 0.5019608 0.3137255 0.654902 0.5019608 0.3137255 0.654902 0.5019608 0.3137255 0.654902 0.5019608 0.3137255 0.654902 0.5019608 0.3137255 0.654902 0.5019608 0.3137255 0.654902 0.5019608 0.3137255 0.654902 0.5019608 0.3137255 0.654902 0.5019608 0.3137255 0.654902 0.5019608 0.3137255 0.654902 0.5019608 0.3137255 0.654902 0.5019608 0.3137255 0.654902 0.5019608 0.3137255 0.654902 0.5019608 0.3137255 0.654902 0.5019608 0.3137255 0.654902 0.5019608 0.3137255 0.654902 0.5019608 0.3137255 0.654902 0.5019608 0.3137255 0.654902 0.5019608 0.3137255 0.654902 0.5019608 0.3137255 0.654902 0.5019608 0.3137255 0.654902 0.5019608 0.3137255 0.654902 0.5019608 0.3137255 0.654902 0.5019608 0.3137255 0.654902 0.5019608 0.3137255 0.654902 0.5019608 0.3137255 0.654902 0.5019608 0.3137255 0.654902 0.5019608 0.3137255 0.654902 0.5019608 0.3137255 0.654902 0.5019608 0.3137255 0.654902 0.5019608 0.3137255 0.654902 0.5019608 0.3137255 0.654902 0.5019608 0.3137255 0.654902 0.5019608 0.3137255 0.654902 0.5019608 0.3137255 0.654902 0.5019608 0.3137255 0.654902 0.5019608 0.3137255 0.654902 0.5019608 0.3137255 0.654902 0.5019608 0.3137255 0.654902 0.5019608 0.3137255 0.654902 0.5019608 0.3137255 0.654902 0.5019608 0.3137255 0.654902 0.5019608 0.3137255 0.654902 0.5019608 0.3137255 0.654902 0.5019608 0.3137255 0.654902 0.5019608 0.3137255 0.654902 0.5019608 0.3137255 0.654902 0.5019608 0.3137255 0.654902 0.5019608 0.3137255 0.654902 0.5019608 0.3137255 0.654902 0.5019608 0.3137255 0.654902 0.5019608 0.3137255 0.654902 0.5019608 0.3137255 0.654902 0.5019608 0.3137255 0.654902 0.5019608 0.3137255 0.654902 0.5019608 0.3137255 0.654902 0.5019608 0.3137255 0.654902 0.5019608 0.3137255 0.654902 0.5019608 0.3137255 0.654902 0.5019608 0.3137255 0.654902 0.5019608 0.3137255 0.654902 0.5019608 0.3137255 0.654902 0.5019608 0.3137255 0.654902 0.5019608 0.3137255 0.654902 0.5019608 0.3137255 0.654902 0.5019608 0.3137255 0.654902 0.5019608 0.3137255 0.654902 0.5019608 0.3137255 0.654902 0.5019608 0.3137255 0.654902 0.5019608 0.3137255 0.654902 0.5019608 0.3137255 0.654902 0.5019608 0.3137255 0.654902 0.5019608 0.3137255 0.654902 0.5019608 0.3137255 0.654902 0.5019608 0.3137255 0.654902 0.5019608 0.3137255 0.654902 0.5019608 0.3137255 0.654902 0.5019608 0.3137255 0.654902 0.5019608 0.3137255 0.654902 0.5019608 0.3137255 0.654902 0.5019608 0.3137255 0.654902 0.5019608 0.3137255 0.654902 0.5019608 0.3137255 0.654902 0.5019608 0.3137255 0.654902 0.5019608 0.3137255 0.654902 0.5019608 0.3137255 0.654902 0.5019608 0.3137255 0.654902 0.5019608 0.3137255 0.654902 0.5019608 0.3137255 0.654902 0.5019608 0.3137255 0.654902 0.5019608 0.3137255 0.654902 0.5019608 0.3137255 0.654902 0.5019608 0.3137255 0.654902 0.5019608 0.3137255 0.654902 0.5019608 0.3137255 0.654902 0.5019608 0.3137255 0.654902 0.5019608 0.3137255 0.654902 0.5019608 0.3137255 0.654902 0.5019608 0.3137255 0.654902 0.5019608 0.3137255 0.654902 0.5019608 0.3137255 0.654902 0.5019608 0.3137255 0.654902 0.5019608 0.3137255 0.654902 0.5019608 0.3137255 0.654902 0.5019608 0.3137255 0.654902 0.5019608 0.3137255 0.654902 0.5019608 0.3137255 0.654902 0.5019608 0.3137255 0.654902 0.5019608 0.3137255 0.654902 0.5019608 0.3137255 0.654902 0.5019608 0.3137255 0.654902 0.5019608 0.3137255 0.654902 0.5019608 0.3137255 0.654902 0.5019608 0.3137255 0.654902 0.5019608 0.3137255 0.654902 0.5019608 0.3137255 0.654902 0.5019608 0.3137255 0.654902 0.5019608 0.3137255 0.654902 0.5019608 0.3137255 0.654902 0.5019608 0.3137255 0.654902 0.5019608 0.3137255 0.654902 0.5019608 0.3137255 0.654902 0.5019608 0.3137255 0.654902 0.5019608 0.3137255 0.654902 0.5019608 0.3137255 0.654902 0.5019608 0.3137255 0.654902 0.5019608 0.3137255 0.654902 0.5019608 0.3137255 0.654902 0.5019608 0.3137255 0.654902 0.5019608 0.3137255 0.654902 0.5019608 0.3137255 0.654902 0.5019608 0.3137255 0.654902 0.5019608 0.3137255 0.654902 0.5019608 0.3137255 0.654902 0.5019608 0.3137255 0.654902 0.5019608 0.3137255 0.654902 0.5019608 0.3137255 0.654902 0.5019608 0.3137255 0.654902 0.5019608 0.3137255 0.654902 0.5019608 0.3137255 0.654902 0.5019608 0.3137255 0.654902 0.5019608 0.3137255 0.654902 0.5019608 0.3137255 0.654902 0.5019608 0.3137255 0.654902 0.5019608 0.3137255 0.654902 0.5019608 0.3137255 0.654902 0.5019608 0.3137255 0.654902 0.5019608 0.3137255 0.654902 0.5019608 0.3137255 0.654902 0.5019608 0.3137255 0.654902 0.5019608 0.3137255 0.654902 0.5019608 0.3137255 0.654902 0.5019608 0.3137255 0.654902 0.5019608 0.3137255 0.654902 0.5019608 0.3137255 0.654902 0.5019608 0.3137255 0.654902 0.5019608 0.3137255 0.654902 0.5019608 0.3137255 0.654902 0.5019608 0.3137255 0.654902 0.5019608 0.3137255 0.654902 0.5019608 0.3137255 0.654902 0.5019608 0.3137255 0.654902 0.5019608 0.3137255 0.654902 0.5019608 0.3137255 0.654902 0.5019608 0.3137255 0.654902 0.5019608 0.3137255 0.654902 0.5019608 0.3137255 0.654902 0.5019608 0.3137255 0.654902 0.5019608 0.3137255 0.654902 0.5019608 0.3137255 0.654902 0.5019608 0.3137255 0.654902 0.5019608 0.3137255 0.654902 0.5019608 0.3137255 0.654902 0.5019608 0.3137255 0.654902 0.5019608 0.3137255 0.654902 0.5019608 0.3137255 0.654902 0.5019608 0.3137255 0.654902 0.5019608 0.3137255 0.654902 0.5019608 0.3137255 0.654902 0.5019608 0.3137255 0.654902 0.5019608 0.3137255 0.654902 0.5019608 0.3137255 0.654902 0.5019608 0.3137255 0.654902 0.5019608 0.3137255 0.654902 0.5019608 0.3137255 0.654902 0.5019608 0.3137255 0.654902 0.5019608 0.3137255 0.654902 0.5019608 0.3137255 0.654902 0.5019608 0.3137255 0.654902 0.5019608 0.3137255 0.654902 0.5019608 0.3137255 0.654902 0.5019608 0.3137255 0.654902 0.5019608 0.3137255 0.654902 0.5019608 0.3137255 0.654902 0.5019608 0.3137255 0.654902 0.5019608 0.3137255 0.654902 0.5019608 0.3137255 0.654902 0.5019608 0.3137255 0.654902 0.5019608 0.3137255 0.654902 0.5019608 0.3137255 0.654902 0.5019608 0.3137255 0.654902 0.5019608 0.3137255 0.654902 0.5019608 0.3137255 0.654902 0.5019608 0.3137255 0.654902 0.5019608 0.3137255 0.654902 0.5019608 0.3137255 0.654902 0.5019608 0.3137255 0.654902 0.5019608 0.3137255 0.654902 0.5019608 0.3137255 0.654902 0.5019608 0.3137255 0.654902 0.5019608 0.3137255 0.654902 0.5019608 0.3137255 0.654902 0.5019608 0.3137255 0.654902 0.5019608 0.3137255 0.654902 0.5019608 0.3137255 0.654902 0.5019608 0.3137255 0.654902 0.5019608 0.3137255 0.654902 0.5019608 0.3137255 0.654902 0.5019608 0.3137255 0.654902 0.5019608 0.3137255 0.654902 0.5019608 0.3137255 0.654902 0.5019608 0.3137255 0.654902 0.5019608 0.3137255 0.654902 0.5019608 0.3137255 0.654902 0.5019608 0.3137255 0.654902 0.5019608 0.3137255 0.654902 0.5019608 0.3137255 0.654902 0.5019608 0.3137255 0.654902 0.5019608 0.3137255 0.654902 0.5019608 0.3137255 0.654902 0.5019608 0.3137255 0.654902 0.5019608 0.3137255 0.654902 0.5019608 0.3137255 0.654902 0.5019608 0.3137255 0.654902 0.5019608 0.3137255 0.654902 0.5019608 0.3137255 0.654902 0.5019608 0.3137255 0.654902 0.5019608 0.3137255 0.654902 0.5019608 0.3137255 0.654902 0.5019608 0.3137255 0.654902 0.5019608 0.3137255 0.654902 0.5019608 0.3137255 0.654902 0.5019608 0.3137255 0.654902 0.5019608 0.3137255 0.654902 0.5019608 0.3137255 0.654902 0.5019608 0.3137255 0.654902 0.5019608 0.3137255 0.654902 0.5019608 0.3137255 0.654902 0.5019608 0.3137255 0.654902 0.5019608 0.3137255 0.654902 0.5019608 0.3137255 0.654902 0.5019608 0.3137255 0.654902 0.5019608 0.3137255 0.654902 0.5019608 0.3137255 0.654902 0.5019608 0.3137255 0.654902 0.5019608 0.3137255 0.654902 0.5019608 0.3137255 0.654902 0.5019608 0.3137255 0.654902 0.5019608 0.3137255 0.654902 0.5019608 0.3137255 0.654902 0.5019608 0.3137255 0.654902 0.5019608 0.3137255 0.654902 0.5019608 0.3137255 0.654902 0.5019608 0.3137255 0.654902 0.5019608 0.3137255 0.654902 0.5019608 0.3137255 0.654902 0.5019608 0.3137255 0.654902 0.5019608 0.3137255 0.654902 0.5019608 0.3137255 0.654902 0.5019608 0.3137255 0.654902 0.5019608 0.3137255 0.654902 0.5019608 0.3137255 0.654902 0.5019608 0.3137255 0.654902 0.5019608 0.3137255 0.654902 0.5019608 0.3137255 0.654902 0.5019608 0.3137255 0.654902 0.5019608 0.3137255 0.654902 0.5019608 0.3137255 0.654902 0.5019608 0.3137255 0.654902 0.5019608 0.3137255 0.654902 0.5019608 0.3137255 0.654902 0.5019608 0.3137255 0.654902 0.5019608 0.3137255 0.654902 0.5019608 0.3137255 0.654902 0.5019608 0.3137255 0.654902 0.5019608 0.3137255 0.654902 0.5019608 0.3137255 0.654902 0.5019608 0.3137255 0.654902 0.5019608 0.3137255 0.654902 0.5019608 0.3137255 0.654902 0.5019608 0.3137255 0.654902 0.5019608 0.3137255 0.654902 0.5019608 0.3137255 0.654902 0.5019608 0.3137255 0.654902 0.5019608 0.3137255 0.654902 0.5019608 0.3137255 0.654902 0.5019608 0.3137255 0.654902 0.5019608 0.3137255 0.654902 0.5019608 0.3137255 0.654902 0.5019608 0.3137255 0.654902 0.5019608 0.3137255 0.654902 0.5019608 0.3137255 0.654902 0.5019608 0.3137255 0.654902 0.5019608 0.3137255 0.654902 0.5019608 0.3137255 0.654902 0.5019608 0.3137255 0.654902 0.5019608 0.3137255 0.654902 0.5019608 0.3137255 0.654902 0.5019608 0.3137255 0.654902 0.5019608 0.3137255 0.654902 0.5019608 0.3137255 0.654902 0.5019608 0.3137255 0.654902 0.5019608 0.3137255 0.654902 0.5019608 0.3137255 0.654902 0.5019608 0.3137255 0.654902 0.5019608 0.3137255 0.654902 0.5019608 0.3137255 0.654902 0.5019608 0.3137255 0.654902 0.5019608 0.3137255 0.654902 0.5019608 0.3137255 0.654902 0.5019608 0.3137255 0.654902 0.5019608 0.3137255 0.654902 0.5019608 0.3137255 0.654902 0.5019608 0.3137255 0.654902 0.5019608 0.3137255 0.654902 0.5019608 0.3137255 0.654902 0.5019608 0.3137255 0.654902 0.5019608 0.3137255 0.654902 0.5019608 0.3137255 0.654902 0.5019608 0.3137255 0.654902 0.5019608 0.3137255 0.654902 0.5019608 0.3137255 0.654902 0.5019608 0.3137255 0.654902 0.5019608 0.3137255 0.654902 0.5019608 0.3137255 0.654902 0.5019608 0.3137255 0.654902 0.5019608 0.3137255 0.654902 0.5019608 0.3137255 0.654902 0.5019608 0.3137255 0.654902 0.5019608 0.3137255 0.654902 0.5019608 0.3137255 0.654902 0.5019608 0.3137255 0.654902 0.5019608 0.3137255 0.654902 0.5019608 0.3137255 0.654902 0.5019608 0.3137255 0.654902 0.5019608 0.3137255 0.654902 0.5019608 0.3137255 0.654902 0.5019608 0.3137255 0.654902 0.5019608 0.3137255 0.654902 0.5019608 0.3137255 0.654902 0.5019608 0.3137255 0.654902 0.5019608 0.3137255 0.654902 0.5019608 0.3137255 0.654902 0.5019608 0.3137255 0.654902 0.5019608 0.3137255 0.654902 0.5019608 0.3137255 0.654902 0.5019608 0.3137255 0.654902 0.5019608 0.3137255 0.654902 0.5019608 0.3137255 0.654902 0.5019608 0.3137255 0.654902 0.5019608 0.3137255 0.654902 0.5019608 0.3137255 0.654902 0.5019608 0.3137255 0.654902 0.5019608 0.3137255 0.654902 0.5019608 0.3137255 0.654902 0.5019608 0.3137255 0.654902 0.5019608 0.3137255 0.654902 0.5019608 0.3137255 0.654902 0.5019608 0.3137255 0.654902 0.5019608 0.3137255 0.654902 0.5019608 0.3137255 0.654902 0.5019608 0.3137255 0.654902 0.5019608 0.3137255 0.654902 0.5019608 0.3137255 0.654902 0.5019608 0.3137255 0.654902 0.5019608 0.3137255 0.654902 0.5019608 0.3137255 0.654902 0.5019608 0.3137255 0.654902 0.5019608 0.3137255 0.654902 0.5019608 0.3137255 0.654902 0.5019608 0.3137255 0.654902 0.5019608 0.3137255 0.654902 0.5019608 0.3137255 0.654902 0.5019608 0.3137255 0.654902 0.5019608 0.3137255 0.654902 0.5019608 0.3137255 0.654902 0.5019608 0.3137255 0.654902 0.5019608 0.3137255 0.654902 0.5019608 0.3137255 0.654902 0.5019608 0.3137255 0.654902 0.5019608 0.3137255 0.654902 0.5019608 0.3137255 0.654902 0.5019608 0.3137255 0.654902 0.5019608 0.3137255 0.654902 0.5019608 0.3137255 0.654902 0.5019608 0.3137255 0.654902 0.5019608 0.3137255 0.654902 0.5019608 0.3137255 0.654902 0.5019608 0.3137255 0.654902 0.5019608 0.3137255 0.654902 0.5019608 0.3137255 0.654902 0.5019608 0.3137255 0.654902 0.5019608 0.3137255 0.654902 0.5019608 0.3137255 0.654902 0.5019608 0.3137255 0.654902 0.5019608 0.3137255 0.654902 0.5019608 0.3137255 0.654902 0.5019608 0.3137255 0.654902 0.5019608 0.3137255 0.654902 0.5019608 0.3137255 0.654902 0.5019608 0.3137255 0.654902 0.5019608 0.3137255 0.654902 0.5019608 0.3137255 0.654902 0.5019608 0.3137255 0.654902 0.5019608 0.3137255 0.654902 0.5019608 0.3137255 0.654902 0.5019608 0.3137255 0.654902 0.5019608 0.3137255 0.654902 0.5019608 0.3137255 0.654902 0.5019608 0.3137255 0.654902 0.5019608 0.3137255 0.654902 0.5019608 0.3137255 0.654902 0.5019608 0.3137255 0.654902 0.5019608 0.3137255 0.654902 0.5019608 0.3137255 0.654902 0.5019608 0.3137255 0.654902 0.5019608 0.3137255 0.654902 0.5019608 0.3137255 0.654902 0.5019608 0.3137255 0.654902 0.5019608 0.3137255 0.654902 0.5019608 0.3137255 0.654902 0.5019608 0.3137255 0.654902 0.5019608 0.3137255 0.654902 0.5019608 0.3137255 0.654902 0.5019608 0.3137255 0.654902 0.5019608 0.3137255 0.654902 0.5019608 0.3137255 0.654902 0.5019608 0.3137255 0.654902 0.5019608 0.3137255 0.654902 0.5019608 0.3137255 0.654902 0.5019608 0.3137255 0.654902 0.5019608 0.3137255 0.654902 0.5019608 0.3137255 0.654902 0.5019608 0.3137255 0.654902 0.5019608 0.3137255 0.654902 0.5019608 0.3137255 0.654902 0.5019608 0.3137255 0.654902 0.5019608 0.3137255 0.654902 0.5019608 0.3137255 0.654902 0.5019608 0.3137255 0.654902 0.5019608 0.3137255 0.654902 0.5019608 0.3137255 0.654902 0.5019608 0.3137255 0.654902 0.5019608 0.3137255 0.654902 0.5019608 0.3137255 0.654902 0.5019608 0.3137255 0.654902 0.5019608 0.3137255 0.654902 0.5019608 0.3137255 0.654902 0.5019608 0.3137255 0.654902 0.5019608 0.3137255 0.654902 0.5019608 0.3137255 0.654902 0.5019608 0.3137255 0.654902 0.5019608 0.3137255 0.654902 0.5019608 0.3137255 0.654902 0.5019608 0.3137255 0.654902 0.5019608 0.3137255 0.654902 0.5019608 0.3137255 0.654902 0.5019608 0.3137255 0.654902 0.5019608 0.3137255 0.654902 0.5019608 0.3137255 0.654902 0.5019608 0.3137255 0.654902 0.5019608 0.3137255 0.654902 0.5019608 0.3137255 0.654902 0.5019608 0.3137255 0.654902 0.5019608 0.3137255 0.654902 0.5019608 0.3137255 0.654902 0.5019608 0.3137255 0.654902 0.5019608 0.3137255 0.654902 0.5019608 0.3137255 0.654902 0.5019608 0.3137255 0.654902 0.5019608 0.3137255 0.654902 0.5019608 0.3137255 0.654902 0.5019608 0.3137255 0.654902 0.5019608 0.3137255 0.654902 0.5019608 0.3137255 0.654902 0.5019608 0.3137255 0.654902 0.5019608 0.3137255 0.654902 0.5019608 0.3137255 0.654902 0.5019608 0.3137255 0.654902 0.5019608 0.3137255 0.654902 0.5019608 0.3137255 0.654902 0.5019608 0.3137255 0.654902 0.5019608 0.3137255 0.654902 0.5019608 0.3137255 0.654902 0.5019608 0.3137255 0.654902 0.5019608 0.3137255 0.654902 0.5019608 0.3137255 0.654902 0.5019608 0.3137255 0.654902 0.5019608 0.3137255 0.654902 0.5019608 0.3137255 0.654902 0.5019608 0.3137255 0.654902 0.5019608 0.3137255 0.654902 0.5019608 0.3137255 0.654902 0.5019608 0.3137255 0.654902 0.5019608 0.3137255 0.654902 0.5019608 0.3137255 0.654902 0.5019608 0.3137255 0.654902 0.5019608 0.3137255 0.654902 0.5019608 0.3137255 0.654902 0.5019608 0.3137255 0.654902 0.5019608 0.3137255 0.654902 0.5019608 0.3137255 0.654902 0.5019608 0.3137255 0.654902 0.5019608 0.3137255 0.654902 0.5019608 0.3137255 0.654902 0.5019608 0.3137255 0.654902 0.5019608 0.3137255 0.654902 0.5019608 0.3137255 0.654902 0.5019608 0.3137255 0.654902 0.5019608 0.3137255 0.654902 0.5019608 0.3137255 0.654902 0.5019608 0.3137255 0.654902 0.5019608 0.3137255 0.654902 0.5019608 0.3137255 0.654902 0.5019608 0.3137255 0.654902 0.5019608 0.3137255 0.654902 0.5019608 0.3137255 0.654902 0.5019608 0.3137255 0.654902 0.5019608 0.3137255 0.654902 0.5019608 0.3137255 0.654902 0.5019608 0.3137255 0.654902 0.5019608 0.3137255 0.654902 0.5019608 0.3137255 0.654902 0.5019608 0.3137255 0.654902 0.5019608 0.3137255 0.654902 0.5019608 0.3137255 0.654902 0.5019608 0.3137255 0.654902 0.5019608 0.3137255 0.654902 0.5019608 0.3137255 0.654902 0.5019608 0.3137255 0.654902 0.5019608 0.3137255 0.654902 0.5019608 0.3137255 0.654902 0.5019608 0.3137255 0.654902 0.5019608 0.3137255 0.654902 0.5019608 0.3137255 0.654902 0.5019608 0.3137255 0.654902 0.5019608 0.3137255 0.654902 0.5019608 0.3137255 0.654902 0.5019608 0.3137255 0.654902 0.5019608 0.3137255 0.654902 0.5019608 0.3137255 0.654902 0.5019608 0.3137255 0.654902 0.5019608 0.3137255 0.654902 0.5019608 0.3137255 0.654902 0.5019608 0.3137255 0.654902 0.5019608 0.3137255 0.654902 0.5019608 0.3137255 0.654902 0.5019608 0.3137255 0.654902 0.5019608 0.3137255 0.654902 0.5019608 0.3137255 0.654902 0.5019608 0.3137255 0.654902 0.5019608 0.3137255 0.654902 0.5019608 0.3137255 0.654902 0.5019608 0.3137255 0.654902 0.5019608 0.3137255 0.654902 0.5019608 0.3137255 0.654902 0.5019608 0.3137255 0.654902 0.5019608 0.3137255 0.654902 0.5019608 0.3137255 0.654902 0.5019608 0.3137255 0.654902 0.5019608 0.3137255 0.654902 0.5019608 0.3137255 0.654902 0.5019608 0.3137255 0.654902 0.5019608 0.3137255 0.654902 0.5019608 0.3137255 0.654902 0.5019608 0.3137255 0.654902 0.5019608 0.3137255 0.654902 0.5019608 0.3137255 0.654902 0.5019608 0.3137255 0.654902 0.5019608 0.3137255 0.654902 0.5019608 0.3137255 0.654902 0.5019608 0.3137255 0.654902 0.5019608 0.3137255 0.654902 0.5019608 0.3137255 0.654902 0.5019608 0.3137255 0.654902 0.5019608 0.3137255 0.654902 0.5019608 0.3137255 0.654902 0.5019608 0.3137255 0.654902 0.5019608 0.3137255 0.654902 0.5019608 0.3137255 0.654902 0.5019608 0.3137255 0.654902 0.5019608 0.3137255 0.654902 0.5019608 0.3137255 0.654902 0.5019608 0.3137255 0.654902 0.5019608 0.3137255 0.654902 0.5019608 0.3137255 0.654902 0.5019608 0.3137255 0.654902 0.5019608 0.3137255 0.654902 0.5019608 0.3137255 0.654902 0.5019608 0.3137255 0.654902 0.5019608 0.3137255 0.654902 0.5019608 0.3137255 0.654902 0.5019608 0.3137255 0.654902 0.5019608 0.3137255 0.654902 0.5019608 0.3137255 0.654902 0.5019608 0.3137255 0.654902 0.5019608 0.3137255 0.654902 0.5019608 0.3137255 0.654902 0.5019608 0.3137255 0.654902 0.5019608 0.3137255 0.654902 0.5019608 0.3137255 0.654902 0.5019608 0.3137255 0.654902 0.5019608 0.3137255 0.654902 0.5019608 0.3137255 0.654902 0.5019608 0.3137255 0.654902 0.5019608 0.3137255 0.654902 0.5019608 0.3137255 0.654902 0.5019608 0.3137255 0.654902 0.5019608 0.3137255 0.654902 0.5019608 0.3137255 0.654902 0.5019608 0.3137255 0.654902 0.5019608 0.3137255 0.654902 0.5019608 0.3137255 0.654902 0.5019608 0.3137255 0.654902 0.5019608 0.3137255 0.654902 0.5019608 0.3137255 0.654902 0.5019608 0.3137255 0.654902 0.5019608 0.3137255 0.654902 0.5019608 0.3137255 0.654902 0.5019608 0.3137255 0.654902 0.5019608 0.3137255 0.654902 0.5019608 0.3137255 0.654902 0.5019608 0.3137255 0.654902 0.5019608 0.3137255 0.654902 0.5019608 0.3137255 0.654902 0.5019608 0.3137255 0.654902 0.5019608 0.3137255 0.654902 0.5019608 0.3137255 0.654902 0.5019608 0.3137255 0.654902 0.5019608 0.3137255 0.654902 0.5019608 0.3137255 0.654902 0.5019608 0.3137255 0.654902 0.5019608 0.3137255 0.654902 0.5019608 0.3137255 0.654902 0.5019608 0.3137255 0.654902 0.5019608 0.3137255 0.654902 0.5019608 0.3137255 0.654902 0.5019608 0.3137255 0.654902 0.5019608 0.3137255 0.654902 0.5019608 0.3137255 0.654902 0.5019608 0.3137255 0.654902 0.5019608 0.3137255 0.654902 0.5019608 0.3137255 0.654902 0.5019608 0.3137255 0.654902 0.5019608 0.3137255 0.654902 0.5019608 0.3137255 0.654902 0.5019608 0.3137255 0.654902 0.5019608 0.3137255 0.654902 0.5019608 0.3137255 0.654902 0.5019608 0.3137255 0.654902 0.5019608 0.3137255 0.654902 0.5019608 0.3137255 0.654902 0.5019608 0.3137255 0.654902 0.5019608 0.3137255 0.654902 0.5019608 0.3137255 0.654902 0.5019608 0.3137255 0.654902 0.5019608 0.3137255 0.654902 0.5019608 0.3137255 0.654902 0.5019608 0.3137255 0.654902 0.5019608 0.3137255 0.654902 0.5019608 0.3137255 0.654902 0.5019608 0.3137255 0.654902 0.5019608 0.3137255 0.654902 0.5019608 0.3137255 0.654902 0.5019608 0.3137255 0.654902 0.5019608 0.3137255 0.654902 0.5019608 0.3137255 0.654902 0.5019608 0.3137255 0.654902 0.5019608 0.3137255 0.654902 0.5019608 0.3137255 0.654902 0.5019608 0.3137255 0.654902 0.5019608 0.3137255 0.654902 0.5019608 0.3137255 0.654902 0.5019608 0.3137255 0.654902 0.5019608 0.3137255 0.654902 0.5019608 0.3137255 0.654902 0.5019608 0.3137255 0.654902 0.5019608 0.3137255 0.654902 0.5019608 0.3137255 0.654902 0.5019608 0.3137255 0.654902 0.5019608 0.3137255 0.654902 0.5019608 0.3137255 0.654902 0.5019608 0.3137255 0.654902 0.5019608 0.3137255 0.654902 0.5019608 0.3137255 0.654902 0.5019608 0.3137255 0.654902 0.5019608 0.3137255 0.654902 0.5019608 0.3137255 0.654902 0.5019608 0.3137255 0.654902 0.5019608 0.3137255 0.654902 0.5019608 0.3137255 0.654902 0.5019608 0.3137255 0.654902 0.5019608 0.3137255 0.654902 0.5019608 0.3137255 0.654902 0.5019608 0.3137255 0.654902 0.5019608 0.3137255 0.654902 0.5019608 0.3137255 0.654902 0.5019608 0.3137255 0.654902 0.5019608 0.3137255 0.654902 0.5019608 0.3137255 0.654902 0.5019608 0.3137255 0.654902 0.5019608 0.3137255 0.654902 0.5019608 0.3137255 0.654902 0.5019608 0.3137255 0.654902 0.5019608 0.3137255 0.654902 0.5019608 0.3137255 0.654902 0.5019608 0.3137255 0.654902 0.5019608 0.3137255 0.654902 0.5019608 0.3137255 0.654902 0.5019608 0.3137255 0.654902 0.5019608 0.3137255 0.654902 0.5019608 0.3137255 0.654902 0.5019608 0.3137255 0.654902 0.5019608 0.3137255 0.654902 0.5019608 0.3137255 0.654902 0.5019608 0.3137255 0.654902 0.5019608 0.3137255 0.654902 0.5019608 0.3137255 0.654902 0.5019608 0.3137255 0.654902 0.5019608 0.3137255 0.654902 0.5019608 0.3137255 0.654902 0.5019608 0.3137255 0.654902 0.5019608 0.3137255 0.654902 0.5019608 0.3137255 0.654902 0.5019608 0.3137255 0.654902 0.5019608 0.3137255 0.654902 0.5019608 0.3137255 0.654902 0.5019608 0.3137255 0.654902 0.5019608 0.3137255 0.654902 0.5019608 0.3137255 0.654902 0.5019608 0.3137255 0.654902 0.5019608 0.3137255 0.654902 0.5019608 0.3137255 0.654902 0.5019608 0.3137255 0.654902 0.5019608 0.3137255 0.654902 0.5019608 0.3137255 0.654902 0.5019608 0.3137255 0.654902 0.5019608 0.3137255 0.654902 0.5019608 0.3137255 0.654902 0.5019608 0.3137255 0.654902 0.5019608 0.3137255 0.654902 0.5019608 0.3137255 0.654902 0.5019608 0.3137255 0.654902 0.5019608 0.3137255 0.654902 0.5019608 0.3137255 0.654902 0.5019608 0.3137255 0.654902 0.5019608 0.3137255 0.654902 0.5019608 0.3137255 0.654902 0.5019608 0.3137255 0.654902 0.5019608 0.3137255 0.654902 0.5019608 0.3137255 0.654902 0.5019608 0.3137255 0.654902 0.5019608 0.3137255 0.654902 0.5019608 0.3137255 0.654902 0.5019608 0.3137255 0.654902 0.5019608 0.3137255 0.654902 0.5019608 0.3137255 0.654902 0.5019608 0.3137255 0.654902 0.5019608 0.3137255 0.654902 0.5019608 0.3137255 0.654902 0.5019608 0.3137255 0.654902 0.5019608 0.3137255 0.654902 0.5019608 0.3137255 0.654902 0.5019608 0.3137255 0.654902 0.5019608 0.3137255 0.654902 0.5019608 0.3137255 0.654902 0.5019608 0.3137255 0.654902 0.5019608 0.3137255 0.654902 0.5019608 0.3137255 0.654902 0.5019608 0.3137255 0.654902 0.5019608 0.3137255 0.654902 0.5019608 0.3137255 0.654902 0.5019608 0.3137255 0.654902 0.5019608 0.3137255 0.654902 0.5019608 0.3137255 0.654902 0.5019608 0.3137255 0.654902 0.5019608 0.3137255 0.654902 0.5019608 0.3137255 0.654902 0.5019608 0.3137255 0.654902 0.5019608 0.3137255 0.654902 0.5019608 0.3137255 0.654902 0.5019608 0.3137255 0.654902 0.5019608 0.3137255 0.654902 0.5019608 0.3137255 0.654902 0.5019608 0.3137255 0.654902 0.5019608 0.3137255 0.654902 0.5019608 0.3137255 0.654902 0.5019608 0.3137255 0.654902 0.5019608 0.3137255 0.654902 0.5019608 0.3137255 0.654902 0.5019608 0.3137255 0.654902 0.5019608 0.3137255 0.654902 0.5019608 0.3137255 0.654902 0.5019608 0.3137255 0.654902 0.5019608 0.3137255 0.654902 0.5019608 0.3137255 0.654902 0.5019608 0.3137255 0.654902 0.5019608 0.3137255 0.654902 0.5019608 0.3137255 0.654902 0.5019608 0.3137255 0.654902 0.5019608 0.3137255 0.654902 0.5019608 0.3137255 0.654902 0.5019608 0.3137255 0.654902 0.5019608 0.3137255 0.654902 0.5019608 0.3137255 0.654902 0.5019608 0.3137255 0.654902 0.5019608 0.3137255 0.654902 0.5019608 0.3137255 0.654902 0.5019608 0.3137255 0.654902 0.5019608 0.3137255 0.654902 0.5019608 0.3137255 0.654902 0.5019608 0.3137255 0.654902 0.5019608 0.3137255 0.654902 0.5019608 0.3137255 0.654902 0.5019608 0.3137255 0.654902 0.5019608 0.3137255 0.654902 0.5019608 0.3137255 0.654902 0.5019608 0.3137255 0.654902 0.5019608 0.3137255 0.654902 0.5019608 0.3137255 0.654902 0.5019608 0.3137255 0.654902 0.5019608 0.3137255 0.654902 0.5019608 0.3137255 0.654902 0.5019608 0.3137255 0.654902 0.5019608 0.3137255 0.654902 0.5019608 0.3137255 0.654902 0.5019608 0.3137255 0.654902 0.5019608 0.3137255 0.654902 0.5019608 0.3137255 0.654902 0.5019608 0.3137255 0.654902 0.5019608 0.3137255 0.654902 0.5019608 0.3137255 0.654902 0.5019608 0.3137255 0.654902 0.5019608 0.3137255 0.654902 0.5019608 0.3137255 0.654902 0.5019608 0.3137255 0.654902 0.5019608 0.3137255 0.654902 0.5019608 0.3137255 0.654902 0.5019608 0.3137255 0.654902 0.5019608 0.3137255 0.654902 0.5019608 0.3137255 0.654902 0.5019608 0.3137255 0.654902 0.5019608 0.3137255 0.654902 0.5019608 0.3137255 0.654902 0.5019608 0.3137255 0.654902 0.5019608 0.3137255 0.654902 0.5019608 0.3137255 0.654902 0.5019608 0.3137255 0.654902 0.5019608 0.3137255 0.654902 0.5019608 0.3137255 0.654902 0.5019608 0.3137255 0.654902 0.5019608 0.3137255 0.654902 0.5019608 0.3137255 0.654902 0.5019608 0.3137255 0.654902 0.5019608 0.3137255 0.654902 0.5019608 0.3137255 0.654902 0.5019608 0.3137255 0.654902 0.5019608 0.3137255 0.654902 0.5019608 0.3137255 0.654902 0.5019608 0.3137255 0.654902 0.5019608 0.3137255 0.654902 0.5019608 0.3137255 0.654902 0.5019608 0.3137255 0.654902 0.5019608 0.3137255 0.654902 0.5019608 0.3137255 0.654902 0.5019608 0.3137255 0.654902 0.5019608 0.3137255 0.654902 0.5019608 0.3137255 0.654902 0.5019608 0.3137255 0.654902 0.5019608 0.3137255 0.654902 0.5019608 0.3137255 0.654902 0.5019608 0.3137255 0.654902 0.5019608 0.3137255 0.654902 0.5019608 0.3137255 0.654902 0.5019608 0.3137255 0.654902 0.5019608 0.3137255 0.654902 0.5019608 0.3137255 0.654902 0.5019608 0.3137255 0.654902 0.5019608 0.3137255 0.654902 0.5019608 0.3137255 0.654902 0.5019608 0.3137255 0.654902 0.5019608 0.3137255 0.654902 0.5019608 0.3137255 0.654902 0.5019608 0.3137255 0.654902 0.5019608 0.3137255 0.654902 0.5019608 0.3137255 0.654902 0.5019608 0.3137255 0.654902 0.5019608 0.3137255 0.654902 0.5019608 0.3137255 0.654902 0.5019608 0.3137255 0.654902 0.5019608 0.3137255 0.654902 0.5019608 0.3137255 0.654902 0.5019608 0.3137255 0.654902 0.5019608 0.3137255 0.654902 0.5019608 0.3137255 0.654902 0.5019608 0.3137255 0.654902 0.5019608 0.3137255 0.654902 0.5019608 0.3137255 0.654902 0.5019608 0.3137255 0.654902 0.5019608 0.3137255 0.654902 0.5019608 0.3137255 0.654902 0.5019608 0.3137255 0.654902 0.5019608 0.3137255 0.654902 0.5019608 0.3137255 0.654902 0.5019608 0.3137255 0.654902 0.5019608 0.3137255 0.654902 0.5019608 0.3137255 0.654902 0.5019608 0.3137255 0.654902 0.5019608 0.3137255 0.654902 0.5019608 0.3137255 0.654902 0.5019608 0.3137255 0.654902 0.5019608 0.3137255 0.654902 0.5019608 0.3137255 0.654902 0.5019608 0.3137255 0.654902 0.5019608 0.3137255 0.654902 0.5019608 0.3137255 0.654902 0.5019608 0.3137255 0.654902 0.5019608 0.3137255 0.654902 0.5019608 0.3137255 0.654902 0.5019608 0.3137255 0.654902 0.5019608 0.3137255 0.654902 0.5019608 0.3137255 0.654902 0.5019608 0.3137255 0.654902 0.5019608 0.3137255 0.654902 0.5019608 0.3137255 0.654902 0.5019608 0.3137255 0.654902 0.5019608 0.3137255 0.654902 0.5019608 0.3137255 0.654902 0.5019608 0.3137255 0.654902 0.5019608 0.3137255 0.654902 0.5019608 0.3137255 0.654902 0.5019608 0.3137255 0.654902 0.5019608 0.3137255 0.654902 0.5019608 0.3137255 0.654902 0.5019608 0.3137255 0.654902 0.5019608 0.3137255 0.654902 0.5019608 0.3137255 0.654902 0.5019608 0.3137255 0.654902 0.5019608 0.3137255 0.654902 0.5019608 0.3137255 0.654902 0.5019608 0.3137255 0.654902 0.5019608 0.3137255 0.654902 0.5019608 0.3137255 0.654902 0.5019608 0.3137255 0.654902 0.5019608 0.3137255 0.654902 0.5019608 0.3137255 0.654902 0.5019608 0.3137255 0.654902 0.5019608 0.3137255 0.654902 0.5019608 0.3137255 0.654902 0.5019608 0.3137255 0.654902 0.5019608 0.3137255 0.654902 0.5019608 0.3137255 0.654902 0.5019608 0.3137255 0.654902 0.5019608 0.3137255 0.654902 0.5019608 0.3137255 0.654902 0.5019608 0.3137255 0.654902 0.5019608 0.3137255 0.654902 0.5019608 0.3137255 0.654902 0.5019608 0.3137255 0.654902 0.5019608 0.3137255 0.654902 0.5019608 0.3137255 0.654902 0.5019608 0.3137255 0.654902 0.5019608 0.3137255 0.654902 0.5019608 0.3137255 0.654902 0.5019608 0.3137255 0.654902 0.5019608 0.3137255 0.654902 0.5019608 0.3137255 0.654902 0.5019608 0.3137255 0.654902 0.5019608 0.3137255 0.654902 0.5019608 0.3137255 0.654902 0.5019608 0.3137255 0.654902 0.5019608 0.3137255 0.654902 0.5019608 0.3137255 0.654902 0.5019608 0.3137255 0.654902 0.5019608 0.3137255 0.654902 0.5019608 0.3137255 0.654902 0.5019608 0.3137255 0.654902 0.5019608 0.3137255 0.654902 0.5019608 0.3137255 0.654902 0.5019608 0.3137255 0.654902 0.5019608 0.3137255 0.654902 0.5019608 0.3137255 0.654902 0.5019608 0.3137255 0.654902 0.5019608 0.3137255 0.654902 0.5019608 0.3137255 0.654902 0.5019608 0.3137255 0.654902 0.5019608 0.3137255 0.654902 0.5019608 0.3137255 0.654902 0.5019608 0.3137255 0.654902 0.5019608 0.3137255 0.654902 0.5019608 0.3137255 0.654902 0.5019608 0.3137255 0.654902 0.5019608 0.3137255 0.654902 0.5019608 0.3137255 0.654902 0.5019608 0.3137255 0.654902 0.5019608 0.3137255 0.654902 0.5019608 0.3137255 0.654902 0.5019608 0.3137255 0.654902 0.5019608 0.3137255 0.654902 0.5019608 0.3137255 0.654902 0.5019608 0.3137255 0.654902 0.5019608 0.3137255 0.654902 0.5019608 0.3137255 0.654902 0.5019608 0.3137255 0.654902 0.5019608 0.3137255 0.654902 0.5019608 0.3137255 0.654902 0.5019608 0.3137255 0.654902 0.5019608 0.3137255 0.654902 0.5019608 0.3137255 0.654902 0.5019608 0.3137255 0.654902 0.5019608 0.3137255 0.654902 0.5019608 0.3137255 0.654902 0.5019608 0.3137255 0.654902 0.5019608 0.3137255 0.654902 0.5019608 0.3137255 0.654902 0.5019608 0.3137255 0.654902 0.5019608 0.3137255 0.654902 0.5019608 0.3137255 0.654902 0.5019608 0.3137255 0.654902 0.5019608 0.3137255 0.654902 0.5019608 0.3137255 0.654902 0.5019608 0.3137255 0.654902 0.5019608 0.3137255 0.654902 0.5019608 0.3137255 0.654902 0.5019608 0.3137255 0.654902 0.5019608 0.3137255 0.654902 0.5019608 0.3137255 0.654902 0.5019608 0.3137255 0.654902 0.5019608 0.3137255 0.654902 0.5019608 0.3137255 0.654902 0.5019608 0.3137255 0.654902 0.5019608 0.3137255 0.654902 0.5019608 0.3137255 0.654902 0.5019608 0.3137255 0.654902 0.5019608 0.3137255 0.654902 0.5019608 0.3137255 0.654902 0.5019608 0.3137255 0.654902 0.5019608 0.3137255 0.654902 0.5019608 0.3137255 0.654902 0.5019608 0.3137255 0.654902 0.5019608 0.3137255 0.654902 0.5019608 0.3137255 0.654902 0.5019608 0.3137255 0.654902 0.5019608 0.3137255 0.654902 0.5019608 0.3137255 0.654902 0.5019608 0.3137255 0.654902 0.5019608 0.3137255 0.654902 0.5019608 0.3137255 0.654902 0.5019608 0.3137255 0.654902 0.5019608 0.3137255 0.654902 0.5019608 0.3137255 0.654902 0.5019608 0.3137255 0.654902 0.5019608 0.3137255 0.654902 0.5019608 0.3137255 0.654902 0.5019608 0.3137255 0.654902 0.5019608 0.3137255 0.654902 0.5019608 0.3137255 0.654902 0.5019608 0.3137255 0.654902 0.5019608 0.3137255 0.654902 0.5019608 0.3137255 0.654902 0.5019608 0.3137255 0.654902 0.5019608 0.3137255 0.654902 0.5019608 0.3137255 0.654902 0.5019608 0.3137255 0.654902 0.5019608 0.3137255 0.654902 0.5019608 0.3137255 0.654902 0.5019608 0.3137255 0.654902 0.5019608 0.3137255 0.654902 0.5019608 0.3137255 0.654902 0.5019608 0.3137255 0.654902 0.5019608 0.3137255 0.654902 0.5019608 0.3137255 0.654902 0.5019608 0.3137255 0.654902 0.5019608 0.3137255 0.654902 0.5019608 0.3137255 0.654902 0.5019608 0.3137255 0.654902 0.5019608 0.3137255 0.654902 0.5019608 0.3137255 0.654902 0.5019608 0.3137255 0.654902 0.5019608 0.3137255 0.654902 0.5019608 0.3137255 0.654902 0.5019608 0.3137255 0.654902 0.5019608 0.3137255 0.654902 0.5019608 0.3137255 0.654902 0.5019608 0.3137255 0.654902 0.5019608 0.3137255 0.654902 0.5019608 0.3137255 0.654902 0.5019608 0.3137255 0.654902 0.5019608 0.3137255 0.654902 0.5019608 0.3137255 0.654902 0.5019608 0.3137255 0.654902 0.5019608 0.3137255 0.654902 0.5019608 0.3137255 0.654902 0.5019608 0.3137255 0.654902 0.5019608 0.3137255 0.654902 0.5019608 0.3137255 0.654902 0.5019608 0.3137255 0.654902 0.5019608 0.3137255 0.654902 0.5019608 0.3137255 0.654902 0.5019608 0.3137255 0.654902 0.5019608 0.3137255 0.654902 0.5019608 0.3137255 0.654902 0.5019608 0.3137255 0.654902 0.5019608 0.3137255 0.654902 0.5019608 0.3137255 0.654902 0.5019608 0.3137255 0.654902 0.5019608 0.3137255 0.654902 0.5019608 0.3137255 0.654902 0.5019608 0.3137255 0.654902 0.5019608 0.3137255 0.654902 0.5019608 0.3137255 0.654902 0.5019608 0.3137255 0.654902 0.5019608 0.3137255 0.654902 0.5019608 0.3137255 0.654902 0.5019608 0.3137255 0.654902 0.5019608 0.3137255 0.654902 0.5019608 0.3137255 0.654902 0.5019608 0.3137255 0.654902 0.5019608 0.3137255 0.654902 0.5019608 0.3137255 0.654902 0.5019608 0.3137255 0.654902 0.5019608 0.3137255 0.654902 0.5019608 0.3137255 0.654902 0.5019608 0.3137255 0.654902 0.5019608 0.3137255 0.654902 0.5019608 0.3137255 0.654902 0.5019608 0.3137255 0.654902 0.5019608 0.3137255 0.654902 0.5019608 0.3137255 0.654902 0.5019608 0.3137255 0.654902 0.5019608 0.3137255 0.654902 0.5019608 0.3137255 0.654902 0.5019608 0.3137255 0.654902 0.5019608 0.3137255 0.654902 0.5019608 0.3137255 0.654902 0.5019608 0.3137255 0.654902 0.5019608 0.3137255 0.654902 0.5019608 0.3137255 0.654902 0.5019608 0.3137255 0.654902 0.5019608 0.3137255 0.654902 0.5019608 0.3137255 0.654902 0.5019608 0.3137255 0.654902 0.5019608 0.3137255 0.654902 0.5019608 0.3137255 0.654902 0.5019608 0.3137255 0.654902 0.5019608 0.3137255 0.654902 0.5019608 0.3137255 0.654902 0.5019608 0.3137255 0.654902 0.5019608 0.3137255 0.654902 0.5019608 0.3137255 0.654902 0.5019608 0.3137255 0.654902 0.5019608 0.3137255 0.654902 0.5019608 0.3137255 0.654902 0.5019608 0.3137255 0.654902 0.5019608 0.3137255 0.654902 0.5019608 0.3137255 0.654902 0.5019608 0.3137255 0.654902 0.5019608 0.3137255 0.654902 0.5019608 0.3137255 0.654902 0.5019608 0.3137255 0.654902 0.5019608 0.3137255 0.654902 0.5019608 0.3137255 0.654902 0.5019608 0.3137255 0.654902 0.5019608 0.3137255 0.654902 0.5019608 0.3137255 0.654902 0.5019608 0.3137255 0.654902 0.5019608 0.3137255 0.654902 0.5019608 0.3137255 0.654902 0.5019608 0.3137255 0.654902 0.5019608 0.3137255 0.654902 0.5019608 0.3137255 0.654902 0.5019608 0.3137255 0.654902 0.5019608 0.3137255 0.654902 0.5019608 0.3137255 0.654902 0.5019608 0.3137255 0.654902 0.5019608 0.3137255 0.654902 0.5019608 0.3137255 0.654902 0.5019608 0.3137255 0.654902 0.5019608 0.3137255 0.654902 0.5019608 0.3137255 0.654902 0.5019608 0.3137255 0.654902 0.5019608 0.3137255 0.654902 0.5019608 0.3137255 0.654902 0.5019608 0.3137255 0.654902 0.5019608 0.3137255 0.654902 0.5019608 0.3137255 0.654902 0.5019608 0.3137255 0.654902 0.5019608 0.3137255 0.654902 0.5019608 0.3137255 0.654902 0.5019608 0.3137255 0.654902 0.5019608 0.3137255 0.654902 0.5019608 0.3137255 0.654902 0.5019608 0.3137255 0.654902 0.5019608 0.3137255 0.654902 0.5019608 0.3137255 0.654902 0.5019608 0.3137255 0.654902 0.5019608 0.3137255 0.654902 0.5019608 0.3137255 0.654902 0.5019608 0.3137255 0.654902 0.5019608 0.3137255 0.654902 0.5019608 0.3137255 0.654902 0.5019608 0.3137255 0.654902 0.5019608 0.3137255 0.654902 0.5019608 0.3137255 0.654902 0.5019608 0.3137255 0.654902 0.5019608 0.3137255 0.654902 0.5019608 0.3137255 0.654902 0.5019608 0.3137255 0.654902 0.5019608 0.3137255</float_array>
          <technique_common>
            <accessor source="#shape0_055-mesh-colors-shape0-lib-vcolor-array" count="1398" stride="3">
              <param name="R" type="float"/>
              <param name="G" type="float"/>
              <param name="B" type="float"/>
            </accessor>
          </technique_common>
        </source>
        <vertices id="shape0_055-mesh-vertices">
          <input semantic="POSITION" source="#shape0_055-mesh-positions"/>
        </vertices>
        <polylist count="466">
          <input semantic="VERTEX" source="#shape0_055-mesh-vertices" offset="0"/>
          <input semantic="NORMAL" source="#shape0_055-mesh-normals" offset="1"/>
          <input semantic="COLOR" source="#shape0_055-mesh-colors-shape0-lib-vcolor" offset="2" set="0"/>
          <vcount>3 3 3 3 3 3 3 3 3 3 3 3 3 3 3 3 3 3 3 3 3 3 3 3 3 3 3 3 3 3 3 3 3 3 3 3 3 3 3 3 3 3 3 3 3 3 3 3 3 3 3 3 3 3 3 3 3 3 3 3 3 3 3 3 3 3 3 3 3 3 3 3 3 3 3 3 3 3 3 3 3 3 3 3 3 3 3 3 3 3 3 3 3 3 3 3 3 3 3 3 3 3 3 3 3 3 3 3 3 3 3 3 3 3 3 3 3 3 3 3 3 3 3 3 3 3 3 3 3 3 3 3 3 3 3 3 3 3 3 3 3 3 3 3 3 3 3 3 3 3 3 3 3 3 3 3 3 3 3 3 3 3 3 3 3 3 3 3 3 3 3 3 3 3 3 3 3 3 3 3 3 3 3 3 3 3 3 3 3 3 3 3 3 3 3 3 3 3 3 3 3 3 3 3 3 3 3 3 3 3 3 3 3 3 3 3 3 3 3 3 3 3 3 3 3 3 3 3 3 3 3 3 3 3 3 3 3 3 3 3 3 3 3 3 3 3 3 3 3 3 3 3 3 3 3 3 3 3 3 3 3 3 3 3 3 3 3 3 3 3 3 3 3 3 3 3 3 3 3 3 3 3 3 3 3 3 3 3 3 3 3 3 3 3 3 3 3 3 3 3 3 3 3 3 3 3 3 3 3 3 3 3 3 3 3 3 3 3 3 3 3 3 3 3 3 3 3 3 3 3 3 3 3 3 3 3 3 3 3 3 3 3 3 3 3 3 3 3 3 3 3 3 3 3 3 3 3 3 3 3 3 3 3 3 3 3 3 3 3 3 3 3 3 3 3 3 3 3 3 3 3 3 3 3 3 3 3 3 3 3 3 3 3 3 3 3 3 3 3 3 3 3 3 3 3 3 3 3 3 3 3 3 3 3 3 3 3 3 3 3 3 3 3 3 3 3 3 3 3 3 3 3 3 3 3 3 3 3 3 3 3 3 3 3 3 3 3 3 3 3 3 3 3 3 3 3 3 3 3 3 3 3 3 3 3 3 </vcount>
          <p>0 0 0 1 0 1 2 0 2 3 1 3 1 1 4 0 1 5 1 2 6 4 2 7 6 2 8 7 3 9 6 3 10 5 3 11 10 4 12 8 4 13 9 4 14 11 5 15 10 5 16 9 5 17 14 6 18 12 6 19 13 6 20 18 7 21 14 7 22 13 7 23 19 8 24 17 8 25 16 8 26 17 9 27 20 9 28 23 9 29 20 10 30 17 10 31 19 10 32 24 11 33 20 11 34 22 11 35 20 12 36 24 12 37 31 12 38 27 13 39 24 13 40 26 13 41 27 14 42 30 14 43 33 14 44 34 15 45 31 15 46 24 15 47 35 16 48 297 16 49 296 16 50 32 17 51 33 17 52 41 17 53 32 18 54 37 18 55 34 18 56 298 19 57 297 19 58 39 19 59 39 20 60 297 20 61 35 20 62 36 21 63 42 21 64 37 21 65 43 22 66 298 22 67 38 22 68 36 23 69 41 23 70 47 23 71 45 24 72 299 24 73 298 24 74 42 25 75 36 25 76 44 25 77 45 26 78 48 26 79 49 26 80 44 27 81 47 27 82 51 27 83 52 28 84 300 28 85 299 28 86 46 29 87 44 29 88 50 29 89 50 30 90 51 30 91 55 30 92 300 31 93 56 31 94 60 31 95 56 32 96 300 32 97 52 32 98 54 33 99 55 33 100 58 33 101 54 34 102 59 34 103 53 34 104 301 35 105 60 35 106 64 35 107 305 36 108 61 36 109 62 36 110 58 37 111 68 37 112 63 37 113 302 38 114 64 38 115 69 38 116 59 39 117 54 39 118 63 39 119 66 40 120 304 40 121 303 40 122 67 41 123 303 41 124 62 41 125 70 42 126 307 42 127 304 42 128 71 43 129 304 43 130 66 43 131 72 44 132 63 44 133 68 44 134 306 45 135 69 45 136 77 45 137 65 46 138 63 46 139 72 46 140 74 47 141 309 47 142 307 47 143 75 48 144 307 48 145 70 48 146 72 49 147 68 49 148 79 49 149 78 50 150 309 50 151 74 50 152 76 51 153 80 51 154 73 51 155 81 52 156 310 52 157 309 52 158 308 53 159 77 53 160 87 53 161 76 54 162 79 54 163 83 54 164 80 55 165 76 55 166 82 55 167 81 56 168 85 56 169 86 56 170 82 57 171 83 57 172 89 57 173 311 58 174 87 58 175 94 58 176 90 59 177 312 59 178 310 59 179 88 60 180 89 60 181 92 60 182 348 61 183 93 61 184 84 61 185 313 62 186 94 62 187 98 62 188 95 63 189 312 63 190 90 63 191 91 64 192 92 64 193 100 64 194 349 65 195 97 65 196 93 65 197 314 66 198 98 66 199 102 66 200 99 67 201 315 67 202 312 67 203 350 68 204 101 68 205 97 68 206 103 69 207 317 69 208 315 69 209 104 70 210 315 70 211 99 70 212 96 71 213 100 71 214 106 71 215 316 72 216 102 72 217 111 72 218 101 73 219 350 73 220 351 73 221 317 74 222 108 74 223 112 74 224 108 75 225 317 75 226 103 75 227 105 76 228 106 76 229 114 76 230 318 77 231 111 77 232 116 77 233 113 78 234 108 78 235 109 78 236 352 79 237 115 79 238 107 79 239 319 80 240 112 80 241 121 80 242 117 81 243 112 81 244 108 81 245 118 82 246 108 82 247 113 82 248 110 83 249 114 83 250 123 83 251 116 84 252 124 84 253 322 84 254 115 85 255 352 85 256 353 85 257 321 86 258 121 86 259 125 86 260 122 87 261 112 87 262 117 87 263 126 88 264 121 88 265 112 88 266 128 89 267 119 89 268 123 89 269 324 90 270 322 90 271 124 90 272 353 91 273 354 91 274 133 91 275 325 92 276 323 92 277 125 92 278 129 93 279 125 93 280 121 93 281 130 94 282 121 94 283 126 94 284 326 95 285 324 95 286 124 95 287 127 96 288 132 96 289 136 96 290 327 97 291 325 97 292 125 97 293 134 98 294 135 98 295 125 98 296 328 99 297 326 99 298 131 99 299 354 100 300 355 100 301 140 100 302 125 101 303 135 101 304 138 101 305 137 102 306 135 102 307 134 102 308 131 103 309 329 103 310 139 103 311 132 104 312 330 104 313 142 104 314 141 105 315 135 105 316 137 105 317 355 106 318 356 106 319 146 106 320 143 107 321 138 107 322 135 107 323 329 108 324 144 108 325 145 108 326 330 109 327 332 109 328 148 109 329 331 110 330 138 110 331 143 110 332 356 111 333 357 111 334 152 111 335 149 112 336 331 112 337 147 112 338 144 113 339 150 113 340 151 113 341 332 114 342 334 114 343 154 114 344 333 115 345 331 115 346 149 115 347 357 116 348 358 116 349 157 116 350 155 117 351 333 117 352 153 117 353 150 118 354 160 118 355 156 118 356 334 119 357 335 119 358 161 119 359 333 120 360 158 120 361 159 120 362 358 121 363 161 121 364 165 121 365 163 122 366 336 122 367 159 122 368 160 123 369 337 123 370 164 123 371 335 124 372 338 124 373 167 124 374 166 125 375 163 125 376 162 125 377 161 126 378 167 126 379 171 126 380 169 127 381 163 127 382 166 127 383 337 128 384 339 128 385 170 128 386 338 129 387 340 129 388 173 129 389 172 130 390 169 130 391 168 130 392 167 131 393 173 131 394 177 131 395 174 132 396 175 132 397 169 132 398 339 133 399 341 133 400 176 133 401 340 134 402 342 134 403 179 134 404 178 135 405 175 135 406 174 135 407 173 136 408 179 136 409 182 136 410 180 137 411 175 137 412 178 137 413 176 138 414 341 138 415 185 138 416 342 139 417 343 139 418 186 139 419 180 140 420 427 140 421 344 140 422 179 141 423 186 141 424 191 141 425 185 142 426 187 142 427 188 142 428 190 143 429 186 143 430 343 143 431 192 144 432 345 144 433 181 144 434 189 145 435 193 145 436 196 145 437 186 146 438 190 146 439 197 146 440 195 147 441 345 147 442 194 147 443 198 148 444 346 148 445 195 148 446 199 149 447 196 149 448 203 149 449 190 150 450 196 150 451 207 150 452 347 151 453 346 151 454 198 151 455 205 152 456 200 152 457 206 152 458 196 153 459 200 153 460 210 153 461 208 154 462 209 154 463 205 154 464 200 155 465 205 155 466 212 155 467 211 156 468 209 156 469 208 156 470 205 157 471 209 157 472 213 157 473 213 158 474 209 158 475 214 158 476 217 159 477 213 159 478 215 159 479 218 160 480 217 160 481 216 160 482 221 161 483 219 161 484 220 161 485 222 162 486 223 162 487 221 162 488 224 163 489 223 163 490 222 163 491 226 164 492 223 164 493 227 164 494 228 165 495 226 165 496 225 165 497 229 166 498 230 166 499 226 166 500 231 167 501 230 167 502 229 167 503 233 168 504 230 168 505 234 168 506 235 169 507 233 169 508 232 169 509 236 170 510 237 170 511 233 170 512 238 171 513 237 171 514 236 171 515 239 172 516 237 172 517 238 172 518 243 173 519 253 173 520 252 173 521 251 174 522 259 174 523 254 174 524 248 175 525 284 175 526 290 175 527 251 176 528 268 176 529 259 176 530 260 177 531 270 177 532 282 177 533 251 178 534 279 178 535 268 178 536 281 179 537 270 179 538 269 179 539 251 180 540 289 180 541 279 180 542 251 181 543 293 181 544 289 181 545 294 182 546 295 182 547 293 182 548 295 183 549 235 183 550 360 183 551 4 184 552 360 184 553 235 184 554 234 185 555 228 185 556 361 185 557 228 186 558 227 186 559 362 186 560 227 187 561 444 187 562 363 187 563 444 188 564 443 188 565 364 188 566 443 189 567 442 189 568 365 189 569 442 190 570 441 190 571 366 190 572 16 191 573 366 191 574 441 191 575 211 192 576 445 192 577 447 192 578 446 193 579 439 193 580 449 193 581 440 194 582 437 194 583 451 194 584 452 195 585 438 195 586 435 195 587 436 196 588 434 196 589 367 196 590 367 197 591 434 197 592 433 197 593 368 198 594 433 198 595 431 198 596 370 199 597 432 199 598 428 199 599 375 200 600 183 200 601 408 200 602 413 201 603 421 201 604 417 201 605 374 202 606 373 202 607 372 202 608 296 203 609 452 203 610 453 203 611 385 204 612 381 204 613 379 204 614 407 205 615 405 205 616 400 205 617 422 206 618 414 206 619 418 206 620 430 207 621 428 207 622 432 207 623 4 208 624 5 208 625 6 208 626 4 209 627 1 209 628 3 209 629 8 210 630 10 210 631 6 210 632 6 211 633 7 211 634 8 211 635 11 212 636 14 212 637 10 212 638 14 213 639 11 213 640 12 213 641 15 214 642 17 214 643 18 214 644 18 215 645 13 215 646 15 215 647 15 216 648 16 216 649 17 216 650 18 217 651 17 217 652 23 217 653 21 218 654 22 218 655 20 218 656 20 219 657 19 219 658 21 219 659 25 220 660 26 220 661 24 220 662 24 221 663 22 221 664 25 221 665 23 222 666 20 222 667 31 222 668 26 223 669 30 223 670 27 223 671 30 224 672 26 224 673 28 224 674 28 225 675 29 225 676 30 225 677 32 226 678 27 226 679 33 226 680 27 227 681 34 227 682 24 227 683 36 228 684 32 228 685 41 228 686 27 229 687 32 229 688 34 229 689 298 230 690 39 230 691 40 230 692 40 231 693 38 231 694 298 231 695 32 232 696 36 232 697 37 232 698 44 233 699 36 233 700 47 233 701 43 234 702 45 234 703 298 234 704 46 235 705 42 235 706 44 235 707 299 236 708 45 236 709 49 236 710 50 237 711 44 237 712 51 237 713 49 238 714 52 238 715 299 238 716 53 239 717 46 239 718 50 239 719 54 240 720 50 240 721 55 240 722 301 241 723 300 241 724 60 241 725 57 242 726 56 242 727 52 242 728 50 243 729 54 243 730 53 243 731 302 244 732 301 244 733 64 244 734 303 245 735 305 245 736 62 245 737 54 246 738 58 246 739 63 246 740 306 247 741 302 247 742 69 247 743 65 248 744 59 248 745 63 248 746 67 249 747 66 249 748 303 249 749 71 250 750 70 250 751 304 250 752 308 251 753 306 251 754 77 251 755 73 252 756 65 252 757 72 252 758 75 253 759 74 253 760 307 253 761 76 254 762 72 254 763 79 254 764 72 255 765 76 255 766 73 255 767 78 256 768 81 256 769 309 256 770 311 257 771 308 257 772 87 257 773 82 258 774 76 258 775 83 258 776 84 259 777 80 259 778 82 259 779 310 260 780 81 260 781 86 260 782 88 261 783 82 261 784 89 261 785 313 262 786 311 262 787 94 262 788 86 263 789 90 263 790 310 263 791 91 264 792 88 264 793 92 264 794 82 265 795 348 265 796 84 265 797 314 266 798 313 266 799 98 266 800 96 267 801 91 267 802 100 267 803 348 268 804 349 268 805 93 268 806 316 269 807 314 269 808 102 269 809 95 270 810 99 270 811 312 270 812 349 271 813 350 271 814 97 271 815 104 272 816 103 272 817 315 272 818 105 273 819 96 273 820 106 273 821 318 274 822 316 274 823 111 274 824 107 275 825 101 275 826 351 275 827 319 276 828 317 276 829 112 276 830 109 277 831 108 277 832 103 277 833 110 278 834 105 278 835 114 278 836 320 279 837 318 279 838 116 279 839 351 280 840 352 280 841 107 280 842 321 281 843 319 281 844 121 281 845 118 282 846 117 282 847 108 282 848 119 283 849 110 283 850 123 283 851 320 284 852 116 284 853 322 284 854 120 285 855 115 285 856 353 285 857 323 286 858 321 286 859 125 286 860 122 287 861 126 287 862 112 287 863 127 288 864 128 288 865 123 288 866 120 289 867 353 289 868 133 289 869 130 290 870 129 290 871 121 290 872 131 291 873 326 291 874 124 291 875 128 292 876 127 292 877 136 292 878 129 293 879 134 293 880 125 293 881 133 294 882 354 294 883 140 294 884 327 295 885 125 295 886 138 295 887 328 296 888 131 296 889 139 296 890 136 297 891 132 297 892 142 297 893 140 298 894 355 298 895 146 298 896 141 299 897 143 299 898 135 299 899 139 300 900 329 300 901 145 300 902 142 301 903 330 301 904 148 301 905 147 302 906 331 302 907 143 302 908 146 303 909 356 303 910 152 303 911 145 304 912 144 304 913 151 304 914 148 305 915 332 305 916 154 305 917 153 306 918 333 306 919 149 306 920 152 307 921 357 307 922 157 307 923 151 308 924 150 308 925 156 308 926 154 309 927 334 309 928 161 309 929 159 310 930 336 310 931 333 310 932 333 311 933 155 311 934 158 311 935 157 312 936 358 312 937 165 312 938 162 313 939 163 313 940 159 313 941 156 314 942 160 314 943 164 314 944 161 315 945 335 315 946 167 315 947 165 316 948 161 316 949 171 316 950 168 317 951 169 317 952 166 317 953 164 318 954 337 318 955 170 318 956 167 319 957 338 319 958 173 319 959 171 320 960 167 320 961 177 320 962 172 321 963 174 321 964 169 321 965 170 322 966 339 322 967 176 322 968 173 323 969 340 323 970 179 323 971 177 324 972 173 324 973 182 324 974 185 325 975 181 325 976 176 325 977 341 326 978 184 326 979 185 326 980 179 327 981 342 327 982 186 327 983 175 328 984 180 328 985 344 328 986 182 329 987 179 329 988 191 329 989 181 330 990 185 330 991 188 330 992 189 331 993 190 331 994 343 331 995 188 332 996 192 332 997 181 332 998 190 333 999 189 333 1000 196 333 1001 191 334 1002 186 334 1003 197 334 1004 345 335 1005 195 335 1006 346 335 1007 345 336 1008 192 336 1009 194 336 1010 193 337 1011 201 337 1012 202 337 1013 196 338 1014 199 338 1015 200 338 1016 196 339 1017 202 339 1018 203 339 1019 202 340 1020 196 340 1021 193 340 1022 197 341 1023 190 341 1024 207 341 1025 200 342 1026 199 342 1027 206 342 1028 206 343 1029 204 343 1030 205 343 1031 207 344 1032 196 344 1033 210 344 1034 204 345 1035 208 345 1036 205 345 1037 210 346 1038 200 346 1039 212 346 1040 212 347 1041 205 347 1042 213 347 1043 214 348 1044 215 348 1045 213 348 1046 209 349 1047 211 349 1048 214 349 1049 216 350 1050 217 350 1051 215 350 1052 219 351 1053 221 351 1054 217 351 1055 217 352 1056 218 352 1057 219 352 1058 220 353 1059 222 353 1060 221 353 1061 223 354 1062 224 354 1063 227 354 1064 227 355 1065 225 355 1066 226 355 1067 228 356 1068 229 356 1069 226 356 1070 230 357 1071 231 357 1072 234 357 1073 234 358 1074 232 358 1075 233 358 1076 235 359 1077 236 359 1078 233 359 1079 242 360 1080 240 360 1081 241 360 1082 258 361 1083 278 361 1084 267 361 1085 267 362 1086 277 362 1087 258 362 1088 244 363 1089 276 363 1090 266 363 1091 253 364 1092 275 364 1093 252 364 1094 247 365 1095 257 365 1096 265 365 1097 254 366 1098 248 366 1099 264 366 1100 248 367 1101 254 367 1102 255 367 1103 254 368 1104 262 368 1105 251 368 1106 254 369 1107 272 369 1108 285 369 1109 254 370 1110 287 370 1111 256 370 1112 254 371 1113 286 371 1114 273 371 1115 254 372 1116 274 372 1117 263 372 1118 254 373 1119 245 373 1120 288 373 1121 257 374 1122 247 374 1123 250 374 1124 275 375 1125 253 375 1126 249 375 1127 276 376 1128 244 376 1129 243 376 1130 240 377 1131 242 377 1132 246 377 1133 277 378 1134 267 378 1135 240 378 1136 240 379 1137 246 379 1138 277 379 1139 249 380 1140 265 380 1141 275 380 1142 245 381 1143 254 381 1144 264 381 1145 254 382 1146 285 382 1147 262 382 1148 254 383 1149 273 383 1150 287 383 1151 254 384 1152 288 384 1153 274 384 1154 265 385 1155 249 385 1156 247 385 1157 266 386 1158 246 386 1159 244 386 1160 246 387 1161 266 387 1162 277 387 1163 250 388 1164 264 388 1165 257 388 1166 254 389 1167 256 389 1168 272 389 1169 264 390 1170 250 390 1171 245 390 1172 252 391 1173 276 391 1174 243 391 1175 263 392 1176 286 392 1177 254 392 1178 255 393 1179 260 393 1180 261 393 1181 261 394 1182 248 394 1183 255 394 1184 291 395 1185 283 395 1186 290 395 1187 290 396 1188 271 396 1189 291 396 1190 290 397 1191 284 397 1192 292 397 1193 284 398 1194 248 398 1195 261 398 1196 292 399 1197 271 399 1198 290 399 1199 270 400 1200 260 400 1201 269 400 1202 260 401 1203 282 401 1204 261 401 1205 280 402 1206 281 402 1207 269 402 1208 251 403 1209 294 403 1210 293 403 1211 359 404 1212 295 404 1213 360 404 1214 234 405 1215 4 405 1216 235 405 1217 4 406 1218 234 406 1219 361 406 1220 361 407 1221 228 407 1222 362 407 1223 362 408 1224 227 408 1225 363 408 1226 363 409 1227 444 409 1228 364 409 1229 364 410 1230 443 410 1231 365 410 1232 365 411 1233 442 411 1234 366 411 1235 211 412 1236 16 412 1237 441 412 1238 16 413 1239 211 413 1240 447 413 1241 448 414 1242 446 414 1243 449 414 1244 450 415 1245 440 415 1246 451 415 1247 453 416 1248 452 416 1249 435 416 1250 454 417 1251 436 417 1252 367 417 1253 368 418 1254 367 418 1255 433 418 1256 369 419 1257 368 419 1258 431 419 1259 374 420 1260 370 420 1261 428 420 1262 385 421 1263 375 421 1264 408 421 1265 417 422 1266 415 422 1267 413 422 1268 413 423 1269 411 423 1270 408 423 1271 421 424 1272 183 424 1273 425 424 1274 425 425 1275 423 425 1276 421 425 1277 421 426 1278 419 426 1279 417 426 1280 183 427 1281 413 427 1282 408 427 1283 413 428 1284 183 428 1285 421 428 1286 374 429 1287 372 429 1288 371 429 1289 371 430 1290 370 430 1291 374 430 1292 377 431 1293 376 431 1294 375 431 1295 379 432 1296 378 432 1297 377 432 1298 381 433 1299 380 433 1300 379 433 1301 383 434 1302 382 434 1303 381 434 1304 385 435 1305 384 435 1306 383 435 1307 377 436 1308 375 436 1309 385 436 1310 385 437 1311 379 437 1312 377 437 1313 385 438 1314 383 438 1315 381 438 1316 399 439 1317 397 439 1318 386 439 1319 387 440 1320 389 440 1321 388 440 1322 389 441 1323 391 441 1324 390 441 1325 391 442 1326 393 442 1327 392 442 1328 397 443 1329 396 443 1330 395 443 1331 395 444 1332 394 444 1333 393 444 1334 395 445 1335 391 445 1336 389 445 1337 407 446 1338 386 446 1339 409 446 1340 407 447 1341 406 447 1342 405 447 1343 400 448 1344 386 448 1345 407 448 1346 395 449 1347 393 449 1348 391 449 1349 389 450 1350 397 450 1351 395 450 1352 386 451 1353 400 451 1354 399 451 1355 387 452 1356 386 452 1357 397 452 1358 399 453 1359 398 453 1360 397 453 1361 403 454 1362 405 454 1363 404 454 1364 401 455 1365 403 455 1366 402 455 1367 405 456 1368 401 456 1369 400 456 1370 387 457 1371 397 457 1372 389 457 1373 401 458 1374 405 458 1375 403 458 1376 422 459 1377 426 459 1378 429 459 1379 418 460 1380 420 460 1381 422 460 1382 422 461 1383 424 461 1384 426 461 1385 414 462 1386 410 462 1387 412 462 1388 414 463 1389 416 463 1390 418 463 1391 429 464 1392 410 464 1393 414 464 1394 414 465 1395 422 465 1396 429 465 1397</p>
        </polylist>
      </mesh>
    </geometry>
  </library_geometries>
  <library_controllers/>
  <library_visual_scenes>
    <visual_scene id="Scene" name="Scene">
      <node id="VIZ_LFx_link_0" name="VIZ_LFx_link_0" type="NODE">
        <instance_geometry url="#shape0_055-mesh" name="VIZ_LFx_link_0"/>
      </node>
    </visual_scene>
  </library_visual_scenes>
  <scene>
    <instance_visual_scene url="#Scene"/>
  </scene>
</COLLADA>