<?xml version="1.0" encoding="utf-8"?>
<COLLADA xmlns="http://www.collada.org/2005/11/COLLADASchema" version="1.4.1">
  <asset>
    <contributor>
      <author>Blender User</author>
      <authoring_tool>Blender 2.76.0 commit date:2015-11-03, commit time:10:56, hash:f337fea</authoring_tool>
    </contributor>
    <created>2016-11-13T17:55:46</created>
    <modified>2016-11-13T17:55:46</modified>
    <unit name="meter" meter="1"/>
    <up_axis>Z_UP</up_axis>
  </asset>
  <library_images/>
  <library_geometries>
    <geometry id="shape0_001-mesh" name="shape0.001">
      <mesh>
        <source id="shape0_001-mesh-positions">
          <float_array id="shape0_001-mesh-positions-array" count="3510">16.976 -123.211 62.81328 17.784 -126.432 62.81328 18.6183 -129.758 62.81328 20.2605 -136.305 62.81328 22.2653 -144.297 62.81328 22.7065 -146.055 62.81328 21.9047 -147.853 62.81328 21.306 -147.969 62.81328 19.4883 -148.248 62.81328 18.8756 -148.318 62.81328 16.3939 -148.472 62.81328 15.5115 -148.479 62.81328 16.976 -123.211 52.34828 18.6183 -129.758 52.34828 19.4525 -133.083 52.34828 20.2605 -136.305 52.34828 21.6932 -142.016 52.34828 23.0909 -147.588 52.34828 22.4997 -147.726 52.34828 21.9047 -147.853 52.34828 20.7036 -148.073 52.34828 20.0976 -148.167 52.34828 18.2597 -148.375 52.34828 17.6407 -148.42 52.34828 15.7663 -148.479 52.34828 15.5115 -148.479 52.34828 16.2204 -120.199 52.34828 16.2204 -120.199 62.81328 17.784 -126.432 52.34828 19.4525 -133.083 62.81328 21.0161 -139.317 52.34828 21.0161 -139.317 62.81328 21.6932 -142.016 62.81328 22.2653 -144.297 52.34828 22.7065 -146.055 52.34828 22.9904 -147.187 52.34828 22.9904 -147.187 62.81328 23.0909 -147.588 62.81328 22.4997 -147.725 62.81328 21.306 -147.969 52.34828 20.7036 -148.073 62.81328 20.0976 -148.167 62.81328 19.4883 -148.248 52.34828 18.8756 -148.318 52.34828 18.2597 -148.375 62.81328 17.6407 -148.42 62.81328 17.0188 -148.453 52.34828 17.0188 -148.453 62.81328 16.3939 -148.472 52.34828 15.7663 -148.479 62.81328 20.9233 -120.002 62.81328 27.0904 -122.87 62.81328 30.2233 -124.327 62.81328 33.2576 -125.738 62.81328 36.0952 -127.058 62.81328 40.7862 -129.239 62.81328 43.3186 -131.83 62.81328 42.7008 -132.951 62.81328 41.6852 -134.58 62.81328 41.3243 -135.108 62.81328 39.778 -137.144 62.81328 23.9576 -121.413 52.34828 27.0904 -122.87 52.34828 30.2233 -124.327 52.34828 40.7862 -129.239 52.34828 42.4428 -130.01 52.34828 43.8861 -130.681 52.34828 43.6089 -131.259 52.34828 42.7008 -132.951 52.34828 42.3737 -133.501 52.34828 42.0351 -134.044 52.34828 40.9528 -135.629 52.34828 40.5711 -136.142 52.34828 39.778 -137.144 52.34828 18.0857 -118.682 52.34828 18.0857 -118.682 62.81328 20.9233 -120.002 52.34828 23.9576 -121.413 62.81328 33.2576 -125.738 52.34828 36.0952 -127.058 52.34828 38.6375 -128.24 52.34828 38.6375 -128.24 62.81328 42.4428 -130.01 62.81328 43.5089 -130.506 52.34828 43.5089 -130.506 62.81328 43.8861 -130.681 62.81328 43.6089 -131.259 62.81328 43.3186 -131.83 52.34828 43.0159 -132.394 52.34828 43.0159 -132.394 62.81328 42.3737 -133.501 62.81328 42.0351 -134.044 62.81328 41.6852 -134.58 52.34828 41.3243 -135.108 52.34828 40.9528 -135.629 62.81328 40.5711 -136.142 62.81328 40.1794 -136.647 52.34828 40.1794 -136.647 62.81328 34.7583 -141.994 62.81328 34.2528 -142.377 62.81328 33.7393 -142.748 62.81328 33.2178 -143.109 62.81328 31.6056 -144.128 62.81328 31.0523 -144.446 62.81328 30.491 -144.754 62.81328 29.3446 -145.338 62.81328 15.5434 -117.5 62.81328 25.7533 -129.983 62.81328 27.8638 -132.564 62.81328 29.8373 -134.977 62.81328 31.6054 -137.138 62.81328 34.2521 -140.374 62.81328 34.7583 -141.994 52.34828 33.7393 -142.748 52.34828 32.151 -143.799 52.34828 31.0523 -144.446 52.34828 30.491 -144.754 52.34828 28.7594 -145.614 52.34828 15.5434 -117.5 52.34828 17.3116 -119.662 52.34828 19.2852 -122.075 52.34828 21.3956 -124.655 52.34828 25.7533 -129.983 52.34828 27.8638 -132.564 52.34828 31.6054 -137.138 52.34828 34.2528 -142.377 52.34828 33.2178 -143.109 52.34828 32.6884 -143.459 52.34828 32.6884 -143.459 62.81328 32.151 -143.799 62.81328 31.6056 -144.128 52.34828 29.9218 -145.051 52.34828 29.9218 -145.051 62.81328 29.3446 -145.338 52.34828 28.7594 -145.614 62.81328 17.3116 -119.662 62.81328 19.2852 -122.075 62.81328 21.3956 -124.655 62.81328 23.5744 -127.319 52.34828 23.5744 -127.319 62.81328 29.8373 -134.977 52.34828 33.0999 -138.966 52.34828 33.0999 -138.966 62.81328 34.2521 -140.374 52.34828 34.9935 -141.281 52.34828 34.9935 -141.281 62.81328 35.2559 -141.602 52.34828 35.2559 -141.602 62.81328 24.8558 -117.5 62.81328 28.323 -117.5 62.81328 31.7902 -117.5 62.81328 35.1485 -117.5 62.81328 38.2889 -117.5 62.81328 43.4806 -117.5 62.81328 45.314 -117.5 62.81328 46.9115 -117.5 62.81328 46.8334 -119.445 62.81328 46.7829 -120.087 62.81328 46.5568 -121.991 62.81328 46.4562 -122.618 62.81328 46.2163 -123.857 62.81328 46.0769 -124.47 62.81328 45.9243 -125.077 62.81328 24.8558 -117.5 52.34828 31.7902 -117.5 52.34828 41.1026 -117.5 52.34828 45.314 -117.5 52.34828 46.9115 -117.5 52.34828 46.8975 -118.151 52.34828 46.6448 -121.36 52.34828 46.5568 -121.991 52.34828 46.4562 -122.618 52.34828 46.3427 -123.24 52.34828 46.0769 -124.47 52.34828 18.3571 -117.5 52.34828 18.3571 -117.5 62.81328 21.4975 -117.5 52.34828 21.4975 -117.5 62.81328 28.323 -117.5 52.34828 35.1485 -117.5 52.34828 38.2889 -117.5 52.34828 41.1026 -117.5 62.81328 43.4806 -117.5 52.34828 46.494 -117.5 52.34828 46.494 -117.5 62.81328 46.8975 -118.151 62.81328 46.8716 -118.8 52.34828 46.8716 -118.8 62.81328 46.8334 -119.445 52.34828 46.7829 -120.087 52.34828 46.7201 -120.725 52.34828 46.7201 -120.725 62.81328 46.6448 -121.36 62.81328 46.3427 -123.24 62.81328 46.2163 -123.857 52.34828 45.9243 -125.077 52.34828 -33.6583 -117.468 62.81328 -25.1555 -141.506 62.81328 -39.6453 -148.479 62.81328 -39.6453 -141.506 62.81328 5.41642 -132.91 62.81328 -7.19443 -117.5 62.81328 2.26375 -117.5 62.81328 13.5052 -129.567 62.81328 2.61405 -148.511 62.81328 -17.1303 -117.5 62.81328 -8.627501 -117.5 62.81328 -8.627501 -148.479 62.81328 -33.6583 -141.506 52.34828 -33.6583 -117.468 52.34828 -25.1555 -117.468 52.34828 -39.6453 -148.479 52.34828 2.26375 -117.5 52.34828 13.5052 -136.476 52.34828 2.61405 -148.511 52.34828 -17.1303 -148.479 52.34828 -17.1303 -117.5 52.34828 -8.627501 -117.5 52.34828 -33.6583 -141.506 62.81328 -25.1555 -117.468 62.81328 -25.1555 -141.506 52.34828 -19.1685 -141.506 52.34828 -19.1685 -141.506 62.81328 -19.1685 -148.479 52.34828 -19.1685 -148.479 62.81328 -39.6453 -141.506 52.34828 -17.1303 -148.479 62.81328 -8.627501 -148.479 52.34828 5.41642 -132.91 52.34828 -7.19443 -117.5 52.34828 13.5052 -129.567 52.34828 13.5052 -136.476 62.81328 -7.13077 -148.511 52.34828 -7.13077 -148.511 62.81328 16.976 -123.211 62.81328 17.784 -126.432 62.81328 18.6183 -129.758 62.81328 20.2605 -136.305 62.81328 22.2653 -144.297 62.81328 22.7065 -146.055 62.81328 21.9047 -147.853 62.81328 21.306 -147.969 62.81328 19.4883 -148.248 62.81328 18.8756 -148.318 62.81328 16.3939 -148.472 62.81328 15.5115 -148.479 62.81328 16.976 -123.211 52.34828 18.6183 -129.758 52.34828 19.4525 -133.083 52.34828 20.2605 -136.305 52.34828 21.6932 -142.016 52.34828 23.0909 -147.588 52.34828 22.4997 -147.726 52.34828 21.9047 -147.853 52.34828 20.7036 -148.073 52.34828 20.0976 -148.167 52.34828 18.2597 -148.375 52.34828 17.6407 -148.42 52.34828 15.7663 -148.479 52.34828 15.5115 -148.479 52.34828 16.2204 -120.199 52.34828 16.2204 -120.199 62.81328 17.784 -126.432 52.34828 19.4525 -133.083 62.81328 21.0161 -139.317 52.34828 21.0161 -139.317 62.81328 21.6932 -142.016 62.81328 22.2653 -144.297 52.34828 22.7065 -146.055 52.34828 22.9904 -147.187 52.34828 22.9904 -147.187 62.81328 23.0909 -147.588 62.81328 22.4997 -147.725 62.81328 21.306 -147.969 52.34828 20.7036 -148.073 62.81328 20.0976 -148.167 62.81328 19.4883 -148.248 52.34828 18.8756 -148.318 52.34828 18.2597 -148.375 62.81328 17.6407 -148.42 62.81328 17.0188 -148.453 52.34828 17.0188 -148.453 62.81328 16.3939 -148.472 52.34828 15.7663 -148.479 62.81328 20.9233 -120.002 62.81328 27.0904 -122.87 62.81328 30.2233 -124.327 62.81328 33.2576 -125.738 62.81328 36.0952 -127.058 62.81328 40.7862 -129.239 62.81328 43.3186 -131.83 62.81328 42.7008 -132.951 62.81328 41.6852 -134.58 62.81328 41.3243 -135.108 62.81328 39.778 -137.144 62.81328 23.9576 -121.413 52.34828 27.0904 -122.87 52.34828 30.2233 -124.327 52.34828 40.7862 -129.239 52.34828 42.4428 -130.01 52.34828 43.8861 -130.681 52.34828 43.6089 -131.259 52.34828 42.7008 -132.951 52.34828 42.3737 -133.501 52.34828 42.0351 -134.044 52.34828 40.9528 -135.629 52.34828 40.5711 -136.142 52.34828 39.778 -137.144 52.34828 18.0857 -118.682 52.34828 18.0857 -118.682 62.81328 20.9233 -120.002 52.34828 23.9576 -121.413 62.81328 33.2576 -125.738 52.34828 36.0952 -127.058 52.34828 38.6375 -128.24 52.34828 38.6375 -128.24 62.81328 42.4428 -130.01 62.81328 43.5089 -130.506 52.34828 43.5089 -130.506 62.81328 43.8861 -130.681 62.81328 43.6089 -131.259 62.81328 43.3186 -131.83 52.34828 43.0159 -132.394 52.34828 43.0159 -132.394 62.81328 42.3737 -133.501 62.81328 42.0351 -134.044 62.81328 41.6852 -134.58 52.34828 41.3243 -135.108 52.34828 40.9528 -135.629 62.81328 40.5711 -136.142 62.81328 40.1794 -136.647 52.34828 40.1794 -136.647 62.81328 34.7583 -141.994 62.81328 34.2528 -142.377 62.81328 33.7393 -142.748 62.81328 33.2178 -143.109 62.81328 31.6056 -144.128 62.81328 31.0523 -144.446 62.81328 30.491 -144.754 62.81328 29.3446 -145.338 62.81328 15.5434 -117.5 62.81328 25.7533 -129.983 62.81328 27.8638 -132.564 62.81328 29.8373 -134.977 62.81328 31.6054 -137.138 62.81328 34.2521 -140.374 62.81328 34.7583 -141.994 52.34828 33.7393 -142.748 52.34828 32.151 -143.799 52.34828 31.0523 -144.446 52.34828 30.491 -144.754 52.34828 28.7594 -145.614 52.34828 15.5434 -117.5 52.34828 17.3116 -119.662 52.34828 19.2852 -122.075 52.34828 21.3956 -124.655 52.34828 25.7533 -129.983 52.34828 27.8638 -132.564 52.34828 31.6054 -137.138 52.34828 34.2528 -142.377 52.34828 33.2178 -143.109 52.34828 32.6884 -143.459 52.34828 32.6884 -143.459 62.81328 32.151 -143.799 62.81328 31.6056 -144.128 52.34828 29.9218 -145.051 52.34828 29.9218 -145.051 62.81328 29.3446 -145.338 52.34828 28.7594 -145.614 62.81328 17.3116 -119.662 62.81328 19.2852 -122.075 62.81328 21.3956 -124.655 62.81328 23.5744 -127.319 52.34828 23.5744 -127.319 62.81328 29.8373 -134.977 52.34828 33.0999 -138.966 52.34828 33.0999 -138.966 62.81328 34.2521 -140.374 52.34828 34.9935 -141.281 52.34828 34.9935 -141.281 62.81328 35.2559 -141.602 52.34828 35.2559 -141.602 62.81328 24.8558 -117.5 62.81328 28.323 -117.5 62.81328 31.7902 -117.5 62.81328 35.1485 -117.5 62.81328 38.2889 -117.5 62.81328 43.4806 -117.5 62.81328 45.314 -117.5 62.81328 46.9115 -117.5 62.81328 46.8334 -119.445 62.81328 46.7829 -120.087 62.81328 46.5568 -121.991 62.81328 46.4562 -122.618 62.81328 46.2163 -123.857 62.81328 46.0769 -124.47 62.81328 45.9243 -125.077 62.81328 24.8558 -117.5 52.34828 31.7902 -117.5 52.34828 41.1026 -117.5 52.34828 45.314 -117.5 52.34828 46.9115 -117.5 52.34828 46.8975 -118.151 52.34828 46.6448 -121.36 52.34828 46.5568 -121.991 52.34828 46.4562 -122.618 52.34828 46.3427 -123.24 52.34828 46.0769 -124.47 52.34828 18.3571 -117.5 52.34828 18.3571 -117.5 62.81328 21.4975 -117.5 52.34828 21.4975 -117.5 62.81328 28.323 -117.5 52.34828 35.1485 -117.5 52.34828 38.2889 -117.5 52.34828 41.1026 -117.5 62.81328 43.4806 -117.5 52.34828 46.494 -117.5 52.34828 46.494 -117.5 62.81328 46.8975 -118.151 62.81328 46.8716 -118.8 52.34828 46.8716 -118.8 62.81328 46.8334 -119.445 52.34828 46.7829 -120.087 52.34828 46.7201 -120.725 52.34828 46.7201 -120.725 62.81328 46.6448 -121.36 62.81328 46.3427 -123.24 62.81328 46.2163 -123.857 52.34828 45.9243 -125.077 52.34828 -33.6583 -117.468 62.81328 -25.1555 -141.506 62.81328 -39.6453 -148.479 62.81328 -39.6453 -141.506 62.81328 5.41642 -132.91 62.81328 -7.19443 -117.5 62.81328 2.26375 -117.5 62.81328 13.5052 -129.567 62.81328 2.61405 -148.511 62.81328 -17.1303 -117.5 62.81328 -8.627501 -117.5 62.81328 -8.627501 -148.479 62.81328 -33.6583 -141.506 52.34828 -33.6583 -117.468 52.34828 -25.1555 -117.468 52.34828 -39.6453 -148.479 52.34828 2.26375 -117.5 52.34828 13.5052 -136.476 52.34828 2.61405 -148.511 52.34828 -17.1303 -148.479 52.34828 -17.1303 -117.5 52.34828 -8.627501 -117.5 52.34828 -33.6583 -141.506 62.81328 -25.1555 -117.468 62.81328 -25.1555 -141.506 52.34828 -19.1685 -141.506 52.34828 -19.1685 -141.506 62.81328 -19.1685 -148.479 52.34828 -19.1685 -148.479 62.81328 -39.6453 -141.506 52.34828 -17.1303 -148.479 62.81328 -8.627501 -148.479 52.34828 5.41642 -132.91 52.34828 -7.19443 -117.5 52.34828 13.5052 -129.567 52.34828 13.5052 -136.476 62.81328 -7.13077 -148.511 52.34828 -7.13077 -148.511 62.81328 16.976 -123.211 62.81328 17.784 -126.432 62.81328 18.6183 -129.758 62.81328 20.2605 -136.305 62.81328 22.2653 -144.297 62.81328 22.7065 -146.055 62.81328 21.9047 -147.853 62.81328 21.306 -147.969 62.81328 19.4883 -148.248 62.81328 18.8756 -148.318 62.81328 16.3939 -148.472 62.81328 15.5115 -148.479 62.81328 16.976 -123.211 52.34828 18.6183 -129.758 52.34828 19.4525 -133.083 52.34828 20.2605 -136.305 52.34828 21.6932 -142.016 52.34828 23.0909 -147.588 52.34828 22.4997 -147.726 52.34828 21.9047 -147.853 52.34828 20.7036 -148.073 52.34828 20.0976 -148.167 52.34828 18.2597 -148.375 52.34828 17.6407 -148.42 52.34828 15.7663 -148.479 52.34828 15.5115 -148.479 52.34828 16.2204 -120.199 52.34828 16.2204 -120.199 62.81328 17.784 -126.432 52.34828 19.4525 -133.083 62.81328 21.0161 -139.317 52.34828 21.0161 -139.317 62.81328 21.6932 -142.016 62.81328 22.2653 -144.297 52.34828 22.7065 -146.055 52.34828 22.9904 -147.187 52.34828 22.9904 -147.187 62.81328 23.0909 -147.588 62.81328 22.4997 -147.725 62.81328 21.306 -147.969 52.34828 20.7036 -148.073 62.81328 20.0976 -148.167 62.81328 19.4883 -148.248 52.34828 18.8756 -148.318 52.34828 18.2597 -148.375 62.81328 17.6407 -148.42 62.81328 17.0188 -148.453 52.34828 17.0188 -148.453 62.81328 16.3939 -148.472 52.34828 15.7663 -148.479 62.81328 20.9233 -120.002 62.81328 27.0904 -122.87 62.81328 30.2233 -124.327 62.81328 33.2576 -125.738 62.81328 36.0952 -127.058 62.81328 40.7862 -129.239 62.81328 43.3186 -131.83 62.81328 42.7008 -132.951 62.81328 41.6852 -134.58 62.81328 41.3243 -135.108 62.81328 39.778 -137.144 62.81328 23.9576 -121.413 52.34828 27.0904 -122.87 52.34828 30.2233 -124.327 52.34828 40.7862 -129.239 52.34828 42.4428 -130.01 52.34828 43.8861 -130.681 52.34828 43.6089 -131.259 52.34828 42.7008 -132.951 52.34828 42.3737 -133.501 52.34828 42.0351 -134.044 52.34828 40.9528 -135.629 52.34828 40.5711 -136.142 52.34828 39.778 -137.144 52.34828 18.0857 -118.682 52.34828 18.0857 -118.682 62.81328 20.9233 -120.002 52.34828 23.9576 -121.413 62.81328 33.2576 -125.738 52.34828 36.0952 -127.058 52.34828 38.6375 -128.24 52.34828 38.6375 -128.24 62.81328 42.4428 -130.01 62.81328 43.5089 -130.506 52.34828 43.5089 -130.506 62.81328 43.8861 -130.681 62.81328 43.6089 -131.259 62.81328 43.3186 -131.83 52.34828 43.0159 -132.394 52.34828 43.0159 -132.394 62.81328 42.3737 -133.501 62.81328 42.0351 -134.044 62.81328 41.6852 -134.58 52.34828 41.3243 -135.108 52.34828 40.9528 -135.629 62.81328 40.5711 -136.142 62.81328 40.1794 -136.647 52.34828 40.1794 -136.647 62.81328 34.7583 -141.994 62.81328 34.2528 -142.377 62.81328 33.7393 -142.748 62.81328 33.2178 -143.109 62.81328 31.6056 -144.128 62.81328 31.0523 -144.446 62.81328 30.491 -144.754 62.81328 29.3446 -145.338 62.81328 15.5434 -117.5 62.81328 25.7533 -129.983 62.81328 27.8638 -132.564 62.81328 29.8373 -134.977 62.81328 31.6054 -137.138 62.81328 34.2521 -140.374 62.81328 34.7583 -141.994 52.34828 33.7393 -142.748 52.34828 32.151 -143.799 52.34828 31.0523 -144.446 52.34828 30.491 -144.754 52.34828 28.7594 -145.614 52.34828 15.5434 -117.5 52.34828 17.3116 -119.662 52.34828 19.2852 -122.075 52.34828 21.3956 -124.655 52.34828 25.7533 -129.983 52.34828 27.8638 -132.564 52.34828 31.6054 -137.138 52.34828 34.2528 -142.377 52.34828 33.2178 -143.109 52.34828 32.6884 -143.459 52.34828 32.6884 -143.459 62.81328 32.151 -143.799 62.81328 31.6056 -144.128 52.34828 29.9218 -145.051 52.34828 29.9218 -145.051 62.81328 29.3446 -145.338 52.34828 28.7594 -145.614 62.81328 17.3116 -119.662 62.81328 19.2852 -122.075 62.81328 21.3956 -124.655 62.81328 23.5744 -127.319 52.34828 23.5744 -127.319 62.81328 29.8373 -134.977 52.34828 33.0999 -138.966 52.34828 33.0999 -138.966 62.81328 34.2521 -140.374 52.34828 34.9935 -141.281 52.34828 34.9935 -141.281 62.81328 35.2559 -141.602 52.34828 35.2559 -141.602 62.81328 24.8558 -117.5 62.81328 28.323 -117.5 62.81328 31.7902 -117.5 62.81328 35.1485 -117.5 62.81328 38.2889 -117.5 62.81328 43.4806 -117.5 62.81328 45.314 -117.5 62.81328 46.9115 -117.5 62.81328 46.8334 -119.445 62.81328 46.7829 -120.087 62.81328 46.5568 -121.991 62.81328 46.4562 -122.618 62.81328 46.2163 -123.857 62.81328 46.0769 -124.47 62.81328 45.9243 -125.077 62.81328 24.8558 -117.5 52.34828 31.7902 -117.5 52.34828 41.1026 -117.5 52.34828 45.314 -117.5 52.34828 46.9115 -117.5 52.34828 46.8975 -118.151 52.34828 46.6448 -121.36 52.34828 46.5568 -121.991 52.34828 46.4562 -122.618 52.34828 46.3427 -123.24 52.34828 46.0769 -124.47 52.34828 18.3571 -117.5 52.34828 18.3571 -117.5 62.81328 21.4975 -117.5 52.34828 21.4975 -117.5 62.81328 28.323 -117.5 52.34828 35.1485 -117.5 52.34828 38.2889 -117.5 52.34828 41.1026 -117.5 62.81328 43.4806 -117.5 52.34828 46.494 -117.5 52.34828 46.494 -117.5 62.81328 46.8975 -118.151 62.81328 46.8716 -118.8 52.34828 46.8716 -118.8 62.81328 46.8334 -119.445 52.34828 46.7829 -120.087 52.34828 46.7201 -120.725 52.34828 46.7201 -120.725 62.81328 46.6448 -121.36 62.81328 46.3427 -123.24 62.81328 46.2163 -123.857 52.34828 45.9243 -125.077 52.34828 -33.6583 -117.468 62.81328 -25.1555 -141.506 62.81328 -39.6453 -148.479 62.81328 -39.6453 -141.506 62.81328 5.41642 -132.91 62.81328 -7.19443 -117.5 62.81328 2.26375 -117.5 62.81328 13.5052 -129.567 62.81328 2.61405 -148.511 62.81328 -17.1303 -117.5 62.81328 -8.627501 -117.5 62.81328 -8.627501 -148.479 62.81328 -33.6583 -141.506 52.34828 -33.6583 -117.468 52.34828 -25.1555 -117.468 52.34828 -39.6453 -148.479 52.34828 2.26375 -117.5 52.34828 13.5052 -136.476 52.34828 2.61405 -148.511 52.34828 -17.1303 -148.479 52.34828 -17.1303 -117.5 52.34828 -8.627501 -117.5 52.34828 -33.6583 -141.506 62.81328 -25.1555 -117.468 62.81328 -25.1555 -141.506 52.34828 -19.1685 -141.506 52.34828 -19.1685 -141.506 62.81328 -19.1685 -148.479 52.34828 -19.1685 -148.479 62.81328 -39.6453 -141.506 52.34828 -17.1303 -148.479 62.81328 -8.627501 -148.479 52.34828 5.41642 -132.91 52.34828 -7.19443 -117.5 52.34828 13.5052 -129.567 52.34828 13.5052 -136.476 62.81328 -7.13077 -148.511 52.34828 -7.13077 -148.511 62.81328 16.976 -123.211 62.81328 17.784 -126.432 62.81328 18.6183 -129.758 62.81328 20.2605 -136.305 62.81328 22.2653 -144.297 62.81328 22.7065 -146.055 62.81328 21.9047 -147.853 62.81328 21.306 -147.969 62.81328 19.4883 -148.248 62.81328 18.8756 -148.318 62.81328 16.3939 -148.472 62.81328 15.5115 -148.479 62.81328 16.976 -123.211 52.34828 18.6183 -129.758 52.34828 19.4525 -133.083 52.34828 20.2605 -136.305 52.34828 21.6932 -142.016 52.34828 23.0909 -147.588 52.34828 22.4997 -147.726 52.34828 21.9047 -147.853 52.34828 20.7036 -148.073 52.34828 20.0976 -148.167 52.34828 18.2597 -148.375 52.34828 17.6407 -148.42 52.34828 15.7663 -148.479 52.34828 15.5115 -148.479 52.34828 16.2204 -120.199 52.34828 16.2204 -120.199 62.81328 17.784 -126.432 52.34828 19.4525 -133.083 62.81328 21.0161 -139.317 52.34828 21.0161 -139.317 62.81328 21.6932 -142.016 62.81328 22.2653 -144.297 52.34828 22.7065 -146.055 52.34828 22.9904 -147.187 52.34828 22.9904 -147.187 62.81328 23.0909 -147.588 62.81328 22.4997 -147.725 62.81328 21.306 -147.969 52.34828 20.7036 -148.073 62.81328 20.0976 -148.167 62.81328 19.4883 -148.248 52.34828 18.8756 -148.318 52.34828 18.2597 -148.375 62.81328 17.6407 -148.42 62.81328 17.0188 -148.453 52.34828 17.0188 -148.453 62.81328 16.3939 -148.472 52.34828 15.7663 -148.479 62.81328 20.9233 -120.002 62.81328 27.0904 -122.87 62.81328 30.2233 -124.327 62.81328 33.2576 -125.738 62.81328 36.0952 -127.058 62.81328 40.7862 -129.239 62.81328 43.3186 -131.83 62.81328 42.7008 -132.951 62.81328 41.6852 -134.58 62.81328 41.3243 -135.108 62.81328 39.778 -137.144 62.81328 23.9576 -121.413 52.34828 27.0904 -122.87 52.34828 30.2233 -124.327 52.34828 40.7862 -129.239 52.34828 42.4428 -130.01 52.34828 43.8861 -130.681 52.34828 43.6089 -131.259 52.34828 42.7008 -132.951 52.34828 42.3737 -133.501 52.34828 42.0351 -134.044 52.34828 40.9528 -135.629 52.34828 40.5711 -136.142 52.34828 39.778 -137.144 52.34828 18.0857 -118.682 52.34828 18.0857 -118.682 62.81328 20.9233 -120.002 52.34828 23.9576 -121.413 62.81328 33.2576 -125.738 52.34828 36.0952 -127.058 52.34828 38.6375 -128.24 52.34828 38.6375 -128.24 62.81328 42.4428 -130.01 62.81328 43.5089 -130.506 52.34828 43.5089 -130.506 62.81328 43.8861 -130.681 62.81328 43.6089 -131.259 62.81328 43.3186 -131.83 52.34828 43.0159 -132.394 52.34828 43.0159 -132.394 62.81328 42.3737 -133.501 62.81328 42.0351 -134.044 62.81328 41.6852 -134.58 52.34828 41.3243 -135.108 52.34828 40.9528 -135.629 62.81328 40.5711 -136.142 62.81328 40.1794 -136.647 52.34828 40.1794 -136.647 62.81328 34.7583 -141.994 62.81328 34.2528 -142.377 62.81328 33.7393 -142.748 62.81328 33.2178 -143.109 62.81328 31.6056 -144.128 62.81328 31.0523 -144.446 62.81328 30.491 -144.754 62.81328 29.3446 -145.338 62.81328 15.5434 -117.5 62.81328 25.7533 -129.983 62.81328 27.8638 -132.564 62.81328 29.8373 -134.977 62.81328 31.6054 -137.138 62.81328 34.2521 -140.374 62.81328 34.7583 -141.994 52.34828 33.7393 -142.748 52.34828 32.151 -143.799 52.34828 31.0523 -144.446 52.34828 30.491 -144.754 52.34828 28.7594 -145.614 52.34828 15.5434 -117.5 52.34828 17.3116 -119.662 52.34828 19.2852 -122.075 52.34828 21.3956 -124.655 52.34828 25.7533 -129.983 52.34828 27.8638 -132.564 52.34828 31.6054 -137.138 52.34828 34.2528 -142.377 52.34828 33.2178 -143.109 52.34828 32.6884 -143.459 52.34828 32.6884 -143.459 62.81328 32.151 -143.799 62.81328 31.6056 -144.128 52.34828 29.9218 -145.051 52.34828 29.9218 -145.051 62.81328 29.3446 -145.338 52.34828 28.7594 -145.614 62.81328 17.3116 -119.662 62.81328 19.2852 -122.075 62.81328 21.3956 -124.655 62.81328 23.5744 -127.319 52.34828 23.5744 -127.319 62.81328 29.8373 -134.977 52.34828 33.0999 -138.966 52.34828 33.0999 -138.966 62.81328 34.2521 -140.374 52.34828 34.9935 -141.281 52.34828 34.9935 -141.281 62.81328 35.2559 -141.602 52.34828 35.2559 -141.602 62.81328 24.8558 -117.5 62.81328 28.323 -117.5 62.81328 31.7902 -117.5 62.81328 35.1485 -117.5 62.81328 38.2889 -117.5 62.81328 43.4806 -117.5 62.81328 45.314 -117.5 62.81328 46.9115 -117.5 62.81328 46.8334 -119.445 62.81328 46.7829 -120.087 62.81328 46.5568 -121.991 62.81328 46.4562 -122.618 62.81328 46.2163 -123.857 62.81328 46.0769 -124.47 62.81328 45.9243 -125.077 62.81328 24.8558 -117.5 52.34828 31.7902 -117.5 52.34828 41.1026 -117.5 52.34828 45.314 -117.5 52.34828 46.9115 -117.5 52.34828 46.8975 -118.151 52.34828 46.6448 -121.36 52.34828 46.5568 -121.991 52.34828 46.4562 -122.618 52.34828 46.3427 -123.24 52.34828 46.0769 -124.47 52.34828 18.3571 -117.5 52.34828 18.3571 -117.5 62.81328 21.4975 -117.5 52.34828 21.4975 -117.5 62.81328 28.323 -117.5 52.34828 35.1485 -117.5 52.34828 38.2889 -117.5 52.34828 41.1026 -117.5 62.81328 43.4806 -117.5 52.34828 46.494 -117.5 52.34828 46.494 -117.5 62.81328 46.8975 -118.151 62.81328 46.8716 -118.8 52.34828 46.8716 -118.8 62.81328 46.8334 -119.445 52.34828 46.7829 -120.087 52.34828 46.7201 -120.725 52.34828 46.7201 -120.725 62.81328 46.6448 -121.36 62.81328 46.3427 -123.24 62.81328 46.2163 -123.857 52.34828 45.9243 -125.077 52.34828 -33.6583 -117.468 62.81328 -25.1555 -141.506 62.81328 -39.6453 -148.479 62.81328 -39.6453 -141.506 62.81328 5.41642 -132.91 62.81328 -7.19443 -117.5 62.81328 2.26375 -117.5 62.81328 13.5052 -129.567 62.81328 2.61405 -148.511 62.81328 -17.1303 -117.5 62.81328 -8.627501 -117.5 62.81328 -8.627501 -148.479 62.81328 -33.6583 -141.506 52.34828 -33.6583 -117.468 52.34828 -25.1555 -117.468 52.34828 -39.6453 -148.479 52.34828 2.26375 -117.5 52.34828 13.5052 -136.476 52.34828 2.61405 -148.511 52.34828 -17.1303 -148.479 52.34828 -17.1303 -117.5 52.34828 -8.627501 -117.5 52.34828 -33.6583 -141.506 62.81328 -25.1555 -117.468 62.81328 -25.1555 -141.506 52.34828 -19.1685 -141.506 52.34828 -19.1685 -141.506 62.81328 -19.1685 -148.479 52.34828 -19.1685 -148.479 62.81328 -39.6453 -141.506 52.34828 -17.1303 -148.479 62.81328 -8.627501 -148.479 52.34828 5.41642 -132.91 52.34828 -7.19443 -117.5 52.34828 13.5052 -129.567 52.34828 13.5052 -136.476 62.81328 -7.13077 -148.511 52.34828 -7.13077 -148.511 62.81328 16.976 -123.211 62.81328 17.784 -126.432 62.81328 18.6183 -129.758 62.81328 20.2605 -136.305 62.81328 22.2653 -144.297 62.81328 22.7065 -146.055 62.81328 21.9047 -147.853 62.81328 21.306 -147.969 62.81328 19.4883 -148.248 62.81328 18.8756 -148.318 62.81328 16.3939 -148.472 62.81328 15.5115 -148.479 62.81328 16.976 -123.211 52.34828 18.6183 -129.758 52.34828 19.4525 -133.083 52.34828 20.2605 -136.305 52.34828 21.6932 -142.016 52.34828 23.0909 -147.588 52.34828 22.4997 -147.726 52.34828 21.9047 -147.853 52.34828 20.7036 -148.073 52.34828 20.0976 -148.167 52.34828 18.2597 -148.375 52.34828 17.6407 -148.42 52.34828 15.7663 -148.479 52.34828 15.5115 -148.479 52.34828 16.2204 -120.199 52.34828 16.2204 -120.199 62.81328 17.784 -126.432 52.34828 19.4525 -133.083 62.81328 21.0161 -139.317 52.34828 21.0161 -139.317 62.81328 21.6932 -142.016 62.81328 22.2653 -144.297 52.34828 22.7065 -146.055 52.34828 22.9904 -147.187 52.34828 22.9904 -147.187 62.81328 23.0909 -147.588 62.81328 22.4997 -147.725 62.81328 21.306 -147.969 52.34828 20.7036 -148.073 62.81328 20.0976 -148.167 62.81328 19.4883 -148.248 52.34828 18.8756 -148.318 52.34828 18.2597 -148.375 62.81328 17.6407 -148.42 62.81328 17.0188 -148.453 52.34828 17.0188 -148.453 62.81328 16.3939 -148.472 52.34828 15.7663 -148.479 62.81328 20.9233 -120.002 62.81328 27.0904 -122.87 62.81328 30.2233 -124.327 62.81328 33.2576 -125.738 62.81328 36.0952 -127.058 62.81328 40.7862 -129.239 62.81328 43.3186 -131.83 62.81328 42.7008 -132.951 62.81328 41.6852 -134.58 62.81328 41.3243 -135.108 62.81328 39.778 -137.144 62.81328 23.9576 -121.413 52.34828 27.0904 -122.87 52.34828 30.2233 -124.327 52.34828 40.7862 -129.239 52.34828 42.4428 -130.01 52.34828 43.8861 -130.681 52.34828 43.6089 -131.259 52.34828 42.7008 -132.951 52.34828 42.3737 -133.501 52.34828 42.0351 -134.044 52.34828 40.9528 -135.629 52.34828 40.5711 -136.142 52.34828 39.778 -137.144 52.34828 18.0857 -118.682 52.34828 18.0857 -118.682 62.81328 20.9233 -120.002 52.34828 23.9576 -121.413 62.81328 33.2576 -125.738 52.34828 36.0952 -127.058 52.34828 38.6375 -128.24 52.34828 38.6375 -128.24 62.81328 42.4428 -130.01 62.81328 43.5089 -130.506 52.34828 43.5089 -130.506 62.81328 43.8861 -130.681 62.81328 43.6089 -131.259 62.81328 43.3186 -131.83 52.34828 43.0159 -132.394 52.34828 43.0159 -132.394 62.81328 42.3737 -133.501 62.81328 42.0351 -134.044 62.81328 41.6852 -134.58 52.34828 41.3243 -135.108 52.34828 40.9528 -135.629 62.81328 40.5711 -136.142 62.81328 40.1794 -136.647 52.34828 40.1794 -136.647 62.81328 34.7583 -141.994 62.81328 34.2528 -142.377 62.81328 33.7393 -142.748 62.81328 33.2178 -143.109 62.81328 31.6056 -144.128 62.81328 31.0523 -144.446 62.81328 30.491 -144.754 62.81328 29.3446 -145.338 62.81328 15.5434 -117.5 62.81328 25.7533 -129.983 62.81328 27.8638 -132.564 62.81328 29.8373 -134.977 62.81328 31.6054 -137.138 62.81328 34.2521 -140.374 62.81328 34.7583 -141.994 52.34828 33.7393 -142.748 52.34828 32.151 -143.799 52.34828 31.0523 -144.446 52.34828 30.491 -144.754 52.34828 28.7594 -145.614 52.34828 15.5434 -117.5 52.34828 17.3116 -119.662 52.34828 19.2852 -122.075 52.34828 21.3956 -124.655 52.34828 25.7533 -129.983 52.34828 27.8638 -132.564 52.34828 31.6054 -137.138 52.34828 34.2528 -142.377 52.34828 33.2178 -143.109 52.34828 32.6884 -143.459 52.34828 32.6884 -143.459 62.81328 32.151 -143.799 62.81328 31.6056 -144.128 52.34828 29.9218 -145.051 52.34828 29.9218 -145.051 62.81328 29.3446 -145.338 52.34828 28.7594 -145.614 62.81328 17.3116 -119.662 62.81328 19.2852 -122.075 62.81328 21.3956 -124.655 62.81328 23.5744 -127.319 52.34828 23.5744 -127.319 62.81328 29.8373 -134.977 52.34828 33.0999 -138.966 52.34828 33.0999 -138.966 62.81328 34.2521 -140.374 52.34828 34.9935 -141.281 52.34828 34.9935 -141.281 62.81328 35.2559 -141.602 52.34828 35.2559 -141.602 62.81328 24.8558 -117.5 62.81328 28.323 -117.5 62.81328 31.7902 -117.5 62.81328 35.1485 -117.5 62.81328 38.2889 -117.5 62.81328 43.4806 -117.5 62.81328 45.314 -117.5 62.81328 46.9115 -117.5 62.81328 46.8334 -119.445 62.81328 46.7829 -120.087 62.81328 46.5568 -121.991 62.81328 46.4562 -122.618 62.81328 46.2163 -123.857 62.81328 46.0769 -124.47 62.81328 45.9243 -125.077 62.81328 24.8558 -117.5 52.34828 31.7902 -117.5 52.34828 41.1026 -117.5 52.34828 45.314 -117.5 52.34828 46.9115 -117.5 52.34828 46.8975 -118.151 52.34828 46.6448 -121.36 52.34828 46.5568 -121.991 52.34828 46.4562 -122.618 52.34828 46.3427 -123.24 52.34828 46.0769 -124.47 52.34828 18.3571 -117.5 52.34828 18.3571 -117.5 62.81328 21.4975 -117.5 52.34828 21.4975 -117.5 62.81328 28.323 -117.5 52.34828 35.1485 -117.5 52.34828 38.2889 -117.5 52.34828 41.1026 -117.5 62.81328 43.4806 -117.5 52.34828 46.494 -117.5 52.34828 46.494 -117.5 62.81328 46.8975 -118.151 62.81328 46.8716 -118.8 52.34828 46.8716 -118.8 62.81328 46.8334 -119.445 52.34828 46.7829 -120.087 52.34828 46.7201 -120.725 52.34828 46.7201 -120.725 62.81328 46.6448 -121.36 62.81328 46.3427 -123.24 62.81328 46.2163 -123.857 52.34828 45.9243 -125.077 52.34828 -33.6583 -117.468 62.81328 -25.1555 -141.506 62.81328 -39.6453 -148.479 62.81328 -39.6453 -141.506 62.81328 5.41642 -132.91 62.81328 -7.19443 -117.5 62.81328 2.26375 -117.5 62.81328 13.5052 -129.567 62.81328 2.61405 -148.511 62.81328 -17.1303 -117.5 62.81328 -8.627501 -117.5 62.81328 -8.627501 -148.479 62.81328 -33.6583 -141.506 52.34828 -33.6583 -117.468 52.34828 -25.1555 -117.468 52.34828 -39.6453 -148.479 52.34828 2.26375 -117.5 52.34828 13.5052 -136.476 52.34828 2.61405 -148.511 52.34828 -17.1303 -148.479 52.34828 -17.1303 -117.5 52.34828 -8.627501 -117.5 52.34828 -33.6583 -141.506 62.81328 -25.1555 -117.468 62.81328 -25.1555 -141.506 52.34828 -19.1685 -141.506 52.34828 -19.1685 -141.506 62.81328 -19.1685 -148.479 52.34828 -19.1685 -148.479 62.81328 -39.6453 -141.506 52.34828 -17.1303 -148.479 62.81328 -8.627501 -148.479 52.34828 5.41642 -132.91 52.34828 -7.19443 -117.5 52.34828 13.5052 -129.567 52.34828 13.5052 -136.476 62.81328 -7.13077 -148.511 52.34828 -7.13077 -148.511 62.81328</float_array>
          <technique_common>
            <accessor source="#shape0_001-mesh-positions-array" count="1170" stride="3">
              <param name="X" type="float"/>
              <param name="Y" type="float"/>
              <param name="Z" type="float"/>
            </accessor>
          </technique_common>
        </source>
        <source id="shape0_001-mesh-normals">
          <float_array id="shape0_001-mesh-normals-array" count="810">0 0 1 0 0 -1 1 0 0 0.5774316 0.5774316 -0.5771875 -0.5773503 0.5773503 0.5773503 0.5773503 0.5773503 0.5773503 -0.301503 0.301503 0.9045396 5.48858e-7 0 -1 -0.5773503 0.5773503 -0.5773503 0.5774316 0.5774316 0.5771875 0.5773503 0.5773503 -0.5773503 -0.301503 0.301503 -0.9045396 -1 0 0 0 1 0 0 -1 0 -0.7738918 -0.6333178 0 0.7316926 0.6816347 0 0.7414638 -0.6709929 0 -0.7792488 0.6267148 0 -0.7738916 -0.6333181 0 0.7316926 0.6816349 0 -0.7792486 0.6267151 0 -0.02530831 0 -0.9996797 1.26508e-5 0 1 -1.26933e-5 0 1 1.27718e-5 0 1 -1.2813e-5 0 1 1.29107e-5 0 1 -1.2935e-5 0 1 2.77339e-5 0 1 0.1961161 0 0.9805807 -0.3713907 0 0.9284767 4.30861e-6 0 -1 -3.77251e-6 0 -1 -4.22517e-6 0 -1 -1.4627e-6 0 -1 1.29341e-6 0 -1 -3.34263e-6 0 -1 1.05106e-6 0 -1 2.25724e-6 0 -1 -3.42145e-6 0 -1 -6.05189e-7 0 -1 1.08671e-5 0 -1 -7.60063e-6 0 -1 -5.38422e-6 0 -1 1.38615e-5 0 -1 3.23761e-5 0 -1 -1.03748e-5 0 -1 0.0487225 0 -0.9988124 -0.3011314 0 -0.9535827 0.4472137 0 0.8944273 0.9699453 0.2433233 0 0.9699473 0.2433149 0 0.9699501 0.2433039 0 0.96994 0.2433446 0 0.9699651 0.2432445 0 0.9699451 0.2433239 0 0.9699435 0.2433305 0 0.9699569 0.243277 0 0.9699213 0.2434187 0 0.9699606 0.2432624 0 0.9700022 0.2430964 0 0.2273135 -0.9738217 9.36676e-5 0.2087423 -0.9779707 0 0.1902127 -0.981743 0 0.1701316 -0.9854214 0 0.1532729 -0.988184 0 0.1317702 -0.9912803 0 0.1135214 -0.9935356 0 0.09214007 -0.995746 0 0.0725038 -0.9973682 0 0.05299603 -0.9985948 0 0.03038644 -0.9995383 0 0.01115888 -0.9999377 0 -0.9999995 0.00102967 0 0.9699521 0.243296 0 0.9699451 0.2433241 0 0.9699506 0.2433024 0 0.9699394 0.2433468 0 0.9699651 0.2432441 0 0.9699438 0.243329 0 0.9699577 0.2432742 0 0.9699214 0.2434189 0 0.969961 0.2432605 0 0.9700006 0.243103 0 0.2257403 -0.9741876 0 0.2103233 -0.9776319 9.58294e-5 0.1902117 -0.9817431 0 0.1317701 -0.9912803 0 0.1135212 -0.9935356 0 0.09214037 -0.995746 0 0.0725035 -0.9973682 0 0.05299627 -0.9985948 0 0.03038626 -0.9995383 0 0.01115888 -0.9999377 0 0.969952 0.2432965 0 3.11449e-6 0 1 -3.09375e-6 0 1 3.05721e-6 0 1 0 0.7071068 0.7071068 -0.836683 0.102758 0.5379614 0.5840824 0.5716611 0.5762389 0 0.7071526 -0.707061 0 0.7071526 0.707061 0 0.7071831 -0.7070305 -1.75189e-6 0 -1 -1.16247e-6 0 -1 1.54686e-6 0 -1 1.15551e-6 0 -1 -1.5337e-6 0 -1 7.64296e-7 0 -1 -7.61433e-7 0 -1 3.79693e-7 0 -1 -7.53267e-7 0 -1 3.74624e-7 0 -1 -0.836683 0.102758 -0.5379614 0 0.7071068 -0.7071068 0.5840824 0.5716611 -0.5762389 0.9997689 -0.02149629 0 0.9992046 -0.03987812 0 0.9982507 -0.05912327 0 0.9969211 -0.07841247 0 0.995191 -0.09795373 0 0.9930421 -0.11776 0 0.9904142 -0.1381292 0 0.9873713 -0.158423 0 0.9837549 -0.1795173 0 0.9796568 -0.2006805 0 0.9751048 -0.2217447 0 0.9698222 -0.2438135 0 -0.2419878 -0.9702793 0 0.9997689 -0.02149635 0 0.9992043 -0.03988713 0 0.9982513 -0.05911439 0 0.9969203 -0.07842153 0 0.993041 -0.1177693 0 0.9904155 -0.1381202 0 0.9873728 -0.1584141 0 0.9796531 -0.2006985 0 0.9751047 -0.2217452 0 0.9698221 -0.2438136 0 -1.22345e-5 0 1 1.22142e-5 0 1 -5.68311e-5 0 1 -0.008620321 0 0.9999629 1.91407e-7 0 -1 3.44338e-6 0 -1 1.72049e-6 0 -1 -7.64206e-7 0 -1 -3.05352e-6 0 -1 2.86292e-6 0 -1 -3.62566e-6 0 -1 1.90783e-6 0 -1 2.09771e-6 0 -1 -4.76376e-6 0 -1 -1.45663e-6 0 -1 -1.52402e-5 0 -1 6.75858e-5 0 -1 -0.009999454 0 -0.9999501 0.00431025 0 -0.9999907 0.4215962 0.9067838 0 0.4217798 0.9066984 0 0.4216555 0.9067561 0 0.4217011 0.9067349 0 0.4216936 0.9067384 0 0.4216569 0.9067555 0 0.4215889 0.9067871 0 0.4216017 0.9067811 0 0.4219421 0.9066228 0 0.4218404 0.9066701 0 0.4208337 0.9071378 0 0.9016712 -0.4324224 0 0.8914111 -0.4531959 0 0.8811193 -0.4728943 0 0.8703748 -0.49239 0 0.8594917 -0.5111498 0 0.8485413 -0.5291292 0 0.8373706 -0.5466358 0 0.8255735 -0.5642946 0 0.8142181 -0.5805591 0 0.8022831 -0.5969439 0 0.7901642 -0.6128953 0 0.7779756 -0.6282945 0 -0.6296926 -0.7768445 0 0.421597 0.9067834 0 0.421779 0.9066987 0 0.4216555 0.9067562 0 0.4217018 0.9067347 0 0.4216943 0.9067382 0 0.4216577 0.9067552 0 0.4215897 0.9067867 0 0.4216026 0.9067807 0 0.4218386 0.9066711 0 0.4208284 0.9071403 0 0.9016638 -0.4324376 0 0.8914112 -0.4531956 0 0.8811232 -0.4728869 0 0.8703745 -0.4923905 0 0.8594833 -0.5111641 0 0.8485412 -0.5291294 0 0.825569 -0.5643014 0 0.8142139 -0.5805652 0 0.8022785 -0.5969501 0 0.7779623 -0.6283111 0 -0.6296921 -0.7768449 0 1.23704e-5 0 1 3.06683e-6 0 -1 2.89654e-5 0 -1 -0.02380275 0 0.9997168 0.7742409 0.6328911 0 -1.2236e-5 0 1 -1.23658e-5 0 1 0.003968179 0 -0.9999922 -6.64254e-6 0 -1 4.19013e-6 0 -1 4.39733e-6 0 -1 -2.30713e-6 0 -1 1.92592e-6 0 -1 -5.20713e-6 0 -1 7.72861e-7 0 -1 -6.37846e-6 0 -1 -5.80477e-7 0 -1 3.28503e-6 0 -1 1.32247e-5 0 -1 -5.82649e-6 0 -1 1.51828e-5 0 -1 -0.03331482 0 -0.999445 0.6039155 -0.7970485 0 0.5856257 -0.8105817 0 0.5691801 -0.8222129 0 0.5514827 -0.8341863 0 0.534668 -0.8450622 0 0.5165182 -0.8562762 0 0.4983073 -0.8670005 0 0.4810583 -0.8766887 0 0.4625914 -0.8865716 0 0.4452297 -0.8954164 0 0.4265743 -0.9044526 0 -0.9049938 -0.4254248 0 0.7740823 0.6330851 0 0.7740636 0.633108 0 0.7740326 0.6331458 0 0.774077 0.6330915 0 0.7740615 0.6331105 0 0.774139 0.6330158 0 0.7740785 0.6330897 0 0.7739552 0.6332404 0 0.774195 0.6329474 0 0.7739053 0.6333013 0 0.7742467 0.6328841 0 0.6188271 -0.7855273 0 0.7742337 0.6328999 0 0.6039111 -0.7970517 0 0.5856165 -0.8105883 0 0.5691757 -0.8222159 0 0.5514866 -0.8341839 0 0.5346718 -0.8450598 0 0.5165178 -0.8562765 0 0.4810621 -0.8766865 0 0.4625951 -0.8865697 0 0.7740631 0.6331085 0 0.7740762 0.6330925 0 0.7740618 0.63311 0 0.7741381 0.6330168 0 0.7740775 0.6330909 0 0.7739549 0.6332409 0 0.7741932 0.6329495 0 0.7739036 0.6333036 0 0.7742437 0.6328877 0 0.6188267 -0.7855275 0</float_array>
          <technique_common>
            <accessor source="#shape0_001-mesh-normals-array" count="270" stride="3">
              <param name="X" type="float"/>
              <param name="Y" type="float"/>
              <param name="Z" type="float"/>
            </accessor>
          </technique_common>
        </source>
        <source id="shape0_001-mesh-colors-shape0-lib-vcolor" name="shape0-lib-vcolor">
          <float_array id="shape0_001-mesh-colors-shape0-lib-vcolor-array" count="4068">0.1568627 0.1568627 0.1568627 0.1568627 0.1568627 0.1568627 0.1568627 0.1568627 0.1568627 0.1568627 0.1568627 0.1568627 0.1568627 0.1568627 0.1568627 0.1568627 0.1568627 0.1568627 0.1568627 0.1568627 0.1568627 0.1568627 0.1568627 0.1568627 0.1568627 0.1568627 0.1568627 0.1568627 0.1568627 0.1568627 0.1568627 0.1568627 0.1568627 0.1568627 0.1568627 0.1568627 0.1568627 0.1568627 0.1568627 0.1568627 0.1568627 0.1568627 0.1568627 0.1568627 0.1568627 0.1568627 0.1568627 0.1568627 0.1568627 0.1568627 0.1568627 0.1568627 0.1568627 0.1568627 0.1568627 0.1568627 0.1568627 0.1568627 0.1568627 0.1568627 0.1568627 0.1568627 0.1568627 0.1568627 0.1568627 0.1568627 0.1568627 0.1568627 0.1568627 0.1568627 0.1568627 0.1568627 0.1568627 0.1568627 0.1568627 0.1568627 0.1568627 0.1568627 0.1568627 0.1568627 0.1568627 0.1568627 0.1568627 0.1568627 0.1568627 0.1568627 0.1568627 0.1568627 0.1568627 0.1568627 0.1568627 0.1568627 0.1568627 0.1568627 0.1568627 0.1568627 0.1568627 0.1568627 0.1568627 0.1568627 0.1568627 0.1568627 0.1568627 0.1568627 0.1568627 0.1568627 0.1568627 0.1568627 0.1568627 0.1568627 0.1568627 0.1568627 0.1568627 0.1568627 0.1568627 0.1568627 0.1568627 0.1568627 0.1568627 0.1568627 0.1568627 0.1568627 0.1568627 0.1568627 0.1568627 0.1568627 0.1568627 0.1568627 0.1568627 0.1568627 0.1568627 0.1568627 0.1568627 0.1568627 0.1568627 0.1568627 0.1568627 0.1568627 0.1568627 0.1568627 0.1568627 0.1568627 0.1568627 0.1568627 0.1568627 0.1568627 0.1568627 0.1568627 0.1568627 0.1568627 0.1568627 0.1568627 0.1568627 0.1568627 0.1568627 0.1568627 0.1568627 0.1568627 0.1568627 0.1568627 0.1568627 0.1568627 0.1568627 0.1568627 0.1568627 0.1568627 0.1568627 0.1568627 0.1568627 0.1568627 0.1568627 0.1568627 0.1568627 0.1568627 0.1568627 0.1568627 0.1568627 0.1568627 0.1568627 0.1568627 0.1568627 0.1568627 0.1568627 0.1568627 0.1568627 0.1568627 0.1568627 0.1568627 0.1568627 0.1568627 0.1568627 0.1568627 0.1568627 0.1568627 0.1568627 0.1568627 0.1568627 0.1568627 0.1568627 0.1568627 0.1568627 0.1568627 0.1568627 0.1568627 0.1568627 0.1568627 0.1568627 0.1568627 0.1568627 0.1568627 0.1568627 0.1568627 0.1568627 0.1568627 0.1568627 0.1568627 0.1568627 0.1568627 0.1568627 0.1568627 0.1568627 0.1568627 0.1568627 0.1568627 0.1568627 0.1568627 0.1568627 0.1568627 0.1568627 0.1568627 0.1568627 0.1568627 0.1568627 0.1568627 0.1568627 0.1568627 0.1568627 0.1568627 0.1568627 0.1568627 0.1568627 0.1568627 0.1568627 0.1568627 0.1568627 0.1568627 0.1568627 0.1568627 0.1568627 0.1568627 0.1568627 0.1568627 0.1568627 0.1568627 0.1568627 0.1568627 0.1568627 0.1568627 0.1568627 0.1568627 0.1568627 0.1568627 0.1568627 0.1568627 0.1568627 0.1568627 0.1568627 0.1568627 0.1568627 0.1568627 0.1568627 0.1568627 0.1568627 0.1568627 0.1568627 0.1568627 0.1568627 0.1568627 0.1568627 0.1568627 0.1568627 0.1568627 0.1568627 0.1568627 0.1568627 0.1568627 0.1568627 0.1568627 0.1568627 0.1568627 0.1568627 0.1568627 0.1568627 0.1568627 0.1568627 0.1568627 0.1568627 0.1568627 0.1568627 0.1568627 0.1568627 0.1568627 0.1568627 0.1568627 0.1568627 0.1568627 0.1568627 0.1568627 0.1568627 0.1568627 0.1568627 0.1568627 0.1568627 0.1568627 0.1568627 0.1568627 0.1568627 0.1568627 0.1568627 0.1568627 0.1568627 0.1568627 0.1568627 0.1568627 0.1568627 0.1568627 0.1568627 0.1568627 0.1568627 0.1568627 0.1568627 0.1568627 0.1568627 0.1568627 0.1568627 0.1568627 0.1568627 0.1568627 0.1568627 0.1568627 0.1568627 0.1568627 0.1568627 0.1568627 0.1568627 0.1568627 0.1568627 0.1568627 0.1568627 0.1568627 0.1568627 0.1568627 0.1568627 0.1568627 0.1568627 0.1568627 0.1568627 0.1568627 0.1568627 0.1568627 0.1568627 0.1568627 0.1568627 0.1568627 0.1568627 0.1568627 0.1568627 0.1568627 0.1568627 0.1568627 0.1568627 0.1568627 0.1568627 0.1568627 0.1568627 0.1568627 0.1568627 0.1568627 0.1568627 0.1568627 0.1568627 0.1568627 0.1568627 0.1568627 0.1568627 0.1568627 0.1568627 0.1568627 0.1568627 0.1568627 0.1568627 0.1568627 0.1568627 0.1568627 0.1568627 0.1568627 0.1568627 0.1568627 0.1568627 0.1568627 0.1568627 0.1568627 0.1568627 0.1568627 0.1568627 0.1568627 0.1568627 0.1568627 0.1568627 0.1568627 0.1568627 0.1568627 0.1568627 0.1568627 0.1568627 0.1568627 0.1568627 0.1568627 0.1568627 0.1568627 0.1568627 0.1568627 0.1568627 0.1568627 0.1568627 0.1568627 0.1568627 0.1568627 0.1568627 0.1568627 0.1568627 0.1568627 0.1568627 0.1568627 0.1568627 0.1568627 0.1568627 0.1568627 0.1568627 0.1568627 0.1568627 0.1568627 0.1568627 0.1568627 0.1568627 0.1568627 0.1568627 0.1568627 0.1568627 0.1568627 0.1568627 0.1568627 0.1568627 0.1568627 0.1568627 0.1568627 0.1568627 0.1568627 0.1568627 0.1568627 0.1568627 0.1568627 0.1568627 0.1568627 0.1568627 0.1568627 0.1568627 0.1568627 0.1568627 0.1568627 0.1568627 0.1568627 0.1568627 0.1568627 0.1568627 0.1568627 0.1568627 0.1568627 0.1568627 0.1568627 0.1568627 0.1568627 0.1568627 0.1568627 0.1568627 0.1568627 0.1568627 0.1568627 0.1568627 0.1568627 0.1568627 0.1568627 0.1568627 0.1568627 0.1568627 0.1568627 0.1568627 0.1568627 0.1568627 0.1568627 0.1568627 0.1568627 0.1568627 0.1568627 0.1568627 0.1568627 0.1568627 0.1568627 0.1568627 0.1568627 0.1568627 0.1568627 0.1568627 0.1568627 0.1568627 0.1568627 0.1568627 0.1568627 0.1568627 0.1568627 0.1568627 0.1568627 0.1568627 0.1568627 0.1568627 0.1568627 0.1568627 0.1568627 0.1568627 0.1568627 0.1568627 0.1568627 0.1568627 0.1568627 0.1568627 0.1568627 0.1568627 0.1568627 0.1568627 0.1568627 0.1568627 0.1568627 0.1568627 0.1568627 0.1568627 0.1568627 0.1568627 0.1568627 0.1568627 0.1568627 0.1568627 0.1568627 0.1568627 0.1568627 0.1568627 0.1568627 0.1568627 0.1568627 0.1568627 0.1568627 0.1568627 0.1568627 0.1568627 0.1568627 0.1568627 0.1568627 0.1568627 0.1568627 0.1568627 0.1568627 0.1568627 0.1568627 0.1568627 0.1568627 0.1568627 0.1568627 0.1568627 0.1568627 0.1568627 0.1568627 0.1568627 0.1568627 0.1568627 0.1568627 0.1568627 0.1568627 0.1568627 0.1568627 0.1568627 0.1568627 0.1568627 0.1568627 0.1568627 0.1568627 0.1568627 0.1568627 0.1568627 0.1568627 0.1568627 0.1568627 0.1568627 0.1568627 0.1568627 0.1568627 0.1568627 0.1568627 0.1568627 0.1568627 0.1568627 0.1568627 0.1568627 0.1568627 0.1568627 0.1568627 0.1568627 0.1568627 0.1568627 0.1568627 0.1568627 0.1568627 0.1568627 0.1568627 0.1568627 0.1568627 0.1568627 0.1568627 0.1568627 0.1568627 0.1568627 0.1568627 0.1568627 0.1568627 0.1568627 0.1568627 0.1568627 0.1568627 0.1568627 0.1568627 0.1568627 0.1568627 0.1568627 0.1568627 0.1568627 0.1568627 0.1568627 0.1568627 0.1568627 0.1568627 0.1568627 0.1568627 0.1568627 0.1568627 0.1568627 0.1568627 0.1568627 0.1568627 0.1568627 0.1568627 0.1568627 0.1568627 0.1568627 0.1568627 0.1568627 0.1568627 0.1568627 0.1568627 0.1568627 0.1568627 0.1568627 0.1568627 0.1568627 0.1568627 0.1568627 0.1568627 0.1568627 0.1568627 0.1568627 0.1568627 0.1568627 0.1568627 0.1568627 0.1568627 0.1568627 0.1568627 0.1568627 0.1568627 0.1568627 0.1568627 0.1568627 0.1568627 0.1568627 0.1568627 0.1568627 0.1568627 0.1568627 0.1568627 0.1568627 0.1568627 0.1568627 0.1568627 0.1568627 0.1568627 0.1568627 0.1568627 0.1568627 0.1568627 0.1568627 0.1568627 0.1568627 0.1568627 0.1568627 0.1568627 0.1568627 0.1568627 0.1568627 0.1568627 0.1568627 0.1568627 0.1568627 0.1568627 0.1568627 0.1568627 0.1568627 0.1568627 0.1568627 0.1568627 0.1568627 0.1568627 0.1568627 0.1568627 0.1568627 0.1568627 0.1568627 0.1568627 0.1568627 0.1568627 0.1568627 0.1568627 0.1568627 0.1568627 0.1568627 0.1568627 0.1568627 0.1568627 0.1568627 0.1568627 0.1568627 0.1568627 0.1568627 0.1568627 0.1568627 0.1568627 0.1568627 0.1568627 0.1568627 0.1568627 0.1568627 0.1568627 0.1568627 0.1568627 0.1568627 0.1568627 0.1568627 0.1568627 0.1568627 0.1568627 0.1568627 0.1568627 0.1568627 0.1568627 0.1568627 0.1568627 0.1568627 0.1568627 0.1568627 0.1568627 0.1568627 0.1568627 0.1568627 0.1568627 0.1568627 0.1568627 0.1568627 0.1568627 0.1568627 0.1568627 0.1568627 0.1568627 0.1568627 0.1568627 0.1568627 0.1568627 0.1568627 0.1568627 0.1568627 0.1568627 0.1568627 0.1568627 0.1568627 0.1568627 0.1568627 0.1568627 0.1568627 0.1568627 0.1568627 0.1568627 0.1568627 0.1568627 0.1568627 0.1568627 0.1568627 0.1568627 0.1568627 0.1568627 0.1568627 0.1568627 0.1568627 0.1568627 0.1568627 0.1568627 0.1568627 0.1568627 0.1568627 0.1568627 0.1568627 0.1568627 0.1568627 0.1568627 0.1568627 0.1568627 0.1568627 0.1568627 0.1568627 0.1568627 0.1568627 0.1568627 0.1568627 0.1568627 0.1568627 0.1568627 0.1568627 0.1568627 0.1568627 0.1568627 0.1568627 0.1568627 0.1568627 0.1568627 0.1568627 0.1568627 0.1568627 0.1568627 0.1568627 0.1568627 0.1568627 0.1568627 0.1568627 0.1568627 0.1568627 0.1568627 0.1568627 0.1568627 0.1568627 0.1568627 0.1568627 0.1568627 0.1568627 0.1568627 0.1568627 0.1568627 0.1568627 0.1568627 0.1568627 0.1568627 0.1568627 0.1568627 0.1568627 0.1568627 0.1568627 0.1568627 0.1568627 0.1568627 0.1568627 0.1568627 0.1568627 0.1568627 0.1568627 0.1568627 0.1568627 0.1568627 0.1568627 0.1568627 0.1568627 0.1568627 0.1568627 0.1568627 0.1568627 0.1568627 0.1568627 0.1568627 0.1568627 0.1568627 0.1568627 0.1568627 0.1568627 0.1568627 0.1568627 0.1568627 0.1568627 0.1568627 0.1568627 0.1568627 0.1568627 0.1568627 0.1568627 0.1568627 0.1568627 0.1568627 0.1568627 0.1568627 0.1568627 0.1568627 0.1568627 0.1568627 0.1568627 0.1568627 0.1568627 0.1568627 0.1568627 0.1568627 0.1568627 0.1568627 0.1568627 0.1568627 0.1568627 0.1568627 0.1568627 0.1568627 0.1568627 0.1568627 0.1568627 0.1568627 0.1568627 0.1568627 0.1568627 0.1568627 0.1568627 0.1568627 0.1568627 0.1568627 0.1568627 0.1568627 0.1568627 0.1568627 0.1568627 0.1568627 0.1568627 0.1568627 0.1568627 0.1568627 0.1568627 0.1568627 0.1568627 0.1568627 0.1568627 0.1568627 0.1568627 0.1568627 0.1568627 0.1568627 0.1568627 0.1568627 0.1568627 0.1568627 0.1568627 0.1568627 0.1568627 0.1568627 0.1568627 0.1568627 0.1568627 0.1568627 0.1568627 0.1568627 0.1568627 0.1568627 0.1568627 0.1568627 0.1568627 0.1568627 0.1568627 0.1568627 0.1568627 0.1568627 0.1568627 0.1568627 0.1568627 0.1568627 0.1568627 0.1568627 0.1568627 0.1568627 0.1568627 0.1568627 0.1568627 0.1568627 0.1568627 0.1568627 0.1568627 0.1568627 0.1568627 0.1568627 0.1568627 0.1568627 0.1568627 0.1568627 0.1568627 0.1568627 0.1568627 0.1568627 0.1568627 0.1568627 0.1568627 0.1568627 0.1568627 0.1568627 0.1568627 0.1568627 0.1568627 0.1568627 0.1568627 0.1568627 0.1568627 0.1568627 0.1568627 0.1568627 0.1568627 0.1568627 0.1568627 0.1568627 0.1568627 0.1568627 0.1568627 0.1568627 0.1568627 0.1568627 0.1568627 0.1568627 0.1568627 0.1568627 0.1568627 0.1568627 0.1568627 0.1568627 0.1568627 0.1568627 0.1568627 0.1568627 0.1568627 0.1568627 0.1568627 0.1568627 0.1568627 0.1568627 0.1568627 0.1568627 0.1568627 0.1568627 0.1568627 0.1568627 0.1568627 0.1568627 0.1568627 0.1568627 0.1568627 0.1568627 0.1568627 0.1568627 0.1568627 0.1568627 0.1568627 0.1568627 0.1568627 0.1568627 0.1568627 0.1568627 0.1568627 0.1568627 0.1568627 0.1568627 0.1568627 0.1568627 0.1568627 0.1568627 0.1568627 0.1568627 0.1568627 0.1568627 0.1568627 0.1568627 0.1568627 0.1568627 0.1568627 0.1568627 0.1568627 0.1568627 0.1568627 0.1568627 0.1568627 0.1568627 0.1568627 0.1568627 0.1568627 0.1568627 0.1568627 0.1568627 0.1568627 0.1568627 0.1568627 0.1568627 0.1568627 0.1568627 0.1568627 0.1568627 0.1568627 0.1568627 0.1568627 0.1568627 0.1568627 0.1568627 0.1568627 0.1568627 0.1568627 0.1568627 0.1568627 0.1568627 0.1568627 0.1568627 0.1568627 0.1568627 0.1568627 0.1568627 0.1568627 0.1568627 0.1568627 0.1568627 0.1568627 0.1568627 0.1568627 0.1568627 0.1568627 0.1568627 0.1568627 0.1568627 0.1568627 0.1568627 0.1568627 0.1568627 0.1568627 0.1568627 0.1568627 0.1568627 0.1568627 0.1568627 0.1568627 0.1568627 0.1568627 0.1568627 0.1568627 0.1568627 0.1568627 0.1568627 0.1568627 0.1568627 0.1568627 0.1568627 0.1568627 0.1568627 0.1568627 0.1568627 0.1568627 0.1568627 0.1568627 0.1568627 0.1568627 0.1568627 0.1568627 0.1568627 0.1568627 0.1568627 0.1568627 0.1568627 0.1568627 0.1568627 0.1568627 0.1568627 0.1568627 0.1568627 0.1568627 0.1568627 0.1568627 0.1568627 0.1568627 0.1568627 0.1568627 0.1568627 0.1568627 0.1568627 0.1568627 0.1568627 0.1568627 0.1568627 0.1568627 0.1568627 0.1568627 0.1568627 0.1568627 0.1568627 0.1568627 0.1568627 0.1568627 0.1568627 0.1568627 0.1568627 0.1568627 0.1568627 0.1568627 0.1568627 0.1568627 0.1568627 0.1568627 0.1568627 0.1568627 0.1568627 0.1568627 0.1568627 0.1568627 0.1568627 0.1568627 0.1568627 0.1568627 0.1568627 0.1568627 0.1568627 0.1568627 0.1568627 0.1568627 0.1568627 0.1568627 0.1568627 0.1568627 0.1568627 0.1568627 0.1568627 0.1568627 0.1568627 0.1568627 0.1568627 0.1568627 0.1568627 0.1568627 0.1568627 0.1568627 0.1568627 0.1568627 0.1568627 0.1568627 0.1568627 0.1568627 0.1568627 0.1568627 0.1568627 0.1568627 0.1568627 0.1568627 0.1568627 0.1568627 0.1568627 0.1568627 0.1568627 0.1568627 0.1568627 0.1568627 0.1568627 0.1568627 0.1568627 0.1568627 0.1568627 0.1568627 0.1568627 0.1568627 0.1568627 0.1568627 0.1568627 0.1568627 0.1568627 0.1568627 0.1568627 0.1568627 0.1568627 0.1568627 0.1568627 0.1568627 0.1568627 0.1568627 0.1568627 0.1568627 0.1568627 0.1568627 0.1568627 0.1568627 0.1568627 0.1568627 0.1568627 0.1568627 0.1568627 0.1568627 0.1568627 0.1568627 0.1568627 0.1568627 0.1568627 0.1568627 0.1568627 0.1568627 0.1568627 0.1568627 0.1568627 0.1568627 0.1568627 0.1568627 0.1568627 0.1568627 0.1568627 0.1568627 0.1568627 0.1568627 0.1568627 0.1568627 0.1568627 0.1568627 0.1568627 0.1568627 0.1568627 0.1568627 0.1568627 0.1568627 0.1568627 0.1568627 0.1568627 0.1568627 0.1568627 0.1568627 0.1568627 0.1568627 0.1568627 0.1568627 0.1568627 0.1568627 0.1568627 0.1568627 0.1568627 0.1568627 0.1568627 0.1568627 0.1568627 0.1568627 0.1568627 0.1568627 0.1568627 0.1568627 0.1568627 0.1568627 0.1568627 0.1568627 0.1568627 0.1568627 0.1568627 0.1568627 0.1568627 0.1568627 0.1568627 0.1568627 0.1568627 0.1568627 0.1568627 0.1568627 0.1568627 0.1568627 0.1568627 0.1568627 0.1568627 0.1568627 0.1568627 0.1568627 0.1568627 0.1568627 0.1568627 0.1568627 0.1568627 0.1568627 0.1568627 0.1568627 0.1568627 0.1568627 0.1568627 0.1568627 0.1568627 0.1568627 0.1568627 0.1568627 0.1568627 0.1568627 0.1568627 0.1568627 0.1568627 0.1568627 0.1568627 0.1568627 0.1568627 0.1568627 0.1568627 0.1568627 0.1568627 0.1568627 0.1568627 0.1568627 0.1568627 0.1568627 0.1568627 0.1568627 0.1568627 0.1568627 0.1568627 0.1568627 0.1568627 0.1568627 0.1568627 0.1568627 0.1568627 0.1568627 0.1568627 0.1568627 0.1568627 0.1568627 0.1568627 0.1568627 0.1568627 0.1568627 0.1568627 0.1568627 0.1568627 0.1568627 0.1568627 0.1568627 0.1568627 0.1568627 0.1568627 0.1568627 0.1568627 0.1568627 0.1568627 0.1568627 0.1568627 0.1568627 0.1568627 0.1568627 0.1568627 0.1568627 0.1568627 0.1568627 0.1568627 0.1568627 0.1568627 0.1568627 0.1568627 0.1568627 0.5019608 0.427451 0.1568627 0.5019608 0.427451 0.1568627 0.5019608 0.427451 0.1568627 0.5019608 0.427451 0.1568627 0.5019608 0.427451 0.1568627 0.5019608 0.427451 0.1568627 0.5019608 0.427451 0.1568627 0.5019608 0.427451 0.1568627 0.5019608 0.427451 0.1568627 0.5019608 0.427451 0.1568627 0.5019608 0.427451 0.1568627 0.5019608 0.427451 0.1568627 0.5019608 0.427451 0.1568627 0.5019608 0.427451 0.1568627 0.5019608 0.427451 0.1568627 0.5019608 0.427451 0.1568627 0.5019608 0.427451 0.1568627 0.5019608 0.427451 0.1568627 0.5019608 0.427451 0.1568627 0.5019608 0.427451 0.1568627 0.5019608 0.427451 0.1568627 0.5019608 0.427451 0.1568627 0.5019608 0.427451 0.1568627 0.5019608 0.427451 0.1568627 0.5019608 0.427451 0.1568627 0.5019608 0.427451 0.1568627 0.5019608 0.427451 0.1568627 0.5019608 0.427451 0.1568627 0.5019608 0.427451 0.1568627 0.5019608 0.427451 0.1568627 0.5019608 0.427451 0.1568627 0.5019608 0.427451 0.1568627 0.5019608 0.427451 0.1568627 0.5019608 0.427451 0.1568627 0.5019608 0.427451 0.1568627 0.5019608 0.427451 0.1568627 0.5019608 0.427451 0.1568627 0.5019608 0.427451 0.1568627 0.5019608 0.427451 0.1568627 0.5019608 0.427451 0.1568627 0.5019608 0.427451 0.1568627 0.5019608 0.427451 0.1568627 0.5019608 0.427451 0.1568627 0.5019608 0.427451 0.1568627 0.5019608 0.427451 0.1568627 0.5019608 0.427451 0.1568627 0.5019608 0.427451 0.1568627 0.5019608 0.427451 0.1568627 0.5019608 0.427451 0.1568627 0.5019608 0.427451 0.1568627 0.5019608 0.427451 0.1568627 0.5019608 0.427451 0.1568627 0.5019608 0.427451 0.1568627 0.5019608 0.427451 0.1568627 0.5019608 0.427451 0.1568627 0.5019608 0.427451 0.1568627 0.5019608 0.427451 0.1568627 0.5019608 0.427451 0.1568627 0.5019608 0.427451 0.1568627 0.5019608 0.427451 0.1568627 0.5019608 0.427451 0.1568627 0.5019608 0.427451 0.1568627 0.5019608 0.427451 0.1568627 0.5019608 0.427451 0.1568627 0.5019608 0.427451 0.1568627 0.5019608 0.427451 0.1568627 0.5019608 0.427451 0.1568627 0.5019608 0.427451 0.1568627 0.5019608 0.427451 0.1568627 0.5019608 0.427451 0.1568627 0.5019608 0.427451 0.1568627 0.5019608 0.427451 0.1568627 0.5019608 0.427451 0.1568627 0.5019608 0.427451 0.1568627 0.5019608 0.427451 0.1568627 0.5019608 0.427451 0.1568627 0.5019608 0.427451 0.1568627 0.5019608 0.427451 0.1568627 0.5019608 0.427451 0.1568627 0.5019608 0.427451 0.1568627 0.5019608 0.427451 0.1568627 0.5019608 0.427451 0.1568627 0.5019608 0.427451 0.1568627 0.5019608 0.427451 0.1568627 0.5019608 0.427451 0.1568627 0.5019608 0.427451 0.1568627 0.5019608 0.427451 0.1568627 0.5019608 0.427451 0.1568627 0.5019608 0.427451 0.1568627 0.5019608 0.427451 0.1568627 0.5019608 0.427451 0.1568627 0.5019608 0.427451 0.1568627 0.5019608 0.427451 0.1568627 0.5019608 0.427451 0.1568627 0.5019608 0.427451 0.1568627 0.5019608 0.427451 0.1568627 0.5019608 0.427451 0.1568627 0.5019608 0.427451 0.1568627 0.5019608 0.427451 0.1568627 0.5019608 0.427451 0.1568627 0.5019608 0.427451 0.1568627 0.5019608 0.427451 0.1568627 0.5019608 0.427451 0.1568627 0.5019608 0.427451 0.1568627 0.5019608 0.427451 0.1568627 0.5019608 0.427451 0.1568627 0.5019608 0.427451 0.1568627 0.5019608 0.427451 0.1568627 0.5019608 0.427451 0.1568627 0.5019608 0.427451 0.1568627 0.5019608 0.427451 0.1568627 0.5019608 0.427451 0.1568627 0.5019608 0.427451 0.1568627 0.5019608 0.427451 0.1568627 0.5019608 0.427451 0.1568627 0.5019608 0.427451 0.1568627 0.5019608 0.427451 0.1568627 0.5019608 0.427451 0.1568627 0.5019608 0.427451 0.1568627 0.5019608 0.427451 0.1568627 0.5019608 0.427451 0.1568627 0.5019608 0.427451 0.1568627 0.5019608 0.427451 0.1568627 0.5019608 0.427451 0.1568627 0.5019608 0.427451 0.1568627 0.5019608 0.427451 0.1568627 0.5019608 0.427451 0.1568627 0.5019608 0.427451 0.1568627 0.5019608 0.427451 0.1568627 0.5019608 0.427451 0.1568627 0.5019608 0.427451 0.1568627 0.5019608 0.427451 0.1568627 0.5019608 0.427451 0.1568627 0.5019608 0.427451 0.1568627 0.5019608 0.427451 0.1568627 0.5019608 0.427451 0.1568627 0.5019608 0.427451 0.1568627 0.5019608 0.427451 0.1568627 0.5019608 0.427451 0.1568627 0.5019608 0.427451 0.1568627 0.5019608 0.427451 0.1568627 0.5019608 0.427451 0.1568627 0.5019608 0.427451 0.1568627 0.5019608 0.427451 0.1568627 0.5019608 0.427451 0.1568627 0.5019608 0.427451 0.1568627 0.5019608 0.427451 0.1568627 0.5019608 0.427451 0.1568627 0.5019608 0.427451 0.1568627 0.5019608 0.427451 0.1568627 0.5019608 0.427451 0.1568627 0.5019608 0.427451 0.1568627 0.5019608 0.427451 0.1568627 0.5019608 0.427451 0.1568627 0.5019608 0.427451 0.1568627 0.5019608 0.427451 0.1568627 0.5019608 0.427451 0.1568627 0.5019608 0.427451 0.1568627 0.5019608 0.427451 0.1568627 0.5019608 0.427451 0.1568627 0.5019608 0.427451 0.1568627 0.5019608 0.427451 0.1568627 0.5019608 0.427451 0.1568627 0.5019608 0.427451 0.1568627 0.5019608 0.427451 0.1568627 0.5019608 0.427451 0.1568627 0.5019608 0.427451 0.1568627 0.5019608 0.427451 0.1568627 0.5019608 0.427451 0.1568627 0.5019608 0.427451 0.1568627 0.5019608 0.427451 0.1568627 0.5019608 0.427451 0.1568627 0.5019608 0.427451 0.1568627 0.5019608 0.427451 0.1568627 0.5019608 0.427451 0.1568627 0.5019608 0.427451 0.1568627 0.5019608 0.427451 0.1568627 0.5019608 0.427451 0.1568627 0.5019608 0.427451 0.1568627 0.5019608 0.427451 0.1568627 0.5019608 0.427451 0.1568627 0.5019608 0.427451 0.1568627 0.5019608 0.427451 0.1568627 0.5019608 0.427451 0.1568627 0.5019608 0.427451 0.1568627 0.5019608 0.427451 0.1568627 0.5019608 0.427451 0.1568627 0.5019608 0.427451 0.1568627 0.5019608 0.427451 0.1568627 0.5019608 0.427451 0.1568627 0.5019608 0.427451 0.1568627 0.5019608 0.427451 0.1568627 0.5019608 0.427451 0.1568627 0.5019608 0.427451 0.1568627 0.5019608 0.427451 0.1568627 0.5019608 0.427451 0.1568627 0.5019608 0.427451 0.1568627 0.5019608 0.427451 0.1568627 0.5019608 0.427451 0.1568627 0.5019608 0.427451 0.1568627 0.5019608 0.427451 0.1568627 0.5019608 0.427451 0.1568627 0.5019608 0.427451 0.1568627 0.5019608 0.427451 0.1568627 0.5019608 0.427451 0.1568627 0.5019608 0.427451 0.1568627 0.5019608 0.427451 0.1568627 0.5019608 0.427451 0.1568627 0.5019608 0.427451 0.1568627 0.5019608 0.427451 0.1568627 0.5019608 0.427451 0.1568627 0.5019608 0.427451 0.1568627 0.5019608 0.427451 0.1568627 0.5019608 0.427451 0.1568627 0.5019608 0.427451 0.1568627 0.5019608 0.427451 0.1568627 0.5019608 0.427451 0.1568627 0.5019608 0.427451 0.1568627 0.5019608 0.427451 0.1568627 0.5019608 0.427451 0.1568627 0.5019608 0.427451 0.1568627 0.5019608 0.427451 0.1568627 0.5019608 0.427451 0.1568627 0.5019608 0.427451 0.1568627 0.5019608 0.427451 0.1568627 0.5019608 0.427451 0.1568627 0.5019608 0.427451 0.1568627 0.5019608 0.427451 0.1568627 0.5019608 0.427451 0.1568627 0.5019608 0.427451 0.1568627 0.5019608 0.427451 0.1568627 0.5019608 0.427451 0.1568627 0.5019608 0.427451 0.1568627 0.5019608 0.427451 0.1568627 0.5019608 0.427451 0.1568627 0.5019608 0.427451 0.1568627 0.5019608 0.427451 0.1568627 0.5019608 0.427451 0.1568627 0.5019608 0.427451 0.1568627 0.5019608 0.427451 0.1568627 0.5019608 0.427451 0.1568627 0.5019608 0.427451 0.1568627 0.5019608 0.427451 0.1568627 0.5019608 0.427451 0.1568627 0.5019608 0.427451 0.1568627 0.5019608 0.427451 0.1568627 0.5019608 0.427451 0.1568627 0.5019608 0.427451 0.1568627 0.5019608 0.427451 0.1568627 0.5019608 0.427451 0.1568627 0.5019608 0.427451 0.1568627 0.5019608 0.427451 0.1568627 0.5019608 0.427451 0.1568627 0.5019608 0.427451 0.1568627 0.5019608 0.427451 0.1568627 0.5019608 0.427451 0.1568627 0.5019608 0.427451 0.1568627 0.5019608 0.427451 0.1568627 0.5019608 0.427451 0.1568627 0.5019608 0.427451 0.1568627 0.5019608 0.427451 0.1568627 0.5019608 0.427451 0.1568627 0.5019608 0.427451 0.1568627 0.5019608 0.427451 0.1568627 0.5019608 0.427451 0.1568627 0.5019608 0.427451 0.1568627 0.5019608 0.427451 0.1568627 0.5019608 0.427451 0.1568627 0.5019608 0.427451 0.1568627 0.5019608 0.427451 0.1568627 0.5019608 0.427451 0.1568627 0.5019608 0.427451 0.1568627 0.5019608 0.427451 0.1568627 0.5019608 0.427451 0.1568627 0.5019608 0.427451 0.1568627 0.5019608 0.427451 0.1568627 0.5019608 0.427451 0.1568627 0.5019608 0.427451 0.1568627 0.5019608 0.427451 0.1568627 0.5019608 0.427451 0.1568627 0.5019608 0.427451 0.1568627 0.5019608 0.427451 0.1568627 0.5019608 0.427451 0.1568627 0.5019608 0.427451 0.1568627 0.5019608 0.427451 0.1568627 0.5019608 0.427451 0.1568627 0.5019608 0.427451 0.1568627 0.5019608 0.427451 0.1568627 0.5019608 0.427451 0.1568627 0.5019608 0.427451 0.1568627 0.5019608 0.427451 0.1568627 0.5019608 0.427451 0.1568627 0.5019608 0.427451 0.1568627 0.5019608 0.427451 0.1568627 0.5019608 0.427451 0.1568627 0.5019608 0.427451 0.1568627 0.5019608 0.427451 0.1568627 0.5019608 0.427451 0.1568627 0.5019608 0.427451 0.1568627 0.5019608 0.427451 0.1568627 0.5019608 0.427451 0.1568627 0.5019608 0.427451 0.1568627 0.5019608 0.427451 0.1568627 0.5019608 0.427451 0.1568627 0.5019608 0.427451 0.1568627 0.5019608 0.427451 0.1568627 0.5019608 0.427451 0.1568627 0.5019608 0.427451 0.1568627 0.5019608 0.427451 0.1568627 0.5019608 0.427451 0.1568627 0.5019608 0.427451 0.1568627 0.5019608 0.427451 0.1568627 0.5019608 0.427451 0.1568627 0.5019608 0.427451 0.1568627 0.5019608 0.427451 0.1568627 0.5019608 0.427451 0.1568627 0.5019608 0.427451 0.1568627 0.5019608 0.427451 0.1568627 0.5019608 0.427451 0.1568627 0.5019608 0.427451 0.1568627 0.5019608 0.427451 0.1568627 0.5019608 0.427451 0.1568627 0.5019608 0.427451 0.1568627 0.5019608 0.427451 0.1568627 0.5019608 0.427451 0.1568627 0.5019608 0.427451 0.1568627 0.5019608 0.427451 0.1568627 0.5019608 0.427451 0.1568627 0.5019608 0.427451 0.1568627 0.5019608 0.427451 0.1568627 0.5019608 0.427451 0.1568627 0.5019608 0.427451 0.1568627 0.5019608 0.427451 0.1568627 0.5019608 0.427451 0.1568627 0.5019608 0.427451 0.1568627 0.5019608 0.427451 0.1568627 0.5019608 0.427451 0.1568627 0.5019608 0.427451 0.1568627 0.5019608 0.427451 0.1568627 0.5019608 0.427451 0.1568627 0.5019608 0.427451 0.1568627 0.5019608 0.427451 0.1568627 0.5019608 0.427451 0.1568627 0.5019608 0.427451 0.1568627 0.5019608 0.427451 0.1568627 0.5019608 0.427451 0.1568627 0.5019608 0.427451 0.1568627 0.5019608 0.427451 0.1568627 0.5019608 0.427451 0.1568627 0.5019608 0.427451 0.1568627 0.5019608 0.427451 0.1568627 0.5019608 0.427451 0.1568627 0.5019608 0.427451 0.1568627 0.5019608 0.427451 0.1568627 0.5019608 0.427451 0.1568627 0.5019608 0.427451 0.1568627 0.5019608 0.427451 0.1568627 0.5019608 0.427451 0.1568627 0.5019608 0.427451 0.1568627 0.5019608 0.427451 0.1568627 0.5019608 0.427451 0.1568627 0.5019608 0.427451 0.1568627 0.5019608 0.427451 0.1568627 0.5019608 0.427451 0.1568627 0.5019608 0.427451 0.1568627 0.5019608 0.427451 0.1568627 0.5019608 0.427451 0.1568627 0.5019608 0.427451 0.1568627 0.5019608 0.427451 0.1568627 0.5019608 0.427451 0.1568627 0.5019608 0.427451 0.1568627 0.5019608 0.427451 0.1568627 0.5019608 0.427451 0.1568627 0.5019608 0.427451 0.1568627 0.5019608 0.427451 0.1568627 0.5019608 0.427451 0.1568627 0.5019608 0.427451 0.1568627 0.5019608 0.427451 0.1568627 0.5019608 0.427451 0.1568627 0.5019608 0.427451 0.1568627 0.5019608 0.427451 0.1568627 0.5019608 0.427451 0.1568627 0.5019608 0.427451 0.1568627 0.5019608 0.427451 0.1568627 0.5019608 0.427451 0.1568627 0.5019608 0.427451 0.1568627 0.5019608 0.427451 0.1568627 0.5019608 0.427451 0.1568627 0.5019608 0.427451 0.1568627 0.5019608 0.427451 0.1568627 0.5019608 0.427451 0.1568627 0.5019608 0.427451 0.1568627 0.5019608 0.427451 0.1568627 0.5019608 0.427451 0.1568627 0.5019608 0.427451 0.1568627 0.5019608 0.427451 0.1568627 0.5019608 0.427451 0.1568627 0.5019608 0.427451 0.1568627 0.5019608 0.427451 0.1568627 0.5019608 0.427451 0.1568627 0.5019608 0.427451 0.1568627 0.5019608 0.427451 0.1568627 0.5019608 0.427451 0.1568627 0.5019608 0.427451 0.1568627 0.5019608 0.427451 0.1568627 0.5019608 0.427451 0.1568627 0.5019608 0.427451 0.1568627 0.5019608 0.427451 0.1568627 0.5019608 0.427451 0.1568627 0.5019608 0.427451 0.1568627 0.5019608 0.427451 0.1568627 0.5019608 0.427451 0.1568627 0.5019608 0.427451 0.1568627 0.5019608 0.427451 0.1568627 0.5019608 0.427451 0.1568627 0.5019608 0.427451 0.1568627 0.5019608 0.427451 0.1568627 0.5019608 0.427451 0.1568627 0.5019608 0.427451 0.1568627 0.5019608 0.427451 0.1568627 0.5019608 0.427451 0.1568627 0.5019608 0.427451 0.1568627 0.5019608 0.427451 0.1568627 0.5019608 0.427451 0.1568627 0.5019608 0.427451 0.1568627 0.5019608 0.427451 0.1568627 0.5019608 0.427451 0.1568627 0.5019608 0.427451 0.1568627 0.5019608 0.427451 0.1568627 0.5019608 0.427451 0.1568627 0.5019608 0.427451 0.1568627 0.5019608 0.427451 0.1568627 0.5019608 0.427451 0.1568627 0.5019608 0.427451 0.1568627 0.5019608 0.427451 0.1568627 0.5019608 0.427451 0.1568627 0.5019608 0.427451 0.1568627 0.5019608 0.427451 0.1568627 0.5019608 0.427451 0.1568627 0.5019608 0.427451 0.1568627 0.5019608 0.427451 0.1568627 0.5019608 0.427451 0.1568627 0.5019608 0.427451 0.1568627 0.5019608 0.427451 0.1568627 0.5019608 0.427451 0.1568627 0.5019608 0.427451 0.1568627 0.5019608 0.427451 0.1568627 0.5019608 0.427451 0.1568627 0.5019608 0.427451 0.1568627 0.5019608 0.427451 0.1568627 0.5019608 0.427451 0.1568627 0.5019608 0.427451 0.1568627 0.5019608 0.427451 0.1568627 0.5019608 0.427451 0.1568627 0.5019608 0.427451 0.1568627 0.5019608 0.427451 0.1568627 0.5019608 0.427451 0.1568627 0.5019608 0.427451 0.1568627 0.5019608 0.427451 0.1568627 0.5019608 0.427451 0.1568627 0.5019608 0.427451 0.1568627 0.5019608 0.427451 0.1568627 0.5019608 0.427451 0.1568627 0.5019608 0.427451 0.1568627 0.5019608 0.427451 0.1568627 0.5019608 0.427451 0.1568627 0.5019608 0.427451 0.1568627 0.5019608 0.427451 0.1568627 0.5019608 0.427451 0.1568627 0.5019608 0.427451 0.1568627 0.5019608 0.427451 0.1568627 0.5019608 0.427451 0.1568627 0.5019608 0.427451 0.1568627 0.5019608 0.427451 0.1568627 0.5019608 0.427451 0.1568627 0.5019608 0.427451 0.1568627 0.5019608 0.427451 0.1568627 0.5019608 0.427451 0.1568627 0.5019608 0.427451 0.1568627 0.5019608 0.427451 0.1568627 0.5019608 0.427451 0.1568627 0.5019608 0.427451 0.1568627 0.5019608 0.427451 0.1568627 0.5019608 0.427451 0.1568627 0.5019608 0.427451 0.1568627 0.5019608 0.427451 0.1568627 0.5019608 0.427451 0.1568627 0.5019608 0.427451 0.1568627 0.5019608 0.427451 0.1568627 0.5019608 0.427451 0.1568627 0.5019608 0.427451 0.1568627 0.5019608 0.427451 0.1568627 0.5019608 0.427451 0.1568627 0.5019608 0.427451 0.1568627 0.5019608 0.427451 0.1568627 0.5019608 0.427451 0.1568627 0.5019608 0.427451 0.1568627 0.5019608 0.427451 0.1568627 0.5019608 0.427451 0.1568627 0.5019608 0.427451 0.1568627 0.5019608 0.427451 0.1568627 0.5019608 0.427451 0.1568627 0.5019608 0.427451 0.1568627 0.5019608 0.427451 0.1568627 0.5019608 0.427451 0.1568627 0.5019608 0.427451 0.1568627 0.5019608 0.427451 0.1568627 0.5019608 0.427451 0.1568627 0.5019608 0.427451 0.1568627 0.5019608 0.427451 0.1568627 0.5019608 0.427451 0.1568627 0.5019608 0.427451 0.1568627 0.5019608 0.427451 0.1568627 0.5019608 0.427451 0.1568627 0.5019608 0.427451 0.1568627 0.5019608 0.427451 0.1568627 0.5019608 0.427451 0.1568627 0.5019608 0.427451 0.1568627 0.5019608 0.427451 0.1568627 0.5019608 0.427451 0.1568627 0.5019608 0.427451 0.1568627 0.5019608 0.427451 0.1568627 0.5019608 0.427451 0.1568627 0.5019608 0.427451 0.1568627 0.5019608 0.427451 0.1568627 0.5019608 0.427451 0.1568627 0.5019608 0.427451 0.1568627 0.5019608 0.427451 0.1568627 0.5019608 0.427451 0.1568627 0.5019608 0.427451 0.1568627 0.5019608 0.427451 0.1568627 0.5019608 0.427451 0.1568627 0.5019608 0.427451 0.1568627 0.5019608 0.427451 0.1568627 0.5019608 0.427451 0.1568627 0.5019608 0.427451 0.1568627 0.5019608 0.427451 0.1568627 0.5019608 0.427451 0.1568627 0.5019608 0.427451 0.1568627 0.5019608 0.427451 0.1568627 0.5019608 0.427451 0.1568627 0.5019608 0.427451 0.1568627 0.5019608 0.427451 0.1568627 0.5019608 0.427451 0.1568627 0.5019608 0.427451 0.1568627 0.5019608 0.427451 0.1568627 0.5019608 0.427451 0.1568627 0.5019608 0.427451 0.1568627 0.5019608 0.427451 0.1568627 0.5019608 0.427451 0.1568627 0.5019608 0.427451 0.1568627 0.5019608 0.427451 0.1568627 0.5019608 0.427451 0.1568627 0.5019608 0.427451 0.1568627 0.5019608 0.427451 0.1568627 0.5019608 0.427451 0.1568627 0.5019608 0.427451 0.1568627 0.5019608 0.427451 0.1568627 0.5019608 0.427451 0.1568627 0.5019608 0.427451 0.1568627 0.5019608 0.427451 0.1568627 0.5019608 0.427451 0.1568627 0.5019608 0.427451 0.1568627 0.5019608 0.427451 0.1568627 0.5019608 0.427451 0.1568627 0.5019608 0.427451 0.1568627 0.5019608 0.427451 0.1568627 0.5019608 0.427451 0.1568627 0.5019608 0.427451 0.1568627 0.5019608 0.427451 0.1568627 0.5019608 0.427451 0.1568627 0.5019608 0.427451 0.1568627 0.5019608 0.427451 0.1568627 0.5019608 0.427451 0.1568627 0.5019608 0.427451 0.1568627 0.5019608 0.427451 0.1568627 0.5019608 0.427451 0.1568627 0.5019608 0.427451 0.1568627 0.5019608 0.427451 0.1568627 0.5019608 0.427451 0.1568627 0.5019608 0.427451 0.1568627 0.5019608 0.427451 0.1568627 0.5019608 0.427451 0.1568627 0.5019608 0.427451 0.1568627 0.5019608 0.427451 0.1568627 0.5019608 0.427451 0.1568627 0.5019608 0.427451 0.1568627 0.5019608 0.427451 0.1568627 0.5019608 0.427451 0.1568627 0.5019608 0.427451 0.1568627 0.5019608 0.427451 0.1568627 0.5019608 0.427451 0.1568627 0.5019608 0.427451 0.1568627 0.5019608 0.427451 0.1568627 0.5019608 0.427451 0.1568627 0.5019608 0.427451 0.1568627 0.5019608 0.427451 0.1568627 0.5019608 0.427451 0.1568627 0.5019608 0.427451 0.1568627 0.5019608 0.427451 0.1568627 0.5019608 0.427451 0.1568627 0.5019608 0.427451 0.1568627 0.5019608 0.427451 0.1568627 0.5019608 0.427451 0.1568627 0.5019608 0.427451 0.1568627 0.5019608 0.427451 0.1568627 0.5019608 0.427451 0.1568627 0.5019608 0.427451 0.1568627 0.5019608 0.427451 0.1568627 0.5019608 0.427451 0.1568627 0.5019608 0.427451 0.1568627 0.5019608 0.427451 0.1568627 0.5019608 0.427451 0.1568627 0.5019608 0.427451 0.1568627 0.5019608 0.427451 0.1568627 0.5019608 0.427451 0.1568627 0.5019608 0.427451 0.1568627 0.5019608 0.427451 0.1568627 0.5019608 0.427451 0.1568627 0.5019608 0.427451 0.1568627 0.5019608 0.427451 0.1568627 0.5019608 0.427451 0.1568627 0.5019608 0.427451 0.1568627 0.5019608 0.427451 0.1568627 0.5019608 0.427451 0.1568627 0.5019608 0.427451 0.1568627 0.5019608 0.427451 0.1568627 0.5019608 0.427451 0.1568627 0.5019608 0.427451 0.1568627 0.5019608 0.427451 0.1568627 0.5019608 0.427451 0.1568627 0.5019608 0.427451 0.1568627 0.5019608 0.427451 0.1568627 0.5019608 0.427451 0.1568627 0.5019608 0.427451 0.1568627 0.5019608 0.427451 0.1568627 0.5019608 0.427451 0.1568627 0.5019608 0.427451 0.1568627 0.5019608 0.427451 0.1568627 0.5019608 0.427451 0.1568627 0.5019608 0.427451 0.1568627 0.5019608 0.427451 0.1568627 0.5019608 0.427451 0.1568627 0.5019608 0.427451 0.1568627 0.5019608 0.427451 0.1568627 0.5019608 0.427451 0.1568627 0.5019608 0.427451 0.1568627 0.5019608 0.427451 0.1568627 0.5019608 0.427451 0.1568627 0.5019608 0.427451 0.1568627 0.5019608 0.427451 0.1568627 0.5019608 0.427451 0.1568627 0.5019608 0.427451 0.1568627 0.5019608 0.427451 0.1568627 0.5019608 0.427451 0.1568627 0.5019608 0.427451 0.1568627 0.5019608 0.427451 0.1568627 0.5019608 0.427451 0.1568627 0.5019608 0.427451 0.1568627 0.5019608 0.427451 0.1568627 0.5019608 0.427451 0.1568627 0.5019608 0.427451 0.1568627 0.5019608 0.427451 0.1568627 0.5019608 0.427451 0.1568627 0.5019608 0.427451 0.1568627 0.5019608 0.427451 0.1568627 0.5019608 0.427451 0.1568627 0.5019608 0.427451 0.1568627 0.5019608 0.427451 0.1568627 0.5019608 0.427451 0.1568627 0.5019608 0.427451 0.1568627 0.5019608 0.427451 0.1568627 0.5019608 0.427451 0.1568627 0.5019608 0.427451 0.1568627 0.5019608 0.427451 0.1568627 0.5019608 0.427451 0.1568627 0.5019608 0.427451 0.1568627 0.5019608 0.427451 0.1568627 0.5019608 0.427451 0.1568627 0.5019608 0.427451 0.1568627 0.5019608 0.427451 0.1568627 0.5019608 0.427451 0.1568627 0.5019608 0.427451 0.1568627 0.5019608 0.427451 0.1568627 0.5019608 0.427451 0.1568627 0.5019608 0.427451 0.1568627 0.5019608 0.427451 0.1568627 0.5019608 0.427451 0.1568627 0.5019608 0.427451 0.1568627 0.5019608 0.427451 0.1568627 0.5019608 0.427451 0.1568627 0.5019608 0.427451 0.1568627 0.5019608 0.427451 0.1568627 0.5019608 0.427451 0.1568627 0.5019608 0.427451 0.1568627 0.5019608 0.427451 0.1568627 0.5019608 0.427451 0.1568627 0.5019608 0.427451 0.1568627 0.5019608 0.427451 0.1568627 0.5019608 0.427451 0.1568627 0.5019608 0.427451 0.1568627 0.5019608 0.427451 0.1568627 0.5019608 0.427451 0.1568627 0.5019608 0.427451 0.1568627 0.5019608 0.427451 0.1568627 0.5019608 0.427451 0.1568627 0.5019608 0.427451 0.1568627 0.5019608 0.427451 0.1568627 0.5019608 0.427451 0.1568627 0.5019608 0.427451 0.1568627 0.5019608 0.427451 0.1568627 0.5019608 0.427451 0.1568627 0.5019608 0.427451 0.1568627 0.5019608 0.427451 0.1568627 0.5019608 0.427451 0.1568627 0.5019608 0.427451 0.1568627 0.5019608 0.427451 0.1568627 0.5019608 0.427451 0.1568627 0.5019608 0.427451 0.1568627 0.5019608 0.427451 0.1568627 0.5019608 0.427451 0.1568627 0.5019608 0.427451 0.1568627 0.5019608 0.427451 0.1568627 0.5019608 0.427451 0.1568627 0.5019608 0.427451 0.1568627 0.5019608 0.427451 0.1568627 0.5019608 0.427451 0.1568627 0.5019608 0.427451 0.1568627 0.5019608 0.427451 0.1568627 0.5019608 0.427451 0.1568627 0.5019608 0.427451 0.1568627 0.5019608 0.427451 0.1568627 0.5019608 0.427451 0.1568627 0.5019608 0.427451 0.1568627 0.5019608 0.427451 0.1568627 0.5019608 0.427451 0.1568627 0.5019608 0.427451 0.1568627 0.5019608 0.427451 0.1568627 0.5019608 0.427451 0.1568627 0.5019608 0.427451 0.1568627 0.5019608 0.427451 0.1568627 0.5019608 0.427451 0.1568627 0.5019608 0.427451 0.1568627 0.5019608 0.427451 0.1568627 0.5019608 0.427451 0.1568627 0.5019608 0.427451 0.1568627 0.5019608 0.427451 0.1568627 0.5019608 0.427451 0.1568627 0.5019608 0.427451 0.1568627 0.5019608 0.427451 0.1568627 0.5019608 0.427451 0.1568627 0.5019608 0.427451 0.1568627 0.5019608 0.427451 0.1568627 0.5019608 0.427451 0.1568627 0.5019608 0.427451 0.1568627 0.5019608 0.427451 0.1568627 0.5019608 0.427451 0.1568627 0.5019608 0.427451 0.1568627 0.5019608 0.427451 0.1568627 0.5019608 0.427451 0.1568627 0.5019608 0.427451 0.1568627 0.5019608 0.427451 0.1568627 0.5019608 0.427451 0.1568627 0.5019608 0.427451 0.1568627 0.5019608 0.427451 0.1568627 0.5019608 0.427451 0.1568627 0.5019608 0.427451 0.1568627 0.5019608 0.427451 0.1568627 0.5019608 0.427451 0.1568627 0.5019608 0.427451 0.1568627 0.5019608 0.427451 0.1568627 0.5019608 0.427451 0.1568627 0.5019608 0.427451 0.1568627 0.5019608 0.427451 0.1568627 0.5019608 0.427451 0.1568627 0.5019608 0.427451 0.1568627 0.5019608 0.427451 0.1568627 0.5019608 0.427451 0.1568627 0.5019608 0.427451 0.1568627 0.5019608 0.427451 0.1568627 0.5019608 0.427451 0.1568627 0.5019608 0.427451 0.1568627 0.5019608 0.427451 0.1568627 0.5019608 0.427451 0.1568627 0.5019608 0.427451 0.1568627 0.5019608 0.427451 0.1568627 0.5019608 0.427451 0.1568627 0.5019608 0.427451 0.1568627 0.5019608 0.427451 0.1568627 0.5019608 0.427451 0.1568627 0.5019608 0.427451 0.1568627 0.5019608 0.427451 0.1568627 0.5019608 0.427451 0.1568627 0.5019608 0.427451 0.1568627 0.5019608 0.427451 0.1568627 0.5019608 0.427451 0.1568627 0.5019608 0.427451 0.1568627 0.5019608 0.427451 0.1568627 0.5019608 0.427451 0.1568627 0.5019608 0.427451 0.1568627 0.5019608 0.427451 0.1568627 0.5019608 0.427451 0.1568627 0.5019608 0.427451 0.1568627 0.5019608 0.427451 0.1568627 0.5019608 0.427451 0.1568627 0.5019608 0.427451 0.1568627 0.5019608 0.427451 0.1568627 0.5019608 0.427451 0.1568627 0.5019608 0.427451 0.1568627 0.5019608 0.427451 0.1568627 0.5019608 0.427451 0.1568627 0.5019608 0.427451 0.1568627 0.5019608 0.427451 0.1568627 0.5019608 0.427451 0.1568627 0.5019608 0.427451 0.1568627 0.5019608 0.427451 0.1568627 0.5019608 0.427451 0.1568627 0.5019608 0.427451 0.1568627 0.5019608 0.427451 0.1568627 0.5019608 0.427451 0.1568627 0.5019608 0.427451 0.1568627 0.5019608 0.427451 0.1568627 0.5019608 0.427451 0.1568627 0.5019608 0.427451 0.1568627 0.5019608 0.427451 0.1568627 0.5019608 0.427451 0.1568627 0.5019608 0.427451 0.1568627 0.5019608 0.427451 0.1568627 0.5019608 0.427451 0.1568627 0.5019608 0.427451 0.1568627 0.5019608 0.427451 0.1568627 0.5019608 0.427451 0.1568627 0.5019608 0.427451 0.1568627 0.5019608 0.427451 0.1568627 0.5019608 0.427451 0.1568627 0.5019608 0.427451 0.1568627 0.5019608 0.427451 0.1568627 0.5019608 0.427451 0.1568627 0.5019608 0.427451 0.1568627 0.5019608 0.427451 0.1568627 0.5019608 0.427451 0.1568627 0.5019608 0.427451 0.1568627 0.5019608 0.427451 0.1568627 0.5019608 0.427451 0.1568627 0.5019608 0.427451 0.1568627 0.5019608 0.427451 0.1568627 0.5019608 0.427451 0.1568627 0.5019608 0.427451 0.1568627 0.5019608 0.427451 0.1568627 0.5019608 0.427451 0.1568627 0.5019608 0.427451 0.1568627 0.5019608 0.427451 0.1568627 0.5019608 0.427451 0.1568627 0.5019608 0.427451 0.1568627 0.5019608 0.427451 0.1568627 0.5019608 0.427451 0.1568627 0.5019608 0.427451 0.1568627 0.5019608 0.427451 0.1568627 0.5019608 0.427451 0.1568627 0.5019608 0.427451 0.1568627 0.5019608 0.427451 0.1568627 0.5019608 0.427451 0.1568627 0.5019608 0.427451 0.1568627 0.5019608 0.427451</float_array>
          <technique_common>
            <accessor source="#shape0_001-mesh-colors-shape0-lib-vcolor-array" count="1356" stride="3">
              <param name="R" type="float"/>
              <param name="G" type="float"/>
              <param name="B" type="float"/>
            </accessor>
          </technique_common>
        </source>
        <vertices id="shape0_001-mesh-vertices">
          <input semantic="POSITION" source="#shape0_001-mesh-positions"/>
        </vertices>
        <polylist count="452">
          <input semantic="VERTEX" source="#shape0_001-mesh-vertices" offset="0"/>
          <input semantic="NORMAL" source="#shape0_001-mesh-normals" offset="1"/>
          <input semantic="COLOR" source="#shape0_001-mesh-colors-shape0-lib-vcolor" offset="2" set="0"/>
          <vcount>3 3 3 3 3 3 3 3 3 3 3 3 3 3 3 3 3 3 3 3 3 3 3 3 3 3 3 3 3 3 3 3 3 3 3 3 3 3 3 3 3 3 3 3 3 3 3 3 3 3 3 3 3 3 3 3 3 3 3 3 3 3 3 3 3 3 3 3 3 3 3 3 3 3 3 3 3 3 3 3 3 3 3 3 3 3 3 3 3 3 3 3 3 3 3 3 3 3 3 3 3 3 3 3 3 3 3 3 3 3 3 3 3 3 3 3 3 3 3 3 3 3 3 3 3 3 3 3 3 3 3 3 3 3 3 3 3 3 3 3 3 3 3 3 3 3 3 3 3 3 3 3 3 3 3 3 3 3 3 3 3 3 3 3 3 3 3 3 3 3 3 3 3 3 3 3 3 3 3 3 3 3 3 3 3 3 3 3 3 3 3 3 3 3 3 3 3 3 3 3 3 3 3 3 3 3 3 3 3 3 3 3 3 3 3 3 3 3 3 3 3 3 3 3 3 3 3 3 3 3 3 3 3 3 3 3 3 3 3 3 3 3 3 3 3 3 3 3 3 3 3 3 3 3 3 3 3 3 3 3 3 3 3 3 3 3 3 3 3 3 3 3 3 3 3 3 3 3 3 3 3 3 3 3 3 3 3 3 3 3 3 3 3 3 3 3 3 3 3 3 3 3 3 3 3 3 3 3 3 3 3 3 3 3 3 3 3 3 3 3 3 3 3 3 3 3 3 3 3 3 3 3 3 3 3 3 3 3 3 3 3 3 3 3 3 3 3 3 3 3 3 3 3 3 3 3 3 3 3 3 3 3 3 3 3 3 3 3 3 3 3 3 3 3 3 3 3 3 3 3 3 3 3 3 3 3 3 3 3 3 3 3 3 3 3 3 3 3 3 3 3 3 3 3 3 3 3 3 3 3 3 3 3 3 3 3 3 3 3 3 3 3 3 3 3 3 3 3 3 3 3 3 3 3 3 3 3 3 3 3 3 3 3 3 3 3 3 3 3 3 3 3 </vcount>
          <p>203 0 0 201 0 1 200 0 2 202 0 3 201 0 4 203 0 5 216 1 6 217 1 7 215 1 8 209 1 9 210 1 10 208 1 11 224 2 12 223 2 13 221 2 14 231 0 15 233 0 16 204 0 17 231 0 18 200 0 19 233 0 20 203 0 21 200 0 22 231 0 23 206 0 24 226 0 25 207 0 26 206 0 27 205 0 28 226 0 29 222 0 30 198 0 31 224 0 32 222 0 33 199 0 34 198 0 35 197 3 36 199 4 37 222 5 38 219 0 39 218 0 40 197 0 41 218 6 42 199 4 43 197 3 44 219 0 45 196 0 46 218 0 47 232 1 48 213 1 49 214 1 50 228 1 51 213 1 52 232 1 53 228 1 54 230 1 55 213 1 56 229 7 57 230 7 58 228 7 59 229 1 60 212 1 61 230 1 62 215 1 63 217 1 64 227 1 65 211 1 66 221 1 67 223 1 68 225 1 69 221 1 70 211 1 71 225 8 72 220 9 73 221 10 74 208 1 75 210 1 76 220 1 77 225 8 78 208 11 79 220 9 80 196 12 81 209 12 82 208 12 83 219 13 84 210 13 85 209 13 86 219 2 87 197 2 88 220 2 89 222 13 90 221 13 91 220 13 92 198 14 93 211 14 94 223 14 95 199 12 96 225 12 97 211 12 98 218 13 99 208 13 100 225 13 101 205 12 102 216 12 103 215 12 104 206 13 105 217 13 106 216 13 107 206 2 108 207 2 109 227 2 110 226 14 111 215 14 112 227 14 113 201 15 114 229 15 115 228 15 116 202 13 117 212 13 118 229 13 119 203 16 120 230 16 121 212 16 122 203 2 123 231 2 124 213 2 125 231 17 126 204 17 127 214 17 128 233 14 129 232 14 130 214 14 131 200 18 132 228 18 133 232 18 134 222 2 135 224 2 136 221 2 137 218 12 138 196 12 139 208 12 140 196 13 141 219 13 142 209 13 143 210 2 144 219 2 145 220 2 146 197 13 147 222 13 148 220 13 149 224 14 150 198 14 151 223 14 152 198 12 153 199 12 154 211 12 155 199 13 156 218 13 157 225 13 158 226 12 159 205 12 160 215 12 161 205 13 162 206 13 163 216 13 164 217 2 165 206 2 166 227 2 167 207 14 168 226 14 169 227 14 170 200 19 171 201 19 172 228 19 173 201 13 174 202 13 175 229 13 176 202 20 177 203 20 178 212 20 179 230 2 180 203 2 181 213 2 182 213 17 183 231 17 184 214 17 185 204 14 186 233 14 187 214 14 188 233 21 189 200 21 190 232 21 191 247 22 192 248 22 193 249 22 194 244 0 195 245 0 196 283 0 197 244 0 198 340 0 199 245 0 200 281 0 201 340 0 202 244 0 203 279 23 204 340 23 205 281 23 206 278 24 207 340 24 208 279 24 209 243 0 210 340 0 211 278 0 212 242 25 213 340 25 214 243 25 215 275 26 216 340 26 217 242 26 218 274 0 219 340 0 220 275 0 221 241 0 222 340 0 223 274 0 224 240 27 225 340 27 226 241 27 227 272 28 228 340 28 229 240 28 230 271 0 231 270 0 232 272 0 233 270 0 234 239 0 235 272 0 236 239 29 237 238 29 238 272 29 239 238 0 240 266 0 241 272 0 242 266 0 243 265 0 244 272 0 245 265 0 246 237 0 247 272 0 248 237 0 249 340 0 250 272 0 251 263 0 252 236 0 253 237 0 254 236 30 255 340 30 256 237 30 257 235 31 258 340 31 259 236 31 260 234 1 261 340 1 262 235 1 263 261 1 264 340 1 265 234 1 266 259 1 267 282 1 268 258 1 269 352 32 270 282 32 271 259 32 272 352 33 273 280 33 274 282 33 275 352 34 276 257 34 277 280 34 278 352 35 279 256 35 280 257 35 281 352 36 282 277 36 283 256 36 284 352 37 285 276 37 286 277 37 287 352 38 288 255 38 289 276 38 290 352 39 291 254 39 292 255 39 293 352 40 294 273 40 295 254 40 296 352 41 297 253 41 298 273 41 299 352 42 300 252 42 301 253 42 302 269 43 303 251 43 304 252 43 305 268 44 306 269 44 307 252 44 308 267 45 309 268 45 310 252 45 311 250 1 312 267 1 313 252 1 314 264 1 315 250 1 316 252 1 317 249 46 318 264 46 319 252 46 320 352 47 321 249 47 322 252 47 323 352 48 324 247 48 325 249 48 326 352 49 327 262 49 328 247 49 329 352 50 330 246 50 331 262 50 332 352 0 333 260 0 334 246 0 335 234 51 336 246 51 337 260 51 338 235 52 339 262 52 340 246 52 341 236 53 342 247 53 343 262 53 344 236 54 345 263 54 346 248 54 347 237 55 348 249 55 349 248 55 350 265 56 351 264 56 352 249 56 353 266 57 354 250 57 355 264 57 356 266 58 357 238 58 358 267 58 359 239 59 360 268 59 361 267 59 362 270 60 363 269 60 364 268 60 365 271 61 366 251 61 367 269 61 368 272 62 369 252 62 370 251 62 371 240 63 372 253 63 373 252 63 374 241 64 375 273 64 376 253 64 377 274 65 378 254 65 379 273 65 380 275 66 381 255 66 382 254 66 383 242 67 384 276 67 385 255 67 386 243 68 387 277 68 388 276 68 389 278 69 390 256 69 391 277 69 392 279 70 393 257 70 394 256 70 395 281 71 396 280 71 397 257 71 398 244 72 399 282 72 400 280 72 401 283 73 402 258 73 403 282 73 404 245 14 405 259 14 406 258 14 407 340 74 408 352 74 409 259 74 410 261 75 411 260 75 412 352 75 413 261 76 414 234 76 415 260 76 416 234 52 417 235 52 418 246 52 419 235 77 420 236 77 421 262 77 422 247 78 423 236 78 424 248 78 425 263 79 426 237 79 427 248 79 428 237 56 429 265 56 430 249 56 431 265 80 432 266 80 433 264 80 434 250 81 435 266 81 436 267 81 437 238 82 438 239 82 439 267 82 440 239 83 441 270 83 442 268 83 443 270 84 444 271 84 445 269 84 446 271 85 447 272 85 448 251 85 449 272 86 450 240 86 451 252 86 452 240 87 453 241 87 454 253 87 455 241 65 456 274 65 457 273 65 458 274 66 459 275 66 460 254 66 461 275 88 462 242 88 463 255 88 464 242 89 465 243 89 466 276 89 467 243 90 468 278 90 469 277 90 470 278 91 471 279 91 472 256 91 473 279 92 474 281 92 475 257 92 476 281 93 477 244 93 478 280 93 479 244 94 480 283 94 481 282 94 482 283 14 483 245 14 484 258 14 485 245 74 486 340 74 487 259 74 488 340 95 489 261 95 490 352 95 491 645 13 492 644 13 493 642 13 494 629 96 495 574 96 496 630 96 497 628 0 498 574 0 499 629 0 500 661 97 501 574 97 502 628 97 503 627 0 504 574 0 505 661 0 506 626 0 507 574 0 508 627 0 509 660 98 510 574 98 511 626 98 512 659 0 513 574 0 514 660 0 515 625 0 516 574 0 517 659 0 518 624 0 519 574 0 520 625 0 521 655 0 522 574 0 523 624 0 524 653 0 525 574 0 526 655 0 527 623 0 528 574 0 529 653 0 530 652 99 531 574 100 532 623 101 533 622 102 534 574 100 535 652 99 536 621 103 537 574 100 538 622 102 539 649 99 540 574 100 541 621 103 542 620 99 543 574 100 544 649 99 545 619 99 546 574 100 547 620 99 548 618 103 549 574 100 550 619 99 551 617 104 552 574 100 553 618 103 554 616 103 555 574 100 556 617 104 557 645 99 558 574 100 559 616 103 560 643 99 561 574 100 562 645 99 563 586 105 564 641 105 565 663 105 566 586 106 567 662 106 568 641 106 569 586 107 570 640 107 571 662 107 572 586 108 573 639 108 574 640 108 575 586 109 576 638 109 577 639 109 578 586 110 579 637 110 580 638 110 581 586 111 582 658 111 583 637 111 584 586 112 585 657 112 586 658 112 587 586 1 588 656 1 589 657 1 590 586 113 591 654 113 592 656 113 593 586 114 594 636 114 595 654 114 596 586 1 597 635 1 598 636 1 599 586 115 600 651 116 601 635 117 602 586 115 603 634 103 604 651 116 605 586 115 606 650 102 607 634 103 608 586 115 609 633 99 610 650 102 611 586 115 612 648 99 613 633 99 614 586 115 615 647 116 616 648 99 617 586 115 618 632 102 619 647 116 620 586 115 621 646 99 622 632 102 623 586 115 624 631 103 625 646 99 626 586 115 627 644 116 628 631 103 629 586 115 630 642 99 631 644 116 632 574 13 633 643 13 634 642 13 635 616 13 636 631 13 637 644 13 638 617 13 639 646 13 640 631 13 641 618 13 642 632 13 643 646 13 644 619 13 645 647 13 646 632 13 647 620 13 648 648 13 649 647 13 650 649 13 651 633 13 652 648 13 653 621 13 654 650 13 655 633 13 656 622 13 657 634 13 658 650 13 659 652 13 660 651 13 661 634 13 662 623 13 663 635 13 664 651 13 665 653 118 666 636 118 667 635 118 668 655 119 669 654 119 670 636 119 671 624 120 672 656 120 673 654 120 674 625 121 675 657 121 676 656 121 677 659 122 678 658 122 679 657 122 680 660 123 681 637 123 682 658 123 683 626 124 684 638 124 685 637 124 686 627 125 687 639 125 688 638 125 689 661 126 690 640 126 691 639 126 692 628 127 693 662 127 694 640 127 695 629 128 696 641 128 697 662 128 698 630 129 699 663 129 700 641 129 701 574 130 702 586 130 703 663 130 704 643 13 705 645 13 706 642 13 707 586 13 708 574 13 709 642 13 710 645 13 711 616 13 712 644 13 713 616 13 714 617 13 715 631 13 716 617 13 717 618 13 718 646 13 719 618 13 720 619 13 721 632 13 722 619 13 723 620 13 724 647 13 725 620 13 726 649 13 727 648 13 728 649 13 729 621 13 730 633 13 731 621 13 732 622 13 733 650 13 734 622 13 735 652 13 736 634 13 737 652 13 738 623 13 739 651 13 740 623 131 741 653 131 742 635 131 743 653 132 744 655 132 745 636 132 746 655 133 747 624 133 748 654 133 749 624 134 750 625 134 751 656 134 752 625 122 753 659 122 754 657 122 755 659 135 756 660 135 757 658 135 758 660 136 759 626 136 760 637 136 761 626 137 762 627 137 763 638 137 764 627 126 765 661 126 766 639 126 767 661 138 768 628 138 769 640 138 770 628 139 771 629 139 772 662 139 773 629 140 774 630 140 775 641 140 776 630 130 777 574 130 778 663 130 779 763 1 780 765 1 781 769 1 782 763 2 783 764 2 784 765 2 785 799 0 786 808 0 787 762 0 788 797 0 789 808 0 790 799 0 791 796 141 792 808 141 793 797 141 794 761 0 795 808 0 796 796 0 797 760 0 798 808 0 799 761 0 800 793 142 801 808 142 802 760 142 803 792 0 804 808 0 805 793 0 806 759 0 807 808 0 808 792 0 809 791 0 810 808 0 811 759 0 812 758 0 813 808 0 814 791 0 815 788 0 816 808 0 817 758 0 818 787 0 819 786 0 820 788 0 821 786 0 822 756 0 823 788 0 824 756 0 825 755 0 826 788 0 827 755 0 828 754 0 829 788 0 830 754 0 831 779 0 832 788 0 833 779 143 834 752 143 835 788 143 836 752 0 837 777 0 838 788 0 839 777 0 840 808 0 841 788 0 842 784 0 843 756 0 844 786 0 845 757 144 846 756 144 847 784 144 848 783 2 849 756 2 850 757 2 851 753 12 852 779 12 853 754 12 854 820 145 855 798 145 856 775 145 857 820 146 858 774 146 859 798 146 860 820 147 861 773 147 862 774 147 863 820 1 864 795 1 865 773 1 866 820 148 867 794 148 868 795 148 869 820 149 870 772 149 871 794 149 872 820 150 873 771 150 874 772 150 875 820 151 876 770 151 877 771 151 878 820 152 879 790 152 880 770 152 881 820 153 882 789 153 883 790 153 884 820 154 885 769 154 886 789 154 887 785 1 888 768 1 889 769 1 890 781 155 891 785 155 892 769 155 893 780 156 894 781 156 895 769 156 896 765 1 897 780 1 898 769 1 899 778 1 900 763 1 901 769 1 902 776 1 903 778 1 904 769 1 905 820 157 906 776 157 907 769 157 908 781 158 909 767 158 910 785 158 911 781 159 912 766 159 913 767 159 914 781 1 915 782 1 916 766 1 917 777 160 918 776 160 919 820 160 920 752 161 921 778 161 922 776 161 923 779 162 924 763 162 925 778 162 926 753 163 927 764 163 928 763 163 929 754 164 930 765 164 931 764 164 932 755 165 933 780 165 934 765 165 935 756 161 936 781 161 937 780 161 938 783 166 939 782 166 940 781 166 941 757 167 942 766 167 943 782 167 944 784 168 945 767 168 946 766 168 947 786 169 948 785 169 949 767 169 950 787 170 951 768 170 952 785 170 953 788 171 954 769 171 955 768 171 956 758 172 957 789 172 958 769 172 959 791 173 960 790 173 961 789 173 962 759 174 963 770 174 964 790 174 965 792 175 966 771 175 967 770 175 968 793 176 969 772 176 970 771 176 971 760 177 972 794 177 973 772 177 974 761 178 975 795 178 976 794 178 977 796 179 978 773 179 979 795 179 980 797 180 981 774 180 982 773 180 983 799 181 984 798 181 985 774 181 986 762 182 987 775 182 988 798 182 989 808 183 990 820 183 991 775 183 992 808 184 993 777 184 994 820 184 995 777 185 996 752 185 997 776 185 998 752 186 999 779 186 1000 778 186 1001 779 187 1002 753 187 1003 763 187 1004 753 188 1005 754 188 1006 764 188 1007 754 189 1008 755 189 1009 765 189 1010 755 185 1011 756 185 1012 780 185 1013 756 190 1014 783 190 1015 781 190 1016 783 191 1017 757 191 1018 782 191 1019 757 168 1020 784 168 1021 766 168 1022 784 192 1023 786 192 1024 767 192 1025 786 193 1026 787 193 1027 785 193 1028 787 194 1029 788 194 1030 768 194 1031 788 195 1032 758 195 1033 769 195 1034 758 196 1035 791 196 1036 789 196 1037 791 197 1038 759 197 1039 790 197 1040 759 198 1041 792 198 1042 770 198 1043 792 199 1044 793 199 1045 771 199 1046 793 177 1047 760 177 1048 772 177 1049 760 200 1050 761 200 1051 794 200 1052 761 201 1053 796 201 1054 795 201 1055 796 202 1056 797 202 1057 773 202 1058 797 181 1059 799 181 1060 774 181 1061 799 203 1062 762 203 1063 798 203 1064 762 204 1065 808 204 1066 775 204 1067 1039 0 1068 1042 0 1069 1040 0 1070 1038 0 1071 1042 0 1072 1039 0 1073 1036 205 1074 1042 205 1075 1037 205 1076 1035 0 1077 1042 0 1078 1036 0 1079 1034 0 1080 1042 0 1081 1035 0 1082 1044 0 1083 1043 0 1084 1034 0 1085 1045 1 1086 1044 1 1087 1046 1 1088 1054 206 1089 1051 206 1090 1052 206 1091 1058 207 1092 1059 207 1093 1048 207 1094 1054 208 1095 1056 208 1096 1057 208 1097 1054 0 1098 1055 0 1099 1056 0 1100 1083 209 1101 1082 209 1102 1080 209 1103 1041 0 1104 1042 0 1105 1070 0 1106 1068 0 1107 1042 0 1108 1041 0 1109 1040 210 1110 1042 210 1111 1068 210 1112 1065 0 1113 1042 0 1114 1038 0 1115 1064 0 1116 1042 0 1117 1065 0 1118 1037 211 1119 1042 211 1120 1064 211 1121 1083 0 1122 1081 0 1123 1034 0 1124 1081 0 1125 1047 0 1126 1034 0 1127 1047 0 1128 1078 0 1129 1034 0 1130 1078 0 1131 1044 0 1132 1034 0 1133 1043 0 1134 1075 0 1135 1034 0 1136 1075 0 1137 1042 0 1138 1034 0 1139 1044 212 1140 1046 212 1141 1078 212 1142 1073 0 1143 1042 0 1144 1075 0 1145 1072 1 1146 1042 1 1147 1073 1 1148 1071 1 1149 1042 1 1150 1072 1 1151 1054 213 1152 1069 213 1153 1053 213 1154 1054 214 1155 1067 214 1156 1069 214 1157 1054 215 1158 1052 215 1159 1067 215 1160 1054 216 1161 1066 216 1162 1051 216 1163 1054 217 1164 1050 217 1165 1066 217 1166 1054 218 1167 1063 218 1168 1050 218 1169 1054 219 1170 1062 219 1171 1063 219 1172 1054 220 1173 1049 220 1174 1062 220 1175 1054 221 1176 1061 221 1177 1049 221 1178 1054 222 1179 1048 222 1180 1061 222 1181 1080 1 1182 1082 1 1183 1048 1 1184 1079 1 1185 1080 1 1186 1048 1 1187 1077 223 1188 1079 223 1189 1048 223 1190 1059 224 1191 1077 224 1192 1048 224 1193 1074 1 1194 1058 1 1195 1048 1 1196 1054 225 1197 1074 225 1198 1048 225 1199 1060 0 1200 1059 0 1201 1077 0 1202 1059 0 1203 1076 0 1204 1060 0 1205 1054 226 1206 1057 226 1207 1074 226 1208 1035 227 1209 1061 227 1210 1048 227 1211 1036 228 1212 1049 228 1213 1061 228 1214 1037 229 1215 1062 229 1216 1049 229 1217 1064 230 1218 1063 230 1219 1062 230 1220 1065 231 1221 1050 231 1222 1063 231 1223 1038 232 1224 1066 232 1225 1050 232 1226 1039 233 1227 1051 233 1228 1066 233 1229 1040 234 1230 1052 234 1231 1051 234 1232 1068 235 1233 1067 235 1234 1052 235 1235 1041 236 1236 1069 236 1237 1067 236 1238 1070 237 1239 1053 237 1240 1069 237 1241 1042 238 1242 1054 238 1243 1053 238 1244 1071 239 1245 1055 239 1246 1054 239 1247 1072 240 1248 1056 240 1249 1055 240 1250 1073 241 1251 1057 241 1252 1056 241 1253 1073 242 1254 1075 242 1255 1074 242 1256 1043 243 1257 1058 243 1258 1074 243 1259 1044 244 1260 1059 244 1261 1058 244 1262 1045 245 1263 1076 245 1264 1059 245 1265 1046 246 1266 1060 246 1267 1076 246 1268 1078 247 1269 1077 247 1270 1060 247 1271 1047 248 1272 1079 248 1273 1077 248 1274 1081 249 1275 1080 249 1276 1079 249 1277 1034 250 1278 1048 250 1279 1082 250 1280 1081 251 1281 1083 251 1282 1080 251 1283 1034 252 1284 1035 252 1285 1048 252 1286 1035 253 1287 1036 253 1288 1061 253 1289 1036 254 1290 1037 254 1291 1049 254 1292 1037 255 1293 1064 255 1294 1062 255 1295 1064 256 1296 1065 256 1297 1063 256 1298 1065 257 1299 1038 257 1300 1050 257 1301 1038 233 1302 1039 233 1303 1066 233 1304 1039 258 1305 1040 258 1306 1051 258 1307 1040 259 1308 1068 259 1309 1052 259 1310 1068 236 1311 1041 236 1312 1067 236 1313 1041 237 1314 1070 237 1315 1069 237 1316 1070 238 1317 1042 238 1318 1053 238 1319 1042 239 1320 1071 239 1321 1054 239 1322 1071 260 1323 1072 260 1324 1055 260 1325 1072 241 1326 1073 241 1327 1056 241 1328 1057 261 1329 1073 261 1330 1074 261 1331 1075 262 1332 1043 262 1333 1074 262 1334 1043 263 1335 1044 263 1336 1058 263 1337 1044 264 1338 1045 264 1339 1059 264 1340 1045 265 1341 1046 265 1342 1076 265 1343 1046 266 1344 1078 266 1345 1060 266 1346 1078 267 1347 1047 267 1348 1077 267 1349 1047 268 1350 1081 268 1351 1079 268 1352 1083 269 1353 1034 269 1354 1082 269 1355</p>
        </polylist>
      </mesh>
    </geometry>
  </library_geometries>
  <library_controllers/>
  <library_visual_scenes>
    <visual_scene id="Scene" name="Scene">
      <node id="VIZ_BTy_link_0" name="VIZ_BTy_link_0" type="NODE">
        <instance_geometry url="#shape0_001-mesh" name="VIZ_BTy_link_0"/>
      </node>
    </visual_scene>
  </library_visual_scenes>
  <scene>
    <instance_visual_scene url="#Scene"/>
  </scene>
</COLLADA>