<?xml version="1.0"?>
<COLLADA xmlns="http://www.collada.org/2005/11/COLLADASchema" version="1.4.1">
    <asset>
        <contributor>
            <authoring_tool>CINEMA4D 18.030 COLLADA Exporter</authoring_tool>
        </contributor>
        <created>2018-01-15T11:09:27Z</created>
        <modified>2018-01-15T11:09:27Z</modified>
        <unit meter="0.01" name="centimeter"/>
        <up_axis>Y_UP</up_axis>
    </asset>
    <library_geometries>
        <geometry id="ID3">
            <mesh>
                <source id="ID4">
                    <float_array id="ID5" count="894">27.9202 -19.2125 57.4073 26.0617 7.0611 65.6163 25.5423 31.9397 57.3694 27.9202 -19.2125 -57.4073 26.0623 6.81463 -65.6164 25.5461 30.4608 -57.3618 28.1133 -23.0396 2.85044e-007 25.3794 43.45 0.024804 -11.9453 -16.8269 55.1514 -21.6929 12.1236 64.4788 -22.5902 42.3941 55.1514 -11.9453 -16.8269 -55.1514 -21.6929 11.8746 -64.4788 -22.5902 40.9004 -55.1514 -10.6783 -22.164 -2.38419e-007 -22.0404 55.2867 -0 -97.5128 4.16112 49.8422 -89.4599 41.4249 66.6296 -82.7763 73.2931 48.2822 -97.5128 2.03178 -48.4451 -89.4599 38.2221 -66.9116 -82.7763 69.7633 -49.9745 -101.481 -11.0532 1.04337 -78.7387 87.0404 -1.19516 45.0029 -13.9253 -0.170394 43.8254 -12.2642 -43.2135 43.8254 -12.2642 43.1125 45.5626 6.36235 -47.1519 45.5588 6.54444 46.8186 42.6486 21.241 -42.9856 42.6317 22.247 42.9699 43.3947 27.2188 -0.0215735 47.5432 7.2264 -0.997566 -257.634 2.72518 105.046 -238.765 94.8326 126.94 -224.756 158.119 70.99 -253.581 -36.6807 -81.8663 -250.214 66.8455 -4.18372 -237.681 40.4009 -136.533 -226.855 119.681 -106.376 -263.142 -49.8447 17.858 -219.105 169.327 -23.8851 -163.963 147.465 76.5227 -178.178 81.0887 129.553 -196.841 -8.92434 104.053 -202.059 -55.6483 16.8151 -192.658 -39.1168 -80.4545 -176.796 38.4527 -133.852 -165.89 116.812 -103.619 -158.109 163.255 -18.9693 -148.124 104.546 54.4949 -158.277 65.8482 84.2312 -172.561 13.8302 66.2735 -178.553 -13.8341 7.81394 -172.302 -1.78956 -55.7249 -158.189 43.7567 -86.2771 -148.241 87.2934 -67.093 -142.405 115.981 -8.89623 -264.177 23.1784 78.7121 -248.977 90.6277 94.9007 -237.939 136.208 53.378 -262.227 -8.29032 -63.9285 -248.599 47.008 -104.869 -239.172 104.89 -83.2626 -269.632 -17.0273 12.2526 -232.891 143.787 -19.7861 -155.947 126.102 65.8357 -168.203 73.6736 107.079 -184.777 2.93175 85.3352 -190.489 -34.1177 12.5198 -182.66 -19.9444 -67.8711 -167.482 41.2629 -109.923 -156.904 101.996 -85.5191 -150.048 139.702 -13.8956 13.9964 -24.0687 -33.0457 12.7635 -20.0998 -57.8299 -10.5226 -21.6723 -31.3446 13.9964 -24.0687 1.79668e-007 28.1595 -23.0458 -32.8024 9.06479 -8.19326 -66.0913 5.36608 7.22422 -66.0913 -16.8361 -4.25757 -63.8823 27.0179 -7.688 -65.6171 13.9964 -24.0687 33.0457 -10.5226 -21.6723 31.3446 12.7635 -20.0998 57.8299 28.1595 -23.0458 32.8024 9.06479 -8.19326 66.0913 -16.8361 -4.25757 63.8823 5.36608 7.47724 66.0913 27.0179 -7.688 65.6171 -52.1041 -14.4832 -28.447 -51.6303 -7.00814 -50.9753 -100.338 -8.02905 -25.8815 -52.7269 -16.45 -0 -52.7002 7.54952 -61.666 -53.6339 24.9694 -64.052 -93.6114 18.9639 -62.1041 -52.1041 -14.4832 28.447 -100.338 -6.87533 27.7864 -51.6303 -7.00814 50.9753 -52.7002 7.54952 61.666 -93.6114 21.7126 62.7054 -53.6339 25.2061 64.052 4.13318 43.8663 -33.0457 4.13318 48.1676 1.79668e-007 -22.2155 50.9063 -31.3446 4.13318 34.2828 -57.8299 25.4344 39.2965 -32.7582 4.13318 21.7259 -66.0913 -23.0135 27.4086 -63.8823 25.6636 19.5822 -65.5896 4.13318 22.7379 66.0913 -23.0135 28.4043 63.8823 4.13318 35.8009 57.8299 25.661 20.5681 65.5891 4.13318 44.8784 33.0457 -22.2155 51.9021 31.3446 25.4319 40.2824 32.791 -49.5597 65.1754 -28.447 -48.859 69.7929 -0 -80.0251 81.4094 -27.9151 -51.0583 54.7585 -50.9753 -52.7515 41.0312 -61.666 -85.8847 55.2614 -62.9209 -52.7515 41.978 61.666 -85.8847 58.9438 61.8682 -51.0583 56.1789 50.9753 -49.5597 66.1223 28.447 -80.0251 83.4968 25.7325 38.6731 -19.9771 -29.8672 38.4883 -19.9524 3.59336e-007 45.28 -13.9625 -26.7821 38.9491 -16.5506 -52.2798 38.6731 -19.9771 29.8672 38.9491 -16.5506 52.2798 45.28 -13.9625 26.5549 39.0384 -6.17223 -59.7836 45.7366 -4.64408 -47.1035 38.9148 6.44223 -59.7807 39.0384 -6.17223 59.7836 38.9123 6.66904 59.7802 45.7366 -4.64408 46.8763 38.5527 16.5768 -59.6735 44.8704 14.7292 -46.9217 38.0829 24.9895 -52.098 38.5426 17.4841 59.6714 38.0677 26.3504 52.1282 44.8552 15.4575 46.7246 37.6363 32.4381 -29.6905 43.7248 24.342 -26.5172 37.4162 36.1482 0.0992145 37.6261 33.3454 29.8214 43.7096 25.0703 26.4864 46.6761 16.46 25.1351 47.6419 6.93066 24.9669 46.4662 17.6182 -0.582365 46.6862 16.0588 -25.913 47.6444 6.83035 -26.2973 47.7231 -4.10169 -26.0896 47.5383 -4.07694 -0.681579 47.7231 -4.10169 25.1808 -177.484 34.6718 116.565 -185.859 -4.79917 95.7499 -188.077 34.7953 126.339 -168.132 76.5657 119.951 -176.87 37.3343 103.916 -258.249 52.9231 115.516 -248.843 95.2283 116.368 -248.725 48.1507 125.746 -266.791 11.4161 96.7153 -257.048 56.4112 96.5198 -160.611 111.414 103.772 -170.159 119.426 111.202 -154.754 137.132 72.362 -161.338 103.804 93.2952 -241.415 128.701 97.9289 -235.717 151.941 65.0263 -230.818 132.075 106.805 -242.57 118.737 82.1802 -150.394 151.635 30.0574 -159.532 162.867 30.7526 -148.861 152.402 -16.2965 -151.706 138.941 27.973 -231.504 163.546 22.4865 -230.074 161.393 -23.1305 -220.448 171.208 25.1435 -233.852 147.525 18.7263 -151.482 136.915 -59.8545 -160.935 146.255 -65.5033 -156.241 110.079 -95.4492 -152.406 125.763 -53.3724 -232.728 143.355 -65.2646 -237.466 114.603 -99.5589 -221.937 150.46 -69.2464 -234.729 130.127 -56.1058 -161.12 76.8007 -117.913 -170.852 79.8756 -128.087 -167.011 39.5217 -123.121 -161.665 73.275 -105.397 -242.288 80.3054 -121.656 -248.121 42.7113 -126.687 -231.772 82.0625 -130.71 -243.261 77.3701 -103.446 -174.809 0.685476 -106.947 -184.696 -4.44778 -115.86 -182.569 -30.9112 -74.8028 -175.148 7.62439 -96.0114 -255.894 4.07042 -109.784 -263.699 -26.607 -76.4435 -245.577 -2.50677 -118.133 -255.561 14.9443 -93.2178 -188.348 -46.4715 -32.0969 -198.786 -55.8454 -33.9806 -191.267 -46.7195 14.8313 -188.014 -33.7474 -29.7105 -269.627 -40.3105 -32.1617 -272.623 -37.7569 16.0811 -259.815 -52.1411 -34.0935 -267.677 -21.3061 -28.0934 -190.445 -32.3791 59.6428 -201.457 -39.5401 65.1857 -189.363 -21.3885 52.8692 -271.63 -19.6626 61.3052 -262.428 -30.748 66.6605 -268.979 -3.8077 50.8503 -218.579 40.6982 129.377 -227.542 -5.2356 107.322 -208.466 88.6485 131.608 -200.314 127.648 111.721 -194.067 155.544 75.4438 -189.671 170.187 28.5067 -188.32 169.422 -21.9984 -191.213 151.098 -68.9799 -196.212 120.215 -107.496 -201.181 81.7744 -132.603 -207.129 38.8635 -138.622 -215.065 -5.42901 -119.873 -223.115 -40.9453 -83.0061 -229.405 -57.5274 -34.6729 -232.82 -56.2493 17.9634 -232.244 -38.1851 67.7395 -123.217 74.7864 66.9144 -119.249 89.8747 50.0525 -128.174 55.4799 74.0302 -152.631 87.9272 74.8287 -134.654 32.7164 70.2634 -140.814 11.4856 56.2925 -165.62 39.1966 81.1691 -144.813 -3.22289 32.7963 -146.273 -10.1002 4.17348 -177 -4.39334 40.1756 -144.813 -7.83778 -25.1769 -140.814 2.96819 -50.7042 -176.835 -12.8521 -25.873 -134.654 21.7214 -67.8579 -128.174 43.3462 -75.1582 -165.41 19.0112 -76.5812 -123.217 62.7671 -71.1253 -119.249 79.8209 -56.822 -152.671 66.653 -82.6478 -115.738 94.3444 -33.311 -114.096 102.383 -4.78066 -144.286 105.271 -41.012 -115.738 99.9836 24.5806 -144.2 114.818 24.763 -176.304 39.7892 92.2516 -183.78 10.0603 75.7321 -168.269 71.0069 95.21 -255.019 60.0104 66.5894 -258.954 40.3529 47.4181 -249.442 81.8226 57.5472 -162.008 96.7877 83.6348 -157.047 115.931 59.818 -244.749 103.392 56.6467 -242.411 110.117 31.8705 -152.915 127.237 26.0509 -151.143 127.991 -11.6817 -238.51 123.469 12.0533 -239.217 114.676 -13.9038 -153.258 115.479 -47.3953 -157.515 94.5431 -76.3629 -239.08 111.118 -40.8409 -243.1 90.4492 -53.7061 -162.168 70.0241 -93.8572 -167.917 42.8684 -97.7536 -245.223 74.1238 -74.083 -249.262 54.5043 -66.8649 -175.462 14.0226 -85.9275 -182.744 -9.83213 -61.4795 -254.121 30.7568 -66.8231 -257.929 20.7031 -41.5121 -187.705 -22.0148 -27.5101 -189.771 -22.498 10.3883 -262.804 5.60157 -21.1043 -262.541 15.3026 5.99271 -188.366 -11.2542 46.6233 -263.605 17.938 34.4727</float_array>
                    <technique_common>
                        <accessor count="298" source="#ID5" stride="3">
                            <param name="X" type="float"/>
                            <param name="Y" type="float"/>
                            <param name="Z" type="float"/>
                        </accessor>
                    </technique_common>
                </source>
                <source id="ID6">
                    <float_array id="ID7" count="1050">-0.198389 -0.82956 -0.521989 -0.147891 -0.981888 -0.118425 -0.0187794 -0.996232 -0.0846682 -0.0297744 -0.985855 -0.164936 -0.120442 -0.99272 -9.32291e-010 -0.00767702 -0.999971 -0 0.178517 -0.983937 -0 0.183595 -0.980065 -0.0759246 0.187589 -0.970356 -0.152378 -0.057257 -0.00950036 -0.998314 -0.144934 -0.351342 -0.924961 -0.0442491 -0.316848 -0.947443 -0.0244824 -0.00515886 -0.999687 -0.0575912 -0.587322 -0.807301 0.250771 -0.551875 -0.795329 0.251061 -0.283414 -0.925551 0.22688 0.0107782 -0.973863 -0.147891 -0.981888 0.118425 -0.0187794 -0.996232 0.0846682 -0.198389 -0.829559 0.521989 -0.0297744 -0.985855 0.164936 0.187589 -0.970356 0.152378 0.183595 -0.980065 0.0759247 -0.144782 -0.350852 0.925171 -0.0442242 -0.316707 0.947492 -0.0575912 -0.587322 0.807302 -0.0575226 -0.0100675 0.998293 -0.0244895 -0.00519336 0.999687 0.226942 0.0104492 0.973852 0.251075 -0.283477 0.925528 0.250772 -0.551875 0.795329 -0.0754709 -0.798733 -0.596933 -0.0804792 -0.967001 -0.241727 -0.168864 -0.967224 -0.189637 -0.206227 -0.7984 -0.56571 -0.0775077 -0.996517 0.0307658 -0.141156 -0.989973 0.00537116 0.123707 -0.0425043 -0.991408 0.00153207 -0.450039 -0.893008 -0.126004 -0.383926 -0.914726 0.00803217 -0.00603106 -0.99995 -0.10092 -0.947939 0.302037 -0.175317 -0.963954 0.200142 -0.100782 -0.755563 0.647277 -0.213132 -0.790293 0.574467 -0.0139786 -0.389511 0.920916 -0.12865 -0.372419 0.919104 0.122908 0.0154669 0.992298 0.00781443 0.00275356 0.999966 0.3625 0.931869 -0.0146272 0.327466 0.908554 -0.259414 0.215796 0.945728 -0.24296 0.235391 0.971789 -0.0147596 0.21084 0.74851 -0.628713 0.140608 0.772853 -0.618811 0.335701 0.761258 -0.554788 0.359785 0.907603 -0.216361 0.36925 0.929227 -0.0138591 0.0395394 0.315118 -0.948229 0.0266055 0.29716 -0.954457 0.274612 0.31204 -0.909516 0.0357589 0.306467 0.951209 0.0249932 0.288199 0.957244 0.210026 0.748654 0.628814 0.141011 0.772429 0.619248 0.339309 0.758821 0.555931 0.274397 0.301664 0.913074 0.329968 0.913765 0.236969 0.217606 0.950905 0.220061 0.361412 0.911857 0.194672 0.444119 0.894933 -0.0430456 0.403753 0.848201 -0.342838 0.431218 0.85503 -0.288055 0.476358 0.879044 -0.0191298 0.329704 0.707645 -0.624928 0.313177 0.721936 -0.617032 0.237659 0.388105 -0.890446 0.146465 0.365852 -0.919076 0.257487 0.425631 0.86749 0.147472 0.365621 0.919007 0.363032 0.732312 0.576131 0.321831 0.725579 0.608243 0.42653 0.864332 0.266463 0.440398 0.860332 0.256669 0.858311 -0.513131 2.73585e-005 0.865343 -0.498639 -0.0504052 0.512713 -0.856133 -0.0645074 0.491496 -0.87088 4.62257e-006 0.87659 -0.437584 -0.200277 0.637817 -0.673959 -0.372785 0.878773 -0.434041 0.198412 0.866136 -0.497323 0.0497844 0.513133 -0.855892 0.0643663 0.639468 -0.6728 0.372049 0.952707 -0.147331 -0.265786 0.707446 -0.222373 -0.670873 0.958196 0.0452832 -0.282505 0.691565 0.0285144 -0.721751 0.960049 0.0432083 0.276477 0.954463 -0.143712 0.261435 0.71007 -0.220832 0.668606 0.694728 0.0272709 0.718756 0.93913 0.234187 -0.251379 0.717375 0.28505 -0.635704 0.873512 0.442834 -0.202177 0.694075 0.614843 -0.374471 0.883196 0.426593 0.194895 0.94407 0.220128 0.245511 0.721887 0.272219 0.63622 0.703442 0.605715 0.37186 0.885896 0.455198 -0.0893486 0.677803 0.718684 -0.155168 0.893808 0.44841 -0.00593332 0.683156 0.730194 -0.0106933 0.891497 0.446206 0.0783188 0.682027 0.718226 0.137805 0.976127 0.21103 0.0513991 0.997672 0.0518889 0.0442542 0.97746 0.211112 -0.00197163 0.998591 0.0530615 -0.000143049 0.973959 0.219541 -0.0566092 0.9975 0.0532911 -0.0464078 0.991342 -0.123291 -0.0451617 0.992536 -0.121954 5.91987e-005 0.991598 -0.121711 0.0438061 0.336576 -0.630541 0.699381 0.364131 -0.315178 0.876397 0.639585 -0.33066 0.693971 0.622219 -0.564672 0.542207 0.425728 0.0862911 0.900727 0.689306 -0.0121241 0.724369 0.975482 -0.216512 0.0394652 0.974661 -0.223688 -0.000252239 0.976295 -0.21644 0.00125098 0.977075 -0.209498 0.0378816 0.983525 -0.178601 -0.0279492 0.984723 -0.172557 -0.0233382 -0.416756 0.291677 0.860952 -0.478104 -0.107507 0.871699 -0.733539 -0.00348528 0.679639 -0.682151 0.309041 0.662695 -0.526192 -0.451814 0.720407 -0.77756 -0.280968 0.562546 -0.97758 0.20909 -0.0248827 -0.97417 0.223735 -0.030603 -0.975693 0.218001 -0.0223531 -0.980941 0.193944 -0.0118848 -0.975931 0.214646 -0.0385577 -0.976842 0.210636 -0.037567 0.483915 0.48127 0.730893 0.735642 0.313763 0.60032 0.51387 0.723843 0.460424 0.759456 0.520483 0.390287 0.987318 -0.144484 0.0657868 0.982004 -0.179095 0.0599393 0.982899 -0.175006 0.0572869 0.987921 -0.142141 0.0617158 -0.303768 0.869881 0.388629 -0.345198 0.658047 0.669188 -0.621439 0.593526 0.511411 -0.584253 0.758758 0.287982 -0.979646 0.196323 -0.041851 -0.98093 0.188909 -0.0457231 -0.980962 0.188264 -0.0476489 -0.98346 0.173621 -0.0515893 0.524577 0.834641 0.167911 0.770347 0.618614 0.154542 0.522495 0.838158 -0.156495 0.771495 0.625594 -0.115879 0.995226 -0.0973872 0.00639713 0.992177 -0.1132 0.0526417 0.99247 -0.112318 0.0488571 0.995203 -0.0977163 0.00464724 -0.303689 0.932435 -0.1958 -0.294421 0.950358 0.100677 -0.576036 0.815285 0.0591018 -0.584326 0.79373 -0.168982 -0.982109 0.182288 -0.0472466 -0.985964 0.159962 -0.0478226 -0.983621 0.177878 -0.0291294 -0.988133 0.152029 -0.0219046 0.503214 0.734437 -0.455388 0.756067 0.542751 -0.365766 0.484608 0.554596 -0.676445 0.741605 0.396217 -0.541326 0.99008 -0.135881 -0.0357399 0.993235 -0.110219 -0.0365489 0.993423 -0.108866 -0.0354776 0.990825 -0.131315 -0.0319731 -0.342742 0.652893 -0.675469 -0.321022 0.825807 -0.463668 -0.597704 0.708928 -0.374394 -0.616053 0.570707 -0.542929 -0.983375 0.181017 -0.0143329 -0.987557 0.15726 5.11895e-005 -0.984091 0.176314 -0.0218647 -0.987085 0.160013 -0.00769699 0.480633 0.252079 -0.839909 0.741201 0.146972 -0.654997 0.471845 -0.187814 -0.861446 0.733793 -0.202948 -0.648351 0.980967 -0.183809 0.0625947 0.986072 -0.16631 0.0014837 0.98766 -0.156581 0.00331744 0.983476 -0.170478 0.0609242 -0.406287 -0.055965 -0.91203 -0.370248 0.369575 -0.85225 -0.644897 0.344111 -0.682419 -0.68385 0.013006 -0.729506 -0.984558 0.17082 -0.0382772 -0.986323 0.162137 -0.0296418 -0.982219 0.179231 -0.0558709 -0.983527 0.171356 -0.0575408 0.442795 -0.564978 -0.696227 0.709124 -0.489926 -0.507065 0.417766 -0.801597 -0.427685 0.692427 -0.658597 -0.294609 0.987259 -0.0889839 0.131912 0.980771 -0.152377 0.121942 0.982815 -0.142871 0.116883 0.988248 -0.0856296 0.126624 -0.473773 -0.719303 -0.508077 -0.434976 -0.453094 -0.77814 -0.711385 -0.29944 -0.63582 -0.74535 -0.512484 -0.426396 -0.980632 0.181393 -0.0738708 -0.982459 0.16602 -0.0849267 -0.981481 0.17213 -0.0840634 -0.984955 0.144173 -0.095278 0.384999 -0.915543 -0.116431 0.667991 -0.741354 -0.0646741 0.354515 -0.920325 0.16529 0.643428 -0.753092 0.137305 0.9977 -0.0619649 0.0274894 0.994808 -0.050523 0.088346 0.994861 -0.0496354 0.0882457 0.997637 -0.061321 0.0309783 -0.532132 -0.831723 0.158343 -0.773539 -0.614735 -0.154069 -0.791313 -0.601323 0.110604 -0.983542 0.163743 -0.0763817 -0.988609 0.127098 -0.0806095 -0.984615 0.166128 -0.0541704 -0.990147 0.131359 -0.0485213 0.333223 -0.836161 0.435657 0.624043 -0.705162 0.336626 0.993532 -0.11218 -0.0175896 0.993976 -0.108839 -0.0129151 -0.542846 -0.704906 0.456536 -0.79586 -0.491918 0.353021 -0.98229 0.184327 -0.0336204 -0.987267 0.157688 -0.0209506 -0.060332 -0.233797 0.970412 -0.100791 -0.602216 0.791945 0.0052669 0.210031 0.97768 0.074191 0.628715 0.774089 0.111106 0.876505 0.468395 0.120306 0.981551 0.148606 0.112794 0.974742 -0.192756 0.091989 0.858655 -0.504231 0.0697236 0.665103 -0.74349 0.0548061 0.344632 -0.937137 0.0375179 -0.135873 -0.990016 0.0102918 -0.568337 -0.822732 -0.0244426 -0.851679 -0.523494 -0.17643 -0.971683 -0.157179 -0.0609642 -0.985666 -0.157309 -0.0919664 -0.978997 0.181955 -0.110808 -0.859428 0.499104 0.360618 0.454342 0.814572 0.409795 0.739736 0.533722 0.259561 0.0224739 0.965465 0.542729 -0.0259729 0.839506 0.615976 0.360352 0.700514 0.645889 0.610762 0.458035 0.150317 -0.394861 0.90636 0.0738327 -0.728055 0.681531 0.407191 -0.678996 0.610868 0.460027 -0.397225 0.794095 0.0427984 -0.926504 0.373843 0.0502449 -0.995755 0.077125 0.388505 -0.914704 0.111267 0.381024 -0.851165 0.361023 0.0720843 -0.972039 -0.223482 0.114077 -0.824913 -0.553628 0.458176 -0.787039 -0.413092 0.416043 -0.898267 -0.141505 0.181132 -0.534051 -0.825821 0.265227 -0.122999 -0.956308 0.564564 -0.216685 -0.796439 0.505692 -0.565513 -0.651514 0.328195 0.347163 -0.878502 0.360731 0.669556 -0.649282 0.613812 0.511412 -0.601409 0.601788 0.209415 -0.770712 0.393541 0.82913 -0.397075 0.420877 0.903134 -0.0849186 0.650439 0.7527 -0.101844 0.63159 0.67102 -0.388362 0.423526 0.872751 0.242757 0.651915 0.731013 0.20156 0.97297 -0.230924 -0.00175571 0.982268 -0.184633 -0.0325587 0.973836 -0.223514 0.0410467 0.656638 -0.381739 0.650463 0.721345 -0.0761365 0.688378 0.622178 -0.603116 0.499144 -0.973012 0.22675 -0.0427912 -0.972172 0.230763 -0.040372 -0.975623 0.213857 -0.0492546 -0.974711 0.219853 -0.0400263 0.981085 -0.183181 0.0625904 0.986693 -0.146825 0.0698564 0.779224 0.244878 0.576927 0.80497 0.454046 0.381923 -0.977951 0.205375 -0.0378463 -0.977324 0.207356 -0.0429067 0.991868 -0.114079 0.0564257 0.995245 -0.0970578 0.00814718 0.814266 0.555266 0.169264 0.816671 0.570092 -0.0896842 -0.977012 0.208018 -0.0466457 -0.977049 0.209445 -0.0388343 0.993044 -0.111572 -0.0376202 0.9893 -0.140442 -0.0395054 0.801844 0.495954 -0.333282 0.787317 0.354427 -0.504493 -0.977573 0.20828 -0.0311463 -0.979627 0.196867 -0.0396731 0.984385 -0.176026 -0.00035072 0.978274 -0.197106 0.0642535 0.777569 0.0971301 -0.62125 0.747979 -0.251485 -0.614234 -0.982136 0.181909 -0.0481403 -0.979912 0.191902 -0.054284 0.978608 -0.161868 0.126988 0.986231 -0.0923354 0.137197 0.704008 -0.523355 -0.480075 0.673283 -0.682245 -0.285012 -0.977879 0.200009 -0.0612352 -0.97607 0.20645 -0.0683132 0.994753 -0.0514107 0.0884463 0.99775 -0.062608 0.0239997 0.644501 -0.760659 -0.0775583 0.621068 -0.775815 0.111295 -0.975842 0.206541 -0.0712253 -0.975518 0.211501 -0.0602741 0.993056 -0.115518 -0.0222641 0.609722 -0.733088 0.301366 -0.975285 0.215634 -0.0481759</float_array>
                    <technique_common>
                        <accessor count="350" source="#ID7" stride="3">
                            <param name="X" type="float"/>
                            <param name="Y" type="float"/>
                            <param name="Z" type="float"/>
                        </accessor>
                    </technique_common>
                </source>
                <source id="ID8">
                    <float_array id="ID9" count="2">0 1</float_array>
                    <technique_common>
                        <accessor count="1" source="#ID9" stride="2">
                            <param name="S" type="float"/>
                            <param name="T" type="float"/>
                        </accessor>
                    </technique_common>
                </source>
                <vertices id="ID10">
                    <input semantic="POSITION" source="#ID4"/>
                </vertices>
                <triangles count="592" material="">
                    <input offset="0" semantic="VERTEX" source="#ID10"/>
                    <input offset="1" semantic="NORMAL" source="#ID6"/>
                    <input offset="2" semantic="TEXCOORD" source="#ID8" set="0"/>
                    <p>74 2 0 76 1 0 11 0 0 75 3 0 74 2 0 11 0 0 74 2 0 77 5 0 14 4 0 76 1 0 74 2 0 14 4 0 74 2 0 78 7 0 6 6 0 77 5 0 74 2 0 6 6 0 74 2 0 75 3 0 3 8 0 78 7 0 74 2 0 3 8 0 79 11 0 81 10 0 12 9 0 80 12 0 79 11 0 12 9 0 79 11 0 75 13 0 11 0 0 81 10 0 79 11 0 11 0 0 79 11 0 82 15 0 3 14 0 75 13 0 79 11 0 3 14 0 79 11 0 80 12 0 4 16 0 82 15 0 79 11 0 4 16 0 83 18 0 84 17 0 14 4 0 77 5 0 83 18 0 14 4 0 83 18 0 85 20 0 8 19 0 84 17 0 83 18 0 8 19 0 83 18 0 86 22 0 0 21 0 85 20 0 83 18 0 0 21 0 83 18 0 77 5 0 6 6 0 86 22 0 83 18 0 6 6 0 87 24 0 88 23 0 8 19 0 85 25 0 87 24 0 8 19 0 87 24 0 89 27 0 9 26 0 88 23 0 87 24 0 9 26 0 87 24 0 90 29 0 1 28 0 89 27 0 87 24 0 1 28 0 87 24 0 85 25 0 0 30 0 90 29 0 87 24 0 0 30 0 91 33 0 93 32 0 19 31 0 92 34 0 91 33 0 19 31 0 91 33 0 94 36 0 22 35 0 93 32 0 91 33 0 22 35 0 91 33 0 76 1 0 14 4 0 94 36 0 91 33 0 14 4 0 91 33 0 92 34 0 11 0 0 76 1 0 91 33 0 11 0 0 95 39 0 97 38 0 20 37 0 96 40 0 95 39 0 20 37 0 95 39 0 92 34 0 19 31 0 97 38 0 95 39 0 19 31 0 95 39 0 81 10 0 11 0 0 92 34 0 95 39 0 11 0 0 95 39 0 96 40 0 12 9 0 81 10 0 95 39 0 12 9 0 98 42 0 99 41 0 22 35 0 94 36 0 98 42 0 22 35 0 98 42 0 100 44 0 16 43 0 99 41 0 98 42 0 16 43 0 98 42 0 84 17 0 8 19 0 100 44 0 98 42 0 8 19 0 98 42 0 94 36 0 14 4 0 84 17 0 98 42 0 14 4 0 101 46 0 102 45 0 16 43 0 100 44 0 101 46 0 16 43 0 101 46 0 103 48 0 17 47 0 102 45 0 101 46 0 17 47 0 101 46 0 88 23 0 9 26 0 103 48 0 101 46 0 9 26 0 101 46 0 100 44 0 8 19 0 88 23 0 101 46 0 8 19 0 104 51 0 106 50 0 15 49 0 105 52 0 104 51 0 15 49 0 104 51 0 107 54 0 13 53 0 106 50 0 104 51 0 13 53 0 104 51 0 108 56 0 5 55 0 107 54 0 104 51 0 5 55 0 104 51 0 105 52 0 7 57 0 108 56 0 104 51 0 7 57 0 109 59 0 110 58 0 13 53 0 107 54 0 109 59 0 13 53 0 109 59 0 80 12 0 12 9 0 110 58 0 109 59 0 12 9 0 109 59 0 111 60 0 4 16 0 80 12 0 109 59 0 4 16 0 109 59 0 107 54 0 5 55 0 111 60 0 109 59 0 5 55 0 112 62 0 113 61 0 9 26 0 89 27 0 112 62 0 9 26 0 112 62 0 114 64 0 10 63 0 113 61 0 112 62 0 10 63 0 112 62 0 115 66 0 2 65 0 114 64 0 112 62 0 2 65 0 112 62 0 89 27 0 1 28 0 115 66 0 112 62 0 1 28 0 116 68 0 117 67 0 10 63 0 114 64 0 116 68 0 10 63 0 116 68 0 105 52 0 15 49 0 117 67 0 116 68 0 15 49 0 116 68 0 118 69 0 7 57 0 105 52 0 116 68 0 7 57 0 116 68 0 114 64 0 2 65 0 118 69 0 116 68 0 2 65 0 119 72 0 121 71 0 23 70 0 120 73 0 119 72 0 23 70 0 119 72 0 122 75 0 21 74 0 121 71 0 119 72 0 21 74 0 119 72 0 106 50 0 13 53 0 122 75 0 119 72 0 13 53 0 119 72 0 120 73 0 15 49 0 106 50 0 119 72 0 15 49 0 123 77 0 124 76 0 21 74 0 122 75 0 123 77 0 21 74 0 123 77 0 96 40 0 20 37 0 124 76 0 123 77 0 20 37 0 123 77 0 110 58 0 12 9 0 96 40 0 123 77 0 12 9 0 123 77 0 122 75 0 13 53 0 110 58 0 123 77 0 13 53 0 125 79 0 126 78 0 17 47 0 103 48 0 125 79 0 17 47 0 125 79 0 127 81 0 18 80 0 126 78 0 125 79 0 18 80 0 125 79 0 113 61 0 10 63 0 127 81 0 125 79 0 10 63 0 125 79 0 103 48 0 9 26 0 113 61 0 125 79 0 9 26 0 128 83 0 129 82 0 18 80 0 127 81 0 128 83 0 18 80 0 128 83 0 120 73 0 23 70 0 129 82 0 128 83 0 23 70 0 128 83 0 117 67 0 15 49 0 120 73 0 128 83 0 15 49 0 128 83 0 127 81 0 10 63 0 117 67 0 128 83 0 10 63 0 130 86 0 132 85 0 24 84 0 131 87 0 130 86 0 24 84 0 130 86 0 133 89 0 25 88 0 132 85 0 130 86 0 25 88 0 130 86 0 78 7 0 3 8 0 133 89 0 130 86 0 3 8 0 130 86 0 131 87 0 6 6 0 78 7 0 130 86 0 6 6 0 134 92 0 136 91 0 26 90 0 135 93 0 134 92 0 26 90 0 134 92 0 131 87 0 24 84 0 136 91 0 134 92 0 24 84 0 134 92 0 86 22 0 6 6 0 131 87 0 134 92 0 6 6 0 134 92 0 135 93 0 0 21 0 86 22 0 134 92 0 0 21 0 137 95 0 138 94 0 25 88 0 133 89 0 137 95 0 25 88 0 137 95 0 139 97 0 27 96 0 138 94 0 137 95 0 27 96 0 137 95 0 82 15 0 4 16 0 139 97 0 137 95 0 4 16 0 137 95 0 133 89 0 3 14 0 82 15 0 137 95 0 3 14 0 140 100 0 142 99 0 28 98 0 141 101 0 140 100 0 28 98 0 140 100 0 135 93 0 26 90 0 142 99 0 140 100 0 26 90 0 140 100 0 90 29 0 0 30 0 135 93 0 140 100 0 0 30 0 140 100 0 141 101 0 1 28 0 90 29 0 140 100 0 1 28 0 143 103 0 144 102 0 27 96 0 139 97 0 143 103 0 27 96 0 143 103 0 145 105 0 29 104 0 144 102 0 143 103 0 29 104 0 143 103 0 111 60 0 5 55 0 145 105 0 143 103 0 5 55 0 143 103 0 139 97 0 4 16 0 111 60 0 143 103 0 4 16 0 146 108 0 148 107 0 30 106 0 147 109 0 146 108 0 30 106 0 146 108 0 141 101 0 28 98 0 148 107 0 146 108 0 28 98 0 146 108 0 115 66 0 1 28 0 141 101 0 146 108 0 1 28 0 146 108 0 147 109 0 2 65 0 115 66 0 146 108 0 2 65 0 149 111 0 150 110 0 29 104 0 145 105 0 149 111 0 29 104 0 149 111 0 151 113 0 31 112 0 150 110 0 149 111 0 31 112 0 149 111 0 108 56 0 7 57 0 151 113 0 149 111 0 7 57 0 149 111 0 145 105 0 5 55 0 108 56 0 149 111 0 5 55 0 152 115 0 153 114 0 31 112 0 151 113 0 152 115 0 31 112 0 152 115 0 147 109 0 30 106 0 153 114 0 152 115 0 30 106 0 152 115 0 118 69 0 2 65 0 147 109 0 152 115 0 2 65 0 152 115 0 151 113 0 7 57 0 118 69 0 152 115 0 7 57 0 154 116 0 148 107 0 28 98 0 155 117 0 154 116 0 28 98 0 154 116 0 153 114 0 30 106 0 148 107 0 154 116 0 30 106 0 154 116 0 156 118 0 31 112 0 153 114 0 154 116 0 31 112 0 154 116 0 155 117 0 32 119 0 156 118 0 154 116 0 32 119 0 157 120 0 144 102 0 29 104 0 150 110 0 157 120 0 29 104 0 157 120 0 158 121 0 27 96 0 144 102 0 157 120 0 27 96 0 157 120 0 156 118 0 32 119 0 158 121 0 157 120 0 32 119 0 157 120 0 150 110 0 31 112 0 156 118 0 157 120 0 31 112 0 159 122 0 132 85 0 25 88 0 138 94 0 159 122 0 25 88 0 159 122 0 160 123 0 24 84 0 132 85 0 159 122 0 24 84 0 159 122 0 158 121 0 32 119 0 160 123 0 159 122 0 32 119 0 159 122 0 138 94 0 27 96 0 158 121 0 159 122 0 27 96 0 161 124 0 142 99 0 26 90 0 136 91 0 161 124 0 26 90 0 161 124 0 155 117 0 28 98 0 142 99 0 161 124 0 28 98 0 161 124 0 160 123 0 32 119 0 155 117 0 161 124 0 32 119 0 161 124 0 136 91 0 24 84 0 160 123 0 161 124 0 24 84 0 162 127 0 164 126 0 44 125 0 163 128 0 162 127 0 44 125 0 162 127 0 165 130 0 43 129 0 164 126 0 162 127 0 43 129 0 162 133 0 166 132 0 67 131 0 165 134 0 162 133 0 67 131 0 162 133 0 163 136 0 68 135 0 166 132 0 162 133 0 68 135 0 167 139 0 169 138 0 34 137 0 168 140 0 167 139 0 34 137 0 167 139 0 170 142 0 33 141 0 169 138 0 167 139 0 33 141 0 167 145 0 171 144 0 58 143 0 170 146 0 167 145 0 58 143 0 167 145 0 168 148 0 59 147 0 171 144 0 167 145 0 59 147 0 172 150 0 173 149 0 43 129 0 165 130 0 172 150 0 43 129 0 172 150 0 174 152 0 42 151 0 173 149 0 172 150 0 42 151 0 172 155 0 175 154 0 66 153 0 174 156 0 172 155 0 66 153 0 172 155 0 165 134 0 67 131 0 175 154 0 172 155 0 67 131 0 176 159 0 178 158 0 35 157 0 177 160 0 176 159 0 35 157 0 176 159 0 168 140 0 34 137 0 178 158 0 176 159 0 34 137 0 176 162 0 179 161 0 59 147 0 168 148 0 176 162 0 59 147 0 176 162 0 177 164 0 60 163 0 179 161 0 176 162 0 60 163 0 180 166 0 181 165 0 42 151 0 174 152 0 180 166 0 42 151 0 180 166 0 182 168 0 49 167 0 181 165 0 180 166 0 49 167 0 180 171 0 183 170 0 73 169 0 182 172 0 180 171 0 73 169 0 180 171 0 174 156 0 66 153 0 183 170 0 180 171 0 66 153 0 184 175 0 186 174 0 41 173 0 185 176 0 184 175 0 41 173 0 184 175 0 177 160 0 35 157 0 186 174 0 184 175 0 35 157 0 184 178 0 187 177 0 60 163 0 177 164 0 184 178 0 60 163 0 184 178 0 185 180 0 65 179 0 187 177 0 184 178 0 65 179 0 188 182 0 189 181 0 49 167 0 182 168 0 188 182 0 49 167 0 188 182 0 190 184 0 48 183 0 189 181 0 188 182 0 48 183 0 188 187 0 191 186 0 72 185 0 190 188 0 188 187 0 72 185 0 188 187 0 182 172 0 73 169 0 191 186 0 188 187 0 73 169 0 192 191 0 194 190 0 39 189 0 193 192 0 192 191 0 39 189 0 192 191 0 185 176 0 41 173 0 194 190 0 192 191 0 41 173 0 192 194 0 195 193 0 65 179 0 185 180 0 192 194 0 65 179 0 192 194 0 193 196 0 63 195 0 195 193 0 192 194 0 63 195 0 196 198 0 197 197 0 48 183 0 190 184 0 196 198 0 48 183 0 196 198 0 198 200 0 47 199 0 197 197 0 196 198 0 47 199 0 196 203 0 199 202 0 71 201 0 198 204 0 196 203 0 71 201 0 196 203 0 190 188 0 72 185 0 199 202 0 196 203 0 72 185 0 200 207 0 202 206 0 38 205 0 201 208 0 200 207 0 38 205 0 200 207 0 193 192 0 39 189 0 202 206 0 200 207 0 39 189 0 200 210 0 203 209 0 63 195 0 193 196 0 200 210 0 63 195 0 200 210 0 201 212 0 62 211 0 203 209 0 200 210 0 62 211 0 204 214 0 205 213 0 47 199 0 198 200 0 204 214 0 47 199 0 204 214 0 206 216 0 46 215 0 205 213 0 204 214 0 46 215 0 204 219 0 207 218 0 70 217 0 206 220 0 204 219 0 70 217 0 204 219 0 198 204 0 71 201 0 207 218 0 204 219 0 71 201 0 208 223 0 210 222 0 36 221 0 209 224 0 208 223 0 36 221 0 208 223 0 201 208 0 38 205 0 210 222 0 208 223 0 38 205 0 208 226 0 211 225 0 62 211 0 201 212 0 208 226 0 62 211 0 208 226 0 209 228 0 61 227 0 211 225 0 208 226 0 61 227 0 212 230 0 213 229 0 46 215 0 206 216 0 212 230 0 46 215 0 212 230 0 214 232 0 45 231 0 213 229 0 212 230 0 45 231 0 212 235 0 215 234 0 69 233 0 214 236 0 212 235 0 69 233 0 212 235 0 206 220 0 70 217 0 215 234 0 212 235 0 70 217 0 216 238 0 218 238 0 40 237 0 217 239 0 216 238 0 40 237 0 216 238 0 209 224 0 36 221 0 218 238 0 216 238 0 36 221 0 216 241 0 219 240 0 61 227 0 209 228 0 216 241 0 61 227 0 216 241 0 217 243 0 64 242 0 219 240 0 216 241 0 64 242 0 220 245 0 221 244 0 45 231 0 214 232 0 220 245 0 45 231 0 220 245 0 163 128 0 44 125 0 221 244 0 220 245 0 44 125 0 220 247 0 222 246 0 68 135 0 163 136 0 220 247 0 68 135 0 220 247 0 214 236 0 69 233 0 222 246 0 220 247 0 69 233 0 223 249 0 224 248 0 33 141 0 170 142 0 223 249 0 33 141 0 223 249 0 217 239 0 40 237 0 224 248 0 223 249 0 40 237 0 223 251 0 225 250 0 64 242 0 217 243 0 223 251 0 64 242 0 223 251 0 170 146 0 58 143 0 225 250 0 223 251 0 58 143 0 226 252 0 169 138 0 33 141 0 227 253 0 226 252 0 33 141 0 226 252 0 228 254 0 34 137 0 169 138 0 226 252 0 34 137 0 226 252 0 164 126 0 43 129 0 228 254 0 226 252 0 43 129 0 226 252 0 227 253 0 44 125 0 164 126 0 226 252 0 44 125 0 229 255 0 178 158 0 34 137 0 228 254 0 229 255 0 34 137 0 229 255 0 230 256 0 35 157 0 178 158 0 229 255 0 35 157 0 229 255 0 173 149 0 42 151 0 230 256 0 229 255 0 42 151 0 229 255 0 228 254 0 43 129 0 173 149 0 229 255 0 43 129 0 231 257 0 186 174 0 35 157 0 230 256 0 231 257 0 35 157 0 231 257 0 232 258 0 41 173 0 186 174 0 231 257 0 41 173 0 231 257 0 181 165 0 49 167 0 232 258 0 231 257 0 49 167 0 231 257 0 230 256 0 42 151 0 181 165 0 231 257 0 42 151 0 233 259 0 194 190 0 41 173 0 232 258 0 233 259 0 41 173 0 233 259 0 234 260 0 39 189 0 194 190 0 233 259 0 39 189 0 233 259 0 189 181 0 48 183 0 234 260 0 233 259 0 48 183 0 233 259 0 232 258 0 49 167 0 189 181 0 233 259 0 49 167 0 235 261 0 202 206 0 39 189 0 234 260 0 235 261 0 39 189 0 235 261 0 236 262 0 38 205 0 202 206 0 235 261 0 38 205 0 235 261 0 197 197 0 47 199 0 236 262 0 235 261 0 47 199 0 235 261 0 234 260 0 48 183 0 197 197 0 235 261 0 48 183 0 237 263 0 210 222 0 38 205 0 236 262 0 237 263 0 38 205 0 237 263 0 238 264 0 36 221 0 210 222 0 237 263 0 36 221 0 237 263 0 205 213 0 46 215 0 238 264 0 237 263 0 46 215 0 237 263 0 236 262 0 47 199 0 205 213 0 237 263 0 47 199 0 239 266 0 218 265 0 36 221 0 238 264 0 239 266 0 36 221 0 239 266 0 240 267 0 40 237 0 218 265 0 239 266 0 40 237 0 239 266 0 213 229 0 45 231 0 240 267 0 239 266 0 45 231 0 239 266 0 238 264 0 46 215 0 213 229 0 239 266 0 46 215 0 241 268 0 224 248 0 40 237 0 240 267 0 241 268 0 40 237 0 241 268 0 227 253 0 33 141 0 224 248 0 241 268 0 33 141 0 241 268 0 221 244 0 44 125 0 227 253 0 241 268 0 44 125 0 241 268 0 240 267 0 45 231 0 221 244 0 241 268 0 45 231 0 242 269 0 126 78 0 18 80 0 243 270 0 242 269 0 18 80 0 242 269 0 244 271 0 17 47 0 126 78 0 242 269 0 17 47 0 242 269 0 245 273 0 51 272 0 244 271 0 242 269 0 51 272 0 242 269 0 243 270 0 50 274 0 245 273 0 242 269 0 50 274 0 246 275 0 102 45 0 17 47 0 244 271 0 246 275 0 17 47 0 246 275 0 247 276 0 16 43 0 102 45 0 246 275 0 16 43 0 246 275 0 248 278 0 52 277 0 247 276 0 246 275 0 52 277 0 246 275 0 244 271 0 51 272 0 248 278 0 246 275 0 51 272 0 249 279 0 99 41 0 16 43 0 247 276 0 249 279 0 16 43 0 249 279 0 250 280 0 22 35 0 99 41 0 249 279 0 22 35 0 249 279 0 251 282 0 53 281 0 250 280 0 249 279 0 53 281 0 249 279 0 247 276 0 52 277 0 251 282 0 249 279 0 52 277 0 252 283 0 93 32 0 22 35 0 250 280 0 252 283 0 22 35 0 252 283 0 253 284 0 19 31 0 93 32 0 252 283 0 19 31 0 252 283 0 254 286 0 54 285 0 253 284 0 252 283 0 54 285 0 252 283 0 250 280 0 53 281 0 254 286 0 252 283 0 53 281 0 255 287 0 97 38 0 19 31 0 253 284 0 255 287 0 19 31 0 255 287 0 256 288 0 20 37 0 97 38 0 255 287 0 20 37 0 255 287 0 257 290 0 55 289 0 256 288 0 255 287 0 55 289 0 255 287 0 253 284 0 54 285 0 257 290 0 255 287 0 54 285 0 258 291 0 124 76 0 20 37 0 256 288 0 258 291 0 20 37 0 258 291 0 259 292 0 21 74 0 124 76 0 258 291 0 21 74 0 258 291 0 260 294 0 56 293 0 259 292 0 258 291 0 56 293 0 258 291 0 256 288 0 55 289 0 260 294 0 258 291 0 55 289 0 261 295 0 121 71 0 21 74 0 259 292 0 261 295 0 21 74 0 261 295 0 262 296 0 23 70 0 121 71 0 261 295 0 23 70 0 261 295 0 263 298 0 57 297 0 262 296 0 261 295 0 57 297 0 261 295 0 259 292 0 56 293 0 263 298 0 261 295 0 56 293 0 264 299 0 129 82 0 23 70 0 262 296 0 264 299 0 23 70 0 264 299 0 243 270 0 18 80 0 129 82 0 264 299 0 18 80 0 264 299 0 265 300 0 50 274 0 243 270 0 264 299 0 50 274 0 264 299 0 262 296 0 57 297 0 265 300 0 264 299 0 57 297 0 266 301 0 166 132 0 68 135 0 267 302 0 266 301 0 68 135 0 266 301 0 268 303 0 67 131 0 166 132 0 266 301 0 67 131 0 266 304 0 248 278 0 51 272 0 268 305 0 266 304 0 51 272 0 266 304 0 267 306 0 52 277 0 248 278 0 266 304 0 52 277 0 269 308 0 270 307 0 58 143 0 171 144 0 269 308 0 58 143 0 269 308 0 271 310 0 37 309 0 270 307 0 269 308 0 37 309 0 269 308 0 171 144 0 59 147 0 271 310 0 269 308 0 59 147 0 272 311 0 175 154 0 67 131 0 268 303 0 272 311 0 67 131 0 272 311 0 273 312 0 66 153 0 175 154 0 272 311 0 66 153 0 272 313 0 245 273 0 50 274 0 273 314 0 272 313 0 50 274 0 272 313 0 268 305 0 51 272 0 245 273 0 272 313 0 51 272 0 274 315 0 271 310 0 59 147 0 179 161 0 274 315 0 59 147 0 274 315 0 275 316 0 37 309 0 271 310 0 274 315 0 37 309 0 274 315 0 179 161 0 60 163 0 275 316 0 274 315 0 60 163 0 276 317 0 183 170 0 66 153 0 273 312 0 276 317 0 66 153 0 276 317 0 277 318 0 73 169 0 183 170 0 276 317 0 73 169 0 276 319 0 265 300 0 57 297 0 277 320 0 276 319 0 57 297 0 276 319 0 273 314 0 50 274 0 265 300 0 276 319 0 50 274 0 278 321 0 275 316 0 60 163 0 187 177 0 278 321 0 60 163 0 278 321 0 279 322 0 37 309 0 275 316 0 278 321 0 37 309 0 278 321 0 187 177 0 65 179 0 279 322 0 278 321 0 65 179 0 280 323 0 191 186 0 73 169 0 277 318 0 280 323 0 73 169 0 280 323 0 281 324 0 72 185 0 191 186 0 280 323 0 72 185 0 280 325 0 263 298 0 56 293 0 281 326 0 280 325 0 56 293 0 280 325 0 277 320 0 57 297 0 263 298 0 280 325 0 57 297 0 282 327 0 279 322 0 65 179 0 195 193 0 282 327 0 65 179 0 282 327 0 283 328 0 37 309 0 279 322 0 282 327 0 37 309 0 282 327 0 195 193 0 63 195 0 283 328 0 282 327 0 63 195 0 284 329 0 199 202 0 72 185 0 281 324 0 284 329 0 72 185 0 284 329 0 285 330 0 71 201 0 199 202 0 284 329 0 71 201 0 284 331 0 260 294 0 55 289 0 285 332 0 284 331 0 55 289 0 284 331 0 281 326 0 56 293 0 260 294 0 284 331 0 56 293 0 286 333 0 283 328 0 63 195 0 203 209 0 286 333 0 63 195 0 286 333 0 287 334 0 37 309 0 283 328 0 286 333 0 37 309 0 286 333 0 203 209 0 62 211 0 287 334 0 286 333 0 62 211 0 288 335 0 207 218 0 71 201 0 285 330 0 288 335 0 71 201 0 288 335 0 289 336 0 70 217 0 207 218 0 288 335 0 70 217 0 288 337 0 257 290 0 54 285 0 289 338 0 288 337 0 54 285 0 288 337 0 285 332 0 55 289 0 257 290 0 288 337 0 55 289 0 290 339 0 287 334 0 62 211 0 211 225 0 290 339 0 62 211 0 290 339 0 291 340 0 37 309 0 287 334 0 290 339 0 37 309 0 290 339 0 211 225 0 61 227 0 291 340 0 290 339 0 61 227 0 292 341 0 215 234 0 70 217 0 289 336 0 292 341 0 70 217 0 292 341 0 293 342 0 69 233 0 215 234 0 292 341 0 69 233 0 292 343 0 254 286 0 53 281 0 293 344 0 292 343 0 53 281 0 292 343 0 289 338 0 54 285 0 254 286 0 292 343 0 54 285 0 294 345 0 291 340 0 61 227 0 219 240 0 294 345 0 61 227 0 294 345 0 295 346 0 37 309 0 291 340 0 294 345 0 37 309 0 294 345 0 219 240 0 64 242 0 295 346 0 294 345 0 64 242 0 296 347 0 222 246 0 69 233 0 293 342 0 296 347 0 69 233 0 296 347 0 267 302 0 68 135 0 222 246 0 296 347 0 68 135 0 296 348 0 251 282 0 52 277 0 267 306 0 296 348 0 52 277 0 296 348 0 293 344 0 53 281 0 251 282 0 296 348 0 53 281 0 297 349 0 295 346 0 64 242 0 225 250 0 297 349 0 64 242 0 297 349 0 270 307 0 37 309 0 295 346 0 297 349 0 37 309 0 297 349 0 225 250 0 58 143 0 270 307 0 297 349 0 58 143 0</p>
                </triangles>
            </mesh>
        </geometry>
    </library_geometries>
    <library_visual_scenes>
        <visual_scene id="ID1">
            <node id="ID2" name="collision_arm.1">
                <translate sid="translate">0 0 -0</translate>
                <rotate sid="rotateY">0 1 0 -0</rotate>
                <rotate sid="rotateX">1 0 0 0</rotate>
                <rotate sid="rotateZ">0 0 1 -0</rotate>
                <scale sid="scale">1 1 1</scale>
                <instance_geometry url="#ID3"/>
            </node>
        </visual_scene>
    </library_visual_scenes>
    <scene>
        <instance_visual_scene url="#ID1"/>
    </scene>
</COLLADA>
